<?xml version='1.0'?>
<osm version='0.5' generator='shp2osm.pl'>
  <node id='-1' visible='true' lat='41.7631726' lon='19.6323644' />
  <node id='-2' visible='true' lat='41.7605477' lon='19.6297552' />
  <node id='-3' visible='true' lat='41.7591391' lon='19.6270085' />
  <node id='-4' visible='true' lat='41.7578586' lon='19.6213437' />
  <node id='-5' visible='true' lat='41.7574745' lon='19.6165373' />
  <node id='-6' visible='true' lat='41.7568343' lon='19.6122456' />
  <node id='-7' visible='true' lat='41.7545974' lon='19.6095685' />
  <node id='-8' visible='true' lat='41.7532485' lon='19.6079541' />
  <node id='-9' visible='true' lat='41.7526082' lon='19.6022894' />
  <node id='-10' visible='true' lat='41.7526082' lon='19.5964528' />
  <node id='-11' visible='true' lat='41.7527363' lon='19.5952511' />
  <node id='-12' visible='true' lat='41.7523521' lon='19.5952511' />
  <node id='-13' visible='true' lat='41.7517118' lon='19.5859814' />
  <node id='-14' visible='true' lat='41.7500469' lon='19.5763685' />
  <way id='-15' visible='true'>
    <nd ref='-1' />
    <nd ref='-2' />
    <nd ref='-3' />
    <nd ref='-4' />
    <nd ref='-5' />
    <nd ref='-6' />
    <nd ref='-7' />
    <nd ref='-8' />
    <nd ref='-9' />
    <nd ref='-10' />
    <nd ref='-11' />
    <nd ref='-12' />
    <nd ref='-13' />
    <nd ref='-14' />
    <tag k="OSM_ID" v="41494389"/>
  </way>
  <node id='-16' visible='true' lat='41.7532485' lon='19.6079541' />
  <node id='-17' visible='true' lat='41.7491504' lon='19.6038342' />
  <node id='-18' visible='true' lat='41.7468451' lon='19.600401' />
  <node id='-19' visible='true' lat='41.7459485' lon='19.5947363' />
  <node id='-20' visible='true' lat='41.7458205' lon='19.5873547' />
  <node id='-21' visible='true' lat='41.7464609' lon='19.5871831' />
  <node id='-22' visible='true' lat='41.7454363' lon='19.5823765' />
  <node id='-23' visible='true' lat='41.7351892' lon='19.581175' />
  <node id='-24' visible='true' lat='41.7327553' lon='19.5816899' />
  <way id='-25' visible='true'>
    <nd ref='-16' />
    <nd ref='-17' />
    <nd ref='-18' />
    <nd ref='-19' />
    <nd ref='-20' />
    <nd ref='-21' />
    <nd ref='-22' />
    <nd ref='-23' />
    <nd ref='-24' />
    <tag k="OSM_ID" v="41494392"/>
  </way>
  <node id='-26' visible='true' lat='41.8092674' lon='19.6006205' />
  <node id='-27' visible='true' lat='41.8067187' lon='19.5994473' />
  <node id='-28' visible='true' lat='41.802613' lon='19.6007993' />
  <node id='-29' visible='true' lat='41.7916379' lon='19.6030025' />
  <node id='-30' visible='true' lat='41.7862216' lon='19.6034861' />
  <node id='-31' visible='true' lat='41.7854953' lon='19.6027939' />
  <node id='-32' visible='true' lat='41.7840997' lon='19.6028708' />
  <node id='-33' visible='true' lat='41.7813469' lon='19.60405' />
  <node id='-34' visible='true' lat='41.7801041' lon='19.6036655' />
  <way id='-35' visible='true'>
    <nd ref='-26' />
    <nd ref='-27' />
    <nd ref='-28' />
    <nd ref='-29' />
    <nd ref='-30' />
    <nd ref='-31' />
    <nd ref='-32' />
    <nd ref='-33' />
    <nd ref='-34' />
    <tag k="OSM_ID" v="41222127"/>
  </way>
  <node id='-36' visible='true' lat='41.7545974' lon='19.6095685' />
  <node id='-37' visible='true' lat='41.7519679' lon='19.6098424' />
  <node id='-38' visible='true' lat='41.7515837' lon='19.6091557' />
  <node id='-39' visible='true' lat='41.7335239' lon='19.6112158' />
  <node id='-40' visible='true' lat='41.7345486' lon='19.6155073' />
  <node id='-41' visible='true' lat='41.7391058' lon='19.6312931' />
  <node id='-42' visible='true' lat='41.7433869' lon='19.6467497' />
  <node id='-43' visible='true' lat='41.7459745' lon='19.6471687' />
  <way id='-44' visible='true'>
    <nd ref='-36' />
    <nd ref='-37' />
    <nd ref='-38' />
    <nd ref='-39' />
    <nd ref='-40' />
    <nd ref='-41' />
    <nd ref='-42' />
    <nd ref='-43' />
    <tag k="OSM_ID" v="41494397"/>
  </way>
  <node id='-45' visible='true' lat='41.7345486' lon='19.6155073' />
  <node id='-46' visible='true' lat='41.7198155' lon='19.6175671' />
  <node id='-47' visible='true' lat='41.7194311' lon='19.6161938' />
  <node id='-48' visible='true' lat='41.7184061' lon='19.6161938' />
  <node id='-49' visible='true' lat='41.7176372' lon='19.6173955' />
  <way id='-50' visible='true'>
    <nd ref='-45' />
    <nd ref='-46' />
    <nd ref='-47' />
    <nd ref='-48' />
    <nd ref='-49' />
    <tag k="OSM_ID" v="41494401"/>
  </way>
  <node id='-51' visible='true' lat='41.7743994' lon='19.6285424' />
  <node id='-52' visible='true' lat='41.7743302' lon='19.6285451' />
  <node id='-53' visible='true' lat='41.7742506' lon='19.6285048' />
  <node id='-54' visible='true' lat='41.7742' lon='19.6284413' />
  <node id='-55' visible='true' lat='41.7741686' lon='19.6283586' />
  <node id='-56' visible='true' lat='41.7741599' lon='19.6282874' />
  <node id='-57' visible='true' lat='41.7741702' lon='19.6281956' />
  <node id='-58' visible='true' lat='41.7742033' lon='19.628114' />
  <node id='-59' visible='true' lat='41.7742551' lon='19.6280524' />
  <node id='-60' visible='true' lat='41.7742864' lon='19.6280317' />
  <node id='-61' visible='true' lat='41.7743541' lon='19.6280132' />
  <node id='-62' visible='true' lat='41.7744227' lon='19.6280271' />
  <node id='-63' visible='true' lat='41.7744657' lon='19.6280545' />
  <node id='-64' visible='true' lat='41.7745169' lon='19.6281168' />
  <node id='-65' visible='true' lat='41.7745492' lon='19.628199' />
  <node id='-66' visible='true' lat='41.7745613' lon='19.6283035' />
  <node id='-67' visible='true' lat='41.7745336' lon='19.6284099' />
  <node id='-68' visible='true' lat='41.7744902' lon='19.6284822' />
  <node id='-69' visible='true' lat='41.7743994' lon='19.6285424' />
  <way id='-70' visible='true'>
    <nd ref='-51' />
    <nd ref='-52' />
    <nd ref='-53' />
    <nd ref='-54' />
    <nd ref='-55' />
    <nd ref='-56' />
    <nd ref='-57' />
    <nd ref='-58' />
    <nd ref='-59' />
    <nd ref='-60' />
    <nd ref='-61' />
    <nd ref='-62' />
    <nd ref='-63' />
    <nd ref='-64' />
    <nd ref='-65' />
    <nd ref='-66' />
    <nd ref='-67' />
    <nd ref='-68' />
    <nd ref='-69' />
    <tag k="OSM_ID" v="41492331"/>
  </way>
  <node id='-71' visible='true' lat='41.7746891' lon='19.6288024' />
  <node id='-72' visible='true' lat='41.7745492' lon='19.628199' />
  <way id='-73' visible='true'>
    <nd ref='-71' />
    <nd ref='-72' />
    <tag k="OSM_ID" v="41492333"/>
  </way>
  <node id='-74' visible='true' lat='41.7741599' lon='19.6282874' />
  <node id='-75' visible='true' lat='41.7735433' lon='19.6288367' />
  <way id='-76' visible='true'>
    <nd ref='-74' />
    <nd ref='-75' />
    <tag k="OSM_ID" v="41492335"/>
  </way>
  <node id='-77' visible='true' lat='41.7697026' lon='19.6315662' />
  <node id='-78' visible='true' lat='41.7691775' lon='19.6305362' />
  <way id='-79' visible='true'>
    <nd ref='-77' />
    <nd ref='-78' />
    <tag k="OSM_ID" v="41492337"/>
  </way>
  <node id='-80' visible='true' lat='41.7631726' lon='19.6323644' />
  <node id='-81' visible='true' lat='41.7643698' lon='19.6332656' />
  <node id='-82' visible='true' lat='41.7648453' lon='19.6336778' />
  <node id='-83' visible='true' lat='41.7653302' lon='19.6340982' />
  <node id='-84' visible='true' lat='41.7658198' lon='19.6346494' />
  <node id='-85' visible='true' lat='41.7658486' lon='19.6346819' />
  <node id='-86' visible='true' lat='41.7661432' lon='19.6351282' />
  <node id='-87' visible='true' lat='41.7665081' lon='19.6359007' />
  <node id='-88' visible='true' lat='41.7667962' lon='19.6370079' />
  <way id='-89' visible='true'>
    <nd ref='-80' />
    <nd ref='-81' />
    <nd ref='-82' />
    <nd ref='-83' />
    <nd ref='-84' />
    <nd ref='-85' />
    <nd ref='-86' />
    <nd ref='-87' />
    <nd ref='-88' />
    <tag k="OSM_ID" v="41492305"/>
  </way>
  <node id='-90' visible='true' lat='41.7643698' lon='19.6332656' />
  <node id='-91' visible='true' lat='41.7644786' lon='19.6338064' />
  <node id='-92' visible='true' lat='41.7645363' lon='19.6343643' />
  <node id='-93' visible='true' lat='41.7644979' lon='19.6346303' />
  <node id='-94' visible='true' lat='41.7644467' lon='19.6347419' />
  <node id='-95' visible='true' lat='41.7642602' lon='19.6350228' />
  <node id='-96' visible='true' lat='41.7645363' lon='19.6349136' />
  <node id='-97' visible='true' lat='41.7647667' lon='19.6349221' />
  <node id='-98' visible='true' lat='41.7650037' lon='19.6351195' />
  <node id='-99' visible='true' lat='41.76517' lon='19.6352225' />
  <node id='-100' visible='true' lat='41.7653942' lon='19.6351967' />
  <node id='-101' visible='true' lat='41.765663' lon='19.6350937' />
  <node id='-102' visible='true' lat='41.7658551' lon='19.6350508' />
  <node id='-103' visible='true' lat='41.7661432' lon='19.6351282' />
  <way id='-104' visible='true'>
    <nd ref='-90' />
    <nd ref='-91' />
    <nd ref='-92' />
    <nd ref='-93' />
    <nd ref='-94' />
    <nd ref='-95' />
    <nd ref='-96' />
    <nd ref='-97' />
    <nd ref='-98' />
    <nd ref='-99' />
    <nd ref='-100' />
    <nd ref='-101' />
    <nd ref='-102' />
    <nd ref='-103' />
    <tag k="OSM_ID" v="41492306"/>
  </way>
  <node id='-105' visible='true' lat='41.7644786' lon='19.6338064' />
  <node id='-106' visible='true' lat='41.7645363' lon='19.633669' />
  <node id='-107' visible='true' lat='41.7646259' lon='19.6336347' />
  <node id='-108' visible='true' lat='41.7648453' lon='19.6336778' />
  <way id='-109' visible='true'>
    <nd ref='-105' />
    <nd ref='-106' />
    <nd ref='-107' />
    <nd ref='-108' />
    <tag k="OSM_ID" v="41492313"/>
  </way>
  <node id='-110' visible='true' lat='41.7650037' lon='19.6351195' />
  <node id='-111' visible='true' lat='41.7649396' lon='19.6348963' />
  <node id='-112' visible='true' lat='41.7649844' lon='19.6346646' />
  <node id='-113' visible='true' lat='41.7652585' lon='19.6343524' />
  <node id='-114' visible='true' lat='41.7649077' lon='19.6344929' />
  <node id='-115' visible='true' lat='41.7647219' lon='19.6345016' />
  <node id='-116' visible='true' lat='41.7646003' lon='19.6344415' />
  <node id='-117' visible='true' lat='41.7645363' lon='19.6343643' />
  <way id='-118' visible='true'>
    <nd ref='-110' />
    <nd ref='-111' />
    <nd ref='-112' />
    <nd ref='-113' />
    <nd ref='-114' />
    <nd ref='-115' />
    <nd ref='-116' />
    <nd ref='-117' />
    <tag k="OSM_ID" v="41492310"/>
  </way>
  <node id='-119' visible='true' lat='41.765663' lon='19.6350937' />
  <node id='-120' visible='true' lat='41.7657911' lon='19.634862' />
  <node id='-121' visible='true' lat='41.7658198' lon='19.6346494' />
  <way id='-122' visible='true'>
    <nd ref='-119' />
    <nd ref='-120' />
    <nd ref='-121' />
    <tag k="OSM_ID" v="41492307"/>
  </way>
  <node id='-123' visible='true' lat='41.7433869' lon='19.6467497' />
  <node id='-124' visible='true' lat='41.738776' lon='19.6474523' />
  <node id='-125' visible='true' lat='41.7270082' lon='19.646139' />
  <way id='-126' visible='true'>
    <nd ref='-123' />
    <nd ref='-124' />
    <nd ref='-125' />
    <tag k="OSM_ID" v="41494861"/>
  </way>
</osm>
