<?xml version='1.0'?>
<osm version='0.5' generator='shp2osm.pl'>
  <node id='-1' visible='true' lat='41.1790104280725' lon='20.3210761974557' />
  <node id='-2' visible='true' lat='41.178893941768' lon='20.3208184821608' />
  <node id='-3' visible='true' lat='41.178709111553' lon='20.320668090757' />
  <node id='-4' visible='true' lat='41.1784103094897' lon='20.3206864082426' />
  <node id='-5' visible='true' lat='41.1782376002482' lon='20.3206425028397' />
  <node id='-6' visible='true' lat='41.1780879746332' lon='20.3206135890591' />
  <way id='-7' visible='true'>
    <nd ref='-1' />
    <nd ref='-2' />
    <nd ref='-3' />
    <nd ref='-4' />
    <nd ref='-5' />
    <nd ref='-6' />
    <tag k="ID" v="25664.000"/>
    <tag k="CATEGORY" v="5"/>
    <tag k="SHAPE_LE_1" v="118.845"/>
    <tag k="WAY_TYPE" v="Dwelling Area Road"/>
    <tag k="ET_ID" v="24027"/>
    <tag k="CAT2" v="50"/>
    <tag k="SHAPE_LENG" v="0.000"/>
  </way>
  <node id='-8' visible='true' lat='41.1805390716899' lon='20.3202058244538' />
  <node id='-9' visible='true' lat='41.1799277671925' lon='20.3206707284685' />
  <node id='-10' visible='true' lat='41.1797210210272' lon='20.3207033254642' />
  <node id='-11' visible='true' lat='41.1795827979252' lon='20.3206590628308' />
  <node id='-12' visible='true' lat='41.1794440403317' lon='20.3205234182883' />
  <node id='-13' visible='true' lat='41.1792008310361' lon='20.3202213219184' />
  <node id='-14' visible='true' lat='41.1788998666166' lon='20.3198741287361' />
  <way id='-15' visible='true'>
    <nd ref='-8' />
    <nd ref='-9' />
    <nd ref='-10' />
    <nd ref='-11' />
    <nd ref='-12' />
    <nd ref='-13' />
    <nd ref='-14' />
    <tag k="ID" v="25665.000"/>
    <tag k="CATEGORY" v="5"/>
    <tag k="SHAPE_LE_1" v="217.764"/>
    <tag k="ET_ID" v="24028"/>
    <tag k="WAY_TYPE" v="Dwelling Area Road"/>
    <tag k="SHAPE_LENG" v="0.000"/>
    <tag k="CAT2" v="50"/>
  </way>
  <node id='-16' visible='true' lat='41.1805390716899' lon='20.3202058244538' />
  <node id='-17' visible='true' lat='41.1807587480704' lon='20.3204167867472' />
  <node id='-18' visible='true' lat='41.1810364475513' lon='20.3207185345363' />
  <node id='-19' visible='true' lat='41.1812451694875' lon='20.3210210033975' />
  <node id='-20' visible='true' lat='41.1814305424123' lon='20.321262786274' />
  <node id='-21' visible='true' lat='41.1815931901854' lon='20.3215504973122' />
  <node id='-22' visible='true' lat='41.1818136758402' lon='20.3218985363084' />
  <way id='-23' visible='true'>
    <nd ref='-16' />
    <nd ref='-17' />
    <nd ref='-18' />
    <nd ref='-19' />
    <nd ref='-20' />
    <nd ref='-21' />
    <nd ref='-22' />
    <tag k="ID" v="25666.000"/>
    <tag k="CATEGORY" v="5"/>
    <tag k="SHAPE_LE_1" v="201.588"/>
    <tag k="ET_ID" v="24029"/>
    <tag k="WAY_TYPE" v="Dwelling Area Road"/>
    <tag k="SHAPE_LENG" v="0.000"/>
    <tag k="CAT2" v="50"/>
  </way>
  <node id='-24' visible='true' lat='41.1803518353371' lon='20.3159977583922' />
  <node id='-25' visible='true' lat='41.1804031625968' lon='20.3157343827686' />
  <node id='-26' visible='true' lat='41.1808562378653' lon='20.3145542031247' />
  <way id='-27' visible='true'>
    <nd ref='-24' />
    <nd ref='-25' />
    <nd ref='-26' />
    <tag k="ID" v="25672.000"/>
    <tag k="CATEGORY" v="5"/>
    <tag k="SHAPE_LE_1" v="133.904"/>
    <tag k="ET_ID" v="24035"/>
    <tag k="WAY_TYPE" v="Dwelling Area Road"/>
    <tag k="SHAPE_LENG" v="0.000"/>
    <tag k="CAT2" v="50"/>
  </way>
  <node id='-28' visible='true' lat='41.1785869914299' lon='20.3148477505172' />
  <node id='-29' visible='true' lat='41.1789880016189' lon='20.3156790265581' />
  <node id='-30' visible='true' lat='41.1793229189091' lon='20.3164114786505' />
  <way id='-31' visible='true'>
    <nd ref='-28' />
    <nd ref='-29' />
    <nd ref='-30' />
    <tag k="ID" v="25673.000"/>
    <tag k="CATEGORY" v="5"/>
    <tag k="SHAPE_LE_1" v="154.601"/>
    <tag k="ET_ID" v="24036"/>
    <tag k="WAY_TYPE" v="Dwelling Area Road"/>
    <tag k="SHAPE_LENG" v="0.000"/>
    <tag k="CAT2" v="50"/>
  </way>
  <node id='-32' visible='true' lat='41.1803518353371' lon='20.3159977583922' />
  <node id='-33' visible='true' lat='41.1800713661266' lon='20.3155275701692' />
  <node id='-34' visible='true' lat='41.1797398817193' lon='20.3153733180697' />
  <node id='-35' visible='true' lat='41.179435776508' lon='20.3153764849476' />
  <way id='-36' visible='true'>
    <nd ref='-32' />
    <nd ref='-33' />
    <nd ref='-34' />
    <nd ref='-35' />
    <tag k="ID" v="25674.000"/>
    <tag k="CATEGORY" v="5"/>
    <tag k="SHAPE_LE_1" v="123.069"/>
    <tag k="ET_ID" v="24037"/>
    <tag k="WAY_TYPE" v="Dwelling Area Road"/>
    <tag k="SHAPE_LENG" v="0.000"/>
    <tag k="CAT2" v="50"/>
  </way>
  <node id='-37' visible='true' lat='41.1798289345793' lon='20.3141745086714' />
  <node id='-38' visible='true' lat='41.1794559916349' lon='20.3142884463302' />
  <node id='-39' visible='true' lat='41.1788389218372' lon='20.3146009124227' />
  <node id='-40' visible='true' lat='41.1785869914299' lon='20.3148477505172' />
  <way id='-41' visible='true'>
    <nd ref='-37' />
    <nd ref='-38' />
    <nd ref='-39' />
    <nd ref='-40' />
    <tag k="ID" v="26709.000"/>
    <tag k="CATEGORY" v="5"/>
    <tag k="SHAPE_LE_1" v="150.701"/>
    <tag k="ET_ID" v="25072"/>
    <tag k="WAY_TYPE" v="Dwelling Area Road"/>
    <tag k="SHAPE_LENG" v="0.000"/>
    <tag k="CAT2" v="50"/>
  </way>
  <node id='-42' visible='true' lat='41.1785869914299' lon='20.3148477505172' />
  <node id='-43' visible='true' lat='41.1783066635107' lon='20.3151940421991' />
  <node id='-44' visible='true' lat='41.1780782810441' lon='20.315624866635' />
  <node id='-45' visible='true' lat='41.1779950117138' lon='20.3159466477264' />
  <way id='-46' visible='true'>
    <nd ref='-42' />
    <nd ref='-43' />
    <nd ref='-44' />
    <nd ref='-45' />
    <tag k="ID" v="26710.000"/>
    <tag k="CATEGORY" v="5"/>
    <tag k="SHAPE_LE_1" v="115.292"/>
    <tag k="ET_ID" v="25073"/>
    <tag k="WAY_TYPE" v="Dwelling Area Road"/>
    <tag k="SHAPE_LENG" v="0.000"/>
    <tag k="CAT2" v="50"/>
  </way>
  <node id='-47' visible='true' lat='41.1810773670274' lon='20.3177150964526' />
  <node id='-48' visible='true' lat='41.1812893213964' lon='20.3180031277042' />
  <node id='-49' visible='true' lat='41.1817867039818' lon='20.3180885102696' />
  <node id='-50' visible='true' lat='41.1823157915979' lon='20.3181180724554' />
  <node id='-51' visible='true' lat='41.1827523231591' lon='20.3181485890171' />
  <way id='-52' visible='true'>
    <nd ref='-47' />
    <nd ref='-48' />
    <nd ref='-49' />
    <nd ref='-50' />
    <nd ref='-51' />
    <tag k="ID" v="27087.000"/>
    <tag k="CATEGORY" v="5"/>
    <tag k="SHAPE_LE_1" v="196.807"/>
    <tag k="ET_ID" v="25450"/>
    <tag k="WAY_TYPE" v="Dwelling Area Road"/>
    <tag k="SHAPE_LENG" v="0.000"/>
    <tag k="CAT2" v="50"/>
  </way>
  <node id='-53' visible='true' lat='41.1824015230479' lon='20.3165636398881' />
  <node id='-54' visible='true' lat='41.1819062766553' lon='20.3159018118302' />
  <node id='-55' visible='true' lat='41.1814530243525' lon='20.3154586564624' />
  <node id='-56' visible='true' lat='41.1811255233746' lon='20.3151137207975' />
  <node id='-57' visible='true' lat='41.1811720377541' lon='20.3147848314053' />
  <way id='-58' visible='true'>
    <nd ref='-53' />
    <nd ref='-54' />
    <nd ref='-55' />
    <nd ref='-56' />
    <nd ref='-57' />
    <tag k="ID" v="27088.000"/>
    <tag k="CATEGORY" v="5"/>
    <tag k="SHAPE_LE_1" v="215.306"/>
    <tag k="ET_ID" v="25451"/>
    <tag k="WAY_TYPE" v="Dwelling Area Road"/>
    <tag k="SHAPE_LENG" v="0.000"/>
    <tag k="CAT2" v="50"/>
  </way>
  <node id='-59' visible='true' lat='41.1811720377541' lon='20.3147848314053' />
  <node id='-60' visible='true' lat='41.1808562378653' lon='20.3145542031247' />
  <way id='-61' visible='true'>
    <nd ref='-59' />
    <nd ref='-60' />
    <tag k="ID" v="27089.000"/>
    <tag k="CATEGORY" v="5"/>
    <tag k="SHAPE_LE_1" v="40.058"/>
    <tag k="ET_ID" v="25452"/>
    <tag k="WAY_TYPE" v="Dwelling Area Road"/>
    <tag k="SHAPE_LENG" v="0.000"/>
    <tag k="CAT2" v="50"/>
  </way>
  <node id='-62' visible='true' lat='41.1808562378653' lon='20.3145542031247' />
  <node id='-63' visible='true' lat='41.1806431870186' lon='20.3143986091757' />
  <node id='-64' visible='true' lat='41.1800414602048' lon='20.3141845381192' />
  <node id='-65' visible='true' lat='41.1798289345793' lon='20.3141745086714' />
  <way id='-66' visible='true'>
    <nd ref='-62' />
    <nd ref='-63' />
    <nd ref='-64' />
    <nd ref='-65' />
    <tag k="ID" v="27090.000"/>
    <tag k="CATEGORY" v="5"/>
    <tag k="SHAPE_LE_1" v="119.846"/>
    <tag k="ET_ID" v="25453"/>
    <tag k="WAY_TYPE" v="Dwelling Area Road"/>
    <tag k="SHAPE_LENG" v="0.000"/>
    <tag k="CAT2" v="50"/>
  </way>
  <node id='-67' visible='true' lat='41.1824045485545' lon='20.3207196284019' />
  <node id='-68' visible='true' lat='41.1821730164129' lon='20.3204478588982' />
  <node id='-69' visible='true' lat='41.1818723224504' lon='20.3201463449121' />
  <node id='-70' visible='true' lat='41.1815716323141' lon='20.3198448336288' />
  <node id='-71' visible='true' lat='41.1812477675992' lon='20.3195130975256' />
  <node id='-72' visible='true' lat='41.1808774688319' lon='20.3191056987427' />
  <node id='-73' visible='true' lat='41.1803455951898' lon='20.318593359683' />
  <node id='-74' visible='true' lat='41.1803129108174' lon='20.318898313614' />
  <node id='-75' visible='true' lat='41.1804296714867' lon='20.3192017196195' />
  <node id='-76' visible='true' lat='41.1805700504237' lon='20.3196115019133' />
  <node id='-77' visible='true' lat='41.1806751324649' lon='20.3198845701146' />
  <node id='-78' visible='true' lat='41.1805390716899' lon='20.3202058244538' />
  <way id='-79' visible='true'>
    <nd ref='-67' />
    <nd ref='-68' />
    <nd ref='-69' />
    <nd ref='-70' />
    <nd ref='-71' />
    <nd ref='-72' />
    <nd ref='-73' />
    <nd ref='-74' />
    <nd ref='-75' />
    <nd ref='-76' />
    <nd ref='-77' />
    <nd ref='-78' />
    <tag k="ID" v="27092.000"/>
    <tag k="CATEGORY" v="5"/>
    <tag k="SHAPE_LE_1" v="438.972"/>
    <tag k="ET_ID" v="25455"/>
    <tag k="WAY_TYPE" v="Dwelling Area Road"/>
    <tag k="SHAPE_LENG" v="0.000"/>
    <tag k="CAT2" v="50"/>
  </way>
  <node id='-80' visible='true' lat='41.1833308914636' lon='20.3155054565672' />
  <node id='-81' visible='true' lat='41.1831055912603' lon='20.3155078026383' />
  <node id='-82' visible='true' lat='41.1826930398844' lon='20.3155950391244' />
  <node id='-83' visible='true' lat='41.1825052958377' lon='20.3155969938219' />
  <node id='-84' visible='true' lat='41.1823425830963' lon='20.3155986878908' />
  <node id='-85' visible='true' lat='41.1820787500954' lon='20.3154355550428' />
  <node id='-86' visible='true' lat='41.181851975305' lon='20.3151890918257' />
  <node id='-87' visible='true' lat='41.1811720377541' lon='20.3147848314053' />
  <way id='-88' visible='true'>
    <nd ref='-80' />
    <nd ref='-81' />
    <nd ref='-82' />
    <nd ref='-83' />
    <nd ref='-84' />
    <nd ref='-85' />
    <nd ref='-86' />
    <nd ref='-87' />
    <tag k="ID" v="27697.000"/>
    <tag k="CATEGORY" v="5"/>
    <tag k="SHAPE_LE_1" v="258.064"/>
    <tag k="ET_ID" v="26018"/>
    <tag k="WAY_TYPE" v="Dwelling Area Road"/>
    <tag k="SHAPE_LENG" v="0.000"/>
    <tag k="CAT2" v="50"/>
  </way>
  <node id='-89' visible='true' lat='41.183665081447' lon='20.3169783500294' />
  <node id='-90' visible='true' lat='41.1835757945801' lon='20.3166972746649' />
  <node id='-91' visible='true' lat='41.1834215709362' lon='20.3166355732706' />
  <node id='-92' visible='true' lat='41.1832734401803' lon='20.3167041277958' />
  <node id='-93' visible='true' lat='41.1831644228992' lon='20.3169835522375' />
  <node id='-94' visible='true' lat='41.1830778906265' lon='20.3171669254616' />
  <node id='-95' visible='true' lat='41.1829026621894' lon='20.3171687456876' />
  <node id='-96' visible='true' lat='41.1827264455984' lon='20.3170046948283' />
  <node id='-97' visible='true' lat='41.1824235914444' lon='20.316593133972' />
  <node id='-98' visible='true' lat='41.1824015230479' lon='20.3165636398881' />
  <way id='-99' visible='true'>
    <nd ref='-89' />
    <nd ref='-90' />
    <nd ref='-91' />
    <nd ref='-92' />
    <nd ref='-93' />
    <nd ref='-94' />
    <nd ref='-95' />
    <nd ref='-96' />
    <nd ref='-97' />
    <nd ref='-98' />
    <tag k="ID" v="27957.000"/>
    <tag k="CATEGORY" v="5"/>
    <tag k="SHAPE_LE_1" v="200.514"/>
    <tag k="ET_ID" v="26278"/>
    <tag k="WAY_TYPE" v="Dwelling Area Road"/>
    <tag k="SHAPE_LENG" v="0.000"/>
    <tag k="CAT2" v="50"/>
  </way>
  <node id='-100' visible='true' lat='41.1803518353371' lon='20.3159977583922' />
  <node id='-101' visible='true' lat='41.1804866548477' lon='20.3164344214506' />
  <node id='-102' visible='true' lat='41.1809694004292' lon='20.3175683776274' />
  <node id='-103' visible='true' lat='41.1810773670274' lon='20.3177150964526' />
  <way id='-104' visible='true'>
    <nd ref='-100' />
    <nd ref='-101' />
    <nd ref='-102' />
    <nd ref='-103' />
    <tag k="ID" v="27958.000"/>
    <tag k="CATEGORY" v="5"/>
    <tag k="SHAPE_LE_1" v="165.984"/>
    <tag k="ET_ID" v="26279"/>
    <tag k="WAY_TYPE" v="Dwelling Area Road"/>
    <tag k="SHAPE_LENG" v="0.000"/>
    <tag k="CAT2" v="50"/>
  </way>
  <node id='-105' visible='true' lat='41.18906262207' lon='20.3292236096165' />
  <node id='-106' visible='true' lat='41.188701759925' lon='20.3279011401249' />
  <node id='-107' visible='true' lat='41.1882238549741' lon='20.3266969033432' />
  <node id='-108' visible='true' lat='41.1876879974759' lon='20.3256492925623' />
  <node id='-109' visible='true' lat='41.1871528676917' lon='20.3245536701553' />
  <way id='-110' visible='true'>
    <nd ref='-105' />
    <nd ref='-106' />
    <nd ref='-107' />
    <nd ref='-108' />
    <nd ref='-109' />
    <tag k="ID" v="134186.000"/>
    <tag k="CATEGORY" v="4"/>
    <tag k="SHAPE_LE_1" v="447.712"/>
    <tag k="ET_ID" v="125205"/>
    <tag k="WAY_TYPE" v="Village Road"/>
    <tag k="SHAPE_LENG" v="0.000"/>
    <tag k="CAT2" v="40"/>
  </way>
  <node id='-111' visible='true' lat='41.1839844078218' lon='20.3159465406684' />
  <node id='-112' visible='true' lat='41.1843688479994' lon='20.3159619269558' />
  <node id='-113' visible='true' lat='41.1845935921624' lon='20.3162859657369' />
  <node id='-114' visible='true' lat='41.1848754873428' lon='20.3163607410622' />
  <node id='-115' visible='true' lat='41.1852390128615' lon='20.3163569601063' />
  <way id='-116' visible='true'>
    <nd ref='-111' />
    <nd ref='-112' />
    <nd ref='-113' />
    <nd ref='-114' />
    <nd ref='-115' />
    <tag k="ID" v="134226.000"/>
    <tag k="CATEGORY" v="4"/>
    <tag k="SHAPE_LE_1" v="151.932"/>
    <tag k="ET_ID" v="125245"/>
    <tag k="WAY_TYPE" v="Village Road"/>
    <tag k="SHAPE_LENG" v="0.000"/>
    <tag k="CAT2" v="40"/>
  </way>
  <node id='-117' visible='true' lat='41.175392676558' lon='20.3253572183021' />
  <node id='-118' visible='true' lat='41.1754059075654' lon='20.3246256664585' />
  <way id='-119' visible='true'>
    <nd ref='-117' />
    <nd ref='-118' />
    <tag k="ID" v="134113.000"/>
    <tag k="CATEGORY" v="4"/>
    <tag k="SHAPE_LE_1" v="61.407"/>
    <tag k="ET_ID" v="126918"/>
    <tag k="WAY_TYPE" v="Village Road"/>
    <tag k="SHAPE_LENG" v="0.000"/>
    <tag k="CAT2" v="40"/>
  </way>
  <node id='-120' visible='true' lat='41.1832344415855' lon='20.3214204473297' />
  <node id='-121' visible='true' lat='41.1830459258362' lon='20.3208441307732' />
  <node id='-122' visible='true' lat='41.182947790869' lon='20.3198988843272' />
  <node id='-123' visible='true' lat='41.1828649363226' lon='20.3193039550867' />
  <node id='-124' visible='true' lat='41.1828614136887' lon='20.3187081990383' />
  <node id='-125' visible='true' lat='41.1828333129963' lon='20.3184281196043' />
  <node id='-126' visible='true' lat='41.1827523231591' lon='20.3181485890171' />
  <way id='-127' visible='true'>
    <nd ref='-120' />
    <nd ref='-121' />
    <nd ref='-122' />
    <nd ref='-123' />
    <nd ref='-124' />
    <nd ref='-125' />
    <nd ref='-126' />
    <tag k="ID" v="134174.000"/>
    <tag k="CATEGORY" v="4"/>
    <tag k="SHAPE_LE_1" v="282.330"/>
    <tag k="ET_ID" v="126979"/>
    <tag k="WAY_TYPE" v="Village Road"/>
    <tag k="SHAPE_LENG" v="0.000"/>
    <tag k="CAT2" v="40"/>
  </way>
  <node id='-128' visible='true' lat='41.1818136758402' lon='20.3218985363084' />
  <node id='-129' visible='true' lat='41.1823305365271' lon='20.3227586212284' />
  <node id='-130' visible='true' lat='41.1825376009027' lon='20.3232969188903' />
  <node id='-131' visible='true' lat='41.1828470056169' lon='20.3239017183826' />
  <node id='-132' visible='true' lat='41.1831289380212' lon='20.3241690365311' />
  <node id='-133' visible='true' lat='41.1835373085086' lon='20.3242661717941' />
  <node id='-134' visible='true' lat='41.1837550324194' lon='20.3244497109403' />
  <node id='-135' visible='true' lat='41.1839359083097' lon='20.3248700688896' />
  <node id='-136' visible='true' lat='41.1839374919311' lon='20.3251402738644' />
  <way id='-137' visible='true'>
    <nd ref='-128' />
    <nd ref='-129' />
    <nd ref='-130' />
    <nd ref='-131' />
    <nd ref='-132' />
    <nd ref='-133' />
    <nd ref='-134' />
    <nd ref='-135' />
    <nd ref='-136' />
    <tag k="ID" v="134177.000"/>
    <tag k="CATEGORY" v="4"/>
    <tag k="SHAPE_LE_1" v="380.716"/>
    <tag k="ET_ID" v="126982"/>
    <tag k="WAY_TYPE" v="Village Road"/>
    <tag k="SHAPE_LENG" v="0.000"/>
    <tag k="CAT2" v="40"/>
  </way>
  <node id='-138' visible='true' lat='41.1850534836465' lon='20.3237085223437' />
  <node id='-139' visible='true' lat='41.1851366859365' lon='20.3231857164133' />
  <node id='-140' visible='true' lat='41.1851724332709' lon='20.3227631174386' />
  <node id='-141' visible='true' lat='41.185182790726' lon='20.322357671209' />
  <way id='-142' visible='true'>
    <nd ref='-138' />
    <nd ref='-139' />
    <nd ref='-140' />
    <nd ref='-141' />
    <tag k="ID" v="134178.000"/>
    <tag k="CATEGORY" v="4"/>
    <tag k="SHAPE_LE_1" v="114.546"/>
    <tag k="ET_ID" v="126983"/>
    <tag k="WAY_TYPE" v="Village Road"/>
    <tag k="SHAPE_LENG" v="0.000"/>
    <tag k="CAT2" v="40"/>
  </way>
  <node id='-143' visible='true' lat='41.1817862726163' lon='20.3288273548539' />
  <node id='-144' visible='true' lat='41.1817878248747' lon='20.3293763617063' />
  <node id='-145' visible='true' lat='41.1816138715362' lon='20.3302184641196' />
  <node id='-146' visible='true' lat='41.1816847916706' lon='20.3312304538683' />
  <node id='-147' visible='true' lat='41.1818039752733' lon='20.332155769723' />
  <node id='-148' visible='true' lat='41.1824141467836' lon='20.3336363331272' />
  <node id='-149' visible='true' lat='41.1827138967818' lon='20.3348614965475' />
  <node id='-150' visible='true' lat='41.1828505526091' lon='20.336002125064' />
  <node id='-151' visible='true' lat='41.1831146633482' lon='20.3366889822383' />
  <node id='-152' visible='true' lat='41.1836742150716' lon='20.3374066183356' />
  <node id='-153' visible='true' lat='41.1844284181117' lon='20.3384979659897' />
  <node id='-154' visible='true' lat='41.1850220074437' lon='20.3399357187898' />
  <node id='-155' visible='true' lat='41.1857434223117' lon='20.3409843448223' />
  <node id='-156' visible='true' lat='41.1860387848713' lon='20.3414554484106' />
  <node id='-157' visible='true' lat='41.1863350072732' lon='20.3420773893857' />
  <node id='-158' visible='true' lat='41.1867347771716' lon='20.3427273790467' />
  <node id='-159' visible='true' lat='41.1868838071467' lon='20.3431999659555' />
  <way id='-160' visible='true'>
    <nd ref='-143' />
    <nd ref='-144' />
    <nd ref='-145' />
    <nd ref='-146' />
    <nd ref='-147' />
    <nd ref='-148' />
    <nd ref='-149' />
    <nd ref='-150' />
    <nd ref='-151' />
    <nd ref='-152' />
    <nd ref='-153' />
    <nd ref='-154' />
    <nd ref='-155' />
    <nd ref='-156' />
    <nd ref='-157' />
    <nd ref='-158' />
    <nd ref='-159' />
    <tag k="ID" v="145172.000"/>
    <tag k="CATEGORY" v="4"/>
    <tag k="SHAPE_LE_1" v="1387.951"/>
    <tag k="ET_ID" v="138018"/>
    <tag k="WAY_TYPE" v="Village Road"/>
    <tag k="SHAPE_LENG" v="0.000"/>
    <tag k="CAT2" v="40"/>
  </way>
  <node id='-161' visible='true' lat='41.1770890236214' lon='20.3365083463724' />
  <node id='-162' visible='true' lat='41.1769123391234' lon='20.3351193906068' />
  <node id='-163' visible='true' lat='41.1767135934514' lon='20.3331594756522' />
  <node id='-164' visible='true' lat='41.1766458524194' lon='20.3311734004338' />
  <node id='-165' visible='true' lat='41.1763536248085' lon='20.3292641200124' />
  <node id='-166' visible='true' lat='41.1755750070003' lon='20.3279200666477' />
  <node id='-167' visible='true' lat='41.1754028630951' lon='20.3273258082589' />
  <node id='-168' visible='true' lat='41.1753633495184' lon='20.3269785315116' />
  <node id='-169' visible='true' lat='41.175392676558' lon='20.3253572183021' />
  <way id='-170' visible='true'>
    <nd ref='-161' />
    <nd ref='-162' />
    <nd ref='-163' />
    <nd ref='-164' />
    <nd ref='-165' />
    <nd ref='-166' />
    <nd ref='-167' />
    <nd ref='-168' />
    <nd ref='-169' />
    <tag k="ID" v="148311.000"/>
    <tag k="CATEGORY" v="4"/>
    <tag k="SHAPE_LE_1" v="975.532"/>
    <tag k="ET_ID" v="141016"/>
    <tag k="WAY_TYPE" v="Village Road"/>
    <tag k="SHAPE_LENG" v="0.000"/>
    <tag k="CAT2" v="40"/>
  </way>
  <node id='-171' visible='true' lat='41.1850534836465' lon='20.3237085223437' />
  <node id='-172' visible='true' lat='41.1844595977134' lon='20.3232519723764' />
  <node id='-173' visible='true' lat='41.1840109032549' lon='20.3230421209255' />
  <node id='-174' visible='true' lat='41.1837182720844' lon='20.3227472344539' />
  <node id='-175' visible='true' lat='41.1833973376919' lon='20.3221372241029' />
  <node id='-176' visible='true' lat='41.1832344415855' lon='20.3214204473297' />
  <way id='-177' visible='true'>
    <nd ref='-171' />
    <nd ref='-172' />
    <nd ref='-173' />
    <nd ref='-174' />
    <nd ref='-175' />
    <nd ref='-176' />
    <tag k="ID" v="171140.000"/>
    <tag k="CATEGORY" v="3"/>
    <tag k="SHAPE_LE_1" v="295.152"/>
    <tag k="ET_ID" v="162995"/>
    <tag k="WAY_TYPE" v="Seasonal Road"/>
    <tag k="SHAPE_LENG" v="0.000"/>
    <tag k="CAT2" v="30"/>
  </way>
  <node id='-178' visible='true' lat='41.1817862726163' lon='20.3288273548539' />
  <node id='-179' visible='true' lat='41.1820210598639' lon='20.3291176085126' />
  <node id='-180' visible='true' lat='41.1822815202114' lon='20.3296026934966' />
  <node id='-181' visible='true' lat='41.1825937869407' lon='20.330558743689' />
  <node id='-182' visible='true' lat='41.1829577587433' lon='20.3319695189825' />
  <node id='-183' visible='true' lat='41.1834573156594' lon='20.3334927416783' />
  <node id='-184' visible='true' lat='41.1837731037773' lon='20.334069840983' />
  <node id='-185' visible='true' lat='41.1839461682037' lon='20.3342957089822' />
  <way id='-186' visible='true'>
    <nd ref='-178' />
    <nd ref='-179' />
    <nd ref='-180' />
    <nd ref='-181' />
    <nd ref='-182' />
    <nd ref='-183' />
    <nd ref='-184' />
    <nd ref='-185' />
    <tag k="ID" v="171143.000"/>
    <tag k="CATEGORY" v="3"/>
    <tag k="SHAPE_LE_1" v="524.211"/>
    <tag k="ET_ID" v="162998"/>
    <tag k="WAY_TYPE" v="Seasonal Road"/>
    <tag k="SHAPE_LENG" v="0.000"/>
    <tag k="CAT2" v="30"/>
  </way>
  <node id='-187' visible='true' lat='41.1790104280725' lon='20.3210761974557' />
  <node id='-188' visible='true' lat='41.1791248404262' lon='20.3215931226905' />
  <node id='-189' visible='true' lat='41.1792264293645' lon='20.3221773449496' />
  <node id='-190' visible='true' lat='41.1792780832996' lon='20.3226157610823' />
  <node id='-191' visible='true' lat='41.1794021893189' lon='20.3228583432003' />
  <node id='-192' visible='true' lat='41.1796113113242' lon='20.3229537339137' />
  <node id='-193' visible='true' lat='41.1799678345741' lon='20.323080124508' />
  <node id='-194' visible='true' lat='41.180080728034' lon='20.3235016667183' />
  <node id='-195' visible='true' lat='41.1800823509635' lon='20.3237780244439' />
  <node id='-196' visible='true' lat='41.1803921867901' lon='20.3243113454812' />
  <node id='-197' visible='true' lat='41.1804426887564' lon='20.3245546911352' />
  <node id='-198' visible='true' lat='41.1804093146523' lon='20.3251403151724' />
  <node id='-199' visible='true' lat='41.1804010466535' lon='20.3258232208488' />
  <node id='-200' visible='true' lat='41.1804023786844' lon='20.3260508161639' />
  <node id='-201' visible='true' lat='41.1805522517038' lon='20.3265044987055' />
  <node id='-202' visible='true' lat='41.1808484781218' lon='20.3268103591055' />
  <node id='-203' visible='true' lat='41.1814395992616' lon='20.3271945013829' />
  <node id='-204' visible='true' lat='41.1816125820801' lon='20.3274040821289' />
  <node id='-205' visible='true' lat='41.1817361132705' lon='20.3275491460411' />
  <node id='-206' visible='true' lat='41.1817444433381' lon='20.327966107392' />
  <node id='-207' visible='true' lat='41.1817222805992' lon='20.3283727810805' />
  <node id='-208' visible='true' lat='41.1817862726163' lon='20.3288273548539' />
  <way id='-209' visible='true'>
    <nd ref='-187' />
    <nd ref='-188' />
    <nd ref='-189' />
    <nd ref='-190' />
    <nd ref='-191' />
    <nd ref='-192' />
    <nd ref='-193' />
    <nd ref='-194' />
    <nd ref='-195' />
    <nd ref='-196' />
    <nd ref='-197' />
    <nd ref='-198' />
    <nd ref='-199' />
    <nd ref='-200' />
    <nd ref='-201' />
    <nd ref='-202' />
    <nd ref='-203' />
    <nd ref='-204' />
    <nd ref='-205' />
    <nd ref='-206' />
    <nd ref='-207' />
    <nd ref='-208' />
    <tag k="ID" v="173781.000"/>
    <tag k="CATEGORY" v="3"/>
    <tag k="SHAPE_LE_1" v="795.721"/>
    <tag k="ET_ID" v="165498"/>
    <tag k="WAY_TYPE" v="Seasonal Road"/>
    <tag k="SHAPE_LENG" v="0.000"/>
    <tag k="CAT2" v="30"/>
  </way>
  <node id='-210' visible='true' lat='41.1871528676917' lon='20.3245536701553' />
  <node id='-211' visible='true' lat='41.186869681241' lon='20.3244889091854' />
  <node id='-212' visible='true' lat='41.1857663727021' lon='20.3240809855824' />
  <node id='-213' visible='true' lat='41.1850534836465' lon='20.3237085223437' />
  <way id='-214' visible='true'>
    <nd ref='-210' />
    <nd ref='-211' />
    <nd ref='-212' />
    <nd ref='-213' />
    <tag k="ID" v="173797.000"/>
    <tag k="CATEGORY" v="3"/>
    <tag k="SHAPE_LE_1" v="244.266"/>
    <tag k="ET_ID" v="165514"/>
    <tag k="WAY_TYPE" v="Seasonal Road"/>
    <tag k="SHAPE_LENG" v="0.000"/>
    <tag k="CAT2" v="30"/>
  </way>
  <node id='-215' visible='true' lat='41.1834064621674' lon='20.315716795385' />
  <node id='-216' visible='true' lat='41.1833308914636' lon='20.3155054565672' />
  <way id='-217' visible='true'>
    <nd ref='-215' />
    <nd ref='-216' />
    <tag k="ID" v="196447.000"/>
    <tag k="CATEGORY" v="1"/>
    <tag k="SHAPE_LE_1" v="19.619"/>
    <tag k="ET_ID" v="180037"/>
    <tag k="WAY_TYPE" v="National Asphalted Road"/>
    <tag k="SHAPE_LENG" v="0.000"/>
    <tag k="CAT2" v="11"/>
  </way>
  <node id='-218' visible='true' lat='41.1839844078218' lon='20.3159465406684' />
  <node id='-219' visible='true' lat='41.1836718921216' lon='20.3160161488197' />
  <node id='-220' visible='true' lat='41.1834963636032' lon='20.3159682115133' />
  <node id='-221' visible='true' lat='41.1834064621674' lon='20.315716795385' />
  <way id='-222' visible='true'>
    <nd ref='-218' />
    <nd ref='-219' />
    <nd ref='-220' />
    <nd ref='-221' />
    <tag k="ID" v="197005.000"/>
    <tag k="CATEGORY" v="1"/>
    <tag k="SHAPE_LE_1" v="78.442"/>
    <tag k="ET_ID" v="187662"/>
    <tag k="WAY_TYPE" v="National Asphalted Road"/>
    <tag k="SHAPE_LENG" v="0.000"/>
    <tag k="CAT2" v="11"/>
  </way>
  <node id='-223' visible='true' lat='41.1779950117138' lon='20.3159466477264' />
  <node id='-224' visible='true' lat='41.177972448826' lon='20.3164706119715' />
  <node id='-225' visible='true' lat='41.1778368687114' lon='20.3169739119079' />
  <node id='-226' visible='true' lat='41.1775121131006' lon='20.3176557990558' />
  <node id='-227' visible='true' lat='41.1773403770279' lon='20.318294119599' />
  <node id='-228' visible='true' lat='41.1772880672248' lon='20.3188210280666' />
  <node id='-229' visible='true' lat='41.1772534354334' lon='20.3192131073544' />
  <node id='-230' visible='true' lat='41.1773139208036' lon='20.3200693563125' />
  <node id='-231' visible='true' lat='41.1771983171025' lon='20.3208295001275' />
  <node id='-232' visible='true' lat='41.176788774871' lon='20.3218742150451' />
  <node id='-233' visible='true' lat='41.1761842338677' lon='20.3227495504339' />
  <node id='-234' visible='true' lat='41.1759423498454' lon='20.3231634931009' />
  <node id='-235' visible='true' lat='41.1757692846137' lon='20.3235814595177' />
  <node id='-236' visible='true' lat='41.1756343241833' lon='20.3241948904705' />
  <node id='-237' visible='true' lat='41.1754059075654' lon='20.3246256664585' />
  <way id='-238' visible='true'>
    <nd ref='-223' />
    <nd ref='-224' />
    <nd ref='-225' />
    <nd ref='-226' />
    <nd ref='-227' />
    <nd ref='-228' />
    <nd ref='-229' />
    <nd ref='-230' />
    <nd ref='-231' />
    <nd ref='-232' />
    <nd ref='-233' />
    <nd ref='-234' />
    <nd ref='-235' />
    <nd ref='-236' />
    <nd ref='-237' />
    <tag k="ID" v="197213.000"/>
    <tag k="CATEGORY" v="1"/>
    <tag k="SHAPE_LE_1" v="808.292"/>
    <tag k="ET_ID" v="187833"/>
    <tag k="WAY_TYPE" v="National Asphalted Road"/>
    <tag k="SHAPE_LENG" v="0.000"/>
    <tag k="CAT2" v="10"/>
  </way>
  <node id='-239' visible='true' lat='41.1754059075654' lon='20.3246256664585' />
  <node id='-240' visible='true' lat='41.1747428377067' lon='20.3249752126031' />
  <node id='-241' visible='true' lat='41.174347935499' lon='20.3253709637518' />
  <node id='-242' visible='true' lat='41.1741760028863' lon='20.3260334579223' />
  <way id='-243' visible='true'>
    <nd ref='-239' />
    <nd ref='-240' />
    <nd ref='-241' />
    <nd ref='-242' />
    <tag k="ID" v="197214.000"/>
    <tag k="CATEGORY" v="1"/>
    <tag k="SHAPE_LE_1" v="193.067"/>
    <tag k="ET_ID" v="187834"/>
    <tag k="WAY_TYPE" v="National Asphalted Road"/>
    <tag k="SHAPE_LENG" v="0.000"/>
    <tag k="CAT2" v="10"/>
  </way>
  <node id='-244' visible='true' lat='41.1741760028863' lon='20.3260334579223' />
  <node id='-245' visible='true' lat='41.1741758576209' lon='20.3270659098355' />
  <way id='-246' visible='true'>
    <nd ref='-244' />
    <nd ref='-245' />
    <tag k="ID" v="197215.000"/>
    <tag k="CATEGORY" v="1"/>
    <tag k="SHAPE_LE_1" v="86.641"/>
    <tag k="ET_ID" v="187835"/>
    <tag k="WAY_TYPE" v="National Asphalted Road"/>
    <tag k="SHAPE_LENG" v="0.000"/>
    <tag k="CAT2" v="10"/>
  </way>
  <node id='-247' visible='true' lat='41.1834064621674' lon='20.315716795385' />
  <node id='-248' visible='true' lat='41.1830886280911' lon='20.3159550814668' />
  <node id='-249' visible='true' lat='41.1824015230479' lon='20.3165636398881' />
  <way id='-250' visible='true'>
    <nd ref='-247' />
    <nd ref='-248' />
    <nd ref='-249' />
    <tag k="ID" v="198623.000"/>
    <tag k="SHAPE_LE_1" v="132.389"/>
    <tag k="ET_ID" v="189282"/>
    <tag k="WAY_TYPE" v="Railroad"/>
    <tag k="SHAPE_LENG" v="0.000"/>
  </way>
  <node id='-251' visible='true' lat='41.1824015230479' lon='20.3165636398881' />
  <node id='-252' visible='true' lat='41.1822387887063' lon='20.3167077675283' />
  <node id='-253' visible='true' lat='41.181909758502' lon='20.3169778124014' />
  <node id='-254' visible='true' lat='41.1810773670274' lon='20.3177150964526' />
  <way id='-255' visible='true'>
    <nd ref='-251' />
    <nd ref='-252' />
    <nd ref='-253' />
    <nd ref='-254' />
    <tag k="ID" v="198624.000"/>
    <tag k="SHAPE_LE_1" v="175.983"/>
    <tag k="ET_ID" v="189283"/>
    <tag k="WAY_TYPE" v="Railroad"/>
    <tag k="SHAPE_LENG" v="0.000"/>
  </way>
  <node id='-256' visible='true' lat='41.1810773670274' lon='20.3177150964526' />
  <node id='-257' visible='true' lat='41.1802226179847' lon='20.3185188910183' />
  <node id='-258' visible='true' lat='41.1797504075495' lon='20.3188856281629' />
  <node id='-259' visible='true' lat='41.1791859090377' lon='20.3194104196711' />
  <node id='-260' visible='true' lat='41.1784565295386' lon='20.3200464161379' />
  <node id='-261' visible='true' lat='41.1781418691237' lon='20.3203162860739' />
  <node id='-262' visible='true' lat='41.1779135655736' lon='20.32060429838' />
  <node id='-263' visible='true' lat='41.1776573003169' lon='20.3210259073961' />
  <node id='-264' visible='true' lat='41.1773437548596' lon='20.3214861908988' />
  <node id='-265' visible='true' lat='41.1770462713864' lon='20.3222319526999' />
  <node id='-266' visible='true' lat='41.1765282506611' lon='20.3232517130957' />
  <node id='-267' visible='true' lat='41.1758744126647' lon='20.3245152854175' />
  <node id='-268' visible='true' lat='41.1755020563324' lon='20.3251865048627' />
  <node id='-269' visible='true' lat='41.175392676558' lon='20.3253572183021' />
  <way id='-270' visible='true'>
    <nd ref='-256' />
    <nd ref='-257' />
    <nd ref='-258' />
    <nd ref='-259' />
    <nd ref='-260' />
    <nd ref='-261' />
    <nd ref='-262' />
    <nd ref='-263' />
    <nd ref='-264' />
    <nd ref='-265' />
    <nd ref='-266' />
    <nd ref='-267' />
    <nd ref='-268' />
    <nd ref='-269' />
    <tag k="ID" v="198625.000"/>
    <tag k="SHAPE_LE_1" v="916.023"/>
    <tag k="ET_ID" v="189284"/>
    <tag k="WAY_TYPE" v="Railroad"/>
    <tag k="SHAPE_LENG" v="0.000"/>
  </way>
  <node id='-271' visible='true' lat='41.175392676558' lon='20.3253572183021' />
  <node id='-272' visible='true' lat='41.1750960895712' lon='20.325820128501' />
  <node id='-273' visible='true' lat='41.1746894845634' lon='20.3263452248088' />
  <node id='-274' visible='true' lat='41.174445723395' lon='20.3266950077909' />
  <node id='-275' visible='true' lat='41.1741758576209' lon='20.3270659098355' />
  <way id='-276' visible='true'>
    <nd ref='-271' />
    <nd ref='-272' />
    <nd ref='-273' />
    <nd ref='-274' />
    <nd ref='-275' />
    <tag k="ID" v="198626.000"/>
    <tag k="SHAPE_LE_1" v="197.169"/>
    <tag k="ET_ID" v="189285"/>
    <tag k="WAY_TYPE" v="Railroad"/>
    <tag k="SHAPE_LENG" v="0.000"/>
  </way>
</osm>
