<?xml version='1.0'?>
<osm version='0.5' generator='shp2osm.pl'>
  <node id='-1' visible='true' lat='42.0030989' lon='19.6316763' />
  <node id='-2' visible='true' lat='42.0049147' lon='19.6338219' />
  <node id='-3' visible='true' lat='42.0066501' lon='19.6356904' />
  <node id='-4' visible='true' lat='42.0074156' lon='19.6366568' />
  <node id='-5' visible='true' lat='42.0075859' lon='19.6394389' />
  <node id='-6' visible='true' lat='42.0078662' lon='19.6429031' />
  <node id='-7' visible='true' lat='42.0085098' lon='19.6468741' />
  <node id='-8' visible='true' lat='42.0091432' lon='19.6481077' />
  <node id='-9' visible='true' lat='42.0097925' lon='19.6487143' />
  <node id='-10' visible='true' lat='42.0093521' lon='19.6503979' />
  <node id='-11' visible='true' lat='42.0092751' lon='19.6528922' />
  <node id='-12' visible='true' lat='42.0094198' lon='19.6545154' />
  <node id='-13' visible='true' lat='42.0095029' lon='19.6555372' />
  <node id='-14' visible='true' lat='42.0099657' lon='19.6557895' />
  <node id='-15' visible='true' lat='42.0103798' lon='19.6560814' />
  <node id='-16' visible='true' lat='42.0108242' lon='19.6569372' />
  <node id='-17' visible='true' lat='42.0111828' lon='19.6582207' />
  <node id='-18' visible='true' lat='42.0108798' lon='19.6595769' />
  <node id='-19' visible='true' lat='42.0109929' lon='19.6607778' />
  <node id='-20' visible='true' lat='42.0109599' lon='19.6624805' />
  <node id='-21' visible='true' lat='42.0110978' lon='19.6625617' />
  <node id='-22' visible='true' lat='42.011251' lon='19.662479' />
  <node id='-23' visible='true' lat='42.0112632' lon='19.661549' />
  <node id='-24' visible='true' lat='42.0113266' lon='19.6602919' />
  <node id='-25' visible='true' lat='42.0115361' lon='19.6590993' />
  <node id='-26' visible='true' lat='42.0119364' lon='19.6581824' />
  <node id='-27' visible='true' lat='42.0116465' lon='19.6565179' />
  <node id='-28' visible='true' lat='42.011511' lon='19.6556938' />
  <node id='-29' visible='true' lat='42.0116166' lon='19.6553548' />
  <node id='-30' visible='true' lat='42.0117849' lon='19.6552578' />
  <node id='-31' visible='true' lat='42.0119502' lon='19.6552259' />
  <node id='-32' visible='true' lat='42.0123828' lon='19.6553457' />
  <node id='-33' visible='true' lat='42.0130639' lon='19.6561404' />
  <node id='-34' visible='true' lat='42.0136885' lon='19.6568752' />
  <node id='-35' visible='true' lat='42.014607' lon='19.6578589' />
  <node id='-36' visible='true' lat='42.0147527' lon='19.6593258' />
  <node id='-37' visible='true' lat='42.0150833' lon='19.6602451' />
  <node id='-38' visible='true' lat='42.0156917' lon='19.6605707' />
  <node id='-39' visible='true' lat='42.0166485' lon='19.6604427' />
  <node id='-40' visible='true' lat='42.0173121' lon='19.6609927' />
  <node id='-41' visible='true' lat='42.0183766' lon='19.6615542' />
  <node id='-42' visible='true' lat='42.0195001' lon='19.6620926' />
  <node id='-43' visible='true' lat='42.0207943' lon='19.6628118' />
  <node id='-44' visible='true' lat='42.0217291' lon='19.6637464' />
  <node id='-45' visible='true' lat='42.0222882' lon='19.664643' />
  <node id='-46' visible='true' lat='42.0226997' lon='19.6665507' />
  <node id='-47' visible='true' lat='42.0237369' lon='19.6675652' />
  <node id='-48' visible='true' lat='42.0243176' lon='19.6705414' />
  <node id='-49' visible='true' lat='42.02403' lon='19.6740646' />
  <node id='-50' visible='true' lat='42.0238502' lon='19.6761139' />
  <node id='-51' visible='true' lat='42.0222684' lon='19.6776239' />
  <node id='-52' visible='true' lat='42.0207583' lon='19.678307' />
  <node id='-53' visible='true' lat='42.0204707' lon='19.6790261' />
  <node id='-54' visible='true' lat='42.0214056' lon='19.6803562' />
  <node id='-55' visible='true' lat='42.0221964' lon='19.6816145' />
  <node id='-56' visible='true' lat='42.0235985' lon='19.6820459' />
  <node id='-57' visible='true' lat='42.0247132' lon='19.682082' />
  <node id='-58' visible='true' lat='42.027805' lon='19.6785226' />
  <node id='-59' visible='true' lat='42.028596' lon='19.6778756' />
  <node id='-60' visible='true' lat='42.0310765' lon='19.6751791' />
  <node id='-61' visible='true' lat='42.0320114' lon='19.6746398' />
  <node id='-62' visible='true' lat='42.0336652' lon='19.6719076' />
  <node id='-63' visible='true' lat='42.0347797' lon='19.6692831' />
  <node id='-64' visible='true' lat='42.0356066' lon='19.6672697' />
  <node id='-65' visible='true' lat='42.0367211' lon='19.6667665' />
  <node id='-66' visible='true' lat='42.0377995' lon='19.6676652' />
  <node id='-67' visible='true' lat='42.0385186' lon='19.6688876' />
  <node id='-68' visible='true' lat='42.0390579' lon='19.6687797' />
  <node id='-69' visible='true' lat='42.0393455' lon='19.667881' />
  <node id='-70' visible='true' lat='42.0391297' lon='19.6654003' />
  <node id='-71' visible='true' lat='42.0392737' lon='19.6638902' />
  <node id='-72' visible='true' lat='42.0407117' lon='19.6639622' />
  <node id='-73' visible='true' lat='42.0421138' lon='19.66407' />
  <node id='-74' visible='true' lat='42.0434081' lon='19.664106' />
  <node id='-75' visible='true' lat='42.0450979' lon='19.6646813' />
  <node id='-76' visible='true' lat='42.0456012' lon='19.6646453' />
  <node id='-77' visible='true' lat='42.0457449' lon='19.663423' />
  <node id='-78' visible='true' lat='42.0451338' lon='19.6616612' />
  <node id='-79' visible='true' lat='42.0456371' lon='19.661086' />
  <node id='-80' visible='true' lat='42.046464' lon='19.6616973' />
  <node id='-81' visible='true' lat='42.0476504' lon='19.6616253' />
  <node id='-82' visible='true' lat='42.0485851' lon='19.6612659' />
  <node id='-83' visible='true' lat='42.0492683' lon='19.6613377' />
  <node id='-84' visible='true' lat='42.0496278' lon='19.662596' />
  <node id='-85' visible='true' lat='42.050203' lon='19.663351' />
  <node id='-86' visible='true' lat='42.0514253' lon='19.6636026' />
  <node id='-87' visible='true' lat='42.0530431' lon='19.6654721' />
  <node id='-88' visible='true' lat='42.0537622' lon='19.6669103' />
  <node id='-89' visible='true' lat='42.053906' lon='19.6684562' />
  <node id='-90' visible='true' lat='42.0535106' lon='19.67011' />
  <node id='-91' visible='true' lat='42.0541217' lon='19.6720155' />
  <node id='-92' visible='true' lat='42.0546251' lon='19.6729142' />
  <node id='-93' visible='true' lat='42.0549127' lon='19.6717638' />
  <node id='-94' visible='true' lat='42.0556316' lon='19.6706493' />
  <node id='-95' visible='true' lat='42.0567463' lon='19.6709008' />
  <node id='-96' visible='true' lat='42.0580764' lon='19.6717997' />
  <node id='-97' visible='true' lat='42.0593707' lon='19.6731659' />
  <node id='-98' visible='true' lat='42.05991' lon='19.6741007' />
  <node id='-99' visible='true' lat='42.0592268' lon='19.6751791' />
  <node id='-100' visible='true' lat='42.0583999' lon='19.6765812' />
  <node id='-101' visible='true' lat='42.0579686' lon='19.6780912' />
  <node id='-102' visible='true' lat='42.0582562' lon='19.6790979' />
  <node id='-103' visible='true' lat='42.0591549' lon='19.678235' />
  <node id='-104' visible='true' lat='42.0603774' lon='19.6779116' />
  <node id='-105' visible='true' lat='42.0627143' lon='19.6776957' />
  <node id='-106' visible='true' lat='42.0636489' lon='19.677516' />
  <node id='-107' visible='true' lat='42.0645118' lon='19.6770127' />
  <node id='-108' visible='true' lat='42.0647994' lon='19.6771925' />
  <node id='-109' visible='true' lat='42.0650151' lon='19.6781992' />
  <node id='-110' visible='true' lat='42.0653027' lon='19.6790261' />
  <node id='-111' visible='true' lat='42.0654105' lon='19.6800686' />
  <node id='-112' visible='true' lat='42.0655185' lon='19.6807517' />
  <node id='-113' visible='true' lat='42.0659498' lon='19.6802844' />
  <node id='-114' visible='true' lat='42.066633' lon='19.680572' />
  <node id='-115' visible='true' lat='42.0674599' lon='19.6809314' />
  <node id='-116' visible='true' lat='42.067388' lon='19.6818662' />
  <node id='-117' visible='true' lat='42.0670643' lon='19.6830166' />
  <node id='-118' visible='true' lat='42.0630737' lon='19.6874387' />
  <node id='-119' visible='true' lat='42.0631096' lon='19.6877983' />
  <node id='-120' visible='true' lat='42.0648714' lon='19.6877983' />
  <node id='-121' visible='true' lat='42.0657342' lon='19.6884094' />
  <node id='-122' visible='true' lat='42.0663454' lon='19.6891284' />
  <node id='-123' visible='true' lat='42.0669924' lon='19.6890566' />
  <node id='-124' visible='true' lat='42.0694731' lon='19.6904587' />
  <node id='-125' visible='true' lat='42.0692214' lon='19.6920766' />
  <node id='-126' visible='true' lat='42.069617' lon='19.693227' />
  <node id='-127' visible='true' lat='42.070336' lon='19.692508' />
  <node id='-128' visible='true' lat='42.0709471' lon='19.692544' />
  <node id='-129' visible='true' lat='42.070336' lon='19.6935865' />
  <node id='-130' visible='true' lat='42.0700843' lon='19.6953123' />
  <node id='-131' visible='true' lat='42.0706956' lon='19.6971817' />
  <node id='-132' visible='true' lat='42.0712347' lon='19.6990872' />
  <node id='-133' visible='true' lat='42.0713427' lon='19.7007049' />
  <node id='-134' visible='true' lat='42.071091' lon='19.702179' />
  <node id='-135' visible='true' lat='42.0703719' lon='19.7034014' />
  <node id='-136' visible='true' lat='42.0699046' lon='19.7040125' />
  <node id='-137' visible='true' lat='42.0704439' lon='19.7048394' />
  <node id='-138' visible='true' lat='42.0706956' lon='19.7054507' />
  <node id='-139' visible='true' lat='42.0705517' lon='19.7064213' />
  <node id='-140' visible='true' lat='42.0705517' lon='19.7081829' />
  <node id='-141' visible='true' lat='42.0674958' lon='19.7121737' />
  <node id='-142' visible='true' lat='42.0682508' lon='19.7135758' />
  <node id='-143' visible='true' lat='42.0687901' lon='19.7145104' />
  <node id='-144' visible='true' lat='42.0673519' lon='19.7154811' />
  <node id='-145' visible='true' lat='42.0657702' lon='19.7163441' />
  <node id='-146' visible='true' lat='42.0641523' lon='19.7162362' />
  <node id='-147' visible='true' lat='42.0630019' lon='19.717099' />
  <node id='-148' visible='true' lat='42.0633972' lon='19.7179259' />
  <node id='-149' visible='true' lat='42.0647634' lon='19.7194359' />
  <node id='-150' visible='true' lat='42.0655903' lon='19.7194' />
  <node id='-151' visible='true' lat='42.067388' lon='19.7213773' />
  <node id='-152' visible='true' lat='42.0690418' lon='19.7224198' />
  <node id='-153' visible='true' lat='42.0695091' lon='19.7229591' />
  <node id='-154' visible='true' lat='42.0694372' lon='19.7243613' />
  <node id='-155' visible='true' lat='42.0693294' lon='19.7254758' />
  <node id='-156' visible='true' lat='42.0699406' lon='19.7265903' />
  <node id='-157' visible='true' lat='42.0704799' lon='19.7265544' />
  <node id='-158' visible='true' lat='42.0710191' lon='19.7255478' />
  <node id='-159' visible='true' lat='42.0720977' lon='19.7248647' />
  <node id='-160' visible='true' lat='42.0730683' lon='19.7258713' />
  <node id='-161' visible='true' lat='42.0730683' lon='19.7280644' />
  <node id='-162' visible='true' lat='42.0737874' lon='19.7283161' />
  <node id='-163' visible='true' lat='42.0746143' lon='19.7288193' />
  <node id='-164' visible='true' lat='42.0752973' lon='19.7286037' />
  <node id='-165' visible='true' lat='42.0758367' lon='19.729862' />
  <node id='-166' visible='true' lat='42.0751536' lon='19.7307966' />
  <node id='-167' visible='true' lat='42.0755131' lon='19.7314438' />
  <node id='-168' visible='true' lat='42.0771309' lon='19.7316596' />
  <node id='-169' visible='true' lat='42.0780297' lon='19.7313359' />
  <way id='-170' visible='true'>
    <nd ref='-1' />
    <nd ref='-2' />
    <nd ref='-3' />
    <nd ref='-4' />
    <nd ref='-5' />
    <nd ref='-6' />
    <nd ref='-7' />
    <nd ref='-8' />
    <nd ref='-9' />
    <nd ref='-10' />
    <nd ref='-11' />
    <nd ref='-12' />
    <nd ref='-13' />
    <nd ref='-14' />
    <nd ref='-15' />
    <nd ref='-16' />
    <nd ref='-17' />
    <nd ref='-18' />
    <nd ref='-19' />
    <nd ref='-20' />
    <nd ref='-21' />
    <nd ref='-22' />
    <nd ref='-23' />
    <nd ref='-24' />
    <nd ref='-25' />
    <nd ref='-26' />
    <nd ref='-27' />
    <nd ref='-28' />
    <nd ref='-29' />
    <nd ref='-30' />
    <nd ref='-31' />
    <nd ref='-32' />
    <nd ref='-33' />
    <nd ref='-34' />
    <nd ref='-35' />
    <nd ref='-36' />
    <nd ref='-37' />
    <nd ref='-38' />
    <nd ref='-39' />
    <nd ref='-40' />
    <nd ref='-41' />
    <nd ref='-42' />
    <nd ref='-43' />
    <nd ref='-44' />
    <nd ref='-45' />
    <nd ref='-46' />
    <nd ref='-47' />
    <nd ref='-48' />
    <nd ref='-49' />
    <nd ref='-50' />
    <nd ref='-51' />
    <nd ref='-52' />
    <nd ref='-53' />
    <nd ref='-54' />
    <nd ref='-55' />
    <nd ref='-56' />
    <nd ref='-57' />
    <nd ref='-58' />
    <nd ref='-59' />
    <nd ref='-60' />
    <nd ref='-61' />
    <nd ref='-62' />
    <nd ref='-63' />
    <nd ref='-64' />
    <nd ref='-65' />
    <nd ref='-66' />
    <nd ref='-67' />
    <nd ref='-68' />
    <nd ref='-69' />
    <nd ref='-70' />
    <nd ref='-71' />
    <nd ref='-72' />
    <nd ref='-73' />
    <nd ref='-74' />
    <nd ref='-75' />
    <nd ref='-76' />
    <nd ref='-77' />
    <nd ref='-78' />
    <nd ref='-79' />
    <nd ref='-80' />
    <nd ref='-81' />
    <nd ref='-82' />
    <nd ref='-83' />
    <nd ref='-84' />
    <nd ref='-85' />
    <nd ref='-86' />
    <nd ref='-87' />
    <nd ref='-88' />
    <nd ref='-89' />
    <nd ref='-90' />
    <nd ref='-91' />
    <nd ref='-92' />
    <nd ref='-93' />
    <nd ref='-94' />
    <nd ref='-95' />
    <nd ref='-96' />
    <nd ref='-97' />
    <nd ref='-98' />
    <nd ref='-99' />
    <nd ref='-100' />
    <nd ref='-101' />
    <nd ref='-102' />
    <nd ref='-103' />
    <nd ref='-104' />
    <nd ref='-105' />
    <nd ref='-106' />
    <nd ref='-107' />
    <nd ref='-108' />
    <nd ref='-109' />
    <nd ref='-110' />
    <nd ref='-111' />
    <nd ref='-112' />
    <nd ref='-113' />
    <nd ref='-114' />
    <nd ref='-115' />
    <nd ref='-116' />
    <nd ref='-117' />
    <nd ref='-118' />
    <nd ref='-119' />
    <nd ref='-120' />
    <nd ref='-121' />
    <nd ref='-122' />
    <nd ref='-123' />
    <nd ref='-124' />
    <nd ref='-125' />
    <nd ref='-126' />
    <nd ref='-127' />
    <nd ref='-128' />
    <nd ref='-129' />
    <nd ref='-130' />
    <nd ref='-131' />
    <nd ref='-132' />
    <nd ref='-133' />
    <nd ref='-134' />
    <nd ref='-135' />
    <nd ref='-136' />
    <nd ref='-137' />
    <nd ref='-138' />
    <nd ref='-139' />
    <nd ref='-140' />
    <nd ref='-141' />
    <nd ref='-142' />
    <nd ref='-143' />
    <nd ref='-144' />
    <nd ref='-145' />
    <nd ref='-146' />
    <nd ref='-147' />
    <nd ref='-148' />
    <nd ref='-149' />
    <nd ref='-150' />
    <nd ref='-151' />
    <nd ref='-152' />
    <nd ref='-153' />
    <nd ref='-154' />
    <nd ref='-155' />
    <nd ref='-156' />
    <nd ref='-157' />
    <nd ref='-158' />
    <nd ref='-159' />
    <nd ref='-160' />
    <nd ref='-161' />
    <nd ref='-162' />
    <nd ref='-163' />
    <nd ref='-164' />
    <nd ref='-165' />
    <nd ref='-166' />
    <nd ref='-167' />
    <nd ref='-168' />
    <nd ref='-169' />
    <tag k="OSM_ID" v="48778383"/>
  </way>
  <node id='-171' visible='true' lat='42.0161727' lon='19.6974431' />
  <node id='-172' visible='true' lat='42.0164692' lon='19.6973632' />
  <node id='-173' visible='true' lat='42.0165841' lon='19.6972187' />
  <node id='-174' visible='true' lat='42.0166526' lon='19.6967193' />
  <node id='-175' visible='true' lat='42.0167064' lon='19.6958644' />
  <node id='-176' visible='true' lat='42.0168018' lon='19.6949235' />
  <node id='-177' visible='true' lat='42.0168281' lon='19.6944535' />
  <node id='-178' visible='true' lat='42.016822' lon='19.6939129' />
  <node id='-179' visible='true' lat='42.0167628' lon='19.6933593' />
  <node id='-180' visible='true' lat='42.016643' lon='19.6930772' />
  <node id='-181' visible='true' lat='42.0163835' lon='19.6926272' />
  <node id='-182' visible='true' lat='42.0163281' lon='19.6924148' />
  <node id='-183' visible='true' lat='42.0163907' lon='19.6923282' />
  <node id='-184' visible='true' lat='42.0166224' lon='19.6922096' />
  <node id='-185' visible='true' lat='42.01695' lon='19.6921175' />
  <node id='-186' visible='true' lat='42.017287' lon='19.6919399' />
  <node id='-187' visible='true' lat='42.0177582' lon='19.6914465' />
  <node id='-188' visible='true' lat='42.0178404' lon='19.6912172' />
  <node id='-189' visible='true' lat='42.017848' lon='19.6909467' />
  <node id='-190' visible='true' lat='42.017835' lon='19.6907478' />
  <node id='-191' visible='true' lat='42.017803' lon='19.6907199' />
  <node id='-192' visible='true' lat='42.0176554' lon='19.6907941' />
  <node id='-193' visible='true' lat='42.0173404' lon='19.6910424' />
  <node id='-194' visible='true' lat='42.0169193' lon='19.691293' />
  <node id='-195' visible='true' lat='42.0164024' lon='19.6915027' />
  <node id='-196' visible='true' lat='42.0160106' lon='19.691525' />
  <node id='-197' visible='true' lat='42.015714' lon='19.691531' />
  <node id='-198' visible='true' lat='42.0154278' lon='19.691537' />
  <node id='-199' visible='true' lat='42.0153648' lon='19.6915809' />
  <node id='-200' visible='true' lat='42.0153346' lon='19.6917238' />
  <node id='-201' visible='true' lat='42.0153174' lon='19.6920657' />
  <node id='-202' visible='true' lat='42.0153273' lon='19.6929334' />
  <node id='-203' visible='true' lat='42.0152277' lon='19.6935044' />
  <node id='-204' visible='true' lat='42.0150727' lon='19.6938491' />
  <node id='-205' visible='true' lat='42.0149256' lon='19.6939659' />
  <node id='-206' visible='true' lat='42.014799' lon='19.6940112' />
  <node id='-207' visible='true' lat='42.0146718' lon='19.6939996' />
  <node id='-208' visible='true' lat='42.0145431' lon='19.6938741' />
  <node id='-209' visible='true' lat='42.0143836' lon='19.6938205' />
  <node id='-210' visible='true' lat='42.0141175' lon='19.6937263' />
  <node id='-211' visible='true' lat='42.0138205' lon='19.6936898' />
  <node id='-212' visible='true' lat='42.0136316' lon='19.6936484' />
  <node id='-213' visible='true' lat='42.0134814' lon='19.6934809' />
  <node id='-214' visible='true' lat='42.013362' lon='19.6932271' />
  <node id='-215' visible='true' lat='42.0131427' lon='19.6925914' />
  <node id='-216' visible='true' lat='42.0129243' lon='19.6920126' />
  <node id='-217' visible='true' lat='42.0127412' lon='19.6917602' />
  <node id='-218' visible='true' lat='42.0124749' lon='19.6916377' />
  <node id='-219' visible='true' lat='42.012187' lon='19.691487' />
  <node id='-220' visible='true' lat='42.0120587' lon='19.6913902' />
  <node id='-221' visible='true' lat='42.0119078' lon='19.6912391' />
  <way id='-222' visible='true'>
    <nd ref='-171' />
    <nd ref='-172' />
    <nd ref='-173' />
    <nd ref='-174' />
    <nd ref='-175' />
    <nd ref='-176' />
    <nd ref='-177' />
    <nd ref='-178' />
    <nd ref='-179' />
    <nd ref='-180' />
    <nd ref='-181' />
    <nd ref='-182' />
    <nd ref='-183' />
    <nd ref='-184' />
    <nd ref='-185' />
    <nd ref='-186' />
    <nd ref='-187' />
    <nd ref='-188' />
    <nd ref='-189' />
    <nd ref='-190' />
    <nd ref='-191' />
    <nd ref='-192' />
    <nd ref='-193' />
    <nd ref='-194' />
    <nd ref='-195' />
    <nd ref='-196' />
    <nd ref='-197' />
    <nd ref='-198' />
    <nd ref='-199' />
    <nd ref='-200' />
    <nd ref='-201' />
    <nd ref='-202' />
    <nd ref='-203' />
    <nd ref='-204' />
    <nd ref='-205' />
    <nd ref='-206' />
    <nd ref='-207' />
    <nd ref='-208' />
    <nd ref='-209' />
    <nd ref='-210' />
    <nd ref='-211' />
    <nd ref='-212' />
    <nd ref='-213' />
    <nd ref='-214' />
    <nd ref='-215' />
    <nd ref='-216' />
    <nd ref='-217' />
    <nd ref='-218' />
    <nd ref='-219' />
    <nd ref='-220' />
    <nd ref='-221' />
    <tag k="OSM_ID" v="52362504"/>
  </way>
  <node id='-223' visible='true' lat='42.0159748' lon='19.6976863' />
  <node id='-224' visible='true' lat='42.0159947' lon='19.6975721' />
  <node id='-225' visible='true' lat='42.0160364' lon='19.6975286' />
  <node id='-226' visible='true' lat='42.0161727' lon='19.6974431' />
  <way id='-227' visible='true'>
    <nd ref='-223' />
    <nd ref='-224' />
    <nd ref='-225' />
    <nd ref='-226' />
    <tag k="OSM_ID" v="52362528"/>
  </way>
  <node id='-228' visible='true' lat='42.0284538' lon='19.7033369' />
  <node id='-229' visible='true' lat='42.0280538' lon='19.7033312' />
  <node id='-230' visible='true' lat='42.0273243' lon='19.7030433' />
  <node id='-231' visible='true' lat='42.0269973' lon='19.7029154' />
  <node id='-232' visible='true' lat='42.0264918' lon='19.7024886' />
  <node id='-233' visible='true' lat='42.0261652' lon='19.7023945' />
  <node id='-234' visible='true' lat='42.0255523' lon='19.7024405' />
  <node id='-235' visible='true' lat='42.0252507' lon='19.7023457' />
  <node id='-236' visible='true' lat='42.0250486' lon='19.7021985' />
  <node id='-237' visible='true' lat='42.024768' lon='19.7017336' />
  <node id='-238' visible='true' lat='42.0244646' lon='19.7014707' />
  <node id='-239' visible='true' lat='42.0241246' lon='19.7012554' />
  <node id='-240' visible='true' lat='42.0237113' lon='19.701247' />
  <node id='-241' visible='true' lat='42.0232367' lon='19.7013576' />
  <node id='-242' visible='true' lat='42.0229256' lon='19.7015151' />
  <node id='-243' visible='true' lat='42.0226717' lon='19.7017726' />
  <way id='-244' visible='true'>
    <nd ref='-228' />
    <nd ref='-229' />
    <nd ref='-230' />
    <nd ref='-231' />
    <nd ref='-232' />
    <nd ref='-233' />
    <nd ref='-234' />
    <nd ref='-235' />
    <nd ref='-236' />
    <nd ref='-237' />
    <nd ref='-238' />
    <nd ref='-239' />
    <nd ref='-240' />
    <nd ref='-241' />
    <nd ref='-242' />
    <nd ref='-243' />
    <tag k="OSM_ID" v="52362509"/>
  </way>
  <node id='-245' visible='true' lat='42.0226717' lon='19.7017726' />
  <node id='-246' visible='true' lat='42.0224181' lon='19.7020298' />
  <node id='-247' visible='true' lat='42.0220339' lon='19.7023906' />
  <node id='-248' visible='true' lat='42.0218106' lon='19.7025633' />
  <node id='-249' visible='true' lat='42.0215974' lon='19.7025341' />
  <node id='-250' visible='true' lat='42.0211442' lon='19.7023079' />
  <node id='-251' visible='true' lat='42.0208689' lon='19.7023304' />
  <node id='-252' visible='true' lat='42.0204451' lon='19.7024903' />
  <node id='-253' visible='true' lat='42.0198857' lon='19.7028378' />
  <node id='-254' visible='true' lat='42.019724' lon='19.702942' />
  <node id='-255' visible='true' lat='42.0192874' lon='19.7030534' />
  <node id='-256' visible='true' lat='42.0179024' lon='19.7034681' />
  <node id='-257' visible='true' lat='42.0175675' lon='19.703744' />
  <node id='-258' visible='true' lat='42.0175213' lon='19.7038729' />
  <way id='-259' visible='true'>
    <nd ref='-245' />
    <nd ref='-246' />
    <nd ref='-247' />
    <nd ref='-248' />
    <nd ref='-249' />
    <nd ref='-250' />
    <nd ref='-251' />
    <nd ref='-252' />
    <nd ref='-253' />
    <nd ref='-254' />
    <nd ref='-255' />
    <nd ref='-256' />
    <nd ref='-257' />
    <nd ref='-258' />
    <tag k="OSM_ID" v="52362530"/>
  </way>
  <node id='-260' visible='true' lat='42.0175213' lon='19.7038729' />
  <node id='-261' visible='true' lat='42.0174583' lon='19.7040487' />
  <node id='-262' visible='true' lat='42.0174608' lon='19.7042672' />
  <node id='-263' visible='true' lat='42.0177041' lon='19.7047497' />
  <node id='-264' visible='true' lat='42.018291' lon='19.7057296' />
  <node id='-265' visible='true' lat='42.0186496' lon='19.7064452' />
  <node id='-266' visible='true' lat='42.018972' lon='19.7072791' />
  <node id='-267' visible='true' lat='42.0192695' lon='19.7081136' />
  <node id='-268' visible='true' lat='42.0193984' lon='19.7084471' />
  <node id='-269' visible='true' lat='42.0194127' lon='19.708615' />
  <node id='-270' visible='true' lat='42.0193507' lon='19.7086666' />
  <node id='-271' visible='true' lat='42.019212' lon='19.7085687' />
  <node id='-272' visible='true' lat='42.0190081' lon='19.7082534' />
  <node id='-273' visible='true' lat='42.0187521' lon='19.7077543' />
  <node id='-274' visible='true' lat='42.0184315' lon='19.7070883' />
  <node id='-275' visible='true' lat='42.018176' lon='19.7066397' />
  <node id='-276' visible='true' lat='42.0178701' lon='19.7061583' />
  <node id='-277' visible='true' lat='42.0175027' lon='19.7057624' />
  <node id='-278' visible='true' lat='42.0172634' lon='19.7056496' />
  <node id='-279' visible='true' lat='42.0170377' lon='19.7056037' />
  <node id='-280' visible='true' lat='42.0168875' lon='19.7056235' />
  <node id='-281' visible='true' lat='42.0165999' lon='19.7056463' />
  <node id='-282' visible='true' lat='42.016164' lon='19.7058567' />
  <node id='-283' visible='true' lat='42.0159391' lon='19.705895' />
  <node id='-284' visible='true' lat='42.015688' lon='19.7058329' />
  <node id='-285' visible='true' lat='42.0153729' lon='19.7056375' />
  <node id='-286' visible='true' lat='42.0150817' lon='19.7053577' />
  <node id='-287' visible='true' lat='42.0147552' lon='19.7049887' />
  <way id='-288' visible='true'>
    <nd ref='-260' />
    <nd ref='-261' />
    <nd ref='-262' />
    <nd ref='-263' />
    <nd ref='-264' />
    <nd ref='-265' />
    <nd ref='-266' />
    <nd ref='-267' />
    <nd ref='-268' />
    <nd ref='-269' />
    <nd ref='-270' />
    <nd ref='-271' />
    <nd ref='-272' />
    <nd ref='-273' />
    <nd ref='-274' />
    <nd ref='-275' />
    <nd ref='-276' />
    <nd ref='-277' />
    <nd ref='-278' />
    <nd ref='-279' />
    <nd ref='-280' />
    <nd ref='-281' />
    <nd ref='-282' />
    <nd ref='-283' />
    <nd ref='-284' />
    <nd ref='-285' />
    <nd ref='-286' />
    <nd ref='-287' />
    <tag k="OSM_ID" v="52362510"/>
  </way>
  <node id='-289' visible='true' lat='42.0158806' lon='19.7214707' />
  <node id='-290' visible='true' lat='42.015416' lon='19.7213455' />
  <node id='-291' visible='true' lat='42.0151898' lon='19.7212661' />
  <node id='-292' visible='true' lat='42.0148495' lon='19.7210712' />
  <node id='-293' visible='true' lat='42.0144451' lon='19.7207262' />
  <node id='-294' visible='true' lat='42.0142924' lon='19.7205109' />
  <node id='-295' visible='true' lat='42.0141406' lon='19.7203794' />
  <node id='-296' visible='true' lat='42.0137009' lon='19.720237' />
  <node id='-297' visible='true' lat='42.0131482' lon='19.7200799' />
  <node id='-298' visible='true' lat='42.0130325' lon='19.7197965' />
  <node id='-299' visible='true' lat='42.0130296' lon='19.7195456' />
  <way id='-300' visible='true'>
    <nd ref='-289' />
    <nd ref='-290' />
    <nd ref='-291' />
    <nd ref='-292' />
    <nd ref='-293' />
    <nd ref='-294' />
    <nd ref='-295' />
    <nd ref='-296' />
    <nd ref='-297' />
    <nd ref='-298' />
    <nd ref='-299' />
    <tag k="OSM_ID" v="52362516"/>
  </way>
  <node id='-301' visible='true' lat='42.0153291' lon='19.7259296' />
  <node id='-302' visible='true' lat='42.0153383' lon='19.7256166' />
  <node id='-303' visible='true' lat='42.0151522' lon='19.7246455' />
  <node id='-304' visible='true' lat='42.0147885' lon='19.7234592' />
  <node id='-305' visible='true' lat='42.0147826' lon='19.7229382' />
  <node id='-306' visible='true' lat='42.014805' lon='19.7227026' />
  <node id='-307' visible='true' lat='42.0149538' lon='19.7225651' />
  <node id='-308' visible='true' lat='42.0154412' lon='19.722488' />
  <node id='-309' visible='true' lat='42.016229' lon='19.722405' />
  <node id='-310' visible='true' lat='42.0163904' lon='19.7222842' />
  <node id='-311' visible='true' lat='42.0164017' lon='19.7221663' />
  <node id='-312' visible='true' lat='42.0163616' lon='19.7219486' />
  <node id='-313' visible='true' lat='42.0161704' lon='19.721633' />
  <node id='-314' visible='true' lat='42.0158806' lon='19.7214707' />
  <way id='-315' visible='true'>
    <nd ref='-301' />
    <nd ref='-302' />
    <nd ref='-303' />
    <nd ref='-304' />
    <nd ref='-305' />
    <nd ref='-306' />
    <nd ref='-307' />
    <nd ref='-308' />
    <nd ref='-309' />
    <nd ref='-310' />
    <nd ref='-311' />
    <nd ref='-312' />
    <nd ref='-313' />
    <nd ref='-314' />
    <tag k="OSM_ID" v="52362513"/>
  </way>
  <node id='-316' visible='true' lat='42.0191835' lon='19.7409768' />
  <node id='-317' visible='true' lat='42.0190803' lon='19.7406931' />
  <node id='-318' visible='true' lat='42.0189638' lon='19.7403423' />
  <node id='-319' visible='true' lat='42.0187858' lon='19.7400938' />
  <way id='-320' visible='true'>
    <nd ref='-316' />
    <nd ref='-317' />
    <nd ref='-318' />
    <nd ref='-319' />
    <tag k="OSM_ID" v="52362502"/>
  </way>
  <node id='-321' visible='true' lat='42.0205719' lon='19.7424055' />
  <node id='-322' visible='true' lat='42.0203466' lon='19.742187' />
  <node id='-323' visible='true' lat='42.0197142' lon='19.7415944' />
  <node id='-324' visible='true' lat='42.0193976' lon='19.7412811' />
  <node id='-325' visible='true' lat='42.0191835' lon='19.7409768' />
  <way id='-326' visible='true'>
    <nd ref='-321' />
    <nd ref='-322' />
    <nd ref='-323' />
    <nd ref='-324' />
    <nd ref='-325' />
    <tag k="OSM_ID" v="52362515"/>
  </way>
  <node id='-327' visible='true' lat='42.0208125' lon='19.7461663' />
  <node id='-328' visible='true' lat='42.02079' lon='19.7460951' />
  <node id='-329' visible='true' lat='42.0205717' lon='19.745595' />
  <node id='-330' visible='true' lat='42.0205302' lon='19.7452261' />
  <node id='-331' visible='true' lat='42.0205266' lon='19.7449067' />
  <node id='-332' visible='true' lat='42.0207222' lon='19.7444659' />
  <node id='-333' visible='true' lat='42.0208557' lon='19.7440934' />
  <node id='-334' visible='true' lat='42.0212003' lon='19.7435487' />
  <node id='-335' visible='true' lat='42.0212851' lon='19.7432781' />
  <node id='-336' visible='true' lat='42.0212581' lon='19.7431105' />
  <node id='-337' visible='true' lat='42.0209919' lon='19.7428132' />
  <node id='-338' visible='true' lat='42.0205719' lon='19.7424055' />
  <way id='-339' visible='true'>
    <nd ref='-327' />
    <nd ref='-328' />
    <nd ref='-329' />
    <nd ref='-330' />
    <nd ref='-331' />
    <nd ref='-332' />
    <nd ref='-333' />
    <nd ref='-334' />
    <nd ref='-335' />
    <nd ref='-336' />
    <nd ref='-337' />
    <nd ref='-338' />
    <tag k="OSM_ID" v="52362519"/>
  </way>
  <node id='-340' visible='true' lat='42.0211703' lon='19.7476678' />
  <node id='-341' visible='true' lat='42.0210925' lon='19.7474172' />
  <node id='-342' visible='true' lat='42.0210246' lon='19.7469478' />
  <node id='-343' visible='true' lat='42.0209327' lon='19.7465462' />
  <node id='-344' visible='true' lat='42.0208125' lon='19.7461663' />
  <way id='-345' visible='true'>
    <nd ref='-340' />
    <nd ref='-341' />
    <nd ref='-342' />
    <nd ref='-343' />
    <nd ref='-344' />
    <tag k="OSM_ID" v="52362527"/>
  </way>
  <node id='-346' visible='true' lat='41.9991434' lon='19.6011142' />
  <node id='-347' visible='true' lat='41.9994924' lon='19.6017368' />
  <node id='-348' visible='true' lat='42.0015166' lon='19.6050001' />
  <way id='-349' visible='true'>
    <nd ref='-346' />
    <nd ref='-347' />
    <nd ref='-348' />
    <tag k="OSM_ID" v="52362448"/>
  </way>
  <node id='-350' visible='true' lat='41.9914629' lon='19.6015568' />
  <node id='-351' visible='true' lat='41.9916431' lon='19.6020859' />
  <way id='-352' visible='true'>
    <nd ref='-350' />
    <nd ref='-351' />
    <tag k="OSM_ID" v="48736387"/>
  </way>
  <node id='-353' visible='true' lat='42.0126659' lon='19.6023515' />
  <node id='-354' visible='true' lat='42.0123858' lon='19.6022788' />
  <node id='-355' visible='true' lat='42.0119451' lon='19.6022885' />
  <node id='-356' visible='true' lat='42.0117393' lon='19.6022733' />
  <node id='-357' visible='true' lat='42.0113824' lon='19.6019261' />
  <node id='-358' visible='true' lat='42.0110591' lon='19.6019332' />
  <node id='-359' visible='true' lat='42.0104748' lon='19.602222' />
  <node id='-360' visible='true' lat='42.0096544' lon='19.6024175' />
  <node id='-361' visible='true' lat='42.0087819' lon='19.6035572' />
  <way id='-362' visible='true'>
    <nd ref='-353' />
    <nd ref='-354' />
    <nd ref='-355' />
    <nd ref='-356' />
    <nd ref='-357' />
    <nd ref='-358' />
    <nd ref='-359' />
    <nd ref='-360' />
    <nd ref='-361' />
    <tag k="NAME" v="No Name"/>
    <tag k="OSM_ID" v="52435164"/>
  </way>
  <node id='-363' visible='true' lat='42.0014998' lon='19.6053621' />
  <node id='-364' visible='true' lat='42.0022607' lon='19.6068305' />
  <node id='-365' visible='true' lat='42.0033971' lon='19.6091453' />
  <node id='-366' visible='true' lat='42.0037289' lon='19.6097235' />
  <node id='-367' visible='true' lat='42.0038504' lon='19.60987' />
  <node id='-368' visible='true' lat='42.0053689' lon='19.6105051' />
  <node id='-369' visible='true' lat='42.0055856' lon='19.6107529' />
  <node id='-370' visible='true' lat='42.0062189' lon='19.6114968' />
  <node id='-371' visible='true' lat='42.0065547' lon='19.6118716' />
  <node id='-372' visible='true' lat='42.0080062' lon='19.6138146' />
  <node id='-373' visible='true' lat='42.0083988' lon='19.614449' />
  <node id='-374' visible='true' lat='42.0084185' lon='19.6147148' />
  <way id='-375' visible='true'>
    <nd ref='-363' />
    <nd ref='-364' />
    <nd ref='-365' />
    <nd ref='-366' />
    <nd ref='-367' />
    <nd ref='-368' />
    <nd ref='-369' />
    <nd ref='-370' />
    <nd ref='-371' />
    <nd ref='-372' />
    <nd ref='-373' />
    <nd ref='-374' />
    <tag k="OSM_ID" v="52362446"/>
  </way>
  <node id='-376' visible='true' lat='41.9959668' lon='19.6123486' />
  <node id='-377' visible='true' lat='41.9968256' lon='19.6137633' />
  <node id='-378' visible='true' lat='41.9977532' lon='19.6151277' />
  <node id='-379' visible='true' lat='41.9990146' lon='19.6161701' />
  <node id='-380' visible='true' lat='41.9999967' lon='19.616955' />
  <node id='-381' visible='true' lat='42.0017035' lon='19.617332' />
  <node id='-382' visible='true' lat='42.0046908' lon='19.6178582' />
  <node id='-383' visible='true' lat='42.0056612' lon='19.6180294' />
  <node id='-384' visible='true' lat='42.0063158' lon='19.6181818' />
  <node id='-385' visible='true' lat='42.0065166' lon='19.6186885' />
  <node id='-386' visible='true' lat='42.0061119' lon='19.6203849' />
  <node id='-387' visible='true' lat='42.0050918' lon='19.6226881' />
  <node id='-388' visible='true' lat='42.0044802' lon='19.6240394' />
  <node id='-389' visible='true' lat='42.003677' lon='19.6255863' />
  <node id='-390' visible='true' lat='42.0022907' lon='19.627124' />
  <node id='-391' visible='true' lat='42.002022' lon='19.6294475' />
  <node id='-392' visible='true' lat='42.0021054' lon='19.6306368' />
  <node id='-393' visible='true' lat='42.0028026' lon='19.6313539' />
  <way id='-394' visible='true'>
    <nd ref='-376' />
    <nd ref='-377' />
    <nd ref='-378' />
    <nd ref='-379' />
    <nd ref='-380' />
    <nd ref='-381' />
    <nd ref='-382' />
    <nd ref='-383' />
    <nd ref='-384' />
    <nd ref='-385' />
    <nd ref='-386' />
    <nd ref='-387' />
    <nd ref='-388' />
    <nd ref='-389' />
    <nd ref='-390' />
    <nd ref='-391' />
    <nd ref='-392' />
    <nd ref='-393' />
    <tag k="OSM_ID" v="30449186"/>
  </way>
  <node id='-395' visible='true' lat='42.0084185' lon='19.6147148' />
  <node id='-396' visible='true' lat='42.0084192' lon='19.6147241' />
  <node id='-397' visible='true' lat='42.0084153' lon='19.615103' />
  <node id='-398' visible='true' lat='42.0082932' lon='19.6156222' />
  <node id='-399' visible='true' lat='42.0071883' lon='19.618321' />
  <node id='-400' visible='true' lat='42.0071171' lon='19.618493' />
  <way id='-401' visible='true'>
    <nd ref='-395' />
    <nd ref='-396' />
    <nd ref='-397' />
    <nd ref='-398' />
    <nd ref='-399' />
    <nd ref='-400' />
    <tag k="OSM_ID" v="52362451"/>
  </way>
  <node id='-402' visible='true' lat='42.0028026' lon='19.6313539' />
  <node id='-403' visible='true' lat='42.0030989' lon='19.6316763' />
  <way id='-404' visible='true'>
    <nd ref='-402' />
    <nd ref='-403' />
    <tag k="OSM_ID" v="48778384"/>
  </way>
</osm>
