<?xml version='1.0'?>
<osm version='0.5' generator='shp2osm.pl'>
  <node id='-1' visible='true' lat='40.514006' lon='20.697213' />
  <node id='-2' visible='true' lat='40.5145589' lon='20.6984069' />
  <node id='-3' visible='true' lat='40.514808' lon='20.6992319' />
  <node id='-4' visible='true' lat='40.5151099' lon='20.699639' />
  <node id='-5' visible='true' lat='40.516592' lon='20.7009469' />
  <node id='-6' visible='true' lat='40.5168269' lon='20.701325' />
  <node id='-7' visible='true' lat='40.5175819' lon='20.70191' />
  <node id='-8' visible='true' lat='40.522665' lon='20.7031349' />
  <node id='-9' visible='true' lat='40.5230859' lon='20.703486' />
  <node id='-10' visible='true' lat='40.523926' lon='20.704781' />
  <node id='-11' visible='true' lat='40.5249099' lon='20.706814' />
  <node id='-12' visible='true' lat='40.525137' lon='20.70748' />
  <node id='-13' visible='true' lat='40.525559' lon='20.7080979' />
  <node id='-14' visible='true' lat='40.5272209' lon='20.709734' />
  <node id='-15' visible='true' lat='40.5284959' lon='20.71132' />
  <node id='-16' visible='true' lat='40.529741' lon='20.713449' />
  <node id='-17' visible='true' lat='40.530399' lon='20.714033' />
  <node id='-18' visible='true' lat='40.5324749' lon='20.715339' />
  <node id='-19' visible='true' lat='40.5346359' lon='20.7171899' />
  <node id='-20' visible='true' lat='40.536037' lon='20.7177289' />
  <node id='-21' visible='true' lat='40.537773' lon='20.7182829' />
  <node id='-22' visible='true' lat='40.5394229' lon='20.718934' />
  <node id='-23' visible='true' lat='40.540399' lon='20.71983' />
  <node id='-24' visible='true' lat='40.542155' lon='20.7217699' />
  <node id='-25' visible='true' lat='40.5431269' lon='20.722621' />
  <node id='-26' visible='true' lat='40.5450299' lon='20.7236' />
  <node id='-27' visible='true' lat='40.546832' lon='20.724709' />
  <node id='-28' visible='true' lat='40.54874' lon='20.7262069' />
  <node id='-29' visible='true' lat='40.550843' lon='20.727689' />
  <node id='-30' visible='true' lat='40.5521499' lon='20.728408' />
  <node id='-31' visible='true' lat='40.5534379' lon='20.7293359' />
  <node id='-32' visible='true' lat='40.555109' lon='20.730695' />
  <node id='-33' visible='true' lat='40.558331' lon='20.7335039' />
  <node id='-34' visible='true' lat='40.5590419' lon='20.734397' />
  <node id='-35' visible='true' lat='40.560341' lon='20.735295' />
  <node id='-36' visible='true' lat='40.5612319' lon='20.736108' />
  <node id='-37' visible='true' lat='40.5621289' lon='20.7371589' />
  <node id='-38' visible='true' lat='40.563406' lon='20.7393229' />
  <node id='-39' visible='true' lat='40.5644289' lon='20.7411829' />
  <node id='-40' visible='true' lat='40.565609' lon='20.7434609' />
  <node id='-41' visible='true' lat='40.566282' lon='20.7445969' />
  <node id='-42' visible='true' lat='40.5663869' lon='20.744986' />
  <way id='-43' visible='true'>
    <nd ref='-1' />
    <nd ref='-2' />
    <nd ref='-3' />
    <nd ref='-4' />
    <nd ref='-5' />
    <nd ref='-6' />
    <nd ref='-7' />
    <nd ref='-8' />
    <nd ref='-9' />
    <nd ref='-10' />
    <nd ref='-11' />
    <nd ref='-12' />
    <nd ref='-13' />
    <nd ref='-14' />
    <nd ref='-15' />
    <nd ref='-16' />
    <nd ref='-17' />
    <nd ref='-18' />
    <nd ref='-19' />
    <nd ref='-20' />
    <nd ref='-21' />
    <nd ref='-22' />
    <nd ref='-23' />
    <nd ref='-24' />
    <nd ref='-25' />
    <nd ref='-26' />
    <nd ref='-27' />
    <nd ref='-28' />
    <nd ref='-29' />
    <nd ref='-30' />
    <nd ref='-31' />
    <nd ref='-32' />
    <nd ref='-33' />
    <nd ref='-34' />
    <nd ref='-35' />
    <nd ref='-36' />
    <nd ref='-37' />
    <nd ref='-38' />
    <nd ref='-39' />
    <nd ref='-40' />
    <nd ref='-41' />
    <nd ref='-42' />
    <tag k="OSM_ID" v="30459155"/>
  </way>
</osm>
