<?xml version='1.0'?>
<osm version='0.5' generator='shp2osm.pl'>
  <node id='-1' visible='true' lat='42.0574852' lon='20.5357787' />
  <node id='-2' visible='true' lat='42.0575164' lon='20.5364436' />
  <node id='-3' visible='true' lat='42.0573861' lon='20.5372121' />
  <node id='-4' visible='true' lat='42.0573314' lon='20.5378264' />
  <way id='-5' visible='true'>
    <nd ref='-1' />
    <nd ref='-2' />
    <nd ref='-3' />
    <nd ref='-4' />
    <tag k="OSM_ID" v="49171938"/>
  </way>
  <node id='-6' visible='true' lat='42.0592289' lon='20.5332846' />
  <node id='-7' visible='true' lat='42.0588715' lon='20.5344641' />
  <node id='-8' visible='true' lat='42.0584172' lon='20.5352603' />
  <node id='-9' visible='true' lat='42.0580751' lon='20.5355443' />
  <node id='-10' visible='true' lat='42.0577127' lon='20.5354957' />
  <node id='-11' visible='true' lat='42.0574852' lon='20.5357787' />
  <way id='-12' visible='true'>
    <nd ref='-6' />
    <nd ref='-7' />
    <nd ref='-8' />
    <nd ref='-9' />
    <nd ref='-10' />
    <nd ref='-11' />
    <tag k="OSM_ID" v="49171935"/>
  </way>
  <node id='-13' visible='true' lat='42.0573314' lon='20.5378264' />
  <node id='-14' visible='true' lat='42.0577334' lon='20.5382584' />
  <node id='-15' visible='true' lat='42.0582487' lon='20.5383825' />
  <node id='-16' visible='true' lat='42.058783' lon='20.5385321' />
  <node id='-17' visible='true' lat='42.0595088' lon='20.5388595' />
  <node id='-18' visible='true' lat='42.0596614' lon='20.5389096' />
  <node id='-19' visible='true' lat='42.0601565' lon='20.5387525' />
  <node id='-20' visible='true' lat='42.0605373' lon='20.5386218' />
  <node id='-21' visible='true' lat='42.0608818' lon='20.5389775' />
  <node id='-22' visible='true' lat='42.0613591' lon='20.5391531' />
  <node id='-23' visible='true' lat='42.0618357' lon='20.5391496' />
  <node id='-24' visible='true' lat='42.0623503' lon='20.5391204' />
  <node id='-25' visible='true' lat='42.0625207' lon='20.5388121' />
  <node id='-26' visible='true' lat='42.0625566' lon='20.5382491' />
  <node id='-27' visible='true' lat='42.0628013' lon='20.5375054' />
  <way id='-28' visible='true'>
    <nd ref='-13' />
    <nd ref='-14' />
    <nd ref='-15' />
    <nd ref='-16' />
    <nd ref='-17' />
    <nd ref='-18' />
    <nd ref='-19' />
    <nd ref='-20' />
    <nd ref='-21' />
    <nd ref='-22' />
    <nd ref='-23' />
    <nd ref='-24' />
    <nd ref='-25' />
    <nd ref='-26' />
    <nd ref='-27' />
    <tag k="OSM_ID" v="49171937"/>
  </way>
  <node id='-29' visible='true' lat='42.0573314' lon='20.5378264' />
  <node id='-30' visible='true' lat='42.0569699' lon='20.5380336' />
  <node id='-31' visible='true' lat='42.0566841' lon='20.5380614' />
  <node id='-32' visible='true' lat='42.0562461' lon='20.5381669' />
  <node id='-33' visible='true' lat='42.0557701' lon='20.5383238' />
  <node id='-34' visible='true' lat='42.0551796' lon='20.5384303' />
  <node id='-35' visible='true' lat='42.054779' lon='20.538382' />
  <node id='-36' visible='true' lat='42.0542437' lon='20.5380022' />
  <node id='-37' visible='true' lat='42.0537652' lon='20.5375197' />
  <node id='-38' visible='true' lat='42.053498' lon='20.5374705' />
  <node id='-39' visible='true' lat='42.0527932' lon='20.5375779' />
  <node id='-40' visible='true' lat='42.0522409' lon='20.5377098' />
  <node id='-41' visible='true' lat='42.051973' lon='20.5375072' />
  <node id='-42' visible='true' lat='42.0514' lon='20.5372044' />
  <node id='-43' visible='true' lat='42.051113' lon='20.5369506' />
  <node id='-44' visible='true' lat='42.0507307' lon='20.5366977' />
  <way id='-45' visible='true'>
    <nd ref='-29' />
    <nd ref='-30' />
    <nd ref='-31' />
    <nd ref='-32' />
    <nd ref='-33' />
    <nd ref='-34' />
    <nd ref='-35' />
    <nd ref='-36' />
    <nd ref='-37' />
    <nd ref='-38' />
    <nd ref='-39' />
    <nd ref='-40' />
    <nd ref='-41' />
    <nd ref='-42' />
    <nd ref='-43' />
    <nd ref='-44' />
    <tag k="OSM_ID" v="49171892"/>
  </way>
  <node id='-46' visible='true' lat='42.0413526' lon='20.5346687' />
  <node id='-47' visible='true' lat='42.0418876' lon='20.5349716' />
  <node id='-48' visible='true' lat='42.0424234' lon='20.5354792' />
  <node id='-49' visible='true' lat='42.0432443' lon='20.5357802' />
  <node id='-50' visible='true' lat='42.0444847' lon='20.5360781' />
  <node id='-51' visible='true' lat='42.0459901' lon='20.5359136' />
  <node id='-52' visible='true' lat='42.0474391' lon='20.5359543' />
  <node id='-53' visible='true' lat='42.0484504' lon='20.5361516' />
  <node id='-54' visible='true' lat='42.0489856' lon='20.5365056' />
  <node id='-55' visible='true' lat='42.0494817' lon='20.5366044' />
  <node id='-56' visible='true' lat='42.0498995' lon='20.5362177' />
  <node id='-57' visible='true' lat='42.0504334' lon='20.5362393' />
  <node id='-58' visible='true' lat='42.0507307' lon='20.5366977' />
  <way id='-59' visible='true'>
    <nd ref='-46' />
    <nd ref='-47' />
    <nd ref='-48' />
    <nd ref='-49' />
    <nd ref='-50' />
    <nd ref='-51' />
    <nd ref='-52' />
    <nd ref='-53' />
    <nd ref='-54' />
    <nd ref='-55' />
    <nd ref='-56' />
    <nd ref='-57' />
    <nd ref='-58' />
    <tag k="OSM_ID" v="49171910"/>
  </way>
  <node id='-60' visible='true' lat='42.0574852' lon='20.5357787' />
  <node id='-61' visible='true' lat='42.0571715' lon='20.5360112' />
  <node id='-62' visible='true' lat='42.0569247' lon='20.5362434' />
  <node id='-63' visible='true' lat='42.0566023' lon='20.5366806' />
  <node id='-64' visible='true' lat='42.056184' lon='20.5369394' />
  <node id='-65' visible='true' lat='42.0558782' lon='20.5367625' />
  <node id='-66' visible='true' lat='42.0555531' lon='20.5365347' />
  <node id='-67' visible='true' lat='42.0552654' lon='20.5361019' />
  <node id='-68' visible='true' lat='42.0550349' lon='20.5356431' />
  <node id='-69' visible='true' lat='42.0548039' lon='20.5351077' />
  <node id='-70' visible='true' lat='42.0545359' lon='20.5348283' />
  <node id='-71' visible='true' lat='42.0538681' lon='20.5346797' />
  <node id='-72' visible='true' lat='42.0534674' lon='20.5346058' />
  <node id='-73' visible='true' lat='42.0531805' lon='20.5343777' />
  <node id='-74' visible='true' lat='42.0528365' lon='20.5341756' />
  <node id='-75' visible='true' lat='42.0525882' lon='20.5340494' />
  <node id='-76' visible='true' lat='42.0523194' lon='20.5335655' />
  <node id='-77' visible='true' lat='42.0520884' lon='20.5330043' />
  <node id='-78' visible='true' lat='42.0518765' lon='20.5324944' />
  <node id='-79' visible='true' lat='42.0514542' lon='20.5317557' />
  <node id='-80' visible='true' lat='42.0508625' lon='20.5315809' />
  <node id='-81' visible='true' lat='42.0505958' lon='20.5316341' />
  <node id='-82' visible='true' lat='42.0502911' lon='20.5317131' />
  <node id='-83' visible='true' lat='42.0500024' lon='20.5310757' />
  <node id='-84' visible='true' lat='42.0496967' lon='20.530899' />
  <node id='-85' visible='true' lat='42.0490475' lon='20.5306223' />
  <node id='-86' visible='true' lat='42.0487226' lon='20.5304457' />
  <node id='-87' visible='true' lat='42.0483781' lon='20.5300902' />
  <node id='-88' visible='true' lat='42.047767' lon='20.5298389' />
  <node id='-89' visible='true' lat='42.0472516' lon='20.5296893' />
  <node id='-90' visible='true' lat='42.0467938' lon='20.5296158' />
  <node id='-91' visible='true' lat='42.0463742' lon='20.5295678' />
  <node id='-92' visible='true' lat='42.0461067' lon='20.5294163' />
  <node id='-93' visible='true' lat='42.0457238' lon='20.5290356' />
  <node id='-94' visible='true' lat='42.0452666' lon='20.5291156' />
  <node id='-95' visible='true' lat='42.0449432' lon='20.5292971' />
  <node id='-96' visible='true' lat='42.044355' lon='20.5299663' />
  <node id='-97' visible='true' lat='42.0439464' lon='20.5302506' />
  <node id='-98' visible='true' lat='42.0436043' lon='20.5305345' />
  <node id='-99' visible='true' lat='42.0430911' lon='20.530922' />
  <node id='-100' visible='true' lat='42.0424062' lon='20.5312339' />
  <node id='-101' visible='true' lat='42.041664' lon='20.5315718' />
  <node id='-102' visible='true' lat='42.0410365' lon='20.53196' />
  <node id='-103' visible='true' lat='42.040657' lon='20.5323975' />
  <node id='-104' visible='true' lat='42.0407934' lon='20.5331383' />
  <node id='-105' visible='true' lat='42.0410631' lon='20.5338013' />
  <node id='-106' visible='true' lat='42.0413526' lon='20.5346687' />
  <way id='-107' visible='true'>
    <nd ref='-60' />
    <nd ref='-61' />
    <nd ref='-62' />
    <nd ref='-63' />
    <nd ref='-64' />
    <nd ref='-65' />
    <nd ref='-66' />
    <nd ref='-67' />
    <nd ref='-68' />
    <nd ref='-69' />
    <nd ref='-70' />
    <nd ref='-71' />
    <nd ref='-72' />
    <nd ref='-73' />
    <nd ref='-74' />
    <nd ref='-75' />
    <nd ref='-76' />
    <nd ref='-77' />
    <nd ref='-78' />
    <nd ref='-79' />
    <nd ref='-80' />
    <nd ref='-81' />
    <nd ref='-82' />
    <nd ref='-83' />
    <nd ref='-84' />
    <nd ref='-85' />
    <nd ref='-86' />
    <nd ref='-87' />
    <nd ref='-88' />
    <nd ref='-89' />
    <nd ref='-90' />
    <nd ref='-91' />
    <nd ref='-92' />
    <nd ref='-93' />
    <nd ref='-94' />
    <nd ref='-95' />
    <nd ref='-96' />
    <nd ref='-97' />
    <nd ref='-98' />
    <nd ref='-99' />
    <nd ref='-100' />
    <nd ref='-101' />
    <nd ref='-102' />
    <nd ref='-103' />
    <nd ref='-104' />
    <nd ref='-105' />
    <nd ref='-106' />
    <tag k="OSM_ID" v="49171889"/>
  </way>
  <node id='-108' visible='true' lat='42.0337361' lon='20.5116331' />
  <node id='-109' visible='true' lat='42.033945' lon='20.5114525' />
  <node id='-110' visible='true' lat='42.0341929' lon='20.5114505' />
  <node id='-111' visible='true' lat='42.0345739' lon='20.5113965' />
  <node id='-112' visible='true' lat='42.0349374' lon='20.5117006' />
  <node id='-113' visible='true' lat='42.0351483' lon='20.5119803' />
  <node id='-114' visible='true' lat='42.0355507' lon='20.5124375' />
  <node id='-115' visible='true' lat='42.0358572' lon='20.5127932' />
  <node id='-116' visible='true' lat='42.0362586' lon='20.5130714' />
  <node id='-117' visible='true' lat='42.0369077' lon='20.5132709' />
  <node id='-118' visible='true' lat='42.0376795' lon='20.513214' />
  <way id='-119' visible='true'>
    <nd ref='-108' />
    <nd ref='-109' />
    <nd ref='-110' />
    <nd ref='-111' />
    <nd ref='-112' />
    <nd ref='-113' />
    <nd ref='-114' />
    <nd ref='-115' />
    <nd ref='-116' />
    <nd ref='-117' />
    <nd ref='-118' />
    <tag k="OSM_ID" v="49171909"/>
  </way>
  <node id='-120' visible='true' lat='42.0495942' lon='20.5199268' />
  <node id='-121' visible='true' lat='42.0492388' lon='20.51929' />
  <node id='-122' visible='true' lat='42.0486853' lon='20.5191151' />
  <node id='-123' visible='true' lat='42.0482286' lon='20.5193231' />
  <node id='-124' visible='true' lat='42.0477722' lon='20.519608' />
  <node id='-125' visible='true' lat='42.0468383' lon='20.5196661' />
  <node id='-126' visible='true' lat='42.0462855' lon='20.5196447' />
  <node id='-127' visible='true' lat='42.0457516' lon='20.5196232' />
  <node id='-128' visible='true' lat='42.0453503' lon='20.5194216' />
  <node id='-129' visible='true' lat='42.0450812' lon='20.5188865' />
  <node id='-130' visible='true' lat='42.0446975' lon='20.5183268' />
  <node id='-131' visible='true' lat='42.0444109' lon='20.5181755' />
  <node id='-132' visible='true' lat='42.0436489' lon='20.5182834' />
  <node id='-133' visible='true' lat='42.0430009' lon='20.5183396' />
  <node id='-134' visible='true' lat='42.0427521' lon='20.5180857' />
  <node id='-135' visible='true' lat='42.0426533' lon='20.5172935' />
  <node id='-136' visible='true' lat='42.0424045' lon='20.5170397' />
  <node id='-137' visible='true' lat='42.0423846' lon='20.5168609' />
  <node id='-138' visible='true' lat='42.0424019' lon='20.5164003' />
  <node id='-139' visible='true' lat='42.0420962' lon='20.5162492' />
  <node id='-140' visible='true' lat='42.0419624' lon='20.5161735' />
  <node id='-141' visible='true' lat='42.0419035' lon='20.5157904' />
  <node id='-142' visible='true' lat='42.0416562' lon='20.51592' />
  <node id='-143' visible='true' lat='42.0412751' lon='20.515923' />
  <node id='-144' visible='true' lat='42.041122' lon='20.5157963' />
  <node id='-145' visible='true' lat='42.0411209' lon='20.5155406' />
  <node id='-146' visible='true' lat='42.0411004' lon='20.5152083' />
  <node id='-147' visible='true' lat='42.0406996' lon='20.5150834' />
  <node id='-148' visible='true' lat='42.0402607' lon='20.5150101' />
  <node id='-149' visible='true' lat='42.0400308' lon='20.5147304' />
  <node id='-150' visible='true' lat='42.0396862' lon='20.5144006' />
  <node id='-151' visible='true' lat='42.0393429' lon='20.5143264' />
  <node id='-152' visible='true' lat='42.0390956' lon='20.5144562' />
  <node id='-153' visible='true' lat='42.0388858' lon='20.5144579' />
  <node id='-154' visible='true' lat='42.0388657' lon='20.5142023' />
  <node id='-155' visible='true' lat='42.038864' lon='20.5138187' />
  <node id='-156' visible='true' lat='42.0386153' lon='20.5136159' />
  <node id='-157' visible='true' lat='42.0382525' lon='20.5134654' />
  <node id='-158' visible='true' lat='42.0379277' lon='20.5133143' />
  <node id='-159' visible='true' lat='42.0376795' lon='20.513214' />
  <way id='-160' visible='true'>
    <nd ref='-120' />
    <nd ref='-121' />
    <nd ref='-122' />
    <nd ref='-123' />
    <nd ref='-124' />
    <nd ref='-125' />
    <nd ref='-126' />
    <nd ref='-127' />
    <nd ref='-128' />
    <nd ref='-129' />
    <nd ref='-130' />
    <nd ref='-131' />
    <nd ref='-132' />
    <nd ref='-133' />
    <nd ref='-134' />
    <nd ref='-135' />
    <nd ref='-136' />
    <nd ref='-137' />
    <nd ref='-138' />
    <nd ref='-139' />
    <nd ref='-140' />
    <nd ref='-141' />
    <nd ref='-142' />
    <nd ref='-143' />
    <nd ref='-144' />
    <nd ref='-145' />
    <nd ref='-146' />
    <nd ref='-147' />
    <nd ref='-148' />
    <nd ref='-149' />
    <nd ref='-150' />
    <nd ref='-151' />
    <nd ref='-152' />
    <nd ref='-153' />
    <nd ref='-154' />
    <nd ref='-155' />
    <nd ref='-156' />
    <nd ref='-157' />
    <nd ref='-158' />
    <nd ref='-159' />
    <tag k="OSM_ID" v="49171904"/>
  </way>
  <node id='-161' visible='true' lat='42.0533354' lon='20.5210496' />
  <node id='-162' visible='true' lat='42.0533508' lon='20.5201798' />
  <node id='-163' visible='true' lat='42.0535586' lon='20.5197178' />
  <node id='-164' visible='true' lat='42.0537869' lon='20.5196137' />
  <node id='-165' visible='true' lat='42.0543205' lon='20.5195842' />
  <node id='-166' visible='true' lat='42.05472' lon='20.5193766' />
  <node id='-167' visible='true' lat='42.0551188' lon='20.5190154' />
  <node id='-168' visible='true' lat='42.0556326' lon='20.5187813' />
  <node id='-169' visible='true' lat='42.0560307' lon='20.5182156' />
  <node id='-170' visible='true' lat='42.0567919' lon='20.5179028' />
  <node id='-171' visible='true' lat='42.0575704' lon='20.5171807' />
  <way id='-172' visible='true'>
    <nd ref='-161' />
    <nd ref='-162' />
    <nd ref='-163' />
    <nd ref='-164' />
    <nd ref='-165' />
    <nd ref='-166' />
    <nd ref='-167' />
    <nd ref='-168' />
    <nd ref='-169' />
    <nd ref='-170' />
    <nd ref='-171' />
    <tag k="OSM_ID" v="49171887"/>
  </way>
  <node id='-173' visible='true' lat='42.0653405' lon='20.5175567' />
  <node id='-174' visible='true' lat='42.064939' lon='20.5172783' />
  <node id='-175' visible='true' lat='42.0645196' lon='20.5172814' />
  <node id='-176' visible='true' lat='42.0641578' lon='20.5173865' />
  <node id='-177' visible='true' lat='42.0637967' lon='20.5176452' />
  <node id='-178' visible='true' lat='42.0636646' lon='20.5179532' />
  <node id='-179' visible='true' lat='42.0633995' lon='20.5183901' />
  <node id='-180' visible='true' lat='42.0627917' lon='20.5189319' />
  <node id='-181' visible='true' lat='42.0622025' lon='20.5193456' />
  <node id='-182' visible='true' lat='42.0614419' lon='20.519812' />
  <node id='-183' visible='true' lat='42.0608718' lon='20.5202255' />
  <node id='-184' visible='true' lat='42.0605671' lon='20.5203045' />
  <node id='-185' visible='true' lat='42.0600144' lon='20.5203343' />
  <node id='-186' visible='true' lat='42.0596154' lon='20.5206954' />
  <node id='-187' visible='true' lat='42.059083' lon='20.5210064' />
  <node id='-188' visible='true' lat='42.0587017' lon='20.5209837' />
  <node id='-189' visible='true' lat='42.0584528' lon='20.5207553' />
  <node id='-190' visible='true' lat='42.0580696' lon='20.5202978' />
  <node id='-191' visible='true' lat='42.0577072' lon='20.5202238' />
  <node id='-192' visible='true' lat='42.0572695' lon='20.5204318' />
  <node id='-193' visible='true' lat='42.0569091' lon='20.5208693' />
  <node id='-194' visible='true' lat='42.0568548' lon='20.5215348' />
  <node id='-195' visible='true' lat='42.0568006' lon='20.5222771' />
  <way id='-196' visible='true'>
    <nd ref='-173' />
    <nd ref='-174' />
    <nd ref='-175' />
    <nd ref='-176' />
    <nd ref='-177' />
    <nd ref='-178' />
    <nd ref='-179' />
    <nd ref='-180' />
    <nd ref='-181' />
    <nd ref='-182' />
    <nd ref='-183' />
    <nd ref='-184' />
    <nd ref='-185' />
    <nd ref='-186' />
    <nd ref='-187' />
    <nd ref='-188' />
    <nd ref='-189' />
    <nd ref='-190' />
    <nd ref='-191' />
    <nd ref='-192' />
    <nd ref='-193' />
    <nd ref='-194' />
    <nd ref='-195' />
    <tag k="OSM_ID" v="49171922"/>
  </way>
  <node id='-197' visible='true' lat='42.0653405' lon='20.5175567' />
  <node id='-198' visible='true' lat='42.0649405' lon='20.5176364' />
  <node id='-199' visible='true' lat='42.0646737' lon='20.5176385' />
  <node id='-200' visible='true' lat='42.0640477' lon='20.5183852' />
  <node id='-201' visible='true' lat='42.0635365' lon='20.5192332' />
  <node id='-202' visible='true' lat='42.0630055' lon='20.5198768' />
  <node id='-203' visible='true' lat='42.0623969' lon='20.5202652' />
  <node id='-204' visible='true' lat='42.0618267' lon='20.5206532' />
  <node id='-205' visible='true' lat='42.0614281' lon='20.5210656' />
  <node id='-206' visible='true' lat='42.0612198' lon='20.5213998' />
  <node id='-207' visible='true' lat='42.0609742' lon='20.5219644' />
  <node id='-208' visible='true' lat='42.0605952' lon='20.5224788' />
  <node id='-209' visible='true' lat='42.0601977' lon='20.5231725' />
  <node id='-210' visible='true' lat='42.0597625' lon='20.5239688' />
  <node id='-211' visible='true' lat='42.0593823' lon='20.5242275' />
  <node id='-212' visible='true' lat='42.0590594' lon='20.5244858' />
  <node id='-213' visible='true' lat='42.0584692' lon='20.5246949' />
  <node id='-214' visible='true' lat='42.0581466' lon='20.5250297' />
  <node id='-215' visible='true' lat='42.0579006' lon='20.5254921' />
  <node id='-216' visible='true' lat='42.05783' lon='20.5268483' />
  <node id='-217' visible='true' lat='42.0578531' lon='20.5278458' />
  <node id='-218' visible='true' lat='42.0582775' lon='20.5290451' />
  <node id='-219' visible='true' lat='42.0587396' lon='20.5301928' />
  <node id='-220' visible='true' lat='42.0591817' lon='20.531085' />
  <node id='-221' visible='true' lat='42.0594127' lon='20.5316204' />
  <node id='-222' visible='true' lat='42.0594729' lon='20.5323619' />
  <node id='-223' visible='true' lat='42.0594749' lon='20.532848' />
  <node id='-224' visible='true' lat='42.0592289' lon='20.5332846' />
  <way id='-225' visible='true'>
    <nd ref='-197' />
    <nd ref='-198' />
    <nd ref='-199' />
    <nd ref='-200' />
    <nd ref='-201' />
    <nd ref='-202' />
    <nd ref='-203' />
    <nd ref='-204' />
    <nd ref='-205' />
    <nd ref='-206' />
    <nd ref='-207' />
    <nd ref='-208' />
    <nd ref='-209' />
    <nd ref='-210' />
    <nd ref='-211' />
    <nd ref='-212' />
    <nd ref='-213' />
    <nd ref='-214' />
    <nd ref='-215' />
    <nd ref='-216' />
    <nd ref='-217' />
    <nd ref='-218' />
    <nd ref='-219' />
    <nd ref='-220' />
    <nd ref='-221' />
    <nd ref='-222' />
    <nd ref='-223' />
    <nd ref='-224' />
    <tag k="OSM_ID" v="49171914"/>
  </way>
  <node id='-226' visible='true' lat='42.0495942' lon='20.5199268' />
  <node id='-227' visible='true' lat='42.0497074' lon='20.51967' />
  <node id='-228' visible='true' lat='42.0497443' lon='20.5193374' />
  <node id='-229' visible='true' lat='42.0497426' lon='20.5189281' />
  <node id='-230' visible='true' lat='42.0495118' lon='20.5184694' />
  <node id='-231' visible='true' lat='42.0492257' lon='20.5184205' />
  <node id='-232' visible='true' lat='42.0489206' lon='20.5183971' />
  <node id='-233' visible='true' lat='42.0485208' lon='20.5185536' />
  <node id='-234' visible='true' lat='42.0481397' lon='20.518582' />
  <node id='-235' visible='true' lat='42.0479296' lon='20.5184813' />
  <node id='-236' visible='true' lat='42.0478523' lon='20.5182262' />
  <way id='-237' visible='true'>
    <nd ref='-226' />
    <nd ref='-227' />
    <nd ref='-228' />
    <nd ref='-229' />
    <nd ref='-230' />
    <nd ref='-231' />
    <nd ref='-232' />
    <nd ref='-233' />
    <nd ref='-234' />
    <nd ref='-235' />
    <nd ref='-236' />
    <tag k="OSM_ID" v="49171907"/>
  </way>
  <node id='-238' visible='true' lat='42.0533354' lon='20.5210496' />
  <node id='-239' visible='true' lat='42.0530094' lon='20.5205917' />
  <node id='-240' visible='true' lat='42.0525883' lon='20.5202111' />
  <node id='-241' visible='true' lat='42.0523783' lon='20.5201104' />
  <node id='-242' visible='true' lat='42.0520165' lon='20.5202154' />
  <node id='-243' visible='true' lat='42.0514275' lon='20.5206802' />
  <node id='-244' visible='true' lat='42.0512178' lon='20.5206818' />
  <node id='-245' visible='true' lat='42.0507403' lon='20.5204552' />
  <node id='-246' visible='true' lat='42.0503199' lon='20.5202537' />
  <node id='-247' visible='true' lat='42.0500535' lon='20.5203582' />
  <node id='-248' visible='true' lat='42.0498053' lon='20.5202576' />
  <node id='-249' visible='true' lat='42.0495942' lon='20.5199268' />
  <way id='-250' visible='true'>
    <nd ref='-238' />
    <nd ref='-239' />
    <nd ref='-240' />
    <nd ref='-241' />
    <nd ref='-242' />
    <nd ref='-243' />
    <nd ref='-244' />
    <nd ref='-245' />
    <nd ref='-246' />
    <nd ref='-247' />
    <nd ref='-248' />
    <nd ref='-249' />
    <tag k="OSM_ID" v="49171908"/>
  </way>
  <node id='-251' visible='true' lat='42.0556369' lon='20.5243578' />
  <node id='-252' visible='true' lat='42.0550818' lon='20.5238247' />
  <node id='-253' visible='true' lat='42.0546227' lon='20.5234445' />
  <node id='-254' visible='true' lat='42.0541233' lon='20.5225529' />
  <node id='-255' visible='true' lat='42.053739' lon='20.5218139' />
  <node id='-256' visible='true' lat='42.0533354' lon='20.5210496' />
  <way id='-257' visible='true'>
    <nd ref='-251' />
    <nd ref='-252' />
    <nd ref='-253' />
    <nd ref='-254' />
    <nd ref='-255' />
    <nd ref='-256' />
    <tag k="OSM_ID" v="49171897"/>
  </way>
  <node id='-258' visible='true' lat='42.0556369' lon='20.5243578' />
  <node id='-259' visible='true' lat='42.0559216' lon='20.5240742' />
  <node id='-260' visible='true' lat='42.0562244' lon='20.5235604' />
  <node id='-261' visible='true' lat='42.0564316' lon='20.5229193' />
  <node id='-262' visible='true' lat='42.0566393' lon='20.5224317' />
  <node id='-263' visible='true' lat='42.0568006' lon='20.5222771' />
  <way id='-264' visible='true'>
    <nd ref='-258' />
    <nd ref='-259' />
    <nd ref='-260' />
    <nd ref='-261' />
    <nd ref='-262' />
    <nd ref='-263' />
    <tag k="OSM_ID" v="49171890"/>
  </way>
  <node id='-265' visible='true' lat='42.0568006' lon='20.5222771' />
  <node id='-266' visible='true' lat='42.0568426' lon='20.5232233' />
  <node id='-267' visible='true' lat='42.0566731' lon='20.5237106' />
  <node id='-268' visible='true' lat='42.0565994' lon='20.5242995' />
  <node id='-269' visible='true' lat='42.0565645' lon='20.5250927' />
  <node id='-270' visible='true' lat='42.0566801' lon='20.5253732' />
  <way id='-271' visible='true'>
    <nd ref='-265' />
    <nd ref='-266' />
    <nd ref='-267' />
    <nd ref='-268' />
    <nd ref='-269' />
    <nd ref='-270' />
    <tag k="OSM_ID" v="49171918"/>
  </way>
  <node id='-272' visible='true' lat='42.0556369' lon='20.5243578' />
  <node id='-273' visible='true' lat='42.0552762' lon='20.5247187' />
  <node id='-274' visible='true' lat='42.0550105' lon='20.5250276' />
  <node id='-275' visible='true' lat='42.0548976' lon='20.5254121' />
  <node id='-276' visible='true' lat='42.0548422' lon='20.5258473' />
  <node id='-277' visible='true' lat='42.0548444' lon='20.5263333' />
  <node id='-278' visible='true' lat='42.0545599' lon='20.5266936' />
  <node id='-279' visible='true' lat='42.0541217' lon='20.5267736' />
  <node id='-280' visible='true' lat='42.0537594' lon='20.5267763' />
  <node id='-281' visible='true' lat='42.0532053' lon='20.5264479' />
  <node id='-282' visible='true' lat='42.0527846' lon='20.526144' />
  <node id='-283' visible='true' lat='42.0523063' lon='20.5257384' />
  <node id='-284' visible='true' lat='42.0517901' lon='20.5253841' />
  <node id='-285' visible='true' lat='42.0513321' lon='20.5252595' />
  <node id='-286' visible='true' lat='42.0505129' lon='20.5253681' />
  <way id='-287' visible='true'>
    <nd ref='-272' />
    <nd ref='-273' />
    <nd ref='-274' />
    <nd ref='-275' />
    <nd ref='-276' />
    <nd ref='-277' />
    <nd ref='-278' />
    <nd ref='-279' />
    <nd ref='-280' />
    <nd ref='-281' />
    <nd ref='-282' />
    <nd ref='-283' />
    <nd ref='-284' />
    <nd ref='-285' />
    <nd ref='-286' />
    <tag k="OSM_ID" v="49171911"/>
  </way>
  <node id='-288' visible='true' lat='42.0566801' lon='20.5253732' />
  <node id='-289' visible='true' lat='42.0563357' lon='20.5250945' />
  <node id='-290' visible='true' lat='42.0559146' lon='20.5246627' />
  <node id='-291' visible='true' lat='42.0556369' lon='20.5243578' />
  <way id='-292' visible='true'>
    <nd ref='-288' />
    <nd ref='-289' />
    <nd ref='-290' />
    <nd ref='-291' />
    <tag k="OSM_ID" v="49171891"/>
  </way>
  <node id='-293' visible='true' lat='42.0592289' lon='20.5332846' />
  <node id='-294' visible='true' lat='42.0590349' lon='20.5324418' />
  <node id='-295' visible='true' lat='42.0587656' lon='20.5318554' />
  <node id='-296' visible='true' lat='42.0583631' lon='20.5313212' />
  <node id='-297' visible='true' lat='42.0579408' lon='20.5306591' />
  <node id='-298' visible='true' lat='42.0575936' lon='20.5296641' />
  <node id='-299' visible='true' lat='42.0573424' lon='20.5288217' />
  <node id='-300' visible='true' lat='42.0571304' lon='20.5282862' />
  <node id='-301' visible='true' lat='42.0570717' lon='20.5278773' />
  <node id='-302' visible='true' lat='42.0572591' lon='20.5271341' />
  <node id='-303' visible='true' lat='42.0571796' lon='20.5263416' />
  <node id='-304' visible='true' lat='42.0569101' lon='20.5256785' />
  <node id='-305' visible='true' lat='42.0566801' lon='20.5253732' />
  <way id='-306' visible='true'>
    <nd ref='-293' />
    <nd ref='-294' />
    <nd ref='-295' />
    <nd ref='-296' />
    <nd ref='-297' />
    <nd ref='-298' />
    <nd ref='-299' />
    <nd ref='-300' />
    <nd ref='-301' />
    <nd ref='-302' />
    <nd ref='-303' />
    <nd ref='-304' />
    <nd ref='-305' />
    <tag k="OSM_ID" v="49171936"/>
  </way>
  <node id='-307' visible='true' lat='42.0362383' lon='20.5264205' />
  <node id='-308' visible='true' lat='42.0361282' lon='20.5274442' />
  <node id='-309' visible='true' lat='42.0360751' lon='20.5284675' />
  <node id='-310' visible='true' lat='42.03583' lon='20.5291342' />
  <node id='-311' visible='true' lat='42.0354883' lon='20.5294947' />
  <node id='-312' visible='true' lat='42.0349172' lon='20.5296778' />
  <node id='-313' visible='true' lat='42.0343463' lon='20.5299379' />
  <node id='-314' visible='true' lat='42.0340042' lon='20.5301961' />
  <node id='-315' visible='true' lat='42.033681' lon='20.5304031' />
  <node id='-316' visible='true' lat='42.0332044' lon='20.5304065' />
  <node id='-317' visible='true' lat='42.0327844' lon='20.5302818' />
  <node id='-318' visible='true' lat='42.0324219' lon='20.5301821' />
  <node id='-319' visible='true' lat='42.0320405' lon='20.5301593' />
  <node id='-320' visible='true' lat='42.0316584' lon='20.5299832' />
  <node id='-321' visible='true' lat='42.0313721' lon='20.529883' />
  <node id='-322' visible='true' lat='42.0312216' lon='20.5303444' />
  <node id='-323' visible='true' lat='42.0311281' lon='20.5308309' />
  <way id='-324' visible='true'>
    <nd ref='-307' />
    <nd ref='-308' />
    <nd ref='-309' />
    <nd ref='-310' />
    <nd ref='-311' />
    <nd ref='-312' />
    <nd ref='-313' />
    <nd ref='-314' />
    <nd ref='-315' />
    <nd ref='-316' />
    <nd ref='-317' />
    <nd ref='-318' />
    <nd ref='-319' />
    <nd ref='-320' />
    <nd ref='-321' />
    <nd ref='-322' />
    <nd ref='-323' />
    <tag k="OSM_ID" v="49171894"/>
  </way>
  <node id='-325' visible='true' lat='42.0500291' lon='20.4946778' />
  <node id='-326' visible='true' lat='42.0498221' lon='20.4952678' />
  <node id='-327' visible='true' lat='42.0494448' lon='20.4961915' />
  <node id='-328' visible='true' lat='42.0491032' lon='20.4965523' />
  <node id='-329' visible='true' lat='42.0484955' lon='20.4970686' />
  <node id='-330' visible='true' lat='42.0479241' lon='20.4972011' />
  <node id='-331' visible='true' lat='42.0475635' lon='20.4975619' />
  <node id='-332' visible='true' lat='42.047204' lon='20.4981787' />
  <node id='-333' visible='true' lat='42.0468813' lon='20.4985138' />
  <node id='-334' visible='true' lat='42.0465773' lon='20.4987463' />
  <node id='-335' visible='true' lat='42.0462757' lon='20.4995159' />
  <node id='-336' visible='true' lat='42.0460491' lon='20.5000293' />
  <node id='-337' visible='true' lat='42.0458603' lon='20.50044' />
  <node id='-338' visible='true' lat='42.0454441' lon='20.5011849' />
  <way id='-339' visible='true'>
    <nd ref='-325' />
    <nd ref='-326' />
    <nd ref='-327' />
    <nd ref='-328' />
    <nd ref='-329' />
    <nd ref='-330' />
    <nd ref='-331' />
    <nd ref='-332' />
    <nd ref='-333' />
    <nd ref='-334' />
    <nd ref='-335' />
    <nd ref='-336' />
    <nd ref='-337' />
    <nd ref='-338' />
    <tag k="OSM_ID" v="49171905"/>
  </way>
  <node id='-340' visible='true' lat='42.0376795' lon='20.513214' />
  <node id='-341' visible='true' lat='42.0378304' lon='20.5128291' />
  <node id='-342' visible='true' lat='42.0381536' lon='20.5125965' />
  <node id='-343' visible='true' lat='42.0389157' lon='20.5125141' />
  <node id='-344' visible='true' lat='42.0395253' lon='20.5123815' />
  <node id='-345' visible='true' lat='42.0403257' lon='20.5123497' />
  <node id='-346' visible='true' lat='42.0410302' lon='20.5121143' />
  <node id='-347' visible='true' lat='42.0416383' lon='20.5116748' />
  <node id='-348' visible='true' lat='42.0419995' lon='20.5114163' />
  <node id='-349' visible='true' lat='42.0426098' lon='20.5114884' />
  <node id='-350' visible='true' lat='42.0431276' lon='20.512226' />
  <node id='-351' visible='true' lat='42.0435305' lon='20.5128112' />
  <node id='-352' visible='true' lat='42.0438747' lon='20.5130899' />
  <node id='-353' visible='true' lat='42.0440662' lon='20.5132675' />
  <node id='-354' visible='true' lat='42.0442749' lon='20.5130358' />
  <node id='-355' visible='true' lat='42.0444822' lon='20.5124715' />
  <node id='-356' visible='true' lat='42.0448787' lon='20.5115732' />
  <node id='-357' visible='true' lat='42.045125' lon='20.5112133' />
  <node id='-358' visible='true' lat='42.0454663' lon='20.5107503' />
  <node id='-359' visible='true' lat='42.0457509' lon='20.5104413' />
  <node id='-360' visible='true' lat='42.0461499' lon='20.5101568' />
  <node id='-361' visible='true' lat='42.0469888' lon='20.5101504' />
  <node id='-362' visible='true' lat='42.0474856' lon='20.5104024' />
  <node id='-363' visible='true' lat='42.0477897' lon='20.510221' />
  <node id='-364' visible='true' lat='42.0478836' lon='20.5098878' />
  <node id='-365' visible='true' lat='42.0479011' lon='20.5095296' />
  <node id='-366' visible='true' lat='42.0482227' lon='20.5089387' />
  <node id='-367' visible='true' lat='42.0484706' lon='20.5089368' />
  <node id='-368' visible='true' lat='42.0487961' lon='20.5092925' />
  <node id='-369' visible='true' lat='42.0491584' lon='20.5092897' />
  <node id='-370' visible='true' lat='42.0494058' lon='20.5091855' />
  <node id='-371' visible='true' lat='42.0498419' lon='20.508645' />
  <node id='-372' visible='true' lat='42.0502011' lon='20.5079515' />
  <node id='-373' visible='true' lat='42.0502663' lon='20.5075929' />
  <node id='-374' visible='true' lat='42.0504942' lon='20.5073609' />
  <node id='-375' visible='true' lat='42.0508378' lon='20.5074863' />
  <node id='-376' visible='true' lat='42.0513716' lon='20.5075077' />
  <node id='-377' visible='true' lat='42.051659' lon='20.5078123' />
  <node id='-378' visible='true' lat='42.0521169' lon='20.5078856' />
  <node id='-379' visible='true' lat='42.0523653' lon='20.5080628' />
  <node id='-380' visible='true' lat='42.0529748' lon='20.5079045' />
  <node id='-381' visible='true' lat='42.0536784' lon='20.5074898' />
  <node id='-382' visible='true' lat='42.0540777' lon='20.5072566' />
  <node id='-383' visible='true' lat='42.0544022' lon='20.5073563' />
  <node id='-384' visible='true' lat='42.0547443' lon='20.5071234' />
  <node id='-385' visible='true' lat='42.0550295' lon='20.5069167' />
  <node id='-386' visible='true' lat='42.0553361' lon='20.5073235' />
  <node id='-387' visible='true' lat='42.0555268' lon='20.5072966' />
  <node id='-388' visible='true' lat='42.055869' lon='20.5070893' />
  <node id='-389' visible='true' lat='42.0561913' lon='20.5066774' />
  <node id='-390' visible='true' lat='42.0563982' lon='20.5060363' />
  <node id='-391' visible='true' lat='42.0565479' lon='20.5053957' />
  <node id='-392' visible='true' lat='42.0568683' lon='20.5045235' />
  <node id='-393' visible='true' lat='42.0571118' lon='20.5034983' />
  <node id='-394' visible='true' lat='42.0574141' lon='20.5029076' />
  <node id='-395' visible='true' lat='42.0576034' lon='20.5025991' />
  <node id='-396' visible='true' lat='42.0581158' lon='20.5020579' />
  <node id='-397' visible='true' lat='42.0583235' lon='20.5015703' />
  <node id='-398' visible='true' lat='42.0583214' lon='20.5011097' />
  <node id='-399' visible='true' lat='42.0586218' lon='20.5000585' />
  <node id='-400' visible='true' lat='42.0589441' lon='20.4996468' />
  <node id='-401' visible='true' lat='42.0598962' lon='20.4993835' />
  <node id='-402' visible='true' lat='42.0603345' lon='20.4993288' />
  <node id='-403' visible='true' lat='42.0610197' lon='20.4990932' />
  <node id='-404' visible='true' lat='42.061343' lon='20.498886' />
  <node id='-405' visible='true' lat='42.0618359' lon='20.4982937' />
  <node id='-406' visible='true' lat='42.0620241' lon='20.4977039' />
  <node id='-407' visible='true' lat='42.0620034' lon='20.4973202' />
  <node id='-408' visible='true' lat='42.0618482' lon='20.4967074' />
  <node id='-409' visible='true' lat='42.0619407' lon='20.4960671' />
  <node id='-410' visible='true' lat='42.0621962' lon='20.4956558' />
  <node id='-411' visible='true' lat='42.06267' lon='20.495038' />
  <node id='-412' visible='true' lat='42.0630499' lon='20.4947024' />
  <way id='-413' visible='true'>
    <nd ref='-340' />
    <nd ref='-341' />
    <nd ref='-342' />
    <nd ref='-343' />
    <nd ref='-344' />
    <nd ref='-345' />
    <nd ref='-346' />
    <nd ref='-347' />
    <nd ref='-348' />
    <nd ref='-349' />
    <nd ref='-350' />
    <nd ref='-351' />
    <nd ref='-352' />
    <nd ref='-353' />
    <nd ref='-354' />
    <nd ref='-355' />
    <nd ref='-356' />
    <nd ref='-357' />
    <nd ref='-358' />
    <nd ref='-359' />
    <nd ref='-360' />
    <nd ref='-361' />
    <nd ref='-362' />
    <nd ref='-363' />
    <nd ref='-364' />
    <nd ref='-365' />
    <nd ref='-366' />
    <nd ref='-367' />
    <nd ref='-368' />
    <nd ref='-369' />
    <nd ref='-370' />
    <nd ref='-371' />
    <nd ref='-372' />
    <nd ref='-373' />
    <nd ref='-374' />
    <nd ref='-375' />
    <nd ref='-376' />
    <nd ref='-377' />
    <nd ref='-378' />
    <nd ref='-379' />
    <nd ref='-380' />
    <nd ref='-381' />
    <nd ref='-382' />
    <nd ref='-383' />
    <nd ref='-384' />
    <nd ref='-385' />
    <nd ref='-386' />
    <nd ref='-387' />
    <nd ref='-388' />
    <nd ref='-389' />
    <nd ref='-390' />
    <nd ref='-391' />
    <nd ref='-392' />
    <nd ref='-393' />
    <nd ref='-394' />
    <nd ref='-395' />
    <nd ref='-396' />
    <nd ref='-397' />
    <nd ref='-398' />
    <nd ref='-399' />
    <nd ref='-400' />
    <nd ref='-401' />
    <nd ref='-402' />
    <nd ref='-403' />
    <nd ref='-404' />
    <nd ref='-405' />
    <nd ref='-406' />
    <nd ref='-407' />
    <nd ref='-408' />
    <nd ref='-409' />
    <nd ref='-410' />
    <nd ref='-411' />
    <nd ref='-412' />
    <tag k="OSM_ID" v="49171888"/>
  </way>
  <node id='-414' visible='true' lat='42.0454441' lon='20.5011849' />
  <node id='-415' visible='true' lat='42.0457673' lon='20.5009778' />
  <node id='-416' visible='true' lat='42.0461285' lon='20.5007447' />
  <node id='-417' visible='true' lat='42.0466036' lon='20.5004086' />
  <node id='-418' visible='true' lat='42.0471362' lon='20.5001487' />
  <node id='-419' visible='true' lat='42.0474786' lon='20.499967' />
  <node id='-420' visible='true' lat='42.0479727' lon='20.4995793' />
  <node id='-421' visible='true' lat='42.0483523' lon='20.4992184' />
  <node id='-422' visible='true' lat='42.0487134' lon='20.4989597' />
  <node id='-423' visible='true' lat='42.049189' lon='20.4987513' />
  <node id='-424' visible='true' lat='42.0496837' lon='20.4984916' />
  <way id='-425' visible='true'>
    <nd ref='-414' />
    <nd ref='-415' />
    <nd ref='-416' />
    <nd ref='-417' />
    <nd ref='-418' />
    <nd ref='-419' />
    <nd ref='-420' />
    <nd ref='-421' />
    <nd ref='-422' />
    <nd ref='-423' />
    <nd ref='-424' />
    <tag k="OSM_ID" v="49171906"/>
  </way>
  <node id='-426' visible='true' lat='42.0751871' lon='20.5041507' />
  <node id='-427' visible='true' lat='42.0746917' lon='20.5042313' />
  <way id='-428' visible='true'>
    <nd ref='-426' />
    <nd ref='-427' />
    <tag k="OSM_ID" v="49171921"/>
  </way>
  <node id='-429' visible='true' lat='42.0746917' lon='20.5042313' />
  <node id='-430' visible='true' lat='42.0741241' lon='20.5052337' />
  <node id='-431' visible='true' lat='42.0737076' lon='20.5059022' />
  <node id='-432' visible='true' lat='42.0734246' lon='20.5065951' />
  <node id='-433' visible='true' lat='42.0731792' lon='20.5071601' />
  <node id='-434' visible='true' lat='42.0729147' lon='20.507725' />
  <node id='-435' visible='true' lat='42.0726688' lon='20.5081363' />
  <node id='-436' visible='true' lat='42.0724614' lon='20.5086753' />
  <node id='-437' visible='true' lat='42.0722719' lon='20.5089581' />
  <node id='-438' visible='true' lat='42.071815' lon='20.5090895' />
  <node id='-439' visible='true' lat='42.0711312' lon='20.5096834' />
  <node id='-440' visible='true' lat='42.0707906' lon='20.5102745' />
  <node id='-441' visible='true' lat='42.0701263' lon='20.5109959' />
  <node id='-442' visible='true' lat='42.070014' lon='20.5114574' />
  <node id='-443' visible='true' lat='42.0695571' lon='20.5116145' />
  <node id='-444' visible='true' lat='42.0693273' lon='20.5113859' />
  <node id='-445' visible='true' lat='42.0690781' lon='20.5110552' />
  <node id='-446' visible='true' lat='42.0687749' lon='20.5114668' />
  <node id='-447' visible='true' lat='42.0686073' lon='20.5124148' />
  <node id='-448' visible='true' lat='42.0685918' lon='20.5132337' />
  <node id='-449' visible='true' lat='42.0680795' lon='20.513826' />
  <node id='-450' visible='true' lat='42.0680424' lon='20.5140567' />
  <node id='-451' visible='true' lat='42.0678241' lon='20.5142886' />
  <node id='-452' visible='true' lat='42.0676723' lon='20.5144689' />
  <node id='-453' visible='true' lat='42.0675205' lon='20.5145978' />
  <node id='-454' visible='true' lat='42.0674263' lon='20.51488' />
  <node id='-455' visible='true' lat='42.0672561' lon='20.5151883' />
  <node id='-456' visible='true' lat='42.0672762' lon='20.515444' />
  <node id='-457' visible='true' lat='42.0669911' lon='20.5156765' />
  <node id='-458' visible='true' lat='42.066725' lon='20.5158577' />
  <node id='-459' visible='true' lat='42.0666119' lon='20.5161654' />
  <node id='-460' visible='true' lat='42.0665558' lon='20.5164217' />
  <node id='-461' visible='true' lat='42.0660803' lon='20.5166812' />
  <node id='-462' visible='true' lat='42.0657956' lon='20.5169649' />
  <node id='-463' visible='true' lat='42.0653405' lon='20.5175567' />
  <way id='-464' visible='true'>
    <nd ref='-429' />
    <nd ref='-430' />
    <nd ref='-431' />
    <nd ref='-432' />
    <nd ref='-433' />
    <nd ref='-434' />
    <nd ref='-435' />
    <nd ref='-436' />
    <nd ref='-437' />
    <nd ref='-438' />
    <nd ref='-439' />
    <nd ref='-440' />
    <nd ref='-441' />
    <nd ref='-442' />
    <nd ref='-443' />
    <nd ref='-444' />
    <nd ref='-445' />
    <nd ref='-446' />
    <nd ref='-447' />
    <nd ref='-448' />
    <nd ref='-449' />
    <nd ref='-450' />
    <nd ref='-451' />
    <nd ref='-452' />
    <nd ref='-453' />
    <nd ref='-454' />
    <nd ref='-455' />
    <nd ref='-456' />
    <nd ref='-457' />
    <nd ref='-458' />
    <nd ref='-459' />
    <nd ref='-460' />
    <nd ref='-461' />
    <nd ref='-462' />
    <nd ref='-463' />
    <tag k="OSM_ID" v="49171920"/>
  </way>
</osm>
