<?xml version='1.0'?>
<osm version='0.5' generator='shp2osm.pl'>
  <node id='-1' visible='true' lat='41.6862977572254' lon='20.4363256576942' />
  <node id='-2' visible='true' lat='41.686419671955' lon='20.4367443740276' />
  <node id='-3' visible='true' lat='41.6864629086327' lon='20.4363076185091' />
  <node id='-4' visible='true' lat='41.6863404198229' lon='20.4353874434329' />
  <node id='-5' visible='true' lat='41.6863657923876' lon='20.4350114476114' />
  <node id='-6' visible='true' lat='41.6864549306043' lon='20.4346833824565' />
  <way id='-7' visible='true'>
    <nd ref='-1' />
    <nd ref='-2' />
    <nd ref='-3' />
    <nd ref='-4' />
    <nd ref='-5' />
    <nd ref='-6' />
    <tag k="ID" v="9426.000"/>
    <tag k="CATEGORY" v="5"/>
    <tag k="SHAPE_LE_1" v="212.378"/>
    <tag k="WAY_TYPE" v="Dwelling Area Road"/>
    <tag k="ET_ID" v="1230"/>
    <tag k="CAT2" v="50"/>
    <tag k="SHAPE_LENG" v="0.000"/>
  </way>
  <node id='-8' visible='true' lat='41.6869260782639' lon='20.4326912902382' />
  <node id='-9' visible='true' lat='41.6873348081131' lon='20.4309300415456' />
  <node id='-10' visible='true' lat='41.6868909452941' lon='20.4310915301858' />
  <way id='-11' visible='true'>
    <nd ref='-8' />
    <nd ref='-9' />
    <nd ref='-10' />
    <tag k="ID" v="9427.000"/>
    <tag k="CATEGORY" v="5"/>
    <tag k="SHAPE_LE_1" v="204.608"/>
    <tag k="ET_ID" v="1231"/>
    <tag k="WAY_TYPE" v="Dwelling Area Road"/>
    <tag k="SHAPE_LENG" v="0.000"/>
    <tag k="CAT2" v="50"/>
  </way>
  <node id='-12' visible='true' lat='41.6868909452941' lon='20.4310915301858' />
  <node id='-13' visible='true' lat='41.6864566935884' lon='20.4313620372656' />
  <way id='-14' visible='true'>
    <nd ref='-12' />
    <nd ref='-13' />
    <tag k="ID" v="9428.000"/>
    <tag k="CATEGORY" v="5"/>
    <tag k="SHAPE_LE_1" v="53.233"/>
    <tag k="ET_ID" v="1232"/>
    <tag k="WAY_TYPE" v="Dwelling Area Road"/>
    <tag k="SHAPE_LENG" v="0.000"/>
    <tag k="CAT2" v="50"/>
  </way>
  <node id='-15' visible='true' lat='41.6864806769508' lon='20.4307072552949' />
  <node id='-16' visible='true' lat='41.6862935369339' lon='20.4295694698802' />
  <node id='-17' visible='true' lat='41.6865725592223' lon='20.429106384549' />
  <way id='-18' visible='true'>
    <nd ref='-15' />
    <nd ref='-16' />
    <nd ref='-17' />
    <tag k="ID" v="9429.000"/>
    <tag k="CATEGORY" v="5"/>
    <tag k="SHAPE_LE_1" v="146.454"/>
    <tag k="ET_ID" v="1233"/>
    <tag k="WAY_TYPE" v="Dwelling Area Road"/>
    <tag k="SHAPE_LENG" v="0.000"/>
    <tag k="CAT2" v="50"/>
  </way>
  <node id='-19' visible='true' lat='41.6856225587556' lon='20.4361237296903' />
  <node id='-20' visible='true' lat='41.68534709965' lon='20.4349484789962' />
  <node id='-21' visible='true' lat='41.6852424271002' lon='20.4347554293223' />
  <node id='-22' visible='true' lat='41.6850860288556' lon='20.4345905424501' />
  <way id='-23' visible='true'>
    <nd ref='-19' />
    <nd ref='-20' />
    <nd ref='-21' />
    <nd ref='-22' />
    <tag k="ID" v="9389.000"/>
    <tag k="CATEGORY" v="5"/>
    <tag k="SHAPE_LE_1" v="144.503"/>
    <tag k="ET_ID" v="8694"/>
    <tag k="WAY_TYPE" v="Dwelling Area Road"/>
    <tag k="SHAPE_LENG" v="0.000"/>
    <tag k="CAT2" v="50"/>
  </way>
  <node id='-24' visible='true' lat='41.6862977572254' lon='20.4363256576942' />
  <node id='-25' visible='true' lat='41.6862261717587' lon='20.4365341059001' />
  <node id='-26' visible='true' lat='41.6860081543677' lon='20.4364944436292' />
  <node id='-27' visible='true' lat='41.6856225587556' lon='20.4361237296903' />
  <way id='-28' visible='true'>
    <nd ref='-24' />
    <nd ref='-25' />
    <nd ref='-26' />
    <nd ref='-27' />
    <tag k="ID" v="9390.000"/>
    <tag k="CATEGORY" v="5"/>
    <tag k="SHAPE_LE_1" v="96.322"/>
    <tag k="ET_ID" v="8695"/>
    <tag k="WAY_TYPE" v="Dwelling Area Road"/>
    <tag k="SHAPE_LENG" v="0.000"/>
    <tag k="CAT2" v="50"/>
  </way>
  <node id='-29' visible='true' lat='41.6853597295604' lon='20.433299658637' />
  <node id='-30' visible='true' lat='41.6853935067772' lon='20.4338396959943' />
  <node id='-31' visible='true' lat='41.6857403508684' lon='20.4347649259423' />
  <node id='-32' visible='true' lat='41.6861812151267' lon='20.4358278992059' />
  <node id='-33' visible='true' lat='41.6862977572254' lon='20.4363256576942' />
  <way id='-34' visible='true'>
    <nd ref='-29' />
    <nd ref='-30' />
    <nd ref='-31' />
    <nd ref='-32' />
    <nd ref='-33' />
    <tag k="ID" v="9391.000"/>
    <tag k="CATEGORY" v="5"/>
    <tag k="SHAPE_LE_1" v="275.817"/>
    <tag k="ET_ID" v="8696"/>
    <tag k="WAY_TYPE" v="Dwelling Area Road"/>
    <tag k="SHAPE_LENG" v="0.000"/>
    <tag k="CAT2" v="50"/>
  </way>
  <node id='-35' visible='true' lat='41.6842817653892' lon='20.4313556308492' />
  <node id='-36' visible='true' lat='41.6853112625688' lon='20.4318868990232' />
  <node id='-37' visible='true' lat='41.6852115814895' lon='20.4327052015846' />
  <node id='-38' visible='true' lat='41.6852338967385' lon='20.4330236631381' />
  <node id='-39' visible='true' lat='41.6853597295604' lon='20.433299658637' />
  <way id='-40' visible='true'>
    <nd ref='-35' />
    <nd ref='-36' />
    <nd ref='-37' />
    <nd ref='-38' />
    <nd ref='-39' />
    <tag k="ID" v="9392.000"/>
    <tag k="CATEGORY" v="5"/>
    <tag k="SHAPE_LE_1" v="245.160"/>
    <tag k="ET_ID" v="8697"/>
    <tag k="WAY_TYPE" v="Dwelling Area Road"/>
    <tag k="SHAPE_LENG" v="0.000"/>
    <tag k="CAT2" v="50"/>
  </way>
  <node id='-41' visible='true' lat='41.6841075616869' lon='20.4317866521852' />
  <node id='-42' visible='true' lat='41.6842817653892' lon='20.4313556308492' />
  <way id='-43' visible='true'>
    <nd ref='-41' />
    <nd ref='-42' />
    <tag k="ID" v="9393.000"/>
    <tag k="CATEGORY" v="5"/>
    <tag k="SHAPE_LE_1" v="40.772"/>
    <tag k="ET_ID" v="8698"/>
    <tag k="WAY_TYPE" v="Dwelling Area Road"/>
    <tag k="SHAPE_LENG" v="0.000"/>
    <tag k="CAT2" v="50"/>
  </way>
  <node id='-44' visible='true' lat='41.6842546732299' lon='20.4323009494246' />
  <node id='-45' visible='true' lat='41.6841075616869' lon='20.4317866521852' />
  <way id='-46' visible='true'>
    <nd ref='-44' />
    <nd ref='-45' />
    <tag k="ID" v="9394.000"/>
    <tag k="CATEGORY" v="5"/>
    <tag k="SHAPE_LE_1" v="45.833"/>
    <tag k="ET_ID" v="8699"/>
    <tag k="WAY_TYPE" v="Dwelling Area Road"/>
    <tag k="SHAPE_LENG" v="0.000"/>
    <tag k="CAT2" v="50"/>
  </way>
  <node id='-47' visible='true' lat='41.6850860288556' lon='20.4345905424501' />
  <node id='-48' visible='true' lat='41.6851231535961' lon='20.433703519571' />
  <node id='-49' visible='true' lat='41.6851222660109' lon='20.433523416858' />
  <node id='-50' visible='true' lat='41.6850065318467' lon='20.4331919147928' />
  <node id='-51' visible='true' lat='41.6842546732299' lon='20.4323009494246' />
  <way id='-52' visible='true'>
    <nd ref='-47' />
    <nd ref='-48' />
    <nd ref='-49' />
    <nd ref='-50' />
    <nd ref='-51' />
    <tag k="ID" v="9395.000"/>
    <tag k="CATEGORY" v="5"/>
    <tag k="SHAPE_LE_1" v="231.116"/>
    <tag k="ET_ID" v="8700"/>
    <tag k="WAY_TYPE" v="Dwelling Area Road"/>
    <tag k="SHAPE_LENG" v="0.000"/>
    <tag k="CAT2" v="50"/>
  </way>
  <node id='-53' visible='true' lat='41.6855038095555' lon='20.4309707865312' />
  <node id='-54' visible='true' lat='41.6859530938947' lon='20.4316318657717' />
  <way id='-55' visible='true'>
    <nd ref='-53' />
    <nd ref='-54' />
    <tag k="ID" v="9396.000"/>
    <tag k="CATEGORY" v="5"/>
    <tag k="SHAPE_LE_1" v="74.296"/>
    <tag k="ET_ID" v="8701"/>
    <tag k="WAY_TYPE" v="Dwelling Area Road"/>
    <tag k="SHAPE_LENG" v="0.000"/>
    <tag k="CAT2" v="50"/>
  </way>
  <node id='-56' visible='true' lat='41.6844955956749' lon='20.4305501798674' />
  <node id='-57' visible='true' lat='41.6855038095555' lon='20.4309707865312' />
  <way id='-58' visible='true'>
    <nd ref='-56' />
    <nd ref='-57' />
    <tag k="ID" v="9397.000"/>
    <tag k="CATEGORY" v="5"/>
    <tag k="SHAPE_LE_1" v="117.333"/>
    <tag k="ET_ID" v="8702"/>
    <tag k="WAY_TYPE" v="Dwelling Area Road"/>
    <tag k="SHAPE_LENG" v="0.000"/>
    <tag k="CAT2" v="50"/>
  </way>
  <node id='-59' visible='true' lat='41.6842817653892' lon='20.4313556308492' />
  <node id='-60' visible='true' lat='41.6844955956749' lon='20.4305501798674' />
  <way id='-61' visible='true'>
    <nd ref='-59' />
    <nd ref='-60' />
    <tag k="ID" v="9398.000"/>
    <tag k="CATEGORY" v="5"/>
    <tag k="SHAPE_LE_1" v="71.145"/>
    <tag k="ET_ID" v="8703"/>
    <tag k="WAY_TYPE" v="Dwelling Area Road"/>
    <tag k="SHAPE_LENG" v="0.000"/>
    <tag k="CAT2" v="50"/>
  </way>
  <node id='-62' visible='true' lat='41.6863120622986' lon='20.4287191634559' />
  <node id='-63' visible='true' lat='41.6860636810456' lon='20.4288321995494' />
  <node id='-64' visible='true' lat='41.6859196470633' lon='20.4290690116062' />
  <node id='-65' visible='true' lat='41.6856724395863' lon='20.4294175663722' />
  <node id='-66' visible='true' lat='41.6854242685018' lon='20.4295721609286' />
  <node id='-67' visible='true' lat='41.6851650336472' lon='20.4295883053681' />
  <node id='-68' visible='true' lat='41.6847081872953' lon='20.4294953584989' />
  <way id='-69' visible='true'>
    <nd ref='-62' />
    <nd ref='-63' />
    <nd ref='-64' />
    <nd ref='-65' />
    <nd ref='-66' />
    <nd ref='-67' />
    <nd ref='-68' />
    <tag k="ID" v="9399.000"/>
    <tag k="CATEGORY" v="5"/>
    <tag k="SHAPE_LE_1" v="205.069"/>
    <tag k="ET_ID" v="8704"/>
    <tag k="WAY_TYPE" v="Dwelling Area Road"/>
    <tag k="SHAPE_LENG" v="0.000"/>
    <tag k="CAT2" v="50"/>
  </way>
  <node id='-70' visible='true' lat='41.6855038095555' lon='20.4309707865312' />
  <node id='-71' visible='true' lat='41.685563704816' lon='20.4304991973646' />
  <node id='-72' visible='true' lat='41.6863120622986' lon='20.4287191634559' />
  <way id='-73' visible='true'>
    <nd ref='-70' />
    <nd ref='-71' />
    <nd ref='-72' />
    <tag k="ID" v="9400.000"/>
    <tag k="CATEGORY" v="5"/>
    <tag k="SHAPE_LE_1" v="209.749"/>
    <tag k="ET_ID" v="8705"/>
    <tag k="WAY_TYPE" v="Dwelling Area Road"/>
    <tag k="SHAPE_LENG" v="0.000"/>
    <tag k="CAT2" v="50"/>
  </way>
  <node id='-74' visible='true' lat='41.6861856566299' lon='20.4255115702203' />
  <node id='-75' visible='true' lat='41.6863021049326' lon='20.4259816071934' />
  <node id='-76' visible='true' lat='41.6864611429291' lon='20.4266729404737' />
  <way id='-77' visible='true'>
    <nd ref='-74' />
    <nd ref='-75' />
    <nd ref='-76' />
    <tag k="ID" v="9401.000"/>
    <tag k="CATEGORY" v="5"/>
    <tag k="SHAPE_LE_1" v="101.427"/>
    <tag k="ET_ID" v="8706"/>
    <tag k="WAY_TYPE" v="Dwelling Area Road"/>
    <tag k="SHAPE_LENG" v="0.000"/>
    <tag k="CAT2" v="50"/>
  </way>
  <node id='-78' visible='true' lat='41.6855847481128' lon='20.4258685977304' />
  <node id='-79' visible='true' lat='41.6857820491856' lon='20.4256952729864' />
  <node id='-80' visible='true' lat='41.6861856566299' lon='20.4255115702203' />
  <way id='-81' visible='true'>
    <nd ref='-78' />
    <nd ref='-79' />
    <nd ref='-80' />
    <tag k="ID" v="9402.000"/>
    <tag k="CATEGORY" v="5"/>
    <tag k="SHAPE_LE_1" v="73.607"/>
    <tag k="ET_ID" v="8707"/>
    <tag k="WAY_TYPE" v="Dwelling Area Road"/>
    <tag k="SHAPE_LENG" v="0.000"/>
    <tag k="CAT2" v="50"/>
  </way>
  <node id='-82' visible='true' lat='41.6854624653808' lon='20.4263586281047' />
  <node id='-83' visible='true' lat='41.6855847481128' lon='20.4258685977304' />
  <way id='-84' visible='true'>
    <nd ref='-82' />
    <nd ref='-83' />
    <tag k="ID" v="9403.000"/>
    <tag k="CATEGORY" v="5"/>
    <tag k="SHAPE_LE_1" v="43.002"/>
    <tag k="ET_ID" v="8708"/>
    <tag k="WAY_TYPE" v="Dwelling Area Road"/>
    <tag k="SHAPE_LENG" v="0.000"/>
    <tag k="CAT2" v="50"/>
  </way>
  <node id='-85' visible='true' lat='41.6850926640164' lon='20.4278473178209' />
  <node id='-86' visible='true' lat='41.685116964046' lon='20.4277431403838' />
  <node id='-87' visible='true' lat='41.6854624653808' lon='20.4263586281047' />
  <way id='-88' visible='true'>
    <nd ref='-85' />
    <nd ref='-86' />
    <nd ref='-87' />
    <tag k="ID" v="9404.000"/>
    <tag k="CATEGORY" v="5"/>
    <tag k="SHAPE_LE_1" v="130.581"/>
    <tag k="ET_ID" v="8709"/>
    <tag k="WAY_TYPE" v="Dwelling Area Road"/>
    <tag k="SHAPE_LENG" v="0.000"/>
    <tag k="CAT2" v="50"/>
  </way>
  <node id='-89' visible='true' lat='41.6849913508933' lon='20.4282815951707' />
  <node id='-90' visible='true' lat='41.6850926640164' lon='20.4278473178209' />
  <way id='-91' visible='true'>
    <nd ref='-89' />
    <nd ref='-90' />
    <tag k="ID" v="9405.000"/>
    <tag k="CATEGORY" v="5"/>
    <tag k="SHAPE_LE_1" v="37.869"/>
    <tag k="ET_ID" v="8710"/>
    <tag k="WAY_TYPE" v="Dwelling Area Road"/>
    <tag k="SHAPE_LENG" v="0.000"/>
    <tag k="CAT2" v="50"/>
  </way>
  <node id='-92' visible='true' lat='41.6847081872953' lon='20.4294953584989' />
  <node id='-93' visible='true' lat='41.6849913508933' lon='20.4282815951707' />
  <way id='-94' visible='true'>
    <nd ref='-92' />
    <nd ref='-93' />
    <tag k="ID" v="9406.000"/>
    <tag k="CATEGORY" v="5"/>
    <tag k="SHAPE_LE_1" v="105.841"/>
    <tag k="ET_ID" v="8711"/>
    <tag k="WAY_TYPE" v="Dwelling Area Road"/>
    <tag k="SHAPE_LENG" v="0.000"/>
    <tag k="CAT2" v="50"/>
  </way>
  <node id='-95' visible='true' lat='41.6863120622986' lon='20.4287191634559' />
  <node id='-96' visible='true' lat='41.6864707337007' lon='20.4285986983' />
  <way id='-97' visible='true'>
    <nd ref='-95' />
    <nd ref='-96' />
    <tag k="ID" v="9407.000"/>
    <tag k="CATEGORY" v="5"/>
    <tag k="SHAPE_LE_1" v="20.278"/>
    <tag k="ET_ID" v="8712"/>
    <tag k="WAY_TYPE" v="Dwelling Area Road"/>
    <tag k="SHAPE_LENG" v="0.000"/>
    <tag k="CAT2" v="50"/>
  </way>
  <node id='-98' visible='true' lat='41.6840083511755' lon='20.429432600637' />
  <node id='-99' visible='true' lat='41.6843729477312' lon='20.4295357141456' />
  <way id='-100' visible='true'>
    <nd ref='-98' />
    <nd ref='-99' />
    <tag k="ID" v="9408.000"/>
    <tag k="CATEGORY" v="5"/>
    <tag k="SHAPE_LE_1" v="41.397"/>
    <tag k="ET_ID" v="8713"/>
    <tag k="WAY_TYPE" v="Dwelling Area Road"/>
    <tag k="SHAPE_LENG" v="0.000"/>
    <tag k="CAT2" v="50"/>
  </way>
  <node id='-101' visible='true' lat='41.6835923016911' lon='20.4310804395608' />
  <node id='-102' visible='true' lat='41.6840083511755' lon='20.429432600637' />
  <way id='-103' visible='true'>
    <nd ref='-101' />
    <nd ref='-102' />
    <tag k="ID" v="9409.000"/>
    <tag k="CATEGORY" v="5"/>
    <tag k="SHAPE_LE_1" v="144.778"/>
    <tag k="ET_ID" v="8714"/>
    <tag k="WAY_TYPE" v="Dwelling Area Road"/>
    <tag k="SHAPE_LENG" v="0.000"/>
    <tag k="CAT2" v="50"/>
  </way>
  <node id='-104' visible='true' lat='41.6831317454828' lon='20.4302393887704' />
  <node id='-105' visible='true' lat='41.6835923016911' lon='20.4310804395608' />
  <way id='-106' visible='true'>
    <nd ref='-104' />
    <nd ref='-105' />
    <tag k="ID" v="9410.000"/>
    <tag k="CATEGORY" v="5"/>
    <tag k="SHAPE_LE_1" v="86.723"/>
    <tag k="ET_ID" v="8715"/>
    <tag k="WAY_TYPE" v="Dwelling Area Road"/>
    <tag k="SHAPE_LENG" v="0.000"/>
    <tag k="CAT2" v="50"/>
  </way>
  <node id='-107' visible='true' lat='41.6833546140894' lon='20.4291493179907' />
  <node id='-108' visible='true' lat='41.6831317454828' lon='20.4302393887704' />
  <way id='-109' visible='true'>
    <nd ref='-107' />
    <nd ref='-108' />
    <tag k="ID" v="9411.000"/>
    <tag k="CATEGORY" v="5"/>
    <tag k="SHAPE_LE_1" v="94.079"/>
    <tag k="ET_ID" v="8716"/>
    <tag k="WAY_TYPE" v="Dwelling Area Road"/>
    <tag k="SHAPE_LENG" v="0.000"/>
    <tag k="CAT2" v="50"/>
  </way>
  <node id='-110' visible='true' lat='41.6836481921019' lon='20.4277133373992' />
  <node id='-111' visible='true' lat='41.6833546140894' lon='20.4291493179907' />
  <way id='-112' visible='true'>
    <nd ref='-110' />
    <nd ref='-111' />
    <tag k="ID" v="9412.000"/>
    <tag k="CATEGORY" v="5"/>
    <tag k="SHAPE_LE_1" v="123.932"/>
    <tag k="ET_ID" v="8717"/>
    <tag k="WAY_TYPE" v="Dwelling Area Road"/>
    <tag k="SHAPE_LENG" v="0.000"/>
    <tag k="CAT2" v="50"/>
  </way>
  <node id='-113' visible='true' lat='41.6840533277464' lon='20.4257562677169' />
  <node id='-114' visible='true' lat='41.6837592452153' lon='20.427102761529' />
  <node id='-115' visible='true' lat='41.6836481921019' lon='20.4277133373992' />
  <way id='-116' visible='true'>
    <nd ref='-113' />
    <nd ref='-114' />
    <nd ref='-115' />
    <tag k="ID" v="9413.000"/>
    <tag k="CATEGORY" v="5"/>
    <tag k="SHAPE_LE_1" v="169.089"/>
    <tag k="ET_ID" v="8718"/>
    <tag k="WAY_TYPE" v="Dwelling Area Road"/>
    <tag k="SHAPE_LENG" v="0.000"/>
    <tag k="CAT2" v="50"/>
  </way>
  <node id='-117' visible='true' lat='41.682078842372' lon='20.4270899590936' />
  <node id='-118' visible='true' lat='41.6821671325732' lon='20.4266583239772' />
  <way id='-119' visible='true'>
    <nd ref='-117' />
    <nd ref='-118' />
    <tag k="ID" v="9416.000"/>
    <tag k="CATEGORY" v="5"/>
    <tag k="SHAPE_LE_1" v="37.254"/>
    <tag k="ET_ID" v="8721"/>
    <tag k="WAY_TYPE" v="Dwelling Area Road"/>
    <tag k="SHAPE_LENG" v="0.000"/>
    <tag k="CAT2" v="50"/>
  </way>
  <node id='-120' visible='true' lat='41.6836481921019' lon='20.4277133373992' />
  <node id='-121' visible='true' lat='41.682078842372' lon='20.4270899590936' />
  <way id='-122' visible='true'>
    <nd ref='-120' />
    <nd ref='-121' />
    <tag k="ID" v="9417.000"/>
    <tag k="CATEGORY" v="5"/>
    <tag k="SHAPE_LE_1" v="181.875"/>
    <tag k="ET_ID" v="8722"/>
    <tag k="WAY_TYPE" v="Dwelling Area Road"/>
    <tag k="SHAPE_LENG" v="0.000"/>
    <tag k="CAT2" v="50"/>
  </way>
  <node id='-123' visible='true' lat='41.6846830910142' lon='20.428151171524' />
  <node id='-124' visible='true' lat='41.6836481921019' lon='20.4277133373992' />
  <way id='-125' visible='true'>
    <nd ref='-123' />
    <nd ref='-124' />
    <tag k="ID" v="9418.000"/>
    <tag k="CATEGORY" v="5"/>
    <tag k="SHAPE_LE_1" v="120.591"/>
    <tag k="ET_ID" v="8723"/>
    <tag k="WAY_TYPE" v="Dwelling Area Road"/>
    <tag k="SHAPE_LENG" v="0.000"/>
    <tag k="CAT2" v="50"/>
  </way>
  <node id='-126' visible='true' lat='41.6849913508933' lon='20.4282815951707' />
  <node id='-127' visible='true' lat='41.6846830910142' lon='20.428151171524' />
  <way id='-128' visible='true'>
    <nd ref='-126' />
    <nd ref='-127' />
    <tag k="ID" v="9419.000"/>
    <tag k="CATEGORY" v="5"/>
    <tag k="SHAPE_LE_1" v="35.920"/>
    <tag k="ET_ID" v="8724"/>
    <tag k="WAY_TYPE" v="Dwelling Area Road"/>
    <tag k="SHAPE_LENG" v="0.000"/>
    <tag k="CAT2" v="50"/>
  </way>
  <node id='-129' visible='true' lat='41.6853497308031' lon='20.4284423544176' />
  <node id='-130' visible='true' lat='41.6849913508933' lon='20.4282815951707' />
  <way id='-131' visible='true'>
    <nd ref='-129' />
    <nd ref='-130' />
    <tag k="ID" v="9420.000"/>
    <tag k="CATEGORY" v="5"/>
    <tag k="SHAPE_LE_1" v="41.996"/>
    <tag k="ET_ID" v="8725"/>
    <tag k="WAY_TYPE" v="Dwelling Area Road"/>
    <tag k="SHAPE_LENG" v="0.000"/>
    <tag k="CAT2" v="50"/>
  </way>
  <node id='-132' visible='true' lat='41.6840533277464' lon='20.4257562677169' />
  <node id='-133' visible='true' lat='41.684149635929' lon='20.4254965552995' />
  <way id='-134' visible='true'>
    <nd ref='-132' />
    <nd ref='-133' />
    <tag k="ID" v="9421.000"/>
    <tag k="CATEGORY" v="5"/>
    <tag k="SHAPE_LE_1" v="24.126"/>
    <tag k="ET_ID" v="8726"/>
    <tag k="WAY_TYPE" v="Dwelling Area Road"/>
    <tag k="SHAPE_LENG" v="0.000"/>
    <tag k="CAT2" v="50"/>
  </way>
  <node id='-135' visible='true' lat='41.6858214511304' lon='20.4246737013614' />
  <node id='-136' visible='true' lat='41.685566439435' lon='20.4248288981273' />
  <node id='-137' visible='true' lat='41.6850156424485' lon='20.4250112080951' />
  <node id='-138' visible='true' lat='41.6844346059867' lon='20.4252756750441' />
  <way id='-139' visible='true'>
    <nd ref='-135' />
    <nd ref='-136' />
    <nd ref='-137' />
    <nd ref='-138' />
    <tag k="ID" v="9422.000"/>
    <tag k="CATEGORY" v="5"/>
    <tag k="SHAPE_LE_1" v="162.357"/>
    <tag k="ET_ID" v="8727"/>
    <tag k="WAY_TYPE" v="Dwelling Area Road"/>
    <tag k="SHAPE_LENG" v="0.000"/>
    <tag k="CAT2" v="50"/>
  </way>
  <node id='-140' visible='true' lat='41.6855847481128' lon='20.4258685977304' />
  <node id='-141' visible='true' lat='41.6858214511304' lon='20.4246737013614' />
  <way id='-142' visible='true'>
    <nd ref='-140' />
    <nd ref='-141' />
    <tag k="ID" v="9423.000"/>
    <tag k="CATEGORY" v="5"/>
    <tag k="SHAPE_LE_1" v="102.903"/>
    <tag k="ET_ID" v="8728"/>
    <tag k="WAY_TYPE" v="Dwelling Area Road"/>
    <tag k="SHAPE_LENG" v="0.000"/>
    <tag k="CAT2" v="50"/>
  </way>
  <node id='-143' visible='true' lat='41.6866173056225' lon='20.4326455196162' />
  <node id='-144' visible='true' lat='41.6869260782639' lon='20.4326912902382' />
  <way id='-145' visible='true'>
    <nd ref='-143' />
    <nd ref='-144' />
    <tag k="ID" v="9424.000"/>
    <tag k="CATEGORY" v="5"/>
    <tag k="SHAPE_LE_1" v="34.507"/>
    <tag k="ET_ID" v="8729"/>
    <tag k="WAY_TYPE" v="Dwelling Area Road"/>
    <tag k="SHAPE_LENG" v="0.000"/>
    <tag k="CAT2" v="50"/>
  </way>
  <node id='-146' visible='true' lat='41.6864549306043' lon='20.4346833824565' />
  <node id='-147' visible='true' lat='41.686260485772' lon='20.4338971818574' />
  <node id='-148' visible='true' lat='41.6862760695269' lon='20.4333758168572' />
  <node id='-149' visible='true' lat='41.6864551041273' lon='20.4328772576572' />
  <node id='-150' visible='true' lat='41.6866173056225' lon='20.4326455196162' />
  <way id='-151' visible='true'>
    <nd ref='-146' />
    <nd ref='-147' />
    <nd ref='-148' />
    <nd ref='-149' />
    <nd ref='-150' />
    <tag k="ID" v="9425.000"/>
    <tag k="CATEGORY" v="5"/>
    <tag k="SHAPE_LE_1" v="184.799"/>
    <tag k="ET_ID" v="8730"/>
    <tag k="WAY_TYPE" v="Dwelling Area Road"/>
    <tag k="SHAPE_LENG" v="0.000"/>
    <tag k="CAT2" v="50"/>
  </way>
  <node id='-152' visible='true' lat='41.6813594592405' lon='20.4336619129567' />
  <node id='-153' visible='true' lat='41.6816975243092' lon='20.4341817511789' />
  <node id='-154' visible='true' lat='41.6821246123854' lon='20.4346111919566' />
  <node id='-155' visible='true' lat='41.6824460169714' lon='20.4349694822616' />
  <node id='-156' visible='true' lat='41.6826943944491' lon='20.4354453046093' />
  <node id='-157' visible='true' lat='41.6827207945682' lon='20.4355345139007' />
  <way id='-158' visible='true'>
    <nd ref='-152' />
    <nd ref='-153' />
    <nd ref='-154' />
    <nd ref='-155' />
    <nd ref='-156' />
    <nd ref='-157' />
    <tag k="ID" v="9480.000"/>
    <tag k="CATEGORY" v="5"/>
    <tag k="SHAPE_LE_1" v="219.495"/>
    <tag k="ET_ID" v="8744"/>
    <tag k="WAY_TYPE" v="Dwelling Area Road"/>
    <tag k="SHAPE_LENG" v="0.000"/>
    <tag k="CAT2" v="50"/>
  </way>
  <node id='-159' visible='true' lat='41.6830638729014' lon='20.4355316999409' />
  <node id='-160' visible='true' lat='41.68278414952' lon='20.4355042718469' />
  <node id='-161' visible='true' lat='41.6827207945682' lon='20.4355345139007' />
  <way id='-162' visible='true'>
    <nd ref='-159' />
    <nd ref='-160' />
    <nd ref='-161' />
    <tag k="ID" v="9482.000"/>
    <tag k="CATEGORY" v="5"/>
    <tag k="SHAPE_LE_1" v="38.627"/>
    <tag k="ET_ID" v="8746"/>
    <tag k="WAY_TYPE" v="Dwelling Area Road"/>
    <tag k="SHAPE_LENG" v="0.000"/>
    <tag k="CAT2" v="50"/>
  </way>
  <node id='-163' visible='true' lat='41.6844761664804' lon='20.437895316523' />
  <node id='-164' visible='true' lat='41.6844235385906' lon='20.4385679794173' />
  <way id='-165' visible='true'>
    <nd ref='-163' />
    <nd ref='-164' />
    <tag k="ID" v="9483.000"/>
    <tag k="CATEGORY" v="5"/>
    <tag k="SHAPE_LE_1" v="56.312"/>
    <tag k="ET_ID" v="8747"/>
    <tag k="WAY_TYPE" v="Dwelling Area Road"/>
    <tag k="SHAPE_LENG" v="0.000"/>
    <tag k="CAT2" v="50"/>
  </way>
  <node id='-166' visible='true' lat='41.6845859517077' lon='20.4374760990102' />
  <node id='-167' visible='true' lat='41.6844761664804' lon='20.437895316523' />
  <way id='-168' visible='true'>
    <nd ref='-166' />
    <nd ref='-167' />
    <tag k="ID" v="9484.000"/>
    <tag k="CATEGORY" v="5"/>
    <tag k="SHAPE_LE_1" v="36.974"/>
    <tag k="ET_ID" v="8748"/>
    <tag k="WAY_TYPE" v="Dwelling Area Road"/>
    <tag k="SHAPE_LENG" v="0.000"/>
    <tag k="CAT2" v="50"/>
  </way>
  <node id='-169' visible='true' lat='41.6844651494556' lon='20.4350205424696' />
  <node id='-170' visible='true' lat='41.684585417156' lon='20.435483054721' />
  <way id='-171' visible='true'>
    <nd ref='-169' />
    <nd ref='-170' />
    <tag k="ID" v="9485.000"/>
    <tag k="CATEGORY" v="5"/>
    <tag k="SHAPE_LE_1" v="40.761"/>
    <tag k="ET_ID" v="8749"/>
    <tag k="WAY_TYPE" v="Dwelling Area Road"/>
    <tag k="SHAPE_LENG" v="0.000"/>
    <tag k="CAT2" v="50"/>
  </way>
  <node id='-172' visible='true' lat='41.6842546732299' lon='20.4323009494246' />
  <node id='-173' visible='true' lat='41.6844315757651' lon='20.4333228075667' />
  <node id='-174' visible='true' lat='41.6844508401467' lon='20.4343269152175' />
  <node id='-175' visible='true' lat='41.6844613436485' lon='20.4350059095358' />
  <node id='-176' visible='true' lat='41.6844651494556' lon='20.4350205424696' />
  <way id='-177' visible='true'>
    <nd ref='-172' />
    <nd ref='-173' />
    <nd ref='-174' />
    <nd ref='-175' />
    <nd ref='-176' />
    <tag k="ID" v="9486.000"/>
    <tag k="CATEGORY" v="5"/>
    <tag k="SHAPE_LE_1" v="228.790"/>
    <tag k="ET_ID" v="8750"/>
    <tag k="WAY_TYPE" v="Dwelling Area Road"/>
    <tag k="SHAPE_LENG" v="0.000"/>
    <tag k="CAT2" v="50"/>
  </way>
  <node id='-178' visible='true' lat='41.684585417156' lon='20.435483054721' />
  <node id='-179' visible='true' lat='41.6849820110532' lon='20.4360439010634' />
  <way id='-180' visible='true'>
    <nd ref='-178' />
    <nd ref='-179' />
    <tag k="ID" v="9634.000"/>
    <tag k="CATEGORY" v="5"/>
    <tag k="SHAPE_LE_1" v="64.196"/>
    <tag k="ET_ID" v="8895"/>
    <tag k="WAY_TYPE" v="Dwelling Area Road"/>
    <tag k="SHAPE_LENG" v="0.000"/>
    <tag k="CAT2" v="50"/>
  </way>
  <node id='-181' visible='true' lat='41.6852073720657' lon='20.4387703012774' />
  <node id='-182' visible='true' lat='41.6844761664804' lon='20.437895316523' />
  <way id='-183' visible='true'>
    <nd ref='-181' />
    <nd ref='-182' />
    <tag k="ID" v="9635.000"/>
    <tag k="CATEGORY" v="5"/>
    <tag k="SHAPE_LE_1" v="109.104"/>
    <tag k="ET_ID" v="8896"/>
    <tag k="WAY_TYPE" v="Dwelling Area Road"/>
    <tag k="SHAPE_LENG" v="0.000"/>
    <tag k="CAT2" v="50"/>
  </way>
  <node id='-184' visible='true' lat='41.6849193102578' lon='20.4393255132304' />
  <node id='-185' visible='true' lat='41.6844235385906' lon='20.4385679794173' />
  <way id='-186' visible='true'>
    <nd ref='-184' />
    <nd ref='-185' />
    <tag k="ID" v="9636.000"/>
    <tag k="CATEGORY" v="5"/>
    <tag k="SHAPE_LE_1" v="83.729"/>
    <tag k="ET_ID" v="8897"/>
    <tag k="WAY_TYPE" v="Dwelling Area Road"/>
    <tag k="SHAPE_LENG" v="0.000"/>
    <tag k="CAT2" v="50"/>
  </way>
  <node id='-187' visible='true' lat='41.6827207945682' lon='20.4355345139007' />
  <node id='-188' visible='true' lat='41.6829104633403' lon='20.436175363038' />
  <way id='-189' visible='true'>
    <nd ref='-187' />
    <nd ref='-188' />
    <tag k="ID" v="9640.000"/>
    <tag k="CATEGORY" v="5"/>
    <tag k="SHAPE_LE_1" v="57.368"/>
    <tag k="ET_ID" v="8901"/>
    <tag k="WAY_TYPE" v="Dwelling Area Road"/>
    <tag k="SHAPE_LENG" v="0.000"/>
    <tag k="CAT2" v="50"/>
  </way>
  <node id='-190' visible='true' lat='41.6865725592223' lon='20.429106384549' />
  <node id='-191' visible='true' lat='41.6871169788994' lon='20.4286543347385' />
  <way id='-192' visible='true'>
    <nd ref='-190' />
    <nd ref='-191' />
    <tag k="ID" v="9691.000"/>
    <tag k="CATEGORY" v="5"/>
    <tag k="SHAPE_LE_1" v="71.226"/>
    <tag k="ET_ID" v="8952"/>
    <tag k="WAY_TYPE" v="Dwelling Area Road"/>
    <tag k="SHAPE_LENG" v="0.000"/>
    <tag k="CAT2" v="50"/>
  </way>
  <node id='-193' visible='true' lat='41.6859530938947' lon='20.4316318657717' />
  <node id='-194' visible='true' lat='41.6864566935884' lon='20.4313620372656' />
  <way id='-195' visible='true'>
    <nd ref='-193' />
    <nd ref='-194' />
    <tag k="ID" v="9692.000"/>
    <tag k="CATEGORY" v="5"/>
    <tag k="SHAPE_LE_1" v="60.279"/>
    <tag k="ET_ID" v="8953"/>
    <tag k="WAY_TYPE" v="Dwelling Area Road"/>
    <tag k="SHAPE_LENG" v="0.000"/>
    <tag k="CAT2" v="50"/>
  </way>
  <node id='-196' visible='true' lat='41.6864566935884' lon='20.4313620372656' />
  <node id='-197' visible='true' lat='41.6860215653985' lon='20.4332931989846' />
  <way id='-198' visible='true'>
    <nd ref='-196' />
    <nd ref='-197' />
    <tag k="ID" v="9693.000"/>
    <tag k="CATEGORY" v="5"/>
    <tag k="SHAPE_LE_1" v="167.896"/>
    <tag k="ET_ID" v="8954"/>
    <tag k="WAY_TYPE" v="Dwelling Area Road"/>
    <tag k="SHAPE_LENG" v="0.000"/>
    <tag k="CAT2" v="50"/>
  </way>
  <node id='-199' visible='true' lat='41.6868909452941' lon='20.4310915301858' />
  <node id='-200' visible='true' lat='41.6867484536264' lon='20.4316382654767' />
  <node id='-201' visible='true' lat='41.6865710963023' lon='20.4324762222711' />
  <node id='-202' visible='true' lat='41.6866173056225' lon='20.4326455196162' />
  <way id='-203' visible='true'>
    <nd ref='-199' />
    <nd ref='-200' />
    <nd ref='-201' />
    <nd ref='-202' />
    <tag k="ID" v="9694.000"/>
    <tag k="CATEGORY" v="5"/>
    <tag k="SHAPE_LE_1" v="135.691"/>
    <tag k="ET_ID" v="8955"/>
    <tag k="WAY_TYPE" v="Dwelling Area Road"/>
    <tag k="SHAPE_LENG" v="0.000"/>
    <tag k="CAT2" v="50"/>
  </way>
  <node id='-204' visible='true' lat='41.6869260782639' lon='20.4326912902382' />
  <node id='-205' visible='true' lat='41.6864549306043' lon='20.4346833824565' />
  <way id='-206' visible='true'>
    <nd ref='-204' />
    <nd ref='-205' />
    <tag k="ID" v="9695.000"/>
    <tag k="CATEGORY" v="5"/>
    <tag k="SHAPE_LE_1" v="173.921"/>
    <tag k="ET_ID" v="8956"/>
    <tag k="WAY_TYPE" v="Dwelling Area Road"/>
    <tag k="SHAPE_LENG" v="0.000"/>
    <tag k="CAT2" v="50"/>
  </way>
  <node id='-207' visible='true' lat='41.6844346059867' lon='20.4252756750441' />
  <node id='-208' visible='true' lat='41.684149635929' lon='20.4254965552995' />
  <way id='-209' visible='true'>
    <nd ref='-207' />
    <nd ref='-208' />
    <tag k="ID" v="9696.000"/>
    <tag k="CATEGORY" v="5"/>
    <tag k="SHAPE_LE_1" v="36.607"/>
    <tag k="ET_ID" v="8957"/>
    <tag k="WAY_TYPE" v="Dwelling Area Road"/>
    <tag k="SHAPE_LENG" v="0.000"/>
    <tag k="CAT2" v="50"/>
  </way>
  <node id='-210' visible='true' lat='41.684149635929' lon='20.4254965552995' />
  <node id='-211' visible='true' lat='41.6854624653808' lon='20.4263586281047' />
  <way id='-212' visible='true'>
    <nd ref='-210' />
    <nd ref='-211' />
    <tag k="ID" v="9697.000"/>
    <tag k="CATEGORY" v="5"/>
    <tag k="SHAPE_LE_1" v="162.528"/>
    <tag k="ET_ID" v="8958"/>
    <tag k="WAY_TYPE" v="Dwelling Area Road"/>
    <tag k="SHAPE_LENG" v="0.000"/>
    <tag k="CAT2" v="50"/>
  </way>
  <node id='-213' visible='true' lat='41.6831317454828' lon='20.4302393887704' />
  <node id='-214' visible='true' lat='41.6817240306078' lon='20.4287417231728' />
  <node id='-215' visible='true' lat='41.682078842372' lon='20.4270899590936' />
  <way id='-216' visible='true'>
    <nd ref='-213' />
    <nd ref='-214' />
    <nd ref='-215' />
    <tag k="ID" v="9698.000"/>
    <tag k="CATEGORY" v="5"/>
    <tag k="SHAPE_LE_1" v="343.067"/>
    <tag k="ET_ID" v="8959"/>
    <tag k="WAY_TYPE" v="Dwelling Area Road"/>
    <tag k="SHAPE_LENG" v="0.000"/>
    <tag k="CAT2" v="50"/>
  </way>
  <node id='-217' visible='true' lat='41.6835923016911' lon='20.4310804395608' />
  <node id='-218' visible='true' lat='41.683937455659' lon='20.431659289981' />
  <node id='-219' visible='true' lat='41.6841075616869' lon='20.4317866521852' />
  <way id='-220' visible='true'>
    <nd ref='-217' />
    <nd ref='-218' />
    <nd ref='-219' />
    <tag k="ID" v="9699.000"/>
    <tag k="CATEGORY" v="5"/>
    <tag k="SHAPE_LE_1" v="83.251"/>
    <tag k="ET_ID" v="8960"/>
    <tag k="WAY_TYPE" v="Dwelling Area Road"/>
    <tag k="SHAPE_LENG" v="0.000"/>
    <tag k="CAT2" v="50"/>
  </way>
  <node id='-221' visible='true' lat='41.6840083511755' lon='20.429432600637' />
  <node id='-222' visible='true' lat='41.6833546140894' lon='20.4291493179907' />
  <way id='-223' visible='true'>
    <nd ref='-221' />
    <nd ref='-222' />
    <tag k="ID" v="9700.000"/>
    <tag k="CATEGORY" v="5"/>
    <tag k="SHAPE_LE_1" v="76.347"/>
    <tag k="ET_ID" v="8961"/>
    <tag k="WAY_TYPE" v="Dwelling Area Road"/>
    <tag k="SHAPE_LENG" v="0.000"/>
    <tag k="CAT2" v="50"/>
  </way>
  <node id='-224' visible='true' lat='41.6843729477312' lon='20.4295357141456' />
  <node id='-225' visible='true' lat='41.6843028177592' lon='20.4300350947713' />
  <way id='-226' visible='true'>
    <nd ref='-224' />
    <nd ref='-225' />
    <tag k="ID" v="9701.000"/>
    <tag k="CATEGORY" v="5"/>
    <tag k="SHAPE_LE_1" v="42.303"/>
    <tag k="ET_ID" v="8962"/>
    <tag k="WAY_TYPE" v="Dwelling Area Road"/>
    <tag k="SHAPE_LENG" v="0.000"/>
    <tag k="CAT2" v="50"/>
  </way>
  <node id='-227' visible='true' lat='41.6843729477312' lon='20.4295357141456' />
  <node id='-228' visible='true' lat='41.6846830910142' lon='20.428151171524' />
  <way id='-229' visible='true'>
    <nd ref='-227' />
    <nd ref='-228' />
    <tag k="ID" v="9702.000"/>
    <tag k="CATEGORY" v="5"/>
    <tag k="SHAPE_LE_1" v="120.317"/>
    <tag k="ET_ID" v="8963"/>
    <tag k="WAY_TYPE" v="Dwelling Area Road"/>
    <tag k="SHAPE_LENG" v="0.000"/>
    <tag k="CAT2" v="50"/>
  </way>
  <node id='-230' visible='true' lat='41.6850926640164' lon='20.4278473178209' />
  <node id='-231' visible='true' lat='41.6857940701857' lon='20.4281059128498' />
  <way id='-232' visible='true'>
    <nd ref='-230' />
    <nd ref='-231' />
    <tag k="ID" v="9703.000"/>
    <tag k="CATEGORY" v="5"/>
    <tag k="SHAPE_LE_1" v="80.827"/>
    <tag k="ET_ID" v="8964"/>
    <tag k="WAY_TYPE" v="Dwelling Area Road"/>
    <tag k="SHAPE_LENG" v="0.000"/>
    <tag k="CAT2" v="50"/>
  </way>
  <node id='-233' visible='true' lat='41.6864707337007' lon='20.4285986983' />
  <node id='-234' visible='true' lat='41.6867588727414' lon='20.4281389274875' />
  <node id='-235' visible='true' lat='41.68691128006' lon='20.4275002461939' />
  <way id='-236' visible='true'>
    <nd ref='-233' />
    <nd ref='-234' />
    <nd ref='-235' />
    <tag k="ID" v="9704.000"/>
    <tag k="CATEGORY" v="5"/>
    <tag k="SHAPE_LE_1" v="105.702"/>
    <tag k="ET_ID" v="8965"/>
    <tag k="WAY_TYPE" v="Dwelling Area Road"/>
    <tag k="SHAPE_LENG" v="0.000"/>
    <tag k="CAT2" v="50"/>
  </way>
  <node id='-237' visible='true' lat='41.6864707337007' lon='20.4285986983' />
  <node id='-238' visible='true' lat='41.6864611429291' lon='20.4266729404737' />
  <way id='-239' visible='true'>
    <nd ref='-237' />
    <nd ref='-238' />
    <tag k="ID" v="9705.000"/>
    <tag k="CATEGORY" v="5"/>
    <tag k="SHAPE_LE_1" v="160.342"/>
    <tag k="ET_ID" v="8966"/>
    <tag k="WAY_TYPE" v="Dwelling Area Road"/>
    <tag k="SHAPE_LENG" v="0.000"/>
    <tag k="CAT2" v="50"/>
  </way>
  <node id='-240' visible='true' lat='41.6864611429291' lon='20.4266729404737' />
  <node id='-241' visible='true' lat='41.6870941761044' lon='20.4267365956181' />
  <way id='-242' visible='true'>
    <nd ref='-240' />
    <nd ref='-241' />
    <tag k="ID" v="9706.000"/>
    <tag k="CATEGORY" v="5"/>
    <tag k="SHAPE_LE_1" v="70.512"/>
    <tag k="ET_ID" v="8967"/>
    <tag k="WAY_TYPE" v="Dwelling Area Road"/>
    <tag k="SHAPE_LENG" v="0.000"/>
    <tag k="CAT2" v="50"/>
  </way>
  <node id='-243' visible='true' lat='41.6847081872953' lon='20.4294953584989' />
  <node id='-244' visible='true' lat='41.6844955956749' lon='20.4305501798674' />
  <way id='-245' visible='true'>
    <nd ref='-243' />
    <nd ref='-244' />
    <tag k="ID" v="9707.000"/>
    <tag k="CATEGORY" v="5"/>
    <tag k="SHAPE_LE_1" v="90.946"/>
    <tag k="ET_ID" v="8968"/>
    <tag k="WAY_TYPE" v="Dwelling Area Road"/>
    <tag k="SHAPE_LENG" v="0.000"/>
    <tag k="CAT2" v="50"/>
  </way>
  <node id='-246' visible='true' lat='41.6859530938947' lon='20.4316318657717' />
  <node id='-247' visible='true' lat='41.68570806888' lon='20.4324237446533' />
  <node id='-248' visible='true' lat='41.6853597295604' lon='20.433299658637' />
  <way id='-249' visible='true'>
    <nd ref='-246' />
    <nd ref='-247' />
    <nd ref='-248' />
    <tag k="ID" v="9708.000"/>
    <tag k="CATEGORY" v="5"/>
    <tag k="SHAPE_LE_1" v="153.886"/>
    <tag k="ET_ID" v="8969"/>
    <tag k="WAY_TYPE" v="Dwelling Area Road"/>
    <tag k="SHAPE_LENG" v="0.000"/>
    <tag k="CAT2" v="50"/>
  </way>
  <node id='-250' visible='true' lat='41.6850860288556' lon='20.4345905424501' />
  <node id='-251' visible='true' lat='41.6844651494556' lon='20.4350205424696' />
  <way id='-252' visible='true'>
    <nd ref='-250' />
    <nd ref='-251' />
    <tag k="ID" v="9709.000"/>
    <tag k="CATEGORY" v="5"/>
    <tag k="SHAPE_LE_1" v="77.702"/>
    <tag k="ET_ID" v="8970"/>
    <tag k="WAY_TYPE" v="Dwelling Area Road"/>
    <tag k="SHAPE_LENG" v="0.000"/>
    <tag k="CAT2" v="50"/>
  </way>
  <node id='-253' visible='true' lat='41.6849193102578' lon='20.4393255132304' />
  <node id='-254' visible='true' lat='41.6850140925381' lon='20.4396359122501' />
  <node id='-255' visible='true' lat='41.6847757179247' lon='20.4407655823777' />
  <node id='-256' visible='true' lat='41.684643958146' lon='20.4410251694679' />
  <way id='-257' visible='true'>
    <nd ref='-253' />
    <nd ref='-254' />
    <nd ref='-255' />
    <nd ref='-256' />
    <tag k="ID" v="72296.000"/>
    <tag k="CATEGORY" v="4"/>
    <tag k="SHAPE_LE_1" v="151.723"/>
    <tag k="ET_ID" v="67765"/>
    <tag k="WAY_TYPE" v="Village Road"/>
    <tag k="SHAPE_LENG" v="0.000"/>
    <tag k="CAT2" v="40"/>
  </way>
  <node id='-258' visible='true' lat='41.6865725592223' lon='20.429106384549' />
  <node id='-259' visible='true' lat='41.6872709886683' lon='20.4294057358521' />
  <node id='-260' visible='true' lat='41.6874794780683' lon='20.429780276711' />
  <node id='-261' visible='true' lat='41.6876693115308' lon='20.4301800814044' />
  <way id='-262' visible='true'>
    <nd ref='-258' />
    <nd ref='-259' />
    <nd ref='-260' />
    <nd ref='-261' />
    <tag k="ID" v="72702.000"/>
    <tag k="CATEGORY" v="4"/>
    <tag k="SHAPE_LE_1" v="159.727"/>
    <tag k="ET_ID" v="68116"/>
    <tag k="WAY_TYPE" v="Village Road"/>
    <tag k="SHAPE_LENG" v="0.000"/>
    <tag k="CAT2" v="40"/>
  </way>
  <node id='-263' visible='true' lat='41.6862272553574' lon='20.4250351343891' />
  <node id='-264' visible='true' lat='41.6858214511304' lon='20.4246737013614' />
  <way id='-265' visible='true'>
    <nd ref='-263' />
    <nd ref='-264' />
    <tag k="ID" v="160409.000"/>
    <tag k="CATEGORY" v="3"/>
    <tag k="SHAPE_LE_1" v="54.196"/>
    <tag k="ET_ID" v="152474"/>
    <tag k="WAY_TYPE" v="Seasonal Road"/>
    <tag k="SHAPE_LENG" v="0.000"/>
    <tag k="CAT2" v="30"/>
  </way>
  <node id='-266' visible='true' lat='41.6861856566299' lon='20.4255115702203' />
  <node id='-267' visible='true' lat='41.6862272553574' lon='20.4250351343891' />
  <way id='-268' visible='true'>
    <nd ref='-266' />
    <nd ref='-267' />
    <tag k="ID" v="160410.000"/>
    <tag k="CATEGORY" v="3"/>
    <tag k="SHAPE_LE_1" v="39.936"/>
    <tag k="ET_ID" v="152475"/>
    <tag k="WAY_TYPE" v="Seasonal Road"/>
    <tag k="SHAPE_LENG" v="0.000"/>
    <tag k="CAT2" v="30"/>
  </way>
  <node id='-269' visible='true' lat='41.6827621495697' lon='20.4318740257387' />
  <node id='-270' visible='true' lat='41.6834964324102' lon='20.4336927066855' />
  <node id='-271' visible='true' lat='41.6841354189257' lon='20.4353512355272' />
  <node id='-272' visible='true' lat='41.684171938407' lon='20.4355870506743' />
  <way id='-273' visible='true'>
    <nd ref='-269' />
    <nd ref='-270' />
    <nd ref='-271' />
    <nd ref='-272' />
    <tag k="ID" v="160499.000"/>
    <tag k="CATEGORY" v="3"/>
    <tag k="SHAPE_LE_1" v="347.312"/>
    <tag k="ET_ID" v="152564"/>
    <tag k="WAY_TYPE" v="Seasonal Road"/>
    <tag k="SHAPE_LENG" v="0.000"/>
    <tag k="CAT2" v="30"/>
  </way>
  <node id='-274' visible='true' lat='41.684171938407' lon='20.4355870506743' />
  <node id='-275' visible='true' lat='41.6841734896787' lon='20.4359030145203' />
  <node id='-276' visible='true' lat='41.6847959020364' lon='20.437403736735' />
  <node id='-277' visible='true' lat='41.6847965206411' lon='20.4375301198415' />
  <node id='-278' visible='true' lat='41.6845859517077' lon='20.4374760990102' />
  <way id='-279' visible='true'>
    <nd ref='-274' />
    <nd ref='-275' />
    <nd ref='-276' />
    <nd ref='-277' />
    <nd ref='-278' />
    <tag k="ID" v="160530.000"/>
    <tag k="CATEGORY" v="3"/>
    <tag k="SHAPE_LE_1" v="203.452"/>
    <tag k="ET_ID" v="152595"/>
    <tag k="WAY_TYPE" v="Seasonal Road"/>
    <tag k="SHAPE_LENG" v="0.000"/>
    <tag k="CAT2" v="30"/>
  </way>
  <node id='-280' visible='true' lat='41.684171938407' lon='20.4355870506743' />
  <node id='-281' visible='true' lat='41.684585417156' lon='20.435483054721' />
  <way id='-282' visible='true'>
    <nd ref='-280' />
    <nd ref='-281' />
    <tag k="ID" v="160531.000"/>
    <tag k="CATEGORY" v="3"/>
    <tag k="SHAPE_LE_1" v="46.735"/>
    <tag k="ET_ID" v="152596"/>
    <tag k="WAY_TYPE" v="Seasonal Road"/>
    <tag k="SHAPE_LENG" v="0.000"/>
    <tag k="CAT2" v="30"/>
  </way>
  <node id='-283' visible='true' lat='41.6844761664804' lon='20.437895316523' />
  <node id='-284' visible='true' lat='41.6841051439767' lon='20.4380347964307' />
  <way id='-285' visible='true'>
    <nd ref='-283' />
    <nd ref='-284' />
    <tag k="ID" v="160546.000"/>
    <tag k="CATEGORY" v="3"/>
    <tag k="SHAPE_LE_1" v="42.815"/>
    <tag k="ET_ID" v="152611"/>
    <tag k="WAY_TYPE" v="Seasonal Road"/>
    <tag k="SHAPE_LENG" v="0.000"/>
    <tag k="CAT2" v="30"/>
  </way>
  <node id='-286' visible='true' lat='41.6830638729014' lon='20.4355316999409' />
  <node id='-287' visible='true' lat='41.6836497749098' lon='20.4358560393759' />
  <node id='-288' visible='true' lat='41.684021309557' lon='20.4363606786184' />
  <node id='-289' visible='true' lat='41.6843489847783' lon='20.4370449658277' />
  <node id='-290' visible='true' lat='41.6845859517077' lon='20.4374760990102' />
  <way id='-291' visible='true'>
    <nd ref='-286' />
    <nd ref='-287' />
    <nd ref='-288' />
    <nd ref='-289' />
    <nd ref='-290' />
    <tag k="ID" v="160550.000"/>
    <tag k="CATEGORY" v="3"/>
    <tag k="SHAPE_LE_1" v="241.473"/>
    <tag k="ET_ID" v="152615"/>
    <tag k="WAY_TYPE" v="Seasonal Road"/>
    <tag k="SHAPE_LENG" v="0.000"/>
    <tag k="CAT2" v="30"/>
  </way>
  <node id='-292' visible='true' lat='41.6862272553574' lon='20.4250351343891' />
  <node id='-293' visible='true' lat='41.6867769116887' lon='20.4248819064654' />
  <node id='-294' visible='true' lat='41.6872719717236' lon='20.4244840503711' />
  <node id='-295' visible='true' lat='41.6875094359065' lon='20.4241130718141' />
  <way id='-296' visible='true'>
    <nd ref='-292' />
    <nd ref='-293' />
    <nd ref='-294' />
    <nd ref='-295' />
    <tag k="ID" v="192894.000"/>
    <tag k="CATEGORY" v="1"/>
    <tag k="SHAPE_LE_1" v="167.181"/>
    <tag k="ET_ID" v="183842"/>
    <tag k="WAY_TYPE" v="National Asphalted Road"/>
    <tag k="SHAPE_LENG" v="0.000"/>
    <tag k="CAT2" v="11"/>
  </way>
</osm>
