<?xml version='1.0'?>
<osm version='0.5' generator='shp2osm.pl'>
  <node id='-1' visible='true' lat='40.9483932' lon='20.0029867' />
  <node id='-2' visible='true' lat='40.9718876' lon='20.0051833' />
  <node id='-3' visible='true' lat='40.9773227' lon='20.008741' />
  <node id='-4' visible='true' lat='40.9872349' lon='20.0112769' />
  <way id='-5' visible='true'>
    <nd ref='-1' />
    <nd ref='-2' />
    <nd ref='-3' />
    <nd ref='-4' />
    <tag k="OSM_ID" v="30455428"/>
  </way>
</osm>
