<?xml version='1.0'?>
<osm version='0.5' generator='shp2osm.pl'>
  <node id='-1' visible='true' lat='41.8810736' lon='19.6116205' />
  <node id='-2' visible='true' lat='41.8810952' lon='19.6143856' />
  <node id='-3' visible='true' lat='41.883062' lon='19.6177208' />
  <node id='-4' visible='true' lat='41.8837307' lon='19.6216356' />
  <way id='-5' visible='true'>
    <nd ref='-1' />
    <nd ref='-2' />
    <nd ref='-3' />
    <nd ref='-4' />
    <tag k="OSM_ID" v="48743740"/>
  </way>
  <node id='-6' visible='true' lat='41.8681824' lon='19.61678' />
  <node id='-7' visible='true' lat='41.8742633' lon='19.6295545' />
  <node id='-8' visible='true' lat='41.8804111' lon='19.6385864' />
  <node id='-9' visible='true' lat='41.8894756' lon='19.6299494' />
  <way id='-10' visible='true'>
    <nd ref='-6' />
    <nd ref='-7' />
    <nd ref='-8' />
    <nd ref='-9' />
    <tag k="OSM_ID" v="48743742"/>
  </way>
  <node id='-11' visible='true' lat='41.8929819' lon='19.6303771' />
  <node id='-12' visible='true' lat='41.895226' lon='19.6374373' />
  <node id='-13' visible='true' lat='41.8967078' lon='19.6455435' />
  <node id='-14' visible='true' lat='41.9004217' lon='19.6516704' />
  <node id='-15' visible='true' lat='41.9009057' lon='19.6545917' />
  <node id='-16' visible='true' lat='41.9037679' lon='19.6718668' />
  <way id='-17' visible='true'>
    <nd ref='-11' />
    <nd ref='-12' />
    <nd ref='-13' />
    <nd ref='-14' />
    <nd ref='-15' />
    <nd ref='-16' />
    <tag k="OSM_ID" v="48744179"/>
  </way>
  <node id='-18' visible='true' lat='41.8627982' lon='19.6377296' />
  <node id='-19' visible='true' lat='41.8674983' lon='19.6521834' />
  <node id='-20' visible='true' lat='41.8698928' lon='19.6512427' />
  <node id='-21' visible='true' lat='41.8713465' lon='19.6488483' />
  <node id='-22' visible='true' lat='41.8734844' lon='19.6504732' />
  <node id='-23' visible='true' lat='41.879556' lon='19.6478222' />
  <way id='-24' visible='true'>
    <nd ref='-18' />
    <nd ref='-19' />
    <nd ref='-20' />
    <nd ref='-21' />
    <nd ref='-22' />
    <nd ref='-23' />
    <tag k="OSM_ID" v="48744176"/>
  </way>
  <node id='-25' visible='true' lat='41.8804111' lon='19.6385864' />
  <node id='-26' visible='true' lat='41.879556' lon='19.6478222' />
  <node id='-27' visible='true' lat='41.8820358' lon='19.6562027' />
  <way id='-28' visible='true'>
    <nd ref='-25' />
    <nd ref='-26' />
    <nd ref='-27' />
    <tag k="OSM_ID" v="48744177"/>
  </way>
</osm>
