<?xml version='1.0'?>
<osm version='0.5' generator='shp2osm.pl'>
  <node id='-1' visible='true' lat='42.117344' lon='19.9031428' />
  <node id='-2' visible='true' lat='42.1174875' lon='19.9029775' />
  <node id='-3' visible='true' lat='42.1177156' lon='19.9029187' />
  <node id='-4' visible='true' lat='42.11837' lon='19.9030392' />
  <way id='-5' visible='true'>
    <nd ref='-1' />
    <nd ref='-2' />
    <nd ref='-3' />
    <nd ref='-4' />
    <tag k="OSM_ID" v="52362564"/>
  </way>
  <node id='-6' visible='true' lat='42.1152244' lon='19.9117798' />
  <node id='-7' visible='true' lat='42.1149881' lon='19.9112659' />
  <node id='-8' visible='true' lat='42.1149678' lon='19.9107398' />
  <node id='-9' visible='true' lat='42.1149622' lon='19.9093465' />
  <node id='-10' visible='true' lat='42.1149824' lon='19.9082134' />
  <node id='-11' visible='true' lat='42.1150625' lon='19.9061476' />
  <node id='-12' visible='true' lat='42.1152096' lon='19.9054742' />
  <node id='-13' visible='true' lat='42.1153839' lon='19.9052545' />
  <node id='-14' visible='true' lat='42.1156588' lon='19.9050949' />
  <node id='-15' visible='true' lat='42.1163098' lon='19.9049392' />
  <node id='-16' visible='true' lat='42.1171761' lon='19.904821' />
  <node id='-17' visible='true' lat='42.1179319' lon='19.9046498' />
  <node id='-18' visible='true' lat='42.1180655' lon='19.9046075' />
  <node id='-19' visible='true' lat='42.1183345' lon='19.9044454' />
  <node id='-20' visible='true' lat='42.1183576' lon='19.9043022' />
  <node id='-21' visible='true' lat='42.1183481' lon='19.9041706' />
  <node id='-22' visible='true' lat='42.1180759' lon='19.9038679' />
  <node id='-23' visible='true' lat='42.1176067' lon='19.9034915' />
  <node id='-24' visible='true' lat='42.1174011' lon='19.9033194' />
  <node id='-25' visible='true' lat='42.117344' lon='19.9031428' />
  <way id='-26' visible='true'>
    <nd ref='-6' />
    <nd ref='-7' />
    <nd ref='-8' />
    <nd ref='-9' />
    <nd ref='-10' />
    <nd ref='-11' />
    <nd ref='-12' />
    <nd ref='-13' />
    <nd ref='-14' />
    <nd ref='-15' />
    <nd ref='-16' />
    <nd ref='-17' />
    <nd ref='-18' />
    <nd ref='-19' />
    <nd ref='-20' />
    <nd ref='-21' />
    <nd ref='-22' />
    <nd ref='-23' />
    <nd ref='-24' />
    <nd ref='-25' />
    <tag k="OSM_ID" v="52362578"/>
  </way>
  <node id='-27' visible='true' lat='42.1137226' lon='19.916734' />
  <node id='-28' visible='true' lat='42.1138119' lon='19.916433' />
  <node id='-29' visible='true' lat='42.1142481' lon='19.9163017' />
  <node id='-30' visible='true' lat='42.1148462' lon='19.9162193' />
  <node id='-31' visible='true' lat='42.1148833' lon='19.9160846' />
  <node id='-32' visible='true' lat='42.1148269' lon='19.9158171' />
  <node id='-33' visible='true' lat='42.114659' lon='19.9151078' />
  <node id='-34' visible='true' lat='42.1147088' lon='19.914694' />
  <node id='-35' visible='true' lat='42.1150961' lon='19.9142437' />
  <node id='-36' visible='true' lat='42.1156036' lon='19.9138358' />
  <node id='-37' visible='true' lat='42.1158158' lon='19.9135534' />
  <node id='-38' visible='true' lat='42.1158296' lon='19.9133984' />
  <node id='-39' visible='true' lat='42.115514' lon='19.9124954' />
  <node id='-40' visible='true' lat='42.1152244' lon='19.9117798' />
  <way id='-41' visible='true'>
    <nd ref='-27' />
    <nd ref='-28' />
    <nd ref='-29' />
    <nd ref='-30' />
    <nd ref='-31' />
    <nd ref='-32' />
    <nd ref='-33' />
    <nd ref='-34' />
    <nd ref='-35' />
    <nd ref='-36' />
    <nd ref='-37' />
    <nd ref='-38' />
    <nd ref='-39' />
    <nd ref='-40' />
    <tag k="OSM_ID" v="52362583"/>
  </way>
  <node id='-42' visible='true' lat='42.1179045' lon='19.9260681' />
  <node id='-43' visible='true' lat='42.1180343' lon='19.9260143' />
  <node id='-44' visible='true' lat='42.1181034' lon='19.9260131' />
  <node id='-45' visible='true' lat='42.1182883' lon='19.9260823' />
  <node id='-46' visible='true' lat='42.1183958' lon='19.9260805' />
  <node id='-47' visible='true' lat='42.118557' lon='19.9260778' />
  <node id='-48' visible='true' lat='42.1185638' lon='19.9259951' />
  <node id='-49' visible='true' lat='42.1184551' lon='19.9258628' />
  <node id='-50' visible='true' lat='42.1180067' lon='19.925509' />
  <node id='-51' visible='true' lat='42.1178439' lon='19.9253466' />
  <node id='-52' visible='true' lat='42.1178583' lon='19.9252329' />
  <node id='-53' visible='true' lat='42.1180331' lon='19.9250647' />
  <node id='-54' visible='true' lat='42.1180237' lon='19.9248687' />
  <node id='-55' visible='true' lat='42.1177909' lon='19.9246042' />
  <node id='-56' visible='true' lat='42.1174496' lon='19.9242178' />
  <node id='-57' visible='true' lat='42.1172323' lon='19.9239737' />
  <node id='-58' visible='true' lat='42.1169196' lon='19.9233598' />
  <node id='-59' visible='true' lat='42.1167493' lon='19.9228714' />
  <node id='-60' visible='true' lat='42.1164174' lon='19.9218551' />
  <node id='-61' visible='true' lat='42.1161164' lon='19.9208797' />
  <node id='-62' visible='true' lat='42.1157782' lon='19.9199978' />
  <node id='-63' visible='true' lat='42.1152719' lon='19.9192219' />
  <node id='-64' visible='true' lat='42.1149064' lon='19.9187326' />
  <node id='-65' visible='true' lat='42.1142394' lon='19.9178193' />
  <node id='-66' visible='true' lat='42.1138191' lon='19.9171967' />
  <node id='-67' visible='true' lat='42.1137226' lon='19.916734' />
  <way id='-68' visible='true'>
    <nd ref='-42' />
    <nd ref='-43' />
    <nd ref='-44' />
    <nd ref='-45' />
    <nd ref='-46' />
    <nd ref='-47' />
    <nd ref='-48' />
    <nd ref='-49' />
    <nd ref='-50' />
    <nd ref='-51' />
    <nd ref='-52' />
    <nd ref='-53' />
    <nd ref='-54' />
    <nd ref='-55' />
    <nd ref='-56' />
    <nd ref='-57' />
    <nd ref='-58' />
    <nd ref='-59' />
    <nd ref='-60' />
    <nd ref='-61' />
    <nd ref='-62' />
    <nd ref='-63' />
    <nd ref='-64' />
    <nd ref='-65' />
    <nd ref='-66' />
    <nd ref='-67' />
    <tag k="OSM_ID" v="52362575"/>
  </way>
  <node id='-69' visible='true' lat='42.1221468' lon='19.9355045' />
  <node id='-70' visible='true' lat='42.1219077' lon='19.9357061' />
  <node id='-71' visible='true' lat='42.121587' lon='19.9358973' />
  <node id='-72' visible='true' lat='42.1207927' lon='19.9363132' />
  <node id='-73' visible='true' lat='42.1203495' lon='19.9365373' />
  <node id='-74' visible='true' lat='42.1202115' lon='19.93655' />
  <node id='-75' visible='true' lat='42.1201478' lon='19.9363136' />
  <node id='-76' visible='true' lat='42.1201055' lon='19.9358809' />
  <node id='-77' visible='true' lat='42.1201955' lon='19.9356523' />
  <node id='-78' visible='true' lat='42.1205795' lon='19.9348509' />
  <node id='-79' visible='true' lat='42.1206808' lon='19.9341782' />
  <node id='-80' visible='true' lat='42.1206688' lon='19.9337243' />
  <node id='-81' visible='true' lat='42.1205488' lon='19.9331895' />
  <node id='-82' visible='true' lat='42.120361' lon='19.9328107' />
  <node id='-83' visible='true' lat='42.1201357' lon='19.9325255' />
  <node id='-84' visible='true' lat='42.1197875' lon='19.9322216' />
  <node id='-85' visible='true' lat='42.1194715' lon='19.9318394' />
  <node id='-86' visible='true' lat='42.1193529' lon='19.9314594' />
  <node id='-87' visible='true' lat='42.1192402' lon='19.9308936' />
  <node id='-88' visible='true' lat='42.1191914' lon='19.9297898' />
  <node id='-89' visible='true' lat='42.1190722' lon='19.929348' />
  <node id='-90' visible='true' lat='42.1189072' lon='19.9289379' />
  <node id='-91' visible='true' lat='42.11872' lon='19.9286211' />
  <node id='-92' visible='true' lat='42.1185022' lon='19.9284219' />
  <node id='-93' visible='true' lat='42.1183527' lon='19.9280322' />
  <node id='-94' visible='true' lat='42.1181826' lon='19.9270956' />
  <node id='-95' visible='true' lat='42.1180155' lon='19.9264584' />
  <node id='-96' visible='true' lat='42.1179045' lon='19.9260681' />
  <way id='-97' visible='true'>
    <nd ref='-69' />
    <nd ref='-70' />
    <nd ref='-71' />
    <nd ref='-72' />
    <nd ref='-73' />
    <nd ref='-74' />
    <nd ref='-75' />
    <nd ref='-76' />
    <nd ref='-77' />
    <nd ref='-78' />
    <nd ref='-79' />
    <nd ref='-80' />
    <nd ref='-81' />
    <nd ref='-82' />
    <nd ref='-83' />
    <nd ref='-84' />
    <nd ref='-85' />
    <nd ref='-86' />
    <nd ref='-87' />
    <nd ref='-88' />
    <nd ref='-89' />
    <nd ref='-90' />
    <nd ref='-91' />
    <nd ref='-92' />
    <nd ref='-93' />
    <nd ref='-94' />
    <nd ref='-95' />
    <nd ref='-96' />
    <tag k="OSM_ID" v="52362566"/>
  </way>
  <node id='-98' visible='true' lat='42.1211196' lon='19.9564966' />
  <node id='-99' visible='true' lat='42.1217474' lon='19.9559318' />
  <node id='-100' visible='true' lat='42.122038' lon='19.9555679' />
  <node id='-101' visible='true' lat='42.1224841' lon='19.9546986' />
  <node id='-102' visible='true' lat='42.1228338' lon='19.9539983' />
  <node id='-103' visible='true' lat='42.1230817' lon='19.9538507' />
  <node id='-104' visible='true' lat='42.12349' lon='19.953973' />
  <node id='-105' visible='true' lat='42.1241825' lon='19.9547279' />
  <node id='-106' visible='true' lat='42.1247072' lon='19.9556533' />
  <node id='-107' visible='true' lat='42.1254996' lon='19.9566459' />
  <node id='-108' visible='true' lat='42.1257815' lon='19.9572879' />
  <node id='-109' visible='true' lat='42.1258497' lon='19.9579334' />
  <node id='-110' visible='true' lat='42.125818' lon='19.9583769' />
  <node id='-111' visible='true' lat='42.1258801' lon='19.9593507' />
  <node id='-112' visible='true' lat='42.1260016' lon='19.9597295' />
  <node id='-113' visible='true' lat='42.1269488' lon='19.9601265' />
  <node id='-114' visible='true' lat='42.1275169' lon='19.9603393' />
  <node id='-115' visible='true' lat='42.127666' lon='19.9604819' />
  <way id='-116' visible='true'>
    <nd ref='-98' />
    <nd ref='-99' />
    <nd ref='-100' />
    <nd ref='-101' />
    <nd ref='-102' />
    <nd ref='-103' />
    <nd ref='-104' />
    <nd ref='-105' />
    <nd ref='-106' />
    <nd ref='-107' />
    <nd ref='-108' />
    <nd ref='-109' />
    <nd ref='-110' />
    <nd ref='-111' />
    <nd ref='-112' />
    <nd ref='-113' />
    <nd ref='-114' />
    <nd ref='-115' />
    <tag k="OSM_ID" v="52362606"/>
  </way>
  <node id='-117' visible='true' lat='42.1185181' lon='19.9580376' />
  <node id='-118' visible='true' lat='42.1187077' lon='19.9582355' />
  <node id='-119' visible='true' lat='42.1190731' lon='19.9582774' />
  <node id='-120' visible='true' lat='42.1196045' lon='19.9579814' />
  <node id='-121' visible='true' lat='42.1203196' lon='19.9573111' />
  <node id='-122' visible='true' lat='42.1208468' lon='19.9567487' />
  <node id='-123' visible='true' lat='42.1211196' lon='19.9564966' />
  <way id='-124' visible='true'>
    <nd ref='-117' />
    <nd ref='-118' />
    <nd ref='-119' />
    <nd ref='-120' />
    <nd ref='-121' />
    <nd ref='-122' />
    <nd ref='-123' />
    <tag k="OSM_ID" v="52362602"/>
  </way>
  <node id='-125' visible='true' lat='42.1147887' lon='19.9669805' />
  <node id='-126' visible='true' lat='42.1145724' lon='19.9668114' />
  <node id='-127' visible='true' lat='42.114587' lon='19.966684' />
  <node id='-128' visible='true' lat='42.1146637' lon='19.9664496' />
  <node id='-129' visible='true' lat='42.1146468' lon='19.9663226' />
  <node id='-130' visible='true' lat='42.1145199' lon='19.9662399' />
  <node id='-131' visible='true' lat='42.1142522' lon='19.9662654' />
  <node id='-132' visible='true' lat='42.1141574' lon='19.9662459' />
  <node id='-133' visible='true' lat='42.1140113' lon='19.9657608' />
  <node id='-134' visible='true' lat='42.1138991' lon='19.9655717' />
  <node id='-135' visible='true' lat='42.1136454' lon='19.9653852' />
  <node id='-136' visible='true' lat='42.1131413' lon='19.9654145' />
  <node id='-137' visible='true' lat='42.1120864' lon='19.9655589' />
  <node id='-138' visible='true' lat='42.1109825' lon='19.965492' />
  <node id='-139' visible='true' lat='42.1100258' lon='19.965167' />
  <node id='-140' visible='true' lat='42.109408' lon='19.9648168' />
  <node id='-141' visible='true' lat='42.1086949' lon='19.9643833' />
  <node id='-142' visible='true' lat='42.1084267' lon='19.9643666' />
  <node id='-143' visible='true' lat='42.1081592' lon='19.9644133' />
  <node id='-144' visible='true' lat='42.1078923' lon='19.9645235' />
  <node id='-145' visible='true' lat='42.1077575' lon='19.9646563' />
  <way id='-146' visible='true'>
    <nd ref='-125' />
    <nd ref='-126' />
    <nd ref='-127' />
    <nd ref='-128' />
    <nd ref='-129' />
    <nd ref='-130' />
    <nd ref='-131' />
    <nd ref='-132' />
    <nd ref='-133' />
    <nd ref='-134' />
    <nd ref='-135' />
    <nd ref='-136' />
    <nd ref='-137' />
    <nd ref='-138' />
    <nd ref='-139' />
    <nd ref='-140' />
    <nd ref='-141' />
    <nd ref='-142' />
    <nd ref='-143' />
    <nd ref='-144' />
    <nd ref='-145' />
    <tag k="OSM_ID" v="52362596"/>
  </way>
</osm>
