<?xml version='1.0'?>
<osm version='0.5' generator='shp2osm.pl'>
  <node id='-1' visible='true' lat='40.7113737' lon='20.7123622' />
  <node id='-2' visible='true' lat='40.710717' lon='20.7126631' />
  <way id='-3' visible='true'>
    <nd ref='-1' />
    <nd ref='-2' />
    <tag k="OSM_ID" v="28137944"/>
  </way>
</osm>
