<?xml version='1.0'?>
<osm version='0.5' generator='shp2osm.pl'>
  <node id='-1' visible='true' lat='40.0414932' lon='19.8765867' />
  <node id='-2' visible='true' lat='40.0416799' lon='19.8764617' />
  <node id='-3' visible='true' lat='40.0418982' lon='19.8764633' />
  <node id='-4' visible='true' lat='40.0423182' lon='19.8766099' />
  <node id='-5' visible='true' lat='40.0424633' lon='19.8765767' />
  <node id='-6' visible='true' lat='40.0426349' lon='19.8763533' />
  <node id='-7' visible='true' lat='40.042675' lon='19.8753166' />
  <node id='-8' visible='true' lat='40.042765' lon='19.8751733' />
  <node id='-9' visible='true' lat='40.0433982' lon='19.8753317' />
  <node id='-10' visible='true' lat='40.0438533' lon='19.87564' />
  <node id='-11' visible='true' lat='40.0439717' lon='19.8756699' />
  <node id='-12' visible='true' lat='40.0440116' lon='19.8755316' />
  <node id='-13' visible='true' lat='40.0439532' lon='19.8753182' />
  <node id='-14' visible='true' lat='40.0435416' lon='19.8745432' />
  <node id='-15' visible='true' lat='40.0432182' lon='19.8740667' />
  <node id='-16' visible='true' lat='40.0431949' lon='19.8738533' />
  <node id='-17' visible='true' lat='40.0432666' lon='19.8734533' />
  <node id='-18' visible='true' lat='40.043025' lon='19.87283' />
  <node id='-19' visible='true' lat='40.0429882' lon='19.872325' />
  <node id='-20' visible='true' lat='40.0430199' lon='19.8720633' />
  <node id='-21' visible='true' lat='40.043125' lon='19.87186' />
  <node id='-22' visible='true' lat='40.0434199' lon='19.8715749' />
  <node id='-23' visible='true' lat='40.0438232' lon='19.8713882' />
  <node id='-24' visible='true' lat='40.0455583' lon='19.871175' />
  <node id='-25' visible='true' lat='40.0462782' lon='19.8713133' />
  <node id='-26' visible='true' lat='40.0464782' lon='19.8711866' />
  <node id='-27' visible='true' lat='40.0470583' lon='19.8705482' />
  <node id='-28' visible='true' lat='40.04811' lon='19.8701232' />
  <node id='-29' visible='true' lat='40.0482799' lon='19.8701967' />
  <node id='-30' visible='true' lat='40.0485667' lon='19.8705433' />
  <node id='-31' visible='true' lat='40.0492883' lon='19.8712316' />
  <node id='-32' visible='true' lat='40.0494832' lon='19.8712833' />
  <node id='-33' visible='true' lat='40.0500182' lon='19.8710149' />
  <node id='-34' visible='true' lat='40.0507332' lon='19.8704949' />
  <node id='-35' visible='true' lat='40.0512717' lon='19.86963' />
  <node id='-36' visible='true' lat='40.0514399' lon='19.8693899' />
  <node id='-37' visible='true' lat='40.0515783' lon='19.8692767' />
  <node id='-38' visible='true' lat='40.0517499' lon='19.8693217' />
  <node id='-39' visible='true' lat='40.052415' lon='19.8699699' />
  <node id='-40' visible='true' lat='40.0528716' lon='19.8701232' />
  <node id='-41' visible='true' lat='40.0532267' lon='19.8703217' />
  <node id='-42' visible='true' lat='40.0533332' lon='19.8702767' />
  <node id='-43' visible='true' lat='40.0535082' lon='19.869855' />
  <node id='-44' visible='true' lat='40.0535716' lon='19.8691867' />
  <node id='-45' visible='true' lat='40.053815' lon='19.8685033' />
  <node id='-46' visible='true' lat='40.0538967' lon='19.8678017' />
  <node id='-47' visible='true' lat='40.0539883' lon='19.8675533' />
  <node id='-48' visible='true' lat='40.0544849' lon='19.8667282' />
  <node id='-49' visible='true' lat='40.0548433' lon='19.8666349' />
  <node id='-50' visible='true' lat='40.05496' lon='19.866495' />
  <node id='-51' visible='true' lat='40.0551549' lon='19.8661233' />
  <node id='-52' visible='true' lat='40.0553749' lon='19.8658217' />
  <node id='-53' visible='true' lat='40.0554716' lon='19.86524' />
  <node id='-54' visible='true' lat='40.0557299' lon='19.8647917' />
  <node id='-55' visible='true' lat='40.0564949' lon='19.8641' />
  <node id='-56' visible='true' lat='40.0570549' lon='19.8637149' />
  <node id='-57' visible='true' lat='40.0572416' lon='19.8634449' />
  <node id='-58' visible='true' lat='40.0572732' lon='19.8632467' />
  <node id='-59' visible='true' lat='40.0571782' lon='19.8628366' />
  <node id='-60' visible='true' lat='40.0571817' lon='19.862615' />
  <node id='-61' visible='true' lat='40.0574067' lon='19.8610366' />
  <node id='-62' visible='true' lat='40.0574782' lon='19.8608367' />
  <node id='-63' visible='true' lat='40.0576132' lon='19.8606766' />
  <node id='-64' visible='true' lat='40.058025' lon='19.8603766' />
  <node id='-65' visible='true' lat='40.0583482' lon='19.8596517' />
  <node id='-66' visible='true' lat='40.0585349' lon='19.8594366' />
  <node id='-67' visible='true' lat='40.0603882' lon='19.8582166' />
  <node id='-68' visible='true' lat='40.0606767' lon='19.8577601' />
  <node id='-69' visible='true' lat='40.06094' lon='19.8577517' />
  <node id='-70' visible='true' lat='40.0611083' lon='19.8576917' />
  <node id='-71' visible='true' lat='40.0614632' lon='19.8577833' />
  <node id='-72' visible='true' lat='40.0616217' lon='19.8577367' />
  <node id='-73' visible='true' lat='40.061745' lon='19.8575833' />
  <node id='-74' visible='true' lat='40.0618316' lon='19.8573766' />
  <node id='-75' visible='true' lat='40.0620316' lon='19.8565049' />
  <node id='-76' visible='true' lat='40.0621183' lon='19.8563283' />
  <node id='-77' visible='true' lat='40.0625117' lon='19.855975' />
  <node id='-78' visible='true' lat='40.0632' lon='19.8556182' />
  <node id='-79' visible='true' lat='40.0635917' lon='19.8551049' />
  <node id='-80' visible='true' lat='40.0640349' lon='19.8549682' />
  <node id='-81' visible='true' lat='40.0641549' lon='19.8548067' />
  <node id='-82' visible='true' lat='40.0643067' lon='19.85442' />
  <node id='-83' visible='true' lat='40.0645717' lon='19.85415' />
  <node id='-84' visible='true' lat='40.0647317' lon='19.853615' />
  <node id='-85' visible='true' lat='40.0649982' lon='19.8532867' />
  <node id='-86' visible='true' lat='40.0650582' lon='19.8531033' />
  <node id='-87' visible='true' lat='40.0650632' lon='19.8521566' />
  <node id='-88' visible='true' lat='40.06495' lon='19.8514449' />
  <node id='-89' visible='true' lat='40.0649133' lon='19.8504466' />
  <node id='-90' visible='true' lat='40.0647732' lon='19.8502599' />
  <node id='-91' visible='true' lat='40.0641645' lon='19.8500419' />
  <node id='-92' visible='true' lat='40.0638416' lon='19.8499416' />
  <node id='-93' visible='true' lat='40.0629899' lon='19.849855' />
  <node id='-94' visible='true' lat='40.0628749' lon='19.8497333' />
  <node id='-95' visible='true' lat='40.062525' lon='19.8489232' />
  <node id='-96' visible='true' lat='40.0623582' lon='19.8487833' />
  <node id='-97' visible='true' lat='40.0618233' lon='19.8486299' />
  <node id='-98' visible='true' lat='40.0608199' lon='19.8486016' />
  <node id='-99' visible='true' lat='40.0599149' lon='19.8483732' />
  <node id='-100' visible='true' lat='40.05922' lon='19.8478767' />
  <node id='-101' visible='true' lat='40.0587032' lon='19.8472466' />
  <node id='-102' visible='true' lat='40.0582167' lon='19.8470982' />
  <node id='-103' visible='true' lat='40.0580866' lon='19.84699' />
  <node id='-104' visible='true' lat='40.0574332' lon='19.8458216' />
  <node id='-105' visible='true' lat='40.0564999' lon='19.8443383' />
  <node id='-106' visible='true' lat='40.0563132' lon='19.8439233' />
  <node id='-107' visible='true' lat='40.0560516' lon='19.843595' />
  <node id='-108' visible='true' lat='40.0557783' lon='19.8431399' />
  <node id='-109' visible='true' lat='40.0556217' lon='19.8424267' />
  <node id='-110' visible='true' lat='40.0554483' lon='19.8419367' />
  <way id='-111' visible='true'>
    <nd ref='-1' />
    <nd ref='-2' />
    <nd ref='-3' />
    <nd ref='-4' />
    <nd ref='-5' />
    <nd ref='-6' />
    <nd ref='-7' />
    <nd ref='-8' />
    <nd ref='-9' />
    <nd ref='-10' />
    <nd ref='-11' />
    <nd ref='-12' />
    <nd ref='-13' />
    <nd ref='-14' />
    <nd ref='-15' />
    <nd ref='-16' />
    <nd ref='-17' />
    <nd ref='-18' />
    <nd ref='-19' />
    <nd ref='-20' />
    <nd ref='-21' />
    <nd ref='-22' />
    <nd ref='-23' />
    <nd ref='-24' />
    <nd ref='-25' />
    <nd ref='-26' />
    <nd ref='-27' />
    <nd ref='-28' />
    <nd ref='-29' />
    <nd ref='-30' />
    <nd ref='-31' />
    <nd ref='-32' />
    <nd ref='-33' />
    <nd ref='-34' />
    <nd ref='-35' />
    <nd ref='-36' />
    <nd ref='-37' />
    <nd ref='-38' />
    <nd ref='-39' />
    <nd ref='-40' />
    <nd ref='-41' />
    <nd ref='-42' />
    <nd ref='-43' />
    <nd ref='-44' />
    <nd ref='-45' />
    <nd ref='-46' />
    <nd ref='-47' />
    <nd ref='-48' />
    <nd ref='-49' />
    <nd ref='-50' />
    <nd ref='-51' />
    <nd ref='-52' />
    <nd ref='-53' />
    <nd ref='-54' />
    <nd ref='-55' />
    <nd ref='-56' />
    <nd ref='-57' />
    <nd ref='-58' />
    <nd ref='-59' />
    <nd ref='-60' />
    <nd ref='-61' />
    <nd ref='-62' />
    <nd ref='-63' />
    <nd ref='-64' />
    <nd ref='-65' />
    <nd ref='-66' />
    <nd ref='-67' />
    <nd ref='-68' />
    <nd ref='-69' />
    <nd ref='-70' />
    <nd ref='-71' />
    <nd ref='-72' />
    <nd ref='-73' />
    <nd ref='-74' />
    <nd ref='-75' />
    <nd ref='-76' />
    <nd ref='-77' />
    <nd ref='-78' />
    <nd ref='-79' />
    <nd ref='-80' />
    <nd ref='-81' />
    <nd ref='-82' />
    <nd ref='-83' />
    <nd ref='-84' />
    <nd ref='-85' />
    <nd ref='-86' />
    <nd ref='-87' />
    <nd ref='-88' />
    <nd ref='-89' />
    <nd ref='-90' />
    <nd ref='-91' />
    <nd ref='-92' />
    <nd ref='-93' />
    <nd ref='-94' />
    <nd ref='-95' />
    <nd ref='-96' />
    <nd ref='-97' />
    <nd ref='-98' />
    <nd ref='-99' />
    <nd ref='-100' />
    <nd ref='-101' />
    <nd ref='-102' />
    <nd ref='-103' />
    <nd ref='-104' />
    <nd ref='-105' />
    <nd ref='-106' />
    <nd ref='-107' />
    <nd ref='-108' />
    <nd ref='-109' />
    <nd ref='-110' />
    <tag k="OSM_ID" v="23263116"/>
  </way>
  <node id='-112' visible='true' lat='40.0125116' lon='19.8982732' />
  <node id='-113' visible='true' lat='40.0129517' lon='19.89808' />
  <node id='-114' visible='true' lat='40.0132066' lon='19.8979016' />
  <node id='-115' visible='true' lat='40.0133117' lon='19.8977782' />
  <node id='-116' visible='true' lat='40.0135549' lon='19.8973033' />
  <node id='-117' visible='true' lat='40.0136382' lon='19.8972067' />
  <node id='-118' visible='true' lat='40.0137149' lon='19.8971949' />
  <node id='-119' visible='true' lat='40.0137599' lon='19.8972766' />
  <node id='-120' visible='true' lat='40.01362' lon='19.8975867' />
  <node id='-121' visible='true' lat='40.0134667' lon='19.8981533' />
  <node id='-122' visible='true' lat='40.0127366' lon='19.8991432' />
  <node id='-123' visible='true' lat='40.0127183' lon='19.8992399' />
  <node id='-124' visible='true' lat='40.01281' lon='19.8992749' />
  <node id='-125' visible='true' lat='40.0130466' lon='19.8989733' />
  <node id='-126' visible='true' lat='40.0134017' lon='19.898665' />
  <node id='-127' visible='true' lat='40.0136432' lon='19.8985233' />
  <node id='-128' visible='true' lat='40.0139016' lon='19.8980183' />
  <node id='-129' visible='true' lat='40.014155' lon='19.8978' />
  <node id='-130' visible='true' lat='40.0144017' lon='19.8974432' />
  <node id='-131' visible='true' lat='40.0146383' lon='19.897245' />
  <node id='-132' visible='true' lat='40.0151882' lon='19.8959849' />
  <node id='-133' visible='true' lat='40.01523' lon='19.8957033' />
  <node id='-134' visible='true' lat='40.0151417' lon='19.895555' />
  <node id='-135' visible='true' lat='40.014805' lon='19.8952783' />
  <node id='-136' visible='true' lat='40.014575' lon='19.8953249' />
  <node id='-137' visible='true' lat='40.0143983' lon='19.8952817' />
  <node id='-138' visible='true' lat='40.014225' lon='19.8950417' />
  <node id='-139' visible='true' lat='40.0142217' lon='19.8948183' />
  <node id='-140' visible='true' lat='40.0145249' lon='19.8945532' />
  <node id='-141' visible='true' lat='40.014715' lon='19.894455' />
  <node id='-142' visible='true' lat='40.0150849' lon='19.894375' />
  <node id='-143' visible='true' lat='40.0154167' lon='19.89441' />
  <node id='-144' visible='true' lat='40.0155182' lon='19.894375' />
  <node id='-145' visible='true' lat='40.0156899' lon='19.89405' />
  <node id='-146' visible='true' lat='40.01614' lon='19.8926432' />
  <node id='-147' visible='true' lat='40.0162483' lon='19.892455' />
  <node id='-148' visible='true' lat='40.0170766' lon='19.8919932' />
  <node id='-149' visible='true' lat='40.0173382' lon='19.8919183' />
  <node id='-150' visible='true' lat='40.0178833' lon='19.89185' />
  <node id='-151' visible='true' lat='40.0183333' lon='19.8919716' />
  <node id='-152' visible='true' lat='40.0186849' lon='19.8919667' />
  <node id='-153' visible='true' lat='40.0190233' lon='19.8917849' />
  <node id='-154' visible='true' lat='40.0192667' lon='19.8914432' />
  <node id='-155' visible='true' lat='40.0194716' lon='19.8913417' />
  <node id='-156' visible='true' lat='40.02004' lon='19.891355' />
  <node id='-157' visible='true' lat='40.0203516' lon='19.8912967' />
  <node id='-158' visible='true' lat='40.0210799' lon='19.8914583' />
  <node id='-159' visible='true' lat='40.0211617' lon='19.8914267' />
  <node id='-160' visible='true' lat='40.0212183' lon='19.8912182' />
  <node id='-161' visible='true' lat='40.0212532' lon='19.8903533' />
  <node id='-162' visible='true' lat='40.0213516' lon='19.8899399' />
  <node id='-163' visible='true' lat='40.0216817' lon='19.8889582' />
  <node id='-164' visible='true' lat='40.0218199' lon='19.8886716' />
  <node id='-165' visible='true' lat='40.0223117' lon='19.8881583' />
  <node id='-166' visible='true' lat='40.0227982' lon='19.8866349' />
  <node id='-167' visible='true' lat='40.0230166' lon='19.8864167' />
  <node id='-168' visible='true' lat='40.0234349' lon='19.8862683' />
  <node id='-169' visible='true' lat='40.0241232' lon='19.886385' />
  <node id='-170' visible='true' lat='40.0245699' lon='19.8861217' />
  <node id='-171' visible='true' lat='40.0246716' lon='19.8859633' />
  <node id='-172' visible='true' lat='40.0247732' lon='19.8856499' />
  <node id='-173' visible='true' lat='40.0247967' lon='19.8853982' />
  <node id='-174' visible='true' lat='40.0247482' lon='19.885165' />
  <node id='-175' visible='true' lat='40.0245166' lon='19.8847433' />
  <node id='-176' visible='true' lat='40.0245299' lon='19.884485' />
  <node id='-177' visible='true' lat='40.0246199' lon='19.88437' />
  <node id='-178' visible='true' lat='40.0251999' lon='19.8840682' />
  <node id='-179' visible='true' lat='40.0255067' lon='19.8838132' />
  <node id='-180' visible='true' lat='40.0257633' lon='19.8838332' />
  <node id='-181' visible='true' lat='40.0258949' lon='19.8839717' />
  <node id='-182' visible='true' lat='40.0261666' lon='19.8845117' />
  <node id='-183' visible='true' lat='40.026285' lon='19.8849599' />
  <node id='-184' visible='true' lat='40.02624' lon='19.8855383' />
  <node id='-185' visible='true' lat='40.0263767' lon='19.8858099' />
  <node id='-186' visible='true' lat='40.0265417' lon='19.8859549' />
  <node id='-187' visible='true' lat='40.02729' lon='19.8864282' />
  <node id='-188' visible='true' lat='40.027545' lon='19.8865167' />
  <node id='-189' visible='true' lat='40.0277667' lon='19.8864367' />
  <node id='-190' visible='true' lat='40.0278483' lon='19.8863382' />
  <node id='-191' visible='true' lat='40.0278883' lon='19.8861866' />
  <node id='-192' visible='true' lat='40.0280216' lon='19.8861032' />
  <node id='-193' visible='true' lat='40.0284382' lon='19.8861767' />
  <node id='-194' visible='true' lat='40.0288066' lon='19.88669' />
  <node id='-195' visible='true' lat='40.0292783' lon='19.8870232' />
  <node id='-196' visible='true' lat='40.0296383' lon='19.8871849' />
  <node id='-197' visible='true' lat='40.030835' lon='19.8875433' />
  <node id='-198' visible='true' lat='40.0314466' lon='19.887585' />
  <node id='-199' visible='true' lat='40.0318832' lon='19.8879599' />
  <node id='-200' visible='true' lat='40.031945' lon='19.887885' />
  <node id='-201' visible='true' lat='40.0319466' lon='19.8874767' />
  <node id='-202' visible='true' lat='40.0320066' lon='19.8872767' />
  <node id='-203' visible='true' lat='40.03211' lon='19.8871132' />
  <node id='-204' visible='true' lat='40.0324467' lon='19.8867949' />
  <node id='-205' visible='true' lat='40.0326082' lon='19.8867532' />
  <node id='-206' visible='true' lat='40.0332117' lon='19.8867717' />
  <node id='-207' visible='true' lat='40.0336649' lon='19.8866082' />
  <node id='-208' visible='true' lat='40.0340132' lon='19.8865933' />
  <node id='-209' visible='true' lat='40.0341067' lon='19.8864882' />
  <node id='-210' visible='true' lat='40.0341732' lon='19.8860166' />
  <node id='-211' visible='true' lat='40.0345849' lon='19.88558' />
  <node id='-212' visible='true' lat='40.035035' lon='19.8846182' />
  <node id='-213' visible='true' lat='40.0350766' lon='19.8843132' />
  <node id='-214' visible='true' lat='40.0350533' lon='19.8836849' />
  <node id='-215' visible='true' lat='40.0350983' lon='19.8835' />
  <node id='-216' visible='true' lat='40.0352' lon='19.8833467' />
  <node id='-217' visible='true' lat='40.0357782' lon='19.882885' />
  <node id='-218' visible='true' lat='40.0362216' lon='19.88221' />
  <node id='-219' visible='true' lat='40.03629' lon='19.8819632' />
  <node id='-220' visible='true' lat='40.0362367' lon='19.8812433' />
  <node id='-221' visible='true' lat='40.036265' lon='19.881135' />
  <node id='-222' visible='true' lat='40.0363632' lon='19.8809666' />
  <node id='-223' visible='true' lat='40.0365366' lon='19.8808199' />
  <node id='-224' visible='true' lat='40.0369032' lon='19.8803617' />
  <node id='-225' visible='true' lat='40.0371467' lon='19.87978' />
  <node id='-226' visible='true' lat='40.0373166' lon='19.879225' />
  <node id='-227' visible='true' lat='40.0374432' lon='19.8790517' />
  <node id='-228' visible='true' lat='40.0376699' lon='19.8789316' />
  <node id='-229' visible='true' lat='40.0384566' lon='19.8789149' />
  <node id='-230' visible='true' lat='40.0390599' lon='19.8790483' />
  <node id='-231' visible='true' lat='40.0391632' lon='19.8789467' />
  <node id='-232' visible='true' lat='40.039205' lon='19.8786917' />
  <node id='-233' visible='true' lat='40.039275' lon='19.8785433' />
  <node id='-234' visible='true' lat='40.0395882' lon='19.8782282' />
  <node id='-235' visible='true' lat='40.0397766' lon='19.8778383' />
  <node id='-236' visible='true' lat='40.0398933' lon='19.8777' />
  <node id='-237' visible='true' lat='40.0405782' lon='19.8776399' />
  <node id='-238' visible='true' lat='40.041015' lon='19.8773617' />
  <node id='-239' visible='true' lat='40.0411967' lon='19.87714' />
  <node id='-240' visible='true' lat='40.0414932' lon='19.8765867' />
  <way id='-241' visible='true'>
    <nd ref='-112' />
    <nd ref='-113' />
    <nd ref='-114' />
    <nd ref='-115' />
    <nd ref='-116' />
    <nd ref='-117' />
    <nd ref='-118' />
    <nd ref='-119' />
    <nd ref='-120' />
    <nd ref='-121' />
    <nd ref='-122' />
    <nd ref='-123' />
    <nd ref='-124' />
    <nd ref='-125' />
    <nd ref='-126' />
    <nd ref='-127' />
    <nd ref='-128' />
    <nd ref='-129' />
    <nd ref='-130' />
    <nd ref='-131' />
    <nd ref='-132' />
    <nd ref='-133' />
    <nd ref='-134' />
    <nd ref='-135' />
    <nd ref='-136' />
    <nd ref='-137' />
    <nd ref='-138' />
    <nd ref='-139' />
    <nd ref='-140' />
    <nd ref='-141' />
    <nd ref='-142' />
    <nd ref='-143' />
    <nd ref='-144' />
    <nd ref='-145' />
    <nd ref='-146' />
    <nd ref='-147' />
    <nd ref='-148' />
    <nd ref='-149' />
    <nd ref='-150' />
    <nd ref='-151' />
    <nd ref='-152' />
    <nd ref='-153' />
    <nd ref='-154' />
    <nd ref='-155' />
    <nd ref='-156' />
    <nd ref='-157' />
    <nd ref='-158' />
    <nd ref='-159' />
    <nd ref='-160' />
    <nd ref='-161' />
    <nd ref='-162' />
    <nd ref='-163' />
    <nd ref='-164' />
    <nd ref='-165' />
    <nd ref='-166' />
    <nd ref='-167' />
    <nd ref='-168' />
    <nd ref='-169' />
    <nd ref='-170' />
    <nd ref='-171' />
    <nd ref='-172' />
    <nd ref='-173' />
    <nd ref='-174' />
    <nd ref='-175' />
    <nd ref='-176' />
    <nd ref='-177' />
    <nd ref='-178' />
    <nd ref='-179' />
    <nd ref='-180' />
    <nd ref='-181' />
    <nd ref='-182' />
    <nd ref='-183' />
    <nd ref='-184' />
    <nd ref='-185' />
    <nd ref='-186' />
    <nd ref='-187' />
    <nd ref='-188' />
    <nd ref='-189' />
    <nd ref='-190' />
    <nd ref='-191' />
    <nd ref='-192' />
    <nd ref='-193' />
    <nd ref='-194' />
    <nd ref='-195' />
    <nd ref='-196' />
    <nd ref='-197' />
    <nd ref='-198' />
    <nd ref='-199' />
    <nd ref='-200' />
    <nd ref='-201' />
    <nd ref='-202' />
    <nd ref='-203' />
    <nd ref='-204' />
    <nd ref='-205' />
    <nd ref='-206' />
    <nd ref='-207' />
    <nd ref='-208' />
    <nd ref='-209' />
    <nd ref='-210' />
    <nd ref='-211' />
    <nd ref='-212' />
    <nd ref='-213' />
    <nd ref='-214' />
    <nd ref='-215' />
    <nd ref='-216' />
    <nd ref='-217' />
    <nd ref='-218' />
    <nd ref='-219' />
    <nd ref='-220' />
    <nd ref='-221' />
    <nd ref='-222' />
    <nd ref='-223' />
    <nd ref='-224' />
    <nd ref='-225' />
    <nd ref='-226' />
    <nd ref='-227' />
    <nd ref='-228' />
    <nd ref='-229' />
    <nd ref='-230' />
    <nd ref='-231' />
    <nd ref='-232' />
    <nd ref='-233' />
    <nd ref='-234' />
    <nd ref='-235' />
    <nd ref='-236' />
    <nd ref='-237' />
    <nd ref='-238' />
    <nd ref='-239' />
    <nd ref='-240' />
    <tag k="OSM_ID" v="23263115"/>
  </way>
  <node id='-242' visible='true' lat='39.9966817' lon='19.9127167' />
  <node id='-243' visible='true' lat='39.9971383' lon='19.9127833' />
  <node id='-244' visible='true' lat='39.9972167' lon='19.9127049' />
  <node id='-245' visible='true' lat='39.9973999' lon='19.9116132' />
  <node id='-246' visible='true' lat='39.9977333' lon='19.91055' />
  <node id='-247' visible='true' lat='39.9978832' lon='19.9104767' />
  <node id='-248' visible='true' lat='39.9980533' lon='19.9105616' />
  <node id='-249' visible='true' lat='39.9983817' lon='19.91122' />
  <node id='-250' visible='true' lat='39.9984766' lon='19.9112432' />
  <node id='-251' visible='true' lat='39.9985817' lon='19.9111067' />
  <node id='-252' visible='true' lat='39.9986' lon='19.9107817' />
  <node id='-253' visible='true' lat='39.998485' lon='19.9104632' />
  <node id='-254' visible='true' lat='39.99844' lon='19.9100616' />
  <node id='-255' visible='true' lat='39.9983999' lon='19.9086649' />
  <node id='-256' visible='true' lat='39.9982816' lon='19.9080733' />
  <node id='-257' visible='true' lat='39.9983117' lon='19.9078483' />
  <node id='-258' visible='true' lat='39.9984249' lon='19.9077866' />
  <node id='-259' visible='true' lat='39.9986316' lon='19.9077917' />
  <node id='-260' visible='true' lat='39.9993333' lon='19.908135' />
  <node id='-261' visible='true' lat='39.9994883' lon='19.9082566' />
  <node id='-262' visible='true' lat='39.9997533' lon='19.9087083' />
  <node id='-263' visible='true' lat='39.999915' lon='19.9092917' />
  <node id='-264' visible='true' lat='40.00005' lon='19.90961' />
  <node id='-265' visible='true' lat='40.0002332' lon='19.90987' />
  <node id='-266' visible='true' lat='40.0003749' lon='19.9098649' />
  <node id='-267' visible='true' lat='40.0004382' lon='19.90968' />
  <node id='-268' visible='true' lat='40.0004249' lon='19.9092033' />
  <node id='-269' visible='true' lat='40.000495' lon='19.9088917' />
  <node id='-270' visible='true' lat='40.0006483' lon='19.9086449' />
  <node id='-271' visible='true' lat='40.0009967' lon='19.9085549' />
  <node id='-272' visible='true' lat='40.0010949' lon='19.908145' />
  <node id='-273' visible='true' lat='40.0009616' lon='19.9070749' />
  <node id='-274' visible='true' lat='40.00086' lon='19.90677' />
  <node id='-275' visible='true' lat='40.0004617' lon='19.9061449' />
  <node id='-276' visible='true' lat='40.0005' lon='19.9059199' />
  <node id='-277' visible='true' lat='40.0007982' lon='19.9052499' />
  <node id='-278' visible='true' lat='40.0008382' lon='19.9049367' />
  <node id='-279' visible='true' lat='40.0007783' lon='19.9045099' />
  <node id='-280' visible='true' lat='40.0007717' lon='19.9037033' />
  <node id='-281' visible='true' lat='40.000405' lon='19.9026366' />
  <node id='-282' visible='true' lat='40.0003583' lon='19.9023949' />
  <node id='-283' visible='true' lat='40.0004033' lon='19.9017066' />
  <node id='-284' visible='true' lat='40.0002666' lon='19.9013133' />
  <node id='-285' visible='true' lat='40.0002483' lon='19.9010899' />
  <node id='-286' visible='true' lat='40.0003467' lon='19.8998199' />
  <node id='-287' visible='true' lat='40.0004982' lon='19.8994266' />
  <node id='-288' visible='true' lat='40.0007717' lon='19.8991599' />
  <node id='-289' visible='true' lat='40.0010249' lon='19.8990167' />
  <node id='-290' visible='true' lat='40.0014249' lon='19.8989466' />
  <node id='-291' visible='true' lat='40.0015767' lon='19.8988332' />
  <node id='-292' visible='true' lat='40.0017266' lon='19.8980283' />
  <node id='-293' visible='true' lat='40.0018549' lon='19.8978999' />
  <node id='-294' visible='true' lat='40.0020816' lon='19.8978482' />
  <node id='-295' visible='true' lat='40.00222' lon='19.8977517' />
  <node id='-296' visible='true' lat='40.0023849' lon='19.8972367' />
  <node id='-297' visible='true' lat='40.0025983' lon='19.8968066' />
  <node id='-298' visible='true' lat='40.0027116' lon='19.8967416' />
  <node id='-299' visible='true' lat='40.00285' lon='19.8967567' />
  <node id='-300' visible='true' lat='40.0032582' lon='19.8972067' />
  <node id='-301' visible='true' lat='40.0035383' lon='19.8973332' />
  <node id='-302' visible='true' lat='40.0037' lon='19.8974867' />
  <node id='-303' visible='true' lat='40.0037633' lon='19.897635' />
  <node id='-304' visible='true' lat='40.0037732' lon='19.8978166' />
  <node id='-305' visible='true' lat='40.003475' lon='19.8983416' />
  <node id='-306' visible='true' lat='40.0034666' lon='19.8986133' />
  <node id='-307' visible='true' lat='40.0036117' lon='19.898935' />
  <node id='-308' visible='true' lat='40.0039467' lon='19.8991767' />
  <node id='-309' visible='true' lat='40.0040367' lon='19.8993533' />
  <node id='-310' visible='true' lat='40.0040049' lon='19.89947' />
  <node id='-311' visible='true' lat='40.0036066' lon='19.8999217' />
  <node id='-312' visible='true' lat='40.003585' lon='19.900075' />
  <node id='-313' visible='true' lat='40.0036733' lon='19.9004332' />
  <node id='-314' visible='true' lat='40.0036567' lon='19.9006132' />
  <node id='-315' visible='true' lat='40.0035633' lon='19.9007633' />
  <node id='-316' visible='true' lat='40.003295' lon='19.900945' />
  <node id='-317' visible='true' lat='40.0032216' lon='19.9010682' />
  <node id='-318' visible='true' lat='40.0031267' lon='19.9018666' />
  <node id='-319' visible='true' lat='40.003145' lon='19.9019683' />
  <node id='-320' visible='true' lat='40.00462' lon='19.9017699' />
  <node id='-321' visible='true' lat='40.0054299' lon='19.9012716' />
  <node id='-322' visible='true' lat='40.005585' lon='19.90124' />
  <node id='-323' visible='true' lat='40.00583' lon='19.9013233' />
  <node id='-324' visible='true' lat='40.0059699' lon='19.9014616' />
  <node id='-325' visible='true' lat='40.0060633' lon='19.9016583' />
  <node id='-326' visible='true' lat='40.0061449' lon='19.902' />
  <node id='-327' visible='true' lat='40.0061583' lon='19.9026582' />
  <node id='-328' visible='true' lat='40.0060833' lon='19.9034316' />
  <node id='-329' visible='true' lat='40.00621' lon='19.903905' />
  <node id='-330' visible='true' lat='40.006605' lon='19.9046899' />
  <node id='-331' visible='true' lat='40.0068249' lon='19.9049666' />
  <node id='-332' visible='true' lat='40.0070017' lon='19.9050367' />
  <node id='-333' visible='true' lat='40.0075666' lon='19.9049733' />
  <node id='-334' visible='true' lat='40.0077433' lon='19.9047982' />
  <node id='-335' visible='true' lat='40.0080967' lon='19.904125' />
  <node id='-336' visible='true' lat='40.0085116' lon='19.903545' />
  <node id='-337' visible='true' lat='40.00896' lon='19.9031033' />
  <node id='-338' visible='true' lat='40.0093983' lon='19.9025032' />
  <node id='-339' visible='true' lat='40.0095799' lon='19.9024399' />
  <way id='-340' visible='true'>
    <nd ref='-242' />
    <nd ref='-243' />
    <nd ref='-244' />
    <nd ref='-245' />
    <nd ref='-246' />
    <nd ref='-247' />
    <nd ref='-248' />
    <nd ref='-249' />
    <nd ref='-250' />
    <nd ref='-251' />
    <nd ref='-252' />
    <nd ref='-253' />
    <nd ref='-254' />
    <nd ref='-255' />
    <nd ref='-256' />
    <nd ref='-257' />
    <nd ref='-258' />
    <nd ref='-259' />
    <nd ref='-260' />
    <nd ref='-261' />
    <nd ref='-262' />
    <nd ref='-263' />
    <nd ref='-264' />
    <nd ref='-265' />
    <nd ref='-266' />
    <nd ref='-267' />
    <nd ref='-268' />
    <nd ref='-269' />
    <nd ref='-270' />
    <nd ref='-271' />
    <nd ref='-272' />
    <nd ref='-273' />
    <nd ref='-274' />
    <nd ref='-275' />
    <nd ref='-276' />
    <nd ref='-277' />
    <nd ref='-278' />
    <nd ref='-279' />
    <nd ref='-280' />
    <nd ref='-281' />
    <nd ref='-282' />
    <nd ref='-283' />
    <nd ref='-284' />
    <nd ref='-285' />
    <nd ref='-286' />
    <nd ref='-287' />
    <nd ref='-288' />
    <nd ref='-289' />
    <nd ref='-290' />
    <nd ref='-291' />
    <nd ref='-292' />
    <nd ref='-293' />
    <nd ref='-294' />
    <nd ref='-295' />
    <nd ref='-296' />
    <nd ref='-297' />
    <nd ref='-298' />
    <nd ref='-299' />
    <nd ref='-300' />
    <nd ref='-301' />
    <nd ref='-302' />
    <nd ref='-303' />
    <nd ref='-304' />
    <nd ref='-305' />
    <nd ref='-306' />
    <nd ref='-307' />
    <nd ref='-308' />
    <nd ref='-309' />
    <nd ref='-310' />
    <nd ref='-311' />
    <nd ref='-312' />
    <nd ref='-313' />
    <nd ref='-314' />
    <nd ref='-315' />
    <nd ref='-316' />
    <nd ref='-317' />
    <nd ref='-318' />
    <nd ref='-319' />
    <nd ref='-320' />
    <nd ref='-321' />
    <nd ref='-322' />
    <nd ref='-323' />
    <nd ref='-324' />
    <nd ref='-325' />
    <nd ref='-326' />
    <nd ref='-327' />
    <nd ref='-328' />
    <nd ref='-329' />
    <nd ref='-330' />
    <nd ref='-331' />
    <nd ref='-332' />
    <nd ref='-333' />
    <nd ref='-334' />
    <nd ref='-335' />
    <nd ref='-336' />
    <nd ref='-337' />
    <nd ref='-338' />
    <nd ref='-339' />
    <tag k="OSM_ID" v="23263111"/>
  </way>
  <node id='-341' visible='true' lat='40.0095799' lon='19.9024399' />
  <node id='-342' visible='true' lat='40.0101833' lon='19.9026749' />
  <node id='-343' visible='true' lat='40.01068' lon='19.9026433' />
  <node id='-344' visible='true' lat='40.0108099' lon='19.9025616' />
  <node id='-345' visible='true' lat='40.01082' lon='19.9023667' />
  <node id='-346' visible='true' lat='40.0106566' lon='19.9018933' />
  <node id='-347' visible='true' lat='40.0107982' lon='19.9011132' />
  <node id='-348' visible='true' lat='40.0109982' lon='19.9003583' />
  <node id='-349' visible='true' lat='40.0110333' lon='19.89881' />
  <node id='-350' visible='true' lat='40.0110833' lon='19.8986717' />
  <node id='-351' visible='true' lat='40.0112049' lon='19.8986583' />
  <node id='-352' visible='true' lat='40.0112667' lon='19.8987717' />
  <node id='-353' visible='true' lat='40.0115499' lon='19.8996917' />
  <node id='-354' visible='true' lat='40.01158' lon='19.9001917' />
  <node id='-355' visible='true' lat='40.0116117' lon='19.9002833' />
  <node id='-356' visible='true' lat='40.0116833' lon='19.9003' />
  <node id='-357' visible='true' lat='40.0117333' lon='19.9002133' />
  <node id='-358' visible='true' lat='40.0117733' lon='19.8996716' />
  <node id='-359' visible='true' lat='40.0118916' lon='19.89928' />
  <node id='-360' visible='true' lat='40.01212' lon='19.8987367' />
  <node id='-361' visible='true' lat='40.0123217' lon='19.8984333' />
  <node id='-362' visible='true' lat='40.0125116' lon='19.8982732' />
  <way id='-363' visible='true'>
    <nd ref='-341' />
    <nd ref='-342' />
    <nd ref='-343' />
    <nd ref='-344' />
    <nd ref='-345' />
    <nd ref='-346' />
    <nd ref='-347' />
    <nd ref='-348' />
    <nd ref='-349' />
    <nd ref='-350' />
    <nd ref='-351' />
    <nd ref='-352' />
    <nd ref='-353' />
    <nd ref='-354' />
    <nd ref='-355' />
    <nd ref='-356' />
    <nd ref='-357' />
    <nd ref='-358' />
    <nd ref='-359' />
    <nd ref='-360' />
    <nd ref='-361' />
    <nd ref='-362' />
    <tag k="OSM_ID" v="23263110"/>
  </way>
  <node id='-364' visible='true' lat='39.9864867' lon='19.9171016' />
  <node id='-365' visible='true' lat='39.9869733' lon='19.916315' />
  <node id='-366' visible='true' lat='39.9871266' lon='19.9158132' />
  <node id='-367' visible='true' lat='39.9879333' lon='19.9151032' />
  <node id='-368' visible='true' lat='39.9881467' lon='19.915015' />
  <node id='-369' visible='true' lat='39.98924' lon='19.9154167' />
  <node id='-370' visible='true' lat='39.990065' lon='19.9152883' />
  <node id='-371' visible='true' lat='39.9904282' lon='19.9151182' />
  <node id='-372' visible='true' lat='39.9907766' lon='19.9150349' />
  <node id='-373' visible='true' lat='39.9911566' lon='19.9153167' />
  <node id='-374' visible='true' lat='39.99134' lon='19.9153717' />
  <node id='-375' visible='true' lat='39.9914966' lon='19.9153333' />
  <node id='-376' visible='true' lat='39.99184' lon='19.91507' />
  <node id='-377' visible='true' lat='39.9924383' lon='19.9147582' />
  <node id='-378' visible='true' lat='39.9931217' lon='19.91469' />
  <node id='-379' visible='true' lat='39.9933132' lon='19.9147782' />
  <node id='-380' visible='true' lat='39.993515' lon='19.9151017' />
  <node id='-381' visible='true' lat='39.9941867' lon='19.915265' />
  <node id='-382' visible='true' lat='39.9945499' lon='19.9152233' />
  <node id='-383' visible='true' lat='39.9950716' lon='19.9148032' />
  <node id='-384' visible='true' lat='39.9952133' lon='19.9147399' />
  <node id='-385' visible='true' lat='39.9953532' lon='19.9147883' />
  <node id='-386' visible='true' lat='39.9954899' lon='19.9150516' />
  <node id='-387' visible='true' lat='39.9956499' lon='19.9150817' />
  <node id='-388' visible='true' lat='39.9957716' lon='19.9149199' />
  <node id='-389' visible='true' lat='39.9960482' lon='19.9147199' />
  <node id='-390' visible='true' lat='39.9960599' lon='19.9144967' />
  <node id='-391' visible='true' lat='39.9959933' lon='19.9141332' />
  <node id='-392' visible='true' lat='39.996025' lon='19.913955' />
  <node id='-393' visible='true' lat='39.9961332' lon='19.9137567' />
  <node id='-394' visible='true' lat='39.9964282' lon='19.9136166' />
  <node id='-395' visible='true' lat='39.9964416' lon='19.9134549' />
  <node id='-396' visible='true' lat='39.9963582' lon='19.9131566' />
  <node id='-397' visible='true' lat='39.9964366' lon='19.9128982' />
  <node id='-398' visible='true' lat='39.9966817' lon='19.9127167' />
  <way id='-399' visible='true'>
    <nd ref='-364' />
    <nd ref='-365' />
    <nd ref='-366' />
    <nd ref='-367' />
    <nd ref='-368' />
    <nd ref='-369' />
    <nd ref='-370' />
    <nd ref='-371' />
    <nd ref='-372' />
    <nd ref='-373' />
    <nd ref='-374' />
    <nd ref='-375' />
    <nd ref='-376' />
    <nd ref='-377' />
    <nd ref='-378' />
    <nd ref='-379' />
    <nd ref='-380' />
    <nd ref='-381' />
    <nd ref='-382' />
    <nd ref='-383' />
    <nd ref='-384' />
    <nd ref='-385' />
    <nd ref='-386' />
    <nd ref='-387' />
    <nd ref='-388' />
    <nd ref='-389' />
    <nd ref='-390' />
    <nd ref='-391' />
    <nd ref='-392' />
    <nd ref='-393' />
    <nd ref='-394' />
    <nd ref='-395' />
    <nd ref='-396' />
    <nd ref='-397' />
    <nd ref='-398' />
    <tag k="OSM_ID" v="23263112"/>
  </way>
  <node id='-400' visible='true' lat='39.9437967' lon='19.9692816' />
  <node id='-401' visible='true' lat='39.9439982' lon='19.9697899' />
  <node id='-402' visible='true' lat='39.9441649' lon='19.970105' />
  <node id='-403' visible='true' lat='39.9442499' lon='19.9701467' />
  <node id='-404' visible='true' lat='39.9444032' lon='19.9700899' />
  <node id='-405' visible='true' lat='39.94465' lon='19.9697816' />
  <node id='-406' visible='true' lat='39.9447749' lon='19.969705' />
  <node id='-407' visible='true' lat='39.9454716' lon='19.9695199' />
  <node id='-408' visible='true' lat='39.9459366' lon='19.9695332' />
  <node id='-409' visible='true' lat='39.9462232' lon='19.9691967' />
  <node id='-410' visible='true' lat='39.946365' lon='19.9692132' />
  <node id='-411' visible='true' lat='39.9465849' lon='19.9694499' />
  <node id='-412' visible='true' lat='39.94729' lon='19.969785' />
  <node id='-413' visible='true' lat='39.9476932' lon='19.9696099' />
  <node id='-414' visible='true' lat='39.9484416' lon='19.9696183' />
  <node id='-415' visible='true' lat='39.9486066' lon='19.9695633' />
  <node id='-416' visible='true' lat='39.949305' lon='19.968885' />
  <node id='-417' visible='true' lat='39.9496899' lon='19.96871' />
  <node id='-418' visible='true' lat='39.9500432' lon='19.96863' />
  <node id='-419' visible='true' lat='39.9501899' lon='19.9685282' />
  <node id='-420' visible='true' lat='39.9504333' lon='19.9682549' />
  <node id='-421' visible='true' lat='39.9506883' lon='19.9677682' />
  <node id='-422' visible='true' lat='39.9509882' lon='19.9675617' />
  <node id='-423' visible='true' lat='39.9512416' lon='19.967265' />
  <node id='-424' visible='true' lat='39.9516249' lon='19.9670099' />
  <node id='-425' visible='true' lat='39.9519267' lon='19.9665166' />
  <node id='-426' visible='true' lat='39.9520849' lon='19.9664682' />
  <node id='-427' visible='true' lat='39.9523833' lon='19.9664767' />
  <node id='-428' visible='true' lat='39.9524816' lon='19.9664166' />
  <node id='-429' visible='true' lat='39.952525' lon='19.9662816' />
  <node id='-430' visible='true' lat='39.9525582' lon='19.9657717' />
  <node id='-431' visible='true' lat='39.9526467' lon='19.9656699' />
  <node id='-432' visible='true' lat='39.9528549' lon='19.9655616' />
  <node id='-433' visible='true' lat='39.9530949' lon='19.965195' />
  <node id='-434' visible='true' lat='39.953175' lon='19.9647983' />
  <node id='-435' visible='true' lat='39.9532482' lon='19.9646633' />
  <node id='-436' visible='true' lat='39.9536433' lon='19.9643517' />
  <node id='-437' visible='true' lat='39.9543099' lon='19.96432' />
  <node id='-438' visible='true' lat='39.954425' lon='19.9635999' />
  <node id='-439' visible='true' lat='39.9545383' lon='19.9634417' />
  <node id='-440' visible='true' lat='39.9548867' lon='19.96348' />
  <node id='-441' visible='true' lat='39.9552316' lon='19.9632849' />
  <node id='-442' visible='true' lat='39.9553317' lon='19.9633716' />
  <node id='-443' visible='true' lat='39.9554917' lon='19.9637749' />
  <node id='-444' visible='true' lat='39.955795' lon='19.9640583' />
  <node id='-445' visible='true' lat='39.9561283' lon='19.9640866' />
  <node id='-446' visible='true' lat='39.9566216' lon='19.9642866' />
  <node id='-447' visible='true' lat='39.956715' lon='19.9642516' />
  <node id='-448' visible='true' lat='39.9567449' lon='19.9641467' />
  <node id='-449' visible='true' lat='39.9565233' lon='19.9637616' />
  <node id='-450' visible='true' lat='39.9564932' lon='19.9634916' />
  <node id='-451' visible='true' lat='39.9565632' lon='19.9631967' />
  <node id='-452' visible='true' lat='39.9567949' lon='19.9629249' />
  <node id='-453' visible='true' lat='39.9573116' lon='19.9626333' />
  <node id='-454' visible='true' lat='39.9578466' lon='19.96214' />
  <node id='-455' visible='true' lat='39.9580316' lon='19.9621032' />
  <node id='-456' visible='true' lat='39.9585216' lon='19.9623249' />
  <node id='-457' visible='true' lat='39.9587633' lon='19.9623583' />
  <node id='-458' visible='true' lat='39.9590549' lon='19.9623199' />
  <node id='-459' visible='true' lat='39.95935' lon='19.9621732' />
  <node id='-460' visible='true' lat='39.9596117' lon='19.9622932' />
  <node id='-461' visible='true' lat='39.9599333' lon='19.9623516' />
  <node id='-462' visible='true' lat='39.9606582' lon='19.9628617' />
  <node id='-463' visible='true' lat='39.960895' lon='19.9628517' />
  <node id='-464' visible='true' lat='39.961365' lon='19.9625832' />
  <node id='-465' visible='true' lat='39.96168' lon='19.96225' />
  <node id='-466' visible='true' lat='39.9620316' lon='19.9619916' />
  <node id='-467' visible='true' lat='39.96273' lon='19.9604382' />
  <node id='-468' visible='true' lat='39.9629766' lon='19.9601666' />
  <node id='-469' visible='true' lat='39.963295' lon='19.9600849' />
  <node id='-470' visible='true' lat='39.9638132' lon='19.9600967' />
  <node id='-471' visible='true' lat='39.9639183' lon='19.9601916' />
  <node id='-472' visible='true' lat='39.9640817' lon='19.9610832' />
  <node id='-473' visible='true' lat='39.9640716' lon='19.9626683' />
  <node id='-474' visible='true' lat='39.9642182' lon='19.9632566' />
  <node id='-475' visible='true' lat='39.9643082' lon='19.9633767' />
  <node id='-476' visible='true' lat='39.9644382' lon='19.9634317' />
  <node id='-477' visible='true' lat='39.9647932' lon='19.963505' />
  <node id='-478' visible='true' lat='39.9649183' lon='19.9634549' />
  <node id='-479' visible='true' lat='39.9656799' lon='19.9620382' />
  <node id='-480' visible='true' lat='39.9665249' lon='19.9606233' />
  <node id='-481' visible='true' lat='39.966765' lon='19.9599417' />
  <node id='-482' visible='true' lat='39.9675767' lon='19.9572167' />
  <node id='-483' visible='true' lat='39.9682699' lon='19.9556332' />
  <node id='-484' visible='true' lat='39.9687266' lon='19.954995' />
  <node id='-485' visible='true' lat='39.9687316' lon='19.9548583' />
  <node id='-486' visible='true' lat='39.9685567' lon='19.9543366' />
  <node id='-487' visible='true' lat='39.9685733' lon='19.9539766' />
  <node id='-488' visible='true' lat='39.9687083' lon='19.9533982' />
  <node id='-489' visible='true' lat='39.9690133' lon='19.9527649' />
  <node id='-490' visible='true' lat='39.9692833' lon='19.9524232' />
  <node id='-491' visible='true' lat='39.97064' lon='19.9513083' />
  <node id='-492' visible='true' lat='39.9707717' lon='19.9511099' />
  <node id='-493' visible='true' lat='39.9710032' lon='19.95041' />
  <node id='-494' visible='true' lat='39.97108' lon='19.950285' />
  <node id='-495' visible='true' lat='39.972025' lon='19.9497466' />
  <node id='-496' visible='true' lat='39.9723167' lon='19.9494332' />
  <node id='-497' visible='true' lat='39.97258' lon='19.948965' />
  <node id='-498' visible='true' lat='39.9727083' lon='19.9488282' />
  <node id='-499' visible='true' lat='39.9733833' lon='19.9484317' />
  <node id='-500' visible='true' lat='39.9746616' lon='19.9474899' />
  <node id='-501' visible='true' lat='39.9748317' lon='19.9472866' />
  <node id='-502' visible='true' lat='39.9752067' lon='19.9466482' />
  <node id='-503' visible='true' lat='39.9758233' lon='19.9462332' />
  <node id='-504' visible='true' lat='39.9762233' lon='19.9460517' />
  <node id='-505' visible='true' lat='39.9763333' lon='19.9459267' />
  <node id='-506' visible='true' lat='39.976385' lon='19.9457282' />
  <node id='-507' visible='true' lat='39.976415' lon='19.9450132' />
  <node id='-508' visible='true' lat='39.9765349' lon='19.94414' />
  <node id='-509' visible='true' lat='39.9768682' lon='19.9424932' />
  <node id='-510' visible='true' lat='39.9768682' lon='19.9422716' />
  <node id='-511' visible='true' lat='39.9767416' lon='19.9417283' />
  <node id='-512' visible='true' lat='39.97675' lon='19.9415033' />
  <node id='-513' visible='true' lat='39.9769782' lon='19.9409032' />
  <node id='-514' visible='true' lat='39.9771266' lon='19.9402867' />
  <node id='-515' visible='true' lat='39.9771117' lon='19.9399817' />
  <node id='-516' visible='true' lat='39.9769482' lon='19.9392616' />
  <node id='-517' visible='true' lat='39.9769482' lon='19.93905' />
  <node id='-518' visible='true' lat='39.9770783' lon='19.938755' />
  <node id='-519' visible='true' lat='39.977885' lon='19.9375166' />
  <node id='-520' visible='true' lat='39.97796' lon='19.9371916' />
  <node id='-521' visible='true' lat='39.9779582' lon='19.9366616' />
  <node id='-522' visible='true' lat='39.9780082' lon='19.9362917' />
  <node id='-523' visible='true' lat='39.9782183' lon='19.9357132' />
  <node id='-524' visible='true' lat='39.9787667' lon='19.93477' />
  <node id='-525' visible='true' lat='39.9789983' lon='19.9345832' />
  <node id='-526' visible='true' lat='39.9793482' lon='19.934435' />
  <node id='-527' visible='true' lat='39.9794332' lon='19.9342633' />
  <node id='-528' visible='true' lat='39.979435' lon='19.9341116' />
  <node id='-529' visible='true' lat='39.9793816' lon='19.9339683' />
  <node id='-530' visible='true' lat='39.9790233' lon='19.9336683' />
  <node id='-531' visible='true' lat='39.978855' lon='19.93345' />
  <node id='-532' visible='true' lat='39.978515' lon='19.9325933' />
  <node id='-533' visible='true' lat='39.9782166' lon='19.9321049' />
  <node id='-534' visible='true' lat='39.9779367' lon='19.9317966' />
  <node id='-535' visible='true' lat='39.9778767' lon='19.9316417' />
  <node id='-536' visible='true' lat='39.9779966' lon='19.9308233' />
  <node id='-537' visible='true' lat='39.9778833' lon='19.93007' />
  <node id='-538' visible='true' lat='39.9780932' lon='19.9296833' />
  <node id='-539' visible='true' lat='39.9780532' lon='19.9291233' />
  <node id='-540' visible='true' lat='39.9780833' lon='19.9289449' />
  <node id='-541' visible='true' lat='39.9784183' lon='19.9284533' />
  <node id='-542' visible='true' lat='39.9785049' lon='19.9278049' />
  <node id='-543' visible='true' lat='39.9786599' lon='19.9276866' />
  <node id='-544' visible='true' lat='39.9790716' lon='19.9276833' />
  <node id='-545' visible='true' lat='39.9792933' lon='19.9275432' />
  <node id='-546' visible='true' lat='39.9794817' lon='19.92734' />
  <node id='-547' visible='true' lat='39.9796467' lon='19.927005' />
  <node id='-548' visible='true' lat='39.9797849' lon='19.9265833' />
  <node id='-549' visible='true' lat='39.979835' lon='19.9262483' />
  <node id='-550' visible='true' lat='39.9797999' lon='19.9258166' />
  <node id='-551' visible='true' lat='39.9798816' lon='19.9255166' />
  <node id='-552' visible='true' lat='39.9800499' lon='19.9253332' />
  <node id='-553' visible='true' lat='39.9809417' lon='19.9246732' />
  <node id='-554' visible='true' lat='39.9812282' lon='19.9239767' />
  <node id='-555' visible='true' lat='39.9814883' lon='19.92295' />
  <node id='-556' visible='true' lat='39.9816199' lon='19.9226549' />
  <node id='-557' visible='true' lat='39.9817616' lon='19.9225217' />
  <node id='-558' visible='true' lat='39.9821949' lon='19.92235' />
  <node id='-559' visible='true' lat='39.98281' lon='19.9218417' />
  <node id='-560' visible='true' lat='39.982965' lon='19.9213516' />
  <node id='-561' visible='true' lat='39.9830116' lon='19.9201933' />
  <node id='-562' visible='true' lat='39.9831383' lon='19.919715' />
  <node id='-563' visible='true' lat='39.9832783' lon='19.9194633' />
  <node id='-564' visible='true' lat='39.9833866' lon='19.9194066' />
  <node id='-565' visible='true' lat='39.9834482' lon='19.91946' />
  <node id='-566' visible='true' lat='39.9838149' lon='19.9199766' />
  <node id='-567' visible='true' lat='39.9839916' lon='19.9201033' />
  <node id='-568' visible='true' lat='39.9842682' lon='19.9200717' />
  <node id='-569' visible='true' lat='39.9846367' lon='19.919775' />
  <node id='-570' visible='true' lat='39.9847249' lon='19.9197932' />
  <node id='-571' visible='true' lat='39.9848399' lon='19.9200982' />
  <node id='-572' visible='true' lat='39.9849667' lon='19.9202033' />
  <node id='-573' visible='true' lat='39.985585' lon='19.92023' />
  <node id='-574' visible='true' lat='39.9861716' lon='19.9204682' />
  <node id='-575' visible='true' lat='39.9863233' lon='19.9203867' />
  <node id='-576' visible='true' lat='39.9865649' lon='19.9196482' />
  <node id='-577' visible='true' lat='39.9866932' lon='19.9189183' />
  <node id='-578' visible='true' lat='39.9866866' lon='19.9186982' />
  <node id='-579' visible='true' lat='39.9865716' lon='19.9181767' />
  <node id='-580' visible='true' lat='39.9864867' lon='19.9171016' />
  <way id='-581' visible='true'>
    <nd ref='-400' />
    <nd ref='-401' />
    <nd ref='-402' />
    <nd ref='-403' />
    <nd ref='-404' />
    <nd ref='-405' />
    <nd ref='-406' />
    <nd ref='-407' />
    <nd ref='-408' />
    <nd ref='-409' />
    <nd ref='-410' />
    <nd ref='-411' />
    <nd ref='-412' />
    <nd ref='-413' />
    <nd ref='-414' />
    <nd ref='-415' />
    <nd ref='-416' />
    <nd ref='-417' />
    <nd ref='-418' />
    <nd ref='-419' />
    <nd ref='-420' />
    <nd ref='-421' />
    <nd ref='-422' />
    <nd ref='-423' />
    <nd ref='-424' />
    <nd ref='-425' />
    <nd ref='-426' />
    <nd ref='-427' />
    <nd ref='-428' />
    <nd ref='-429' />
    <nd ref='-430' />
    <nd ref='-431' />
    <nd ref='-432' />
    <nd ref='-433' />
    <nd ref='-434' />
    <nd ref='-435' />
    <nd ref='-436' />
    <nd ref='-437' />
    <nd ref='-438' />
    <nd ref='-439' />
    <nd ref='-440' />
    <nd ref='-441' />
    <nd ref='-442' />
    <nd ref='-443' />
    <nd ref='-444' />
    <nd ref='-445' />
    <nd ref='-446' />
    <nd ref='-447' />
    <nd ref='-448' />
    <nd ref='-449' />
    <nd ref='-450' />
    <nd ref='-451' />
    <nd ref='-452' />
    <nd ref='-453' />
    <nd ref='-454' />
    <nd ref='-455' />
    <nd ref='-456' />
    <nd ref='-457' />
    <nd ref='-458' />
    <nd ref='-459' />
    <nd ref='-460' />
    <nd ref='-461' />
    <nd ref='-462' />
    <nd ref='-463' />
    <nd ref='-464' />
    <nd ref='-465' />
    <nd ref='-466' />
    <nd ref='-467' />
    <nd ref='-468' />
    <nd ref='-469' />
    <nd ref='-470' />
    <nd ref='-471' />
    <nd ref='-472' />
    <nd ref='-473' />
    <nd ref='-474' />
    <nd ref='-475' />
    <nd ref='-476' />
    <nd ref='-477' />
    <nd ref='-478' />
    <nd ref='-479' />
    <nd ref='-480' />
    <nd ref='-481' />
    <nd ref='-482' />
    <nd ref='-483' />
    <nd ref='-484' />
    <nd ref='-485' />
    <nd ref='-486' />
    <nd ref='-487' />
    <nd ref='-488' />
    <nd ref='-489' />
    <nd ref='-490' />
    <nd ref='-491' />
    <nd ref='-492' />
    <nd ref='-493' />
    <nd ref='-494' />
    <nd ref='-495' />
    <nd ref='-496' />
    <nd ref='-497' />
    <nd ref='-498' />
    <nd ref='-499' />
    <nd ref='-500' />
    <nd ref='-501' />
    <nd ref='-502' />
    <nd ref='-503' />
    <nd ref='-504' />
    <nd ref='-505' />
    <nd ref='-506' />
    <nd ref='-507' />
    <nd ref='-508' />
    <nd ref='-509' />
    <nd ref='-510' />
    <nd ref='-511' />
    <nd ref='-512' />
    <nd ref='-513' />
    <nd ref='-514' />
    <nd ref='-515' />
    <nd ref='-516' />
    <nd ref='-517' />
    <nd ref='-518' />
    <nd ref='-519' />
    <nd ref='-520' />
    <nd ref='-521' />
    <nd ref='-522' />
    <nd ref='-523' />
    <nd ref='-524' />
    <nd ref='-525' />
    <nd ref='-526' />
    <nd ref='-527' />
    <nd ref='-528' />
    <nd ref='-529' />
    <nd ref='-530' />
    <nd ref='-531' />
    <nd ref='-532' />
    <nd ref='-533' />
    <nd ref='-534' />
    <nd ref='-535' />
    <nd ref='-536' />
    <nd ref='-537' />
    <nd ref='-538' />
    <nd ref='-539' />
    <nd ref='-540' />
    <nd ref='-541' />
    <nd ref='-542' />
    <nd ref='-543' />
    <nd ref='-544' />
    <nd ref='-545' />
    <nd ref='-546' />
    <nd ref='-547' />
    <nd ref='-548' />
    <nd ref='-549' />
    <nd ref='-550' />
    <nd ref='-551' />
    <nd ref='-552' />
    <nd ref='-553' />
    <nd ref='-554' />
    <nd ref='-555' />
    <nd ref='-556' />
    <nd ref='-557' />
    <nd ref='-558' />
    <nd ref='-559' />
    <nd ref='-560' />
    <nd ref='-561' />
    <nd ref='-562' />
    <nd ref='-563' />
    <nd ref='-564' />
    <nd ref='-565' />
    <nd ref='-566' />
    <nd ref='-567' />
    <nd ref='-568' />
    <nd ref='-569' />
    <nd ref='-570' />
    <nd ref='-571' />
    <nd ref='-572' />
    <nd ref='-573' />
    <nd ref='-574' />
    <nd ref='-575' />
    <nd ref='-576' />
    <nd ref='-577' />
    <nd ref='-578' />
    <nd ref='-579' />
    <nd ref='-580' />
    <tag k="OSM_ID" v="23263109"/>
  </way>
  <node id='-582' visible='true' lat='39.913065' lon='19.993935' />
  <node id='-583' visible='true' lat='39.9135832' lon='19.9938199' />
  <node id='-584' visible='true' lat='39.9140633' lon='19.9934967' />
  <node id='-585' visible='true' lat='39.9145832' lon='19.9929549' />
  <node id='-586' visible='true' lat='39.9148283' lon='19.9925999' />
  <node id='-587' visible='true' lat='39.9155216' lon='19.9921399' />
  <node id='-588' visible='true' lat='39.9162366' lon='19.9915316' />
  <node id='-589' visible='true' lat='39.91651' lon='19.9912132' />
  <node id='-590' visible='true' lat='39.9167716' lon='19.9910916' />
  <node id='-591' visible='true' lat='39.9172067' lon='19.991035' />
  <node id='-592' visible='true' lat='39.9175249' lon='19.99086' />
  <node id='-593' visible='true' lat='39.9179999' lon='19.9904067' />
  <node id='-594' visible='true' lat='39.9181799' lon='19.9899133' />
  <node id='-595' visible='true' lat='39.91839' lon='19.9895466' />
  <node id='-596' visible='true' lat='39.9187532' lon='19.9893016' />
  <node id='-597' visible='true' lat='39.9192717' lon='19.9888082' />
  <node id='-598' visible='true' lat='39.9194749' lon='19.9885882' />
  <node id='-599' visible='true' lat='39.9195082' lon='19.9884683' />
  <node id='-600' visible='true' lat='39.9196517' lon='19.9884166' />
  <node id='-601' visible='true' lat='39.9198067' lon='19.9881966' />
  <node id='-602' visible='true' lat='39.9200267' lon='19.988025' />
  <node id='-603' visible='true' lat='39.9201516' lon='19.9879783' />
  <node id='-604' visible='true' lat='39.9204032' lon='19.9880117' />
  <node id='-605' visible='true' lat='39.9206933' lon='19.9878199' />
  <node id='-606' visible='true' lat='39.9209316' lon='19.9872249' />
  <node id='-607' visible='true' lat='39.9210483' lon='19.9870349' />
  <node id='-608' visible='true' lat='39.9216716' lon='19.9862482' />
  <node id='-609' visible='true' lat='39.9220632' lon='19.9860216' />
  <node id='-610' visible='true' lat='39.9224267' lon='19.9856483' />
  <node id='-611' visible='true' lat='39.92273' lon='19.9854683' />
  <node id='-612' visible='true' lat='39.9230067' lon='19.9850099' />
  <node id='-613' visible='true' lat='39.923135' lon='19.9848767' />
  <node id='-614' visible='true' lat='39.9237749' lon='19.984655' />
  <node id='-615' visible='true' lat='39.9242417' lon='19.9839216' />
  <node id='-616' visible='true' lat='39.92475' lon='19.9836533' />
  <node id='-617' visible='true' lat='39.9248533' lon='19.9834166' />
  <node id='-618' visible='true' lat='39.9250083' lon='19.9827949' />
  <node id='-619' visible='true' lat='39.9252066' lon='19.9824367' />
  <node id='-620' visible='true' lat='39.9254232' lon='19.9822999' />
  <node id='-621' visible='true' lat='39.9259649' lon='19.9822066' />
  <node id='-622' visible='true' lat='39.9260566' lon='19.981995' />
  <node id='-623' visible='true' lat='39.9261566' lon='19.9814199' />
  <node id='-624' visible='true' lat='39.9262833' lon='19.9812849' />
  <node id='-625' visible='true' lat='39.9266833' lon='19.9811532' />
  <node id='-626' visible='true' lat='39.9267749' lon='19.9809982' />
  <node id='-627' visible='true' lat='39.9271333' lon='19.979835' />
  <node id='-628' visible='true' lat='39.9272016' lon='19.9793532' />
  <node id='-629' visible='true' lat='39.9272966' lon='19.9792082' />
  <node id='-630' visible='true' lat='39.927435' lon='19.9791767' />
  <node id='-631' visible='true' lat='39.9275799' lon='19.9792583' />
  <node id='-632' visible='true' lat='39.9279099' lon='19.9797432' />
  <node id='-633' visible='true' lat='39.9280167' lon='19.9797332' />
  <node id='-634' visible='true' lat='39.9279599' lon='19.9796933' />
  <node id='-635' visible='true' lat='39.9279099' lon='19.9797566' />
  <node id='-636' visible='true' lat='39.9279282' lon='19.9797082' />
  <node id='-637' visible='true' lat='39.9279683' lon='19.9796882' />
  <node id='-638' visible='true' lat='39.92792' lon='19.9798399' />
  <node id='-639' visible='true' lat='39.9279233' lon='19.9796617' />
  <node id='-640' visible='true' lat='39.927995' lon='19.979775' />
  <node id='-641' visible='true' lat='39.9285633' lon='19.9792532' />
  <node id='-642' visible='true' lat='39.9286783' lon='19.9792166' />
  <node id='-643' visible='true' lat='39.928795' lon='19.9792532' />
  <node id='-644' visible='true' lat='39.9288816' lon='19.9793717' />
  <node id='-645' visible='true' lat='39.9289199' lon='19.979545' />
  <node id='-646' visible='true' lat='39.9286799' lon='19.9806217' />
  <node id='-647' visible='true' lat='39.92877' lon='19.9807866' />
  <node id='-648' visible='true' lat='39.9288633' lon='19.9807832' />
  <node id='-649' visible='true' lat='39.9292067' lon='19.9804983' />
  <node id='-650' visible='true' lat='39.9294183' lon='19.9801283' />
  <node id='-651' visible='true' lat='39.9296767' lon='19.9799649' />
  <node id='-652' visible='true' lat='39.9297682' lon='19.979845' />
  <node id='-653' visible='true' lat='39.929965' lon='19.9792416' />
  <node id='-654' visible='true' lat='39.9301' lon='19.9785782' />
  <node id='-655' visible='true' lat='39.9302382' lon='19.9783532' />
  <node id='-656' visible='true' lat='39.9303766' lon='19.9782766' />
  <node id='-657' visible='true' lat='39.9306766' lon='19.9782766' />
  <node id='-658' visible='true' lat='39.9311267' lon='19.9785882' />
  <node id='-659' visible='true' lat='39.9314832' lon='19.97858' />
  <node id='-660' visible='true' lat='39.9319632' lon='19.9787867' />
  <node id='-661' visible='true' lat='39.9321916' lon='19.9788183' />
  <node id='-662' visible='true' lat='39.9328782' lon='19.9784' />
  <node id='-663' visible='true' lat='39.9331616' lon='19.97803' />
  <node id='-664' visible='true' lat='39.93328' lon='19.9779766' />
  <node id='-665' visible='true' lat='39.9334649' lon='19.9781082' />
  <node id='-666' visible='true' lat='39.9336516' lon='19.9785332' />
  <node id='-667' visible='true' lat='39.933905' lon='19.9786749' />
  <node id='-668' visible='true' lat='39.9340649' lon='19.97866' />
  <node id='-669' visible='true' lat='39.9341517' lon='19.9785432' />
  <node id='-670' visible='true' lat='39.9342333' lon='19.9782949' />
  <node id='-671' visible='true' lat='39.9342617' lon='19.9778382' />
  <node id='-672' visible='true' lat='39.9342033' lon='19.9776716' />
  <node id='-673' visible='true' lat='39.9337517' lon='19.9769733' />
  <node id='-674' visible='true' lat='39.9337383' lon='19.9767867' />
  <node id='-675' visible='true' lat='39.9338516' lon='19.9765167' />
  <node id='-676' visible='true' lat='39.9347033' lon='19.9756967' />
  <node id='-677' visible='true' lat='39.9348633' lon='19.975645' />
  <node id='-678' visible='true' lat='39.9352599' lon='19.9756566' />
  <node id='-679' visible='true' lat='39.9355382' lon='19.9755199' />
  <node id='-680' visible='true' lat='39.9358582' lon='19.9752316' />
  <node id='-681' visible='true' lat='39.9364167' lon='19.97453' />
  <node id='-682' visible='true' lat='39.9365616' lon='19.9744633' />
  <node id='-683' visible='true' lat='39.936905' lon='19.9744999' />
  <node id='-684' visible='true' lat='39.9370132' lon='19.9744467' />
  <node id='-685' visible='true' lat='39.9373967' lon='19.9738317' />
  <node id='-686' visible='true' lat='39.9378749' lon='19.97342' />
  <node id='-687' visible='true' lat='39.9382349' lon='19.9729716' />
  <node id='-688' visible='true' lat='39.9384166' lon='19.9728166' />
  <node id='-689' visible='true' lat='39.938675' lon='19.9726449' />
  <node id='-690' visible='true' lat='39.9391182' lon='19.9725782' />
  <node id='-691' visible='true' lat='39.9403082' lon='19.9717182' />
  <node id='-692' visible='true' lat='39.9410932' lon='19.9716099' />
  <node id='-693' visible='true' lat='39.9415649' lon='19.9712916' />
  <node id='-694' visible='true' lat='39.9428016' lon='19.9702783' />
  <node id='-695' visible='true' lat='39.9433349' lon='19.9695633' />
  <node id='-696' visible='true' lat='39.9435167' lon='19.9692067' />
  <node id='-697' visible='true' lat='39.9436066' lon='19.9691466' />
  <node id='-698' visible='true' lat='39.9437132' lon='19.9691733' />
  <node id='-699' visible='true' lat='39.9437967' lon='19.9692816' />
  <way id='-700' visible='true'>
    <nd ref='-582' />
    <nd ref='-583' />
    <nd ref='-584' />
    <nd ref='-585' />
    <nd ref='-586' />
    <nd ref='-587' />
    <nd ref='-588' />
    <nd ref='-589' />
    <nd ref='-590' />
    <nd ref='-591' />
    <nd ref='-592' />
    <nd ref='-593' />
    <nd ref='-594' />
    <nd ref='-595' />
    <nd ref='-596' />
    <nd ref='-597' />
    <nd ref='-598' />
    <nd ref='-599' />
    <nd ref='-600' />
    <nd ref='-601' />
    <nd ref='-602' />
    <nd ref='-603' />
    <nd ref='-604' />
    <nd ref='-605' />
    <nd ref='-606' />
    <nd ref='-607' />
    <nd ref='-608' />
    <nd ref='-609' />
    <nd ref='-610' />
    <nd ref='-611' />
    <nd ref='-612' />
    <nd ref='-613' />
    <nd ref='-614' />
    <nd ref='-615' />
    <nd ref='-616' />
    <nd ref='-617' />
    <nd ref='-618' />
    <nd ref='-619' />
    <nd ref='-620' />
    <nd ref='-621' />
    <nd ref='-622' />
    <nd ref='-623' />
    <nd ref='-624' />
    <nd ref='-625' />
    <nd ref='-626' />
    <nd ref='-627' />
    <nd ref='-628' />
    <nd ref='-629' />
    <nd ref='-630' />
    <nd ref='-631' />
    <nd ref='-632' />
    <nd ref='-633' />
    <nd ref='-634' />
    <nd ref='-635' />
    <nd ref='-636' />
    <nd ref='-637' />
    <nd ref='-638' />
    <nd ref='-639' />
    <nd ref='-640' />
    <nd ref='-641' />
    <nd ref='-642' />
    <nd ref='-643' />
    <nd ref='-644' />
    <nd ref='-645' />
    <nd ref='-646' />
    <nd ref='-647' />
    <nd ref='-648' />
    <nd ref='-649' />
    <nd ref='-650' />
    <nd ref='-651' />
    <nd ref='-652' />
    <nd ref='-653' />
    <nd ref='-654' />
    <nd ref='-655' />
    <nd ref='-656' />
    <nd ref='-657' />
    <nd ref='-658' />
    <nd ref='-659' />
    <nd ref='-660' />
    <nd ref='-661' />
    <nd ref='-662' />
    <nd ref='-663' />
    <nd ref='-664' />
    <nd ref='-665' />
    <nd ref='-666' />
    <nd ref='-667' />
    <nd ref='-668' />
    <nd ref='-669' />
    <nd ref='-670' />
    <nd ref='-671' />
    <nd ref='-672' />
    <nd ref='-673' />
    <nd ref='-674' />
    <nd ref='-675' />
    <nd ref='-676' />
    <nd ref='-677' />
    <nd ref='-678' />
    <nd ref='-679' />
    <nd ref='-680' />
    <nd ref='-681' />
    <nd ref='-682' />
    <nd ref='-683' />
    <nd ref='-684' />
    <nd ref='-685' />
    <nd ref='-686' />
    <nd ref='-687' />
    <nd ref='-688' />
    <nd ref='-689' />
    <nd ref='-690' />
    <nd ref='-691' />
    <nd ref='-692' />
    <nd ref='-693' />
    <nd ref='-694' />
    <nd ref='-695' />
    <nd ref='-696' />
    <nd ref='-697' />
    <nd ref='-698' />
    <nd ref='-699' />
    <tag k="OSM_ID" v="23263106"/>
  </way>
  <node id='-701' visible='true' lat='39.8984732' lon='20.0081732' />
  <node id='-702' visible='true' lat='39.898915' lon='20.0078166' />
  <node id='-703' visible='true' lat='39.8999882' lon='20.0066349' />
  <node id='-704' visible='true' lat='39.9005016' lon='20.0062849' />
  <node id='-705' visible='true' lat='39.9009967' lon='20.0056367' />
  <node id='-706' visible='true' lat='39.9012267' lon='20.0054082' />
  <node id='-707' visible='true' lat='39.9014333' lon='20.0050117' />
  <node id='-708' visible='true' lat='39.9018349' lon='20.0048649' />
  <node id='-709' visible='true' lat='39.9020683' lon='20.0044' />
  <node id='-710' visible='true' lat='39.9025' lon='20.0043633' />
  <node id='-711' visible='true' lat='39.9026349' lon='20.0042749' />
  <node id='-712' visible='true' lat='39.9029067' lon='20.0036449' />
  <node id='-713' visible='true' lat='39.9034116' lon='20.0032083' />
  <node id='-714' visible='true' lat='39.9037332' lon='20.0030517' />
  <node id='-715' visible='true' lat='39.9038983' lon='20.0026082' />
  <node id='-716' visible='true' lat='39.9039982' lon='20.0024683' />
  <node id='-717' visible='true' lat='39.9043033' lon='20.0023249' />
  <node id='-718' visible='true' lat='39.9045849' lon='20.0020549' />
  <node id='-719' visible='true' lat='39.9050016' lon='20.0019017' />
  <node id='-720' visible='true' lat='39.9053017' lon='20.0015916' />
  <node id='-721' visible='true' lat='39.9057749' lon='20.0012517' />
  <node id='-722' visible='true' lat='39.9059217' lon='20.0010116' />
  <node id='-723' visible='true' lat='39.906255' lon='19.9999283' />
  <node id='-724' visible='true' lat='39.90641' lon='19.999645' />
  <node id='-725' visible='true' lat='39.9071517' lon='19.9992567' />
  <node id='-726' visible='true' lat='39.9080749' lon='19.9984967' />
  <node id='-727' visible='true' lat='39.908265' lon='19.9983299' />
  <node id='-728' visible='true' lat='39.9085316' lon='19.99781' />
  <node id='-729' visible='true' lat='39.9087182' lon='19.9976282' />
  <node id='-730' visible='true' lat='39.9089682' lon='19.9975966' />
  <node id='-731' visible='true' lat='39.9093317' lon='19.9976999' />
  <node id='-732' visible='true' lat='39.9095232' lon='19.9976367' />
  <node id='-733' visible='true' lat='39.9098232' lon='19.9973117' />
  <node id='-734' visible='true' lat='39.9099883' lon='19.9967317' />
  <node id='-735' visible='true' lat='39.9101016' lon='19.9965566' />
  <node id='-736' visible='true' lat='39.9107249' lon='19.9961883' />
  <node id='-737' visible='true' lat='39.9109916' lon='19.995885' />
  <node id='-738' visible='true' lat='39.9113266' lon='19.9956516' />
  <node id='-739' visible='true' lat='39.9116033' lon='19.9953016' />
  <node id='-740' visible='true' lat='39.9121317' lon='19.9949399' />
  <node id='-741' visible='true' lat='39.9125216' lon='19.9943516' />
  <node id='-742' visible='true' lat='39.913065' lon='19.993935' />
  <way id='-743' visible='true'>
    <nd ref='-701' />
    <nd ref='-702' />
    <nd ref='-703' />
    <nd ref='-704' />
    <nd ref='-705' />
    <nd ref='-706' />
    <nd ref='-707' />
    <nd ref='-708' />
    <nd ref='-709' />
    <nd ref='-710' />
    <nd ref='-711' />
    <nd ref='-712' />
    <nd ref='-713' />
    <nd ref='-714' />
    <nd ref='-715' />
    <nd ref='-716' />
    <nd ref='-717' />
    <nd ref='-718' />
    <nd ref='-719' />
    <nd ref='-720' />
    <nd ref='-721' />
    <nd ref='-722' />
    <nd ref='-723' />
    <nd ref='-724' />
    <nd ref='-725' />
    <nd ref='-726' />
    <nd ref='-727' />
    <nd ref='-728' />
    <nd ref='-729' />
    <nd ref='-730' />
    <nd ref='-731' />
    <nd ref='-732' />
    <nd ref='-733' />
    <nd ref='-734' />
    <nd ref='-735' />
    <nd ref='-736' />
    <nd ref='-737' />
    <nd ref='-738' />
    <nd ref='-739' />
    <nd ref='-740' />
    <nd ref='-741' />
    <nd ref='-742' />
    <tag k="OSM_ID" v="23263104"/>
  </way>
</osm>
