<?xml version='1.0'?>
<osm version='0.5' generator='shp2osm.pl'>
  <node id='-1' visible='true' lat='40.7148497' lon='19.4149536' />
  <node id='-2' visible='true' lat='40.7150565' lon='19.4180376' />
  <node id='-3' visible='true' lat='40.7236435' lon='19.4312556' />
  <node id='-4' visible='true' lat='40.7357413' lon='19.45031' />
  <node id='-5' visible='true' lat='40.7422445' lon='19.4587214' />
  <node id='-6' visible='true' lat='40.7527018' lon='19.4595765' />
  <way id='-7' visible='true'>
    <nd ref='-1' />
    <nd ref='-2' />
    <nd ref='-3' />
    <nd ref='-4' />
    <nd ref='-5' />
    <nd ref='-6' />
    <tag k="OSM_ID" v="41570867"/>
  </way>
</osm>
