<?xml version='1.0'?>
<osm version='0.5' generator='shp2osm.pl'>
  <node id='-1' visible='true' lat='42.3339169' lon='20.0808251' />
  <node id='-2' visible='true' lat='42.3350559' lon='20.0799267' />
  <node id='-3' visible='true' lat='42.3358679' lon='20.079385' />
  <node id='-4' visible='true' lat='42.3365527' lon='20.0786334' />
  <node id='-5' visible='true' lat='42.3369576' lon='20.0782249' />
  <node id='-6' visible='true' lat='42.3378014' lon='20.0777253' />
  <node id='-7' visible='true' lat='42.3381437' lon='20.0773389' />
  <way id='-8' visible='true'>
    <nd ref='-1' />
    <nd ref='-2' />
    <nd ref='-3' />
    <nd ref='-4' />
    <nd ref='-5' />
    <nd ref='-6' />
    <nd ref='-7' />
    <tag k="OSM_ID" v="52161720"/>
  </way>
  <node id='-9' visible='true' lat='42.3320311' lon='20.0821001' />
  <node id='-10' visible='true' lat='42.3321729' lon='20.0822162' />
  <node id='-11' visible='true' lat='42.3328369' lon='20.0829675' />
  <node id='-12' visible='true' lat='42.3334765' lon='20.0838473' />
  <node id='-13' visible='true' lat='42.3339685' lon='20.0845182' />
  <node id='-14' visible='true' lat='42.3343802' lon='20.0849572' />
  <node id='-15' visible='true' lat='42.3355578' lon='20.0856005' />
  <node id='-16' visible='true' lat='42.3365687' lon='20.0863487' />
  <node id='-17' visible='true' lat='42.3368984' lon='20.086344' />
  <node id='-18' visible='true' lat='42.3371489' lon='20.0862768' />
  <node id='-19' visible='true' lat='42.3378214' lon='20.0859279' />
  <node id='-20' visible='true' lat='42.3385844' lon='20.0851329' />
  <node id='-21' visible='true' lat='42.3393881' lon='20.0842726' />
  <node id='-22' visible='true' lat='42.3401835' lon='20.0836041' />
  <node id='-23' visible='true' lat='42.3405144' lon='20.0832252' />
  <way id='-24' visible='true'>
    <nd ref='-9' />
    <nd ref='-10' />
    <nd ref='-11' />
    <nd ref='-12' />
    <nd ref='-13' />
    <nd ref='-14' />
    <nd ref='-15' />
    <nd ref='-16' />
    <nd ref='-17' />
    <nd ref='-18' />
    <nd ref='-19' />
    <nd ref='-20' />
    <nd ref='-21' />
    <nd ref='-22' />
    <nd ref='-23' />
    <tag k="OSM_ID" v="52161721"/>
  </way>
  <node id='-25' visible='true' lat='42.3518948' lon='20.058799' />
  <node id='-26' visible='true' lat='42.3520305' lon='20.058825' />
  <way id='-27' visible='true'>
    <nd ref='-25' />
    <nd ref='-26' />
    <tag k="OSM_ID" v="52161724"/>
  </way>
  <node id='-28' visible='true' lat='42.3314147' lon='20.0627972' />
  <node id='-29' visible='true' lat='42.3315922' lon='20.0623764' />
  <node id='-30' visible='true' lat='42.3317151' lon='20.0610782' />
  <node id='-31' visible='true' lat='42.3317716' lon='20.0594864' />
  <way id='-32' visible='true'>
    <nd ref='-28' />
    <nd ref='-29' />
    <nd ref='-30' />
    <nd ref='-31' />
    <tag k="OSM_ID" v="52161723"/>
  </way>
  <node id='-33' visible='true' lat='42.33844' lon='20.0663733' />
  <node id='-34' visible='true' lat='42.3392322' lon='20.066915' />
  <node id='-35' visible='true' lat='42.3398032' lon='20.0676272' />
  <node id='-36' visible='true' lat='42.3404528' lon='20.068338' />
  <node id='-37' visible='true' lat='42.3410407' lon='20.0691981' />
  <node id='-38' visible='true' lat='42.3418702' lon='20.0707965' />
  <node id='-39' visible='true' lat='42.3424472' lon='20.07109' />
  <node id='-40' visible='true' lat='42.343032' lon='20.0715688' />
  <node id='-41' visible='true' lat='42.34332' lon='20.0722427' />
  <node id='-42' visible='true' lat='42.3433927' lon='20.0734496' />
  <node id='-43' visible='true' lat='42.3435453' lon='20.074237' />
  <way id='-44' visible='true'>
    <nd ref='-33' />
    <nd ref='-34' />
    <nd ref='-35' />
    <nd ref='-36' />
    <nd ref='-37' />
    <nd ref='-38' />
    <nd ref='-39' />
    <nd ref='-40' />
    <nd ref='-41' />
    <nd ref='-42' />
    <nd ref='-43' />
    <tag k="OSM_ID" v="52161725"/>
  </way>
  <node id='-45' visible='true' lat='42.3430364' lon='20.0890889' />
  <node id='-46' visible='true' lat='42.3423794' lon='20.0888102' />
  <node id='-47' visible='true' lat='42.3410438' lon='20.0886598' />
  <node id='-48' visible='true' lat='42.3397699' lon='20.0884028' />
  <node id='-49' visible='true' lat='42.3392519' lon='20.0884102' />
  <node id='-50' visible='true' lat='42.3386726' lon='20.0886305' />
  <node id='-51' visible='true' lat='42.338267' lon='20.0889543' />
  <node id='-52' visible='true' lat='42.3379683' lon='20.088895' />
  <node id='-53' visible='true' lat='42.3370582' lon='20.0885883' />
  <node id='-54' visible='true' lat='42.3361754' lon='20.088135' />
  <node id='-55' visible='true' lat='42.3358569' lon='20.0875887' />
  <node id='-56' visible='true' lat='42.3354752' lon='20.0869797' />
  <node id='-57' visible='true' lat='42.3349539' lon='20.0865635' />
  <node id='-58' visible='true' lat='42.3342772' lon='20.0863614' />
  <node id='-59' visible='true' lat='42.3340073' lon='20.0860051' />
  <node id='-60' visible='true' lat='42.3334528' lon='20.0853773' />
  <node id='-61' visible='true' lat='42.3328366' lon='20.0848526' />
  <node id='-62' visible='true' lat='42.3314226' lon='20.0844069' />
  <way id='-63' visible='true'>
    <nd ref='-45' />
    <nd ref='-46' />
    <nd ref='-47' />
    <nd ref='-48' />
    <nd ref='-49' />
    <nd ref='-50' />
    <nd ref='-51' />
    <nd ref='-52' />
    <nd ref='-53' />
    <nd ref='-54' />
    <nd ref='-55' />
    <nd ref='-56' />
    <nd ref='-57' />
    <nd ref='-58' />
    <nd ref='-59' />
    <nd ref='-60' />
    <nd ref='-61' />
    <nd ref='-62' />
    <tag k="OSM_ID" v="52161722"/>
  </way>
</osm>
