<?xml version='1.0'?>
<osm version='0.5' generator='shp2osm.pl'>
  <node id='-1' visible='true' lat='41.1239075' lon='20.1167516' />
  <node id='-2' visible='true' lat='41.1233715' lon='20.1152388' />
  <node id='-3' visible='true' lat='41.1223616' lon='20.1123246' />
  <node id='-4' visible='true' lat='41.1219825' lon='20.1111333' />
  <node id='-5' visible='true' lat='41.1218671' lon='20.1103337' />
  <node id='-6' visible='true' lat='41.1217723' lon='20.1072093' />
  <node id='-7' visible='true' lat='41.1215497' lon='20.1059191' />
  <node id='-8' visible='true' lat='41.1209272' lon='20.1046082' />
  <node id='-9' visible='true' lat='41.1204614' lon='20.1039157' />
  <node id='-10' visible='true' lat='41.1196825' lon='20.1029224' />
  <node id='-11' visible='true' lat='41.1190477' lon='20.1020815' />
  <node id='-12' visible='true' lat='41.1185571' lon='20.1011747' />
  <node id='-13' visible='true' lat='41.117741' lon='20.0997154' />
  <node id='-14' visible='true' lat='41.1174648' lon='20.0992168' />
  <node id='-15' visible='true' lat='41.1165333' lon='20.0974608' />
  <node id='-16' visible='true' lat='41.1157666' lon='20.0964962' />
  <node id='-17' visible='true' lat='41.1139694' lon='20.0951112' />
  <node id='-18' visible='true' lat='41.1124442' lon='20.0939323' />
  <way id='-19' visible='true'>
    <nd ref='-1' />
    <nd ref='-2' />
    <nd ref='-3' />
    <nd ref='-4' />
    <nd ref='-5' />
    <nd ref='-6' />
    <nd ref='-7' />
    <nd ref='-8' />
    <nd ref='-9' />
    <nd ref='-10' />
    <nd ref='-11' />
    <nd ref='-12' />
    <nd ref='-13' />
    <nd ref='-14' />
    <nd ref='-15' />
    <nd ref='-16' />
    <nd ref='-17' />
    <nd ref='-18' />
    <tag k="OSM_ID" v="48732673"/>
  </way>
  <node id='-20' visible='true' lat='41.1045458' lon='20.0611603' />
  <node id='-21' visible='true' lat='41.1055089' lon='20.0628929' />
  <way id='-22' visible='true'>
    <nd ref='-20' />
    <nd ref='-21' />
    <tag k="OSM_ID" v="48732671"/>
  </way>
  <node id='-23' visible='true' lat='41.1055089' lon='20.0628929' />
  <node id='-24' visible='true' lat='41.1061666' lon='20.0641651' />
  <node id='-25' visible='true' lat='41.106585' lon='20.0652459' />
  <node id='-26' visible='true' lat='41.1069037' lon='20.0662507' />
  <node id='-27' visible='true' lat='41.1072788' lon='20.0675811' />
  <node id='-28' visible='true' lat='41.1080679' lon='20.070465' />
  <way id='-29' visible='true'>
    <nd ref='-23' />
    <nd ref='-24' />
    <nd ref='-25' />
    <nd ref='-26' />
    <nd ref='-27' />
    <nd ref='-28' />
    <tag k="OSM_ID" v="48732672"/>
  </way>
  <node id='-30' visible='true' lat='41.1083588' lon='20.0712033' />
  <node id='-31' visible='true' lat='41.1081862' lon='20.070765' />
  <node id='-32' visible='true' lat='41.1080679' lon='20.070465' />
  <way id='-33' visible='true'>
    <nd ref='-30' />
    <nd ref='-31' />
    <nd ref='-32' />
    <tag k="OSM_ID" v="37230390"/>
  </way>
  <node id='-34' visible='true' lat='41.1080679' lon='20.070465' />
  <node id='-35' visible='true' lat='41.108172' lon='20.0709279' />
  <node id='-36' visible='true' lat='41.1082102' lon='20.0711003' />
  <node id='-37' visible='true' lat='41.1082102' lon='20.0712632' />
  <way id='-38' visible='true'>
    <nd ref='-34' />
    <nd ref='-35' />
    <nd ref='-36' />
    <nd ref='-37' />
    <tag k="OSM_ID" v="31251402"/>
  </way>
  <node id='-39' visible='true' lat='41.1083588' lon='20.0712033' />
  <node id='-40' visible='true' lat='41.1082748' lon='20.0712033' />
  <node id='-41' visible='true' lat='41.1082102' lon='20.0712632' />
  <node id='-42' visible='true' lat='41.1081842' lon='20.0713578' />
  <node id='-43' visible='true' lat='41.1081777' lon='20.071435' />
  <node id='-44' visible='true' lat='41.1082036' lon='20.0715207' />
  <node id='-45' visible='true' lat='41.1082619' lon='20.0715722' />
  <node id='-46' visible='true' lat='41.1083265' lon='20.071598' />
  <node id='-47' visible='true' lat='41.1083848' lon='20.0715809' />
  <node id='-48' visible='true' lat='41.1084365' lon='20.0715122' />
  <node id='-49' visible='true' lat='41.1084624' lon='20.0714177' />
  <node id='-50' visible='true' lat='41.1084624' lon='20.0713234' />
  <node id='-51' visible='true' lat='41.1084107' lon='20.0712375' />
  <node id='-52' visible='true' lat='41.1083588' lon='20.0712033' />
  <way id='-53' visible='true'>
    <nd ref='-39' />
    <nd ref='-40' />
    <nd ref='-41' />
    <nd ref='-42' />
    <nd ref='-43' />
    <nd ref='-44' />
    <nd ref='-45' />
    <nd ref='-46' />
    <nd ref='-47' />
    <nd ref='-48' />
    <nd ref='-49' />
    <nd ref='-50' />
    <nd ref='-51' />
    <nd ref='-52' />
    <tag k="OSM_ID" v="37230391"/>
  </way>
  <node id='-54' visible='true' lat='41.1081842' lon='20.0713578' />
  <node id='-55' visible='true' lat='41.1080189' lon='20.0715469' />
  <node id='-56' visible='true' lat='41.107755' lon='20.0718524' />
  <way id='-57' visible='true'>
    <nd ref='-54' />
    <nd ref='-55' />
    <nd ref='-56' />
    <tag k="OSM_ID" v="37230432"/>
  </way>
  <node id='-58' visible='true' lat='41.107755' lon='20.0718524' />
  <node id='-59' visible='true' lat='41.1082036' lon='20.0715207' />
  <node id='-60' visible='true' lat='41.1081579' lon='20.0767853' />
  <node id='-61' visible='true' lat='41.1081629' lon='20.082104' />
  <node id='-62' visible='true' lat='41.1081625' lon='20.0865329' />
  <node id='-63' visible='true' lat='41.108157' lon='20.0904111' />
  <way id='-64' visible='true'>
    <nd ref='-58' />
    <nd ref='-59' />
    <nd ref='-60' />
    <nd ref='-61' />
    <nd ref='-62' />
    <nd ref='-63' />
    <tag k="OSM_ID" v="31251401"/>
  </way>
  <node id='-65' visible='true' lat='41.1082619' lon='20.0715722' />
  <node id='-66' visible='true' lat='41.1083331' lon='20.0717181' />
  <node id='-67' visible='true' lat='41.108417' lon='20.0719414' />
  <way id='-68' visible='true'>
    <nd ref='-65' />
    <nd ref='-66' />
    <nd ref='-67' />
    <tag k="OSM_ID" v="37230422"/>
  </way>
  <node id='-69' visible='true' lat='41.108417' lon='20.0719414' />
  <node id='-70' visible='true' lat='41.1083913' lon='20.0717268' />
  <node id='-71' visible='true' lat='41.1083848' lon='20.0715809' />
  <way id='-72' visible='true'>
    <nd ref='-69' />
    <nd ref='-70' />
    <nd ref='-71' />
    <tag k="OSM_ID" v="31251348"/>
  </way>
  <node id='-73' visible='true' lat='41.107755' lon='20.0718524' />
  <node id='-74' visible='true' lat='41.1065249' lon='20.073287' />
  <node id='-75' visible='true' lat='41.105131' lon='20.075485' />
  <node id='-76' visible='true' lat='41.104953' lon='20.0763339' />
  <node id='-77' visible='true' lat='41.1048669' lon='20.078872' />
  <node id='-78' visible='true' lat='41.1047105' lon='20.0813872' />
  <way id='-79' visible='true'>
    <nd ref='-73' />
    <nd ref='-74' />
    <nd ref='-75' />
    <nd ref='-76' />
    <nd ref='-77' />
    <nd ref='-78' />
    <tag k="OSM_ID" v="31251403"/>
  </way>
  <node id='-80' visible='true' lat='41.108417' lon='20.0719414' />
  <node id='-81' visible='true' lat='41.108803' lon='20.0733454' />
  <node id='-82' visible='true' lat='41.1093444' lon='20.0752389' />
  <node id='-83' visible='true' lat='41.1096377' lon='20.0761186' />
  <node id='-84' visible='true' lat='41.1099541' lon='20.0771294' />
  <node id='-85' visible='true' lat='41.1102781' lon='20.0783562' />
  <node id='-86' visible='true' lat='41.1104093' lon='20.0790198' />
  <node id='-87' visible='true' lat='41.1104324' lon='20.0793901' />
  <node id='-88' visible='true' lat='41.1104941' lon='20.0795752' />
  <node id='-89' visible='true' lat='41.110687' lon='20.0798299' />
  <node id='-90' visible='true' lat='41.1108181' lon='20.0802003' />
  <node id='-91' visible='true' lat='41.1110864' lon='20.0811087' />
  <node id='-92' visible='true' lat='41.1113043' lon='20.0818592' />
  <node id='-93' visible='true' lat='41.1117594' lon='20.0832942' />
  <node id='-94' visible='true' lat='41.1119832' lon='20.0841352' />
  <node id='-95' visible='true' lat='41.1119987' lon='20.0843591' />
  <node id='-96' visible='true' lat='41.1120514' lon='20.0845452' />
  <node id='-97' visible='true' lat='41.1121453' lon='20.084876' />
  <node id='-98' visible='true' lat='41.1122996' lon='20.0850535' />
  <node id='-99' visible='true' lat='41.1124231' lon='20.0856476' />
  <node id='-100' visible='true' lat='41.1126622' lon='20.0865118' />
  <node id='-101' visible='true' lat='41.1127066' lon='20.0866951' />
  <node id='-102' visible='true' lat='41.1129014' lon='20.0874993' />
  <node id='-103' visible='true' lat='41.1129533' lon='20.0876784' />
  <node id='-104' visible='true' lat='41.1129675' lon='20.0877277' />
  <node id='-105' visible='true' lat='41.1131512' lon='20.0883627' />
  <node id='-106' visible='true' lat='41.1133413' lon='20.0890194' />
  <node id='-107' visible='true' lat='41.1135948' lon='20.0898247' />
  <node id='-108' visible='true' lat='41.1136965' lon='20.0901478' />
  <node id='-109' visible='true' lat='41.1139117' lon='20.0908315' />
  <node id='-110' visible='true' lat='41.113997' lon='20.0911025' />
  <way id='-111' visible='true'>
    <nd ref='-80' />
    <nd ref='-81' />
    <nd ref='-82' />
    <nd ref='-83' />
    <nd ref='-84' />
    <nd ref='-85' />
    <nd ref='-86' />
    <nd ref='-87' />
    <nd ref='-88' />
    <nd ref='-89' />
    <nd ref='-90' />
    <nd ref='-91' />
    <nd ref='-92' />
    <nd ref='-93' />
    <nd ref='-94' />
    <nd ref='-95' />
    <nd ref='-96' />
    <nd ref='-97' />
    <nd ref='-98' />
    <nd ref='-99' />
    <nd ref='-100' />
    <nd ref='-101' />
    <nd ref='-102' />
    <nd ref='-103' />
    <nd ref='-104' />
    <nd ref='-105' />
    <nd ref='-106' />
    <nd ref='-107' />
    <nd ref='-108' />
    <nd ref='-109' />
    <nd ref='-110' />
    <tag k="OSM_ID" v="37230451"/>
  </way>
  <node id='-112' visible='true' lat='41.1056789' lon='20.0746208' />
  <node id='-113' visible='true' lat='41.1067778' lon='20.0754117' />
  <node id='-114' visible='true' lat='41.1081579' lon='20.0767853' />
  <node id='-115' visible='true' lat='41.1089766' lon='20.0776004' />
  <node id='-116' visible='true' lat='41.1104093' lon='20.0790198' />
  <way id='-117' visible='true'>
    <nd ref='-112' />
    <nd ref='-113' />
    <nd ref='-114' />
    <nd ref='-115' />
    <nd ref='-116' />
    <tag k="OSM_ID" v="33262534"/>
  </way>
  <node id='-118' visible='true' lat='41.1154196' lon='20.0903796' />
  <node id='-119' visible='true' lat='41.1153332' lon='20.0900938' />
  <node id='-120' visible='true' lat='41.1151667' lon='20.0895432' />
  <node id='-121' visible='true' lat='41.1149935' lon='20.0889707' />
  <node id='-122' visible='true' lat='41.1147069' lon='20.0880225' />
  <node id='-123' visible='true' lat='41.1146061' lon='20.0876893' />
  <node id='-124' visible='true' lat='41.1143844' lon='20.086956' />
  <node id='-125' visible='true' lat='41.11433' lon='20.0867524' />
  <node id='-126' visible='true' lat='41.1142066' lon='20.0862908' />
  <node id='-127' visible='true' lat='41.1140754' lon='20.085858' />
  <node id='-128' visible='true' lat='41.1138599' lon='20.085146' />
  <node id='-129' visible='true' lat='41.1134647' lon='20.0838411' />
  <node id='-130' visible='true' lat='41.1132946' lon='20.0832791' />
  <node id='-131' visible='true' lat='41.1132536' lon='20.083144' />
  <node id='-132' visible='true' lat='41.1132124' lon='20.0830076' />
  <node id='-133' visible='true' lat='41.1131503' lon='20.0828096' />
  <node id='-134' visible='true' lat='41.1130252' lon='20.0824101' />
  <node id='-135' visible='true' lat='41.1128715' lon='20.0819188' />
  <node id='-136' visible='true' lat='41.1124768' lon='20.0806581' />
  <node id='-137' visible='true' lat='41.1118868' lon='20.0796603' />
  <way id='-138' visible='true'>
    <nd ref='-118' />
    <nd ref='-119' />
    <nd ref='-120' />
    <nd ref='-121' />
    <nd ref='-122' />
    <nd ref='-123' />
    <nd ref='-124' />
    <nd ref='-125' />
    <nd ref='-126' />
    <nd ref='-127' />
    <nd ref='-128' />
    <nd ref='-129' />
    <nd ref='-130' />
    <nd ref='-131' />
    <nd ref='-132' />
    <nd ref='-133' />
    <nd ref='-134' />
    <nd ref='-135' />
    <nd ref='-136' />
    <nd ref='-137' />
    <tag k="OSM_ID" v="33262533"/>
  </way>
  <node id='-139' visible='true' lat='41.1047105' lon='20.0813872' />
  <node id='-140' visible='true' lat='41.1044572' lon='20.081686' />
  <node id='-141' visible='true' lat='41.104387' lon='20.081769' />
  <node id='-142' visible='true' lat='41.1010319' lon='20.0814599' />
  <node id='-143' visible='true' lat='41.0999189' lon='20.080998' />
  <node id='-144' visible='true' lat='41.0992469' lon='20.0811059' />
  <node id='-145' visible='true' lat='41.0988309' lon='20.0813936' />
  <way id='-146' visible='true'>
    <nd ref='-139' />
    <nd ref='-140' />
    <nd ref='-141' />
    <nd ref='-142' />
    <nd ref='-143' />
    <nd ref='-144' />
    <nd ref='-145' />
    <tag k="OSM_ID" v="42901398"/>
  </way>
  <node id='-147' visible='true' lat='41.0988309' lon='20.0813936' />
  <node id='-148' visible='true' lat='41.0970999' lon='20.0826148' />
  <way id='-149' visible='true'>
    <nd ref='-147' />
    <nd ref='-148' />
    <tag k="OSM_ID" v="31251116"/>
  </way>
  <node id='-150' visible='true' lat='41.1114658' lon='20.0823691' />
  <node id='-151' visible='true' lat='41.1091357' lon='20.0821819' />
  <node id='-152' visible='true' lat='41.1081629' lon='20.082104' />
  <node id='-153' visible='true' lat='41.1046943' lon='20.0818258' />
  <way id='-154' visible='true'>
    <nd ref='-150' />
    <nd ref='-151' />
    <nd ref='-152' />
    <nd ref='-153' />
    <tag k="OSM_ID" v="33197012"/>
  </way>
  <node id='-155' visible='true' lat='41.1115874' lon='20.0827527' />
  <node id='-156' visible='true' lat='41.1108923' lon='20.0835548' />
  <node id='-157' visible='true' lat='41.1108455' lon='20.0836031' />
  <node id='-158' visible='true' lat='41.1105287' lon='20.0839303' />
  <node id='-159' visible='true' lat='41.1098173' lon='20.0845525' />
  <node id='-160' visible='true' lat='41.1090414' lon='20.085411' />
  <node id='-161' visible='true' lat='41.1081625' lon='20.0865329' />
  <node id='-162' visible='true' lat='41.1076588' lon='20.0872133' />
  <node id='-163' visible='true' lat='41.1072871' lon='20.0876425' />
  <node id='-164' visible='true' lat='41.1069072' lon='20.0882004' />
  <node id='-165' visible='true' lat='41.1064452' lon='20.0886679' />
  <way id='-166' visible='true'>
    <nd ref='-155' />
    <nd ref='-156' />
    <nd ref='-157' />
    <nd ref='-158' />
    <nd ref='-159' />
    <nd ref='-160' />
    <nd ref='-161' />
    <nd ref='-162' />
    <nd ref='-163' />
    <nd ref='-164' />
    <nd ref='-165' />
    <tag k="OSM_ID" v="33197016"/>
  </way>
  <node id='-167' visible='true' lat='41.1198764' lon='20.0972134' />
  <node id='-168' visible='true' lat='41.1194604' lon='20.0962148' />
  <node id='-169' visible='true' lat='41.1189674' lon='20.095185' />
  <node id='-170' visible='true' lat='41.1188252' lon='20.094874' />
  <node id='-171' visible='true' lat='41.1181995' lon='20.0935057' />
  <node id='-172' visible='true' lat='41.1180036' lon='20.0931689' />
  <node id='-173' visible='true' lat='41.11789' lon='20.0929737' />
  <node id='-174' visible='true' lat='41.1175287' lon='20.0923523' />
  <node id='-175' visible='true' lat='41.1169143' lon='20.0912796' />
  <node id='-176' visible='true' lat='41.1165789' lon='20.0905607' />
  <node id='-177' visible='true' lat='41.1163521' lon='20.0898864' />
  <node id='-178' visible='true' lat='41.1158596' lon='20.0882593' />
  <node id='-179' visible='true' lat='41.1156938' lon='20.0878356' />
  <node id='-180' visible='true' lat='41.1155845' lon='20.0876854' />
  <node id='-181' visible='true' lat='41.1152364' lon='20.0873604' />
  <node id='-182' visible='true' lat='41.1142066' lon='20.0862908' />
  <way id='-183' visible='true'>
    <nd ref='-167' />
    <nd ref='-168' />
    <nd ref='-169' />
    <nd ref='-170' />
    <nd ref='-171' />
    <nd ref='-172' />
    <nd ref='-173' />
    <nd ref='-174' />
    <nd ref='-175' />
    <nd ref='-176' />
    <nd ref='-177' />
    <nd ref='-178' />
    <nd ref='-179' />
    <nd ref='-180' />
    <nd ref='-181' />
    <nd ref='-182' />
    <tag k="OSM_ID" v="33622287"/>
  </way>
  <node id='-184' visible='true' lat='41.1142066' lon='20.0862908' />
  <node id='-185' visible='true' lat='41.1152364' lon='20.0873604' />
  <node id='-186' visible='true' lat='41.1156938' lon='20.0878356' />
  <node id='-187' visible='true' lat='41.1158458' lon='20.0883095' />
  <node id='-188' visible='true' lat='41.1161268' lon='20.0891848' />
  <node id='-189' visible='true' lat='41.1163521' lon='20.0898864' />
  <node id='-190' visible='true' lat='41.1164618' lon='20.0902281' />
  <node id='-191' visible='true' lat='41.1166314' lon='20.0907647' />
  <node id='-192' visible='true' lat='41.1187577' lon='20.0947445' />
  <node id='-193' visible='true' lat='41.1198764' lon='20.0972134' />
  <node id='-194' visible='true' lat='41.1199883' lon='20.0975928' />
  <node id='-195' visible='true' lat='41.1201094' lon='20.0980035' />
  <node id='-196' visible='true' lat='41.1204171' lon='20.0990463' />
  <node id='-197' visible='true' lat='41.1206095' lon='20.099698' />
  <node id='-198' visible='true' lat='41.1211727' lon='20.1014109' />
  <node id='-199' visible='true' lat='41.1213656' lon='20.1017581' />
  <node id='-200' visible='true' lat='41.1214119' lon='20.1019046' />
  <node id='-201' visible='true' lat='41.1215662' lon='20.1025683' />
  <node id='-202' visible='true' lat='41.1215449' lon='20.1027266' />
  <node id='-203' visible='true' lat='41.1214018' lon='20.1030081' />
  <way id='-204' visible='true'>
    <nd ref='-184' />
    <nd ref='-185' />
    <nd ref='-186' />
    <nd ref='-187' />
    <nd ref='-188' />
    <nd ref='-189' />
    <nd ref='-190' />
    <nd ref='-191' />
    <nd ref='-192' />
    <nd ref='-193' />
    <nd ref='-194' />
    <nd ref='-195' />
    <nd ref='-196' />
    <nd ref='-197' />
    <nd ref='-198' />
    <nd ref='-199' />
    <nd ref='-200' />
    <nd ref='-201' />
    <nd ref='-202' />
    <nd ref='-203' />
    <tag k="OSM_ID" v="31251352"/>
  </way>
  <node id='-205' visible='true' lat='41.1136314' lon='20.0899414' />
  <node id='-206' visible='true' lat='41.1130094' lon='20.0902391' />
  <node id='-207' visible='true' lat='41.1120382' lon='20.0907043' />
  <node id='-208' visible='true' lat='41.111935' lon='20.090754' />
  <node id='-209' visible='true' lat='41.111693' lon='20.0908781' />
  <node id='-210' visible='true' lat='41.111569' lon='20.0909419' />
  <node id='-211' visible='true' lat='41.1115281' lon='20.0909629' />
  <node id='-212' visible='true' lat='41.1112025' lon='20.0911301' />
  <node id='-213' visible='true' lat='41.1110248' lon='20.0912213' />
  <node id='-214' visible='true' lat='41.1108387' lon='20.0913171' />
  <node id='-215' visible='true' lat='41.1106843' lon='20.0913964' />
  <node id='-216' visible='true' lat='41.110526' lon='20.0914779' />
  <node id='-217' visible='true' lat='41.1099431' lon='20.0917774' />
  <way id='-218' visible='true'>
    <nd ref='-205' />
    <nd ref='-206' />
    <nd ref='-207' />
    <nd ref='-208' />
    <nd ref='-209' />
    <nd ref='-210' />
    <nd ref='-211' />
    <nd ref='-212' />
    <nd ref='-213' />
    <nd ref='-214' />
    <nd ref='-215' />
    <nd ref='-216' />
    <nd ref='-217' />
    <tag k="OSM_ID" v="33197020"/>
  </way>
  <node id='-219' visible='true' lat='41.1124442' lon='20.0939323' />
  <node id='-220' visible='true' lat='41.1122257' lon='20.093751' />
  <way id='-221' visible='true'>
    <nd ref='-219' />
    <nd ref='-220' />
    <tag k="OSM_ID" v="48732674"/>
  </way>
  <node id='-222' visible='true' lat='41.1194604' lon='20.0962148' />
  <node id='-223' visible='true' lat='41.1180136' lon='20.097159' />
  <node id='-224' visible='true' lat='41.1173913' lon='20.0975345' />
  <node id='-225' visible='true' lat='41.1171731' lon='20.0975882' />
  <node id='-226' visible='true' lat='41.1167528' lon='20.0975238' />
  <way id='-227' visible='true'>
    <nd ref='-222' />
    <nd ref='-223' />
    <nd ref='-224' />
    <nd ref='-225' />
    <nd ref='-226' />
    <tag k="OSM_ID" v="33622369"/>
  </way>
  <node id='-228' visible='true' lat='41.1198764' lon='20.0972134' />
  <node id='-229' visible='true' lat='41.1198679' lon='20.0971024' />
  <node id='-230' visible='true' lat='41.1206095' lon='20.099698' />
  <node id='-231' visible='true' lat='41.1211727' lon='20.1014109' />
  <node id='-232' visible='true' lat='41.1213656' lon='20.1017581' />
  <node id='-233' visible='true' lat='41.1214119' lon='20.1019046' />
  <node id='-234' visible='true' lat='41.1215662' lon='20.1025683' />
  <node id='-235' visible='true' lat='41.1215449' lon='20.1027266' />
  <node id='-236' visible='true' lat='41.1214018' lon='20.1030081' />
  <way id='-237' visible='true'>
    <nd ref='-228' />
    <nd ref='-229' />
    <nd ref='-230' />
    <nd ref='-231' />
    <nd ref='-232' />
    <nd ref='-233' />
    <nd ref='-234' />
    <nd ref='-235' />
    <nd ref='-236' />
    <tag k="OSM_ID" v="33622283"/>
  </way>
</osm>
