<?xml version='1.0'?>
<osm version='0.5' generator='shp2osm.pl'>
  <node id='-1' visible='true' lat='42.2147539546489' lon='19.4369021807498' />
  <node id='-2' visible='true' lat='42.214860160361' lon='19.4370629468069' />
  <way id='-3' visible='true'>
    <nd ref='-1' />
    <nd ref='-2' />
    <tag k="ID" v="7966.000"/>
    <tag k="CATEGORY" v="5"/>
    <tag k="SHAPE_LE_1" v="17.763"/>
    <tag k="WAY_TYPE" v="Dwelling Area Road"/>
    <tag k="ET_ID" v="7284"/>
    <tag k="CAT2" v="50"/>
    <tag k="SHAPE_LENG" v="0.000"/>
  </way>
  <node id='-4' visible='true' lat='42.2141874090552' lon='19.43604459798' />
  <node id='-5' visible='true' lat='42.2147539546489' lon='19.4369021807498' />
  <way id='-6' visible='true'>
    <nd ref='-4' />
    <nd ref='-5' />
    <tag k="ID" v="7967.000"/>
    <tag k="CATEGORY" v="5"/>
    <tag k="SHAPE_LE_1" v="94.756"/>
    <tag k="ET_ID" v="7285"/>
    <tag k="WAY_TYPE" v="Dwelling Area Road"/>
    <tag k="SHAPE_LENG" v="0.000"/>
    <tag k="CAT2" v="50"/>
  </way>
  <node id='-7' visible='true' lat='42.2137868675755' lon='19.435288906313' />
  <node id='-8' visible='true' lat='42.2141874090552' lon='19.43604459798' />
  <way id='-9' visible='true'>
    <nd ref='-7' />
    <nd ref='-8' />
    <tag k="ID" v="7968.000"/>
    <tag k="CATEGORY" v="5"/>
    <tag k="SHAPE_LE_1" v="76.653"/>
    <tag k="ET_ID" v="7286"/>
    <tag k="WAY_TYPE" v="Dwelling Area Road"/>
    <tag k="SHAPE_LENG" v="0.000"/>
    <tag k="CAT2" v="50"/>
  </way>
  <node id='-10' visible='true' lat='42.2133841834372' lon='19.4356513303703' />
  <node id='-11' visible='true' lat='42.2110333919842' lon='19.4379262989834' />
  <way id='-12' visible='true'>
    <nd ref='-10' />
    <nd ref='-11' />
    <tag k="ID" v="7969.000"/>
    <tag k="CATEGORY" v="5"/>
    <tag k="SHAPE_LE_1" v="321.744"/>
    <tag k="ET_ID" v="7287"/>
    <tag k="WAY_TYPE" v="Dwelling Area Road"/>
    <tag k="SHAPE_LENG" v="0.000"/>
    <tag k="CAT2" v="50"/>
  </way>
  <node id='-13' visible='true' lat='42.2098074630265' lon='19.439076182181' />
  <node id='-14' visible='true' lat='42.2094507556757' lon='19.4393904382327' />
  <node id='-15' visible='true' lat='42.2090786336136' lon='19.4397798458286' />
  <way id='-16' visible='true'>
    <nd ref='-13' />
    <nd ref='-14' />
    <nd ref='-15' />
    <tag k="ID" v="7970.000"/>
    <tag k="CATEGORY" v="5"/>
    <tag k="SHAPE_LE_1" v="99.756"/>
    <tag k="ET_ID" v="7288"/>
    <tag k="WAY_TYPE" v="Dwelling Area Road"/>
    <tag k="SHAPE_LENG" v="0.000"/>
    <tag k="CAT2" v="50"/>
  </way>
  <node id='-17' visible='true' lat='42.2110333919842' lon='19.4379262989834' />
  <node id='-18' visible='true' lat='42.2104677327023' lon='19.4384944698854' />
  <node id='-19' visible='true' lat='42.2098074630265' lon='19.439076182181' />
  <way id='-20' visible='true'>
    <nd ref='-17' />
    <nd ref='-18' />
    <nd ref='-19' />
    <tag k="ID" v="7971.000"/>
    <tag k="CATEGORY" v="5"/>
    <tag k="SHAPE_LE_1" v="166.125"/>
    <tag k="ET_ID" v="7289"/>
    <tag k="WAY_TYPE" v="Dwelling Area Road"/>
    <tag k="SHAPE_LENG" v="0.000"/>
    <tag k="CAT2" v="50"/>
  </way>
  <node id='-21' visible='true' lat='42.2101181016973' lon='19.450373310035' />
  <node id='-22' visible='true' lat='42.2105463511224' lon='19.451689143372' />
  <way id='-23' visible='true'>
    <nd ref='-21' />
    <nd ref='-22' />
    <tag k="ID" v="7977.000"/>
    <tag k="CATEGORY" v="5"/>
    <tag k="SHAPE_LE_1" v="118.640"/>
    <tag k="ET_ID" v="7295"/>
    <tag k="WAY_TYPE" v="Dwelling Area Road"/>
    <tag k="SHAPE_LENG" v="0.000"/>
    <tag k="CAT2" v="50"/>
  </way>
  <node id='-24' visible='true' lat='42.2107582569833' lon='19.4402689939813' />
  <node id='-25' visible='true' lat='42.2109894989263' lon='19.4406025725585' />
  <node id='-26' visible='true' lat='42.2115670474168' lon='19.4416071961497' />
  <node id='-27' visible='true' lat='42.2119017973775' lon='19.4419509246215' />
  <node id='-28' visible='true' lat='42.2126245305226' lon='19.4425074207164' />
  <node id='-29' visible='true' lat='42.2131425418862' lon='19.4431801031526' />
  <way id='-30' visible='true'>
    <nd ref='-24' />
    <nd ref='-25' />
    <nd ref='-26' />
    <nd ref='-27' />
    <nd ref='-28' />
    <nd ref='-29' />
    <tag k="ID" v="7980.000"/>
    <tag k="CATEGORY" v="5"/>
    <tag k="SHAPE_LE_1" v="361.868"/>
    <tag k="ET_ID" v="7298"/>
    <tag k="WAY_TYPE" v="Dwelling Area Road"/>
    <tag k="SHAPE_LENG" v="0.000"/>
    <tag k="CAT2" v="50"/>
  </way>
  <node id='-31' visible='true' lat='42.2098074630265' lon='19.439076182181' />
  <node id='-32' visible='true' lat='42.2101056960135' lon='19.4393276584714' />
  <node id='-33' visible='true' lat='42.2107582569833' lon='19.4402689939813' />
  <way id='-34' visible='true'>
    <nd ref='-31' />
    <nd ref='-32' />
    <nd ref='-33' />
    <tag k="ID" v="7981.000"/>
    <tag k="CATEGORY" v="5"/>
    <tag k="SHAPE_LE_1" v="145.415"/>
    <tag k="ET_ID" v="7299"/>
    <tag k="WAY_TYPE" v="Dwelling Area Road"/>
    <tag k="SHAPE_LENG" v="0.000"/>
    <tag k="CAT2" v="50"/>
  </way>
  <node id='-35' visible='true' lat='42.2131425418862' lon='19.4431801031526' />
  <node id='-36' visible='true' lat='42.2134267432103' lon='19.4428396741008' />
  <way id='-37' visible='true'>
    <nd ref='-35' />
    <nd ref='-36' />
    <tag k="ID" v="11792.000"/>
    <tag k="CATEGORY" v="5"/>
    <tag k="SHAPE_LE_1" v="42.279"/>
    <tag k="ET_ID" v="11252"/>
    <tag k="WAY_TYPE" v="Dwelling Area Road"/>
    <tag k="SHAPE_LENG" v="0.000"/>
    <tag k="CAT2" v="50"/>
  </way>
  <node id='-38' visible='true' lat='42.2105463511224' lon='19.451689143372' />
  <node id='-39' visible='true' lat='42.2108029945634' lon='19.4524565552731' />
  <node id='-40' visible='true' lat='42.2109755793284' lon='19.4530786573881' />
  <way id='-41' visible='true'>
    <nd ref='-38' />
    <nd ref='-39' />
    <nd ref='-40' />
    <tag k="ID" v="11798.000"/>
    <tag k="CATEGORY" v="5"/>
    <tag k="SHAPE_LE_1" v="124.346"/>
    <tag k="ET_ID" v="11258"/>
    <tag k="WAY_TYPE" v="Dwelling Area Road"/>
    <tag k="SHAPE_LENG" v="0.000"/>
    <tag k="CAT2" v="50"/>
  </way>
  <node id='-42' visible='true' lat='42.2096453512863' lon='19.4522520397702' />
  <node id='-43' visible='true' lat='42.2105463511224' lon='19.451689143372' />
  <way id='-44' visible='true'>
    <nd ref='-42' />
    <nd ref='-43' />
    <tag k="ID" v="11799.000"/>
    <tag k="CATEGORY" v="5"/>
    <tag k="SHAPE_LE_1" v="110.373"/>
    <tag k="ET_ID" v="11259"/>
    <tag k="WAY_TYPE" v="Dwelling Area Road"/>
    <tag k="SHAPE_LENG" v="0.000"/>
    <tag k="CAT2" v="50"/>
  </way>
  <node id='-45' visible='true' lat='42.2034766560665' lon='19.4535105491799' />
  <node id='-46' visible='true' lat='42.2034804975261' lon='19.4534898491731' />
  <node id='-47' visible='true' lat='42.204677480134' lon='19.4519502736859' />
  <way id='-48' visible='true'>
    <nd ref='-45' />
    <nd ref='-46' />
    <nd ref='-47' />
    <tag k="ID" v="11800.000"/>
    <tag k="CATEGORY" v="5"/>
    <tag k="SHAPE_LE_1" v="185.770"/>
    <tag k="ET_ID" v="11260"/>
    <tag k="WAY_TYPE" v="Dwelling Area Road"/>
    <tag k="SHAPE_LENG" v="0.000"/>
    <tag k="CAT2" v="50"/>
  </way>
  <node id='-49' visible='true' lat='42.2034766560665' lon='19.4535105491799' />
  <node id='-50' visible='true' lat='42.2047134876554' lon='19.4546201880148' />
  <way id='-51' visible='true'>
    <nd ref='-49' />
    <nd ref='-50' />
    <tag k="ID" v="11801.000"/>
    <tag k="CATEGORY" v="5"/>
    <tag k="SHAPE_LE_1" v="165.179"/>
    <tag k="ET_ID" v="11261"/>
    <tag k="WAY_TYPE" v="Dwelling Area Road"/>
    <tag k="SHAPE_LENG" v="0.000"/>
    <tag k="CAT2" v="50"/>
  </way>
  <node id='-52' visible='true' lat='42.2090786336136' lon='19.4397798458286' />
  <node id='-53' visible='true' lat='42.2087866790773' lon='19.4400853523382' />
  <way id='-54' visible='true'>
    <nd ref='-52' />
    <nd ref='-53' />
    <tag k="ID" v="11807.000"/>
    <tag k="CATEGORY" v="5"/>
    <tag k="SHAPE_LE_1" v="41.096"/>
    <tag k="ET_ID" v="11267"/>
    <tag k="WAY_TYPE" v="Dwelling Area Road"/>
    <tag k="SHAPE_LENG" v="0.000"/>
    <tag k="CAT2" v="50"/>
  </way>
  <node id='-55' visible='true' lat='42.2110333919842' lon='19.4379262989834' />
  <node id='-56' visible='true' lat='42.2119323695327' lon='19.4380822893635' />
  <node id='-57' visible='true' lat='42.2126832910095' lon='19.4381627563433' />
  <node id='-58' visible='true' lat='42.2131990495671' lon='19.4382490199488' />
  <node id='-59' visible='true' lat='42.2136940532951' lon='19.4384514060023' />
  <way id='-60' visible='true'>
    <nd ref='-55' />
    <nd ref='-56' />
    <nd ref='-57' />
    <nd ref='-58' />
    <nd ref='-59' />
    <tag k="ID" v="11808.000"/>
    <tag k="CATEGORY" v="5"/>
    <tag k="SHAPE_LE_1" v="299.622"/>
    <tag k="ET_ID" v="11268"/>
    <tag k="WAY_TYPE" v="Dwelling Area Road"/>
    <tag k="SHAPE_LENG" v="0.000"/>
    <tag k="CAT2" v="50"/>
  </way>
  <node id='-61' visible='true' lat='42.2147539546489' lon='19.4369021807498' />
  <node id='-62' visible='true' lat='42.214077379656' lon='19.4378064941236' />
  <way id='-63' visible='true'>
    <nd ref='-61' />
    <nd ref='-62' />
    <tag k="ID" v="11809.000"/>
    <tag k="CATEGORY" v="5"/>
    <tag k="SHAPE_LE_1" v="105.965"/>
    <tag k="ET_ID" v="11269"/>
    <tag k="WAY_TYPE" v="Dwelling Area Road"/>
    <tag k="SHAPE_LENG" v="0.000"/>
    <tag k="CAT2" v="50"/>
  </way>
  <node id='-64' visible='true' lat='42.2141874090552' lon='19.43604459798' />
  <node id='-65' visible='true' lat='42.2156226233898' lon='19.4344447228667' />
  <node id='-66' visible='true' lat='42.2157564305089' lon='19.4347890761433' />
  <node id='-67' visible='true' lat='42.2158711195443' lon='19.4350842373191' />
  <node id='-68' visible='true' lat='42.2158354976741' lon='19.4354749146235' />
  <node id='-69' visible='true' lat='42.2157318147986' lon='19.4358587581781' />
  <node id='-70' visible='true' lat='42.2155840466428' lon='19.436204588429' />
  <node id='-71' visible='true' lat='42.215463444522' lon='19.4364128788572' />
  <node id='-72' visible='true' lat='42.2150629438153' lon='19.4368627019652' />
  <node id='-73' visible='true' lat='42.214860160361' lon='19.4370629468069' />
  <way id='-74' visible='true'>
    <nd ref='-64' />
    <nd ref='-65' />
    <nd ref='-66' />
    <nd ref='-67' />
    <nd ref='-68' />
    <nd ref='-69' />
    <nd ref='-70' />
    <nd ref='-71' />
    <nd ref='-72' />
    <nd ref='-73' />
    <tag k="ID" v="11810.000"/>
    <tag k="CATEGORY" v="5"/>
    <tag k="SHAPE_LE_1" v="473.585"/>
    <tag k="ET_ID" v="11270"/>
    <tag k="WAY_TYPE" v="Dwelling Area Road"/>
    <tag k="SHAPE_LENG" v="0.000"/>
    <tag k="CAT2" v="50"/>
  </way>
  <node id='-75' visible='true' lat='42.214860160361' lon='19.4370629468069' />
  <node id='-76' visible='true' lat='42.2149783619866' lon='19.4372418698777' />
  <node id='-77' visible='true' lat='42.2160710637377' lon='19.4389283878028' />
  <way id='-78' visible='true'>
    <nd ref='-75' />
    <nd ref='-76' />
    <nd ref='-77' />
    <tag k="ID" v="11811.000"/>
    <tag k="CATEGORY" v="5"/>
    <tag k="SHAPE_LE_1" v="204.538"/>
    <tag k="ET_ID" v="11271"/>
    <tag k="WAY_TYPE" v="Dwelling Area Road"/>
    <tag k="SHAPE_LENG" v="0.000"/>
    <tag k="CAT2" v="50"/>
  </way>
  <node id='-79' visible='true' lat='42.2080094614761' lon='19.458227103845' />
  <node id='-80' visible='true' lat='42.2082081136946' lon='19.4579471784699' />
  <way id='-81' visible='true'>
    <nd ref='-79' />
    <nd ref='-80' />
    <tag k="ID" v="55452.000"/>
    <tag k="CATEGORY" v="4"/>
    <tag k="SHAPE_LE_1" v="31.964"/>
    <tag k="ET_ID" v="51767"/>
    <tag k="WAY_TYPE" v="Village Road"/>
    <tag k="SHAPE_LENG" v="0.000"/>
    <tag k="CAT2" v="40"/>
  </way>
  <node id='-82' visible='true' lat='42.2112610313246' lon='19.4615480913152' />
  <node id='-83' visible='true' lat='42.2120894698697' lon='19.4624511886539' />
  <node id='-84' visible='true' lat='42.2124526639098' lon='19.4627501149564' />
  <node id='-85' visible='true' lat='42.2131426048801' lon='19.4633121810044' />
  <node id='-86' visible='true' lat='42.2135579957171' lon='19.4638516485476' />
  <node id='-87' visible='true' lat='42.2138521114307' lon='19.4643961945092' />
  <way id='-88' visible='true'>
    <nd ref='-82' />
    <nd ref='-83' />
    <nd ref='-84' />
    <nd ref='-85' />
    <nd ref='-86' />
    <nd ref='-87' />
    <tag k="ID" v="55454.000"/>
    <tag k="CATEGORY" v="4"/>
    <tag k="SHAPE_LE_1" v="375.130"/>
    <tag k="ET_ID" v="51769"/>
    <tag k="WAY_TYPE" v="Village Road"/>
    <tag k="SHAPE_LENG" v="0.000"/>
    <tag k="CAT2" v="40"/>
  </way>
  <node id='-89' visible='true' lat='42.2080094614761' lon='19.458227103845' />
  <node id='-90' visible='true' lat='42.2090910884939' lon='19.4592269178183' />
  <node id='-91' visible='true' lat='42.2095910547627' lon='19.4599840728411' />
  <node id='-92' visible='true' lat='42.2102207030955' lon='19.4606721481972' />
  <node id='-93' visible='true' lat='42.2107818185451' lon='19.4611201144868' />
  <node id='-94' visible='true' lat='42.2112610313246' lon='19.4615480913152' />
  <way id='-95' visible='true'>
    <nd ref='-89' />
    <nd ref='-90' />
    <nd ref='-91' />
    <nd ref='-92' />
    <nd ref='-93' />
    <nd ref='-94' />
    <tag k="ID" v="55455.000"/>
    <tag k="CATEGORY" v="4"/>
    <tag k="SHAPE_LE_1" v="455.987"/>
    <tag k="ET_ID" v="51770"/>
    <tag k="WAY_TYPE" v="Village Road"/>
    <tag k="SHAPE_LENG" v="0.000"/>
    <tag k="CAT2" v="40"/>
  </way>
  <node id='-96' visible='true' lat='42.2078965577061' lon='19.4467146567379' />
  <node id='-97' visible='true' lat='42.2077178109768' lon='19.448119831623' />
  <node id='-98' visible='true' lat='42.2076757377115' lon='19.4489003259929' />
  <node id='-99' visible='true' lat='42.2073683518881' lon='19.4495219639943' />
  <node id='-100' visible='true' lat='42.2068476324164' lon='19.4499362406578' />
  <node id='-101' visible='true' lat='42.2063450859578' lon='19.4503973003481' />
  <node id='-102' visible='true' lat='42.2060198360378' lon='19.4509957343' />
  <node id='-103' visible='true' lat='42.205865260532' lon='19.4512521711744' />
  <way id='-104' visible='true'>
    <nd ref='-96' />
    <nd ref='-97' />
    <nd ref='-98' />
    <nd ref='-99' />
    <nd ref='-100' />
    <nd ref='-101' />
    <nd ref='-102' />
    <nd ref='-103' />
    <tag k="ID" v="55505.000"/>
    <tag k="CATEGORY" v="4"/>
    <tag k="SHAPE_LE_1" v="467.357"/>
    <tag k="ET_ID" v="51820"/>
    <tag k="WAY_TYPE" v="Village Road"/>
    <tag k="SHAPE_LENG" v="0.000"/>
    <tag k="CAT2" v="40"/>
  </way>
  <node id='-105' visible='true' lat='42.205865260532' lon='19.4512521711744' />
  <node id='-106' visible='true' lat='42.2057452802019' lon='19.4514512163872' />
  <node id='-107' visible='true' lat='42.20545822851' lon='19.4521909216756' />
  <way id='-108' visible='true'>
    <nd ref='-105' />
    <nd ref='-106' />
    <nd ref='-107' />
    <tag k="ID" v="87140.000"/>
    <tag k="CATEGORY" v="4"/>
    <tag k="SHAPE_LE_1" v="90.089"/>
    <tag k="ET_ID" v="81927"/>
    <tag k="WAY_TYPE" v="Village Road"/>
    <tag k="SHAPE_LENG" v="0.000"/>
    <tag k="CAT2" v="40"/>
  </way>
  <node id='-109' visible='true' lat='42.2101181016973' lon='19.450373310035' />
  <node id='-110' visible='true' lat='42.2100480198509' lon='19.4488349893273' />
  <node id='-111' visible='true' lat='42.2098891964764' lon='19.4467507523621' />
  <node id='-112' visible='true' lat='42.2098244574816' lon='19.4455873837658' />
  <node id='-113' visible='true' lat='42.2096219378078' lon='19.4441911662255' />
  <node id='-114' visible='true' lat='42.2095948793175' lon='19.4434005442979' />
  <node id='-115' visible='true' lat='42.2096067300461' lon='19.443070545513' />
  <node id='-116' visible='true' lat='42.2097467542728' lon='19.4425615634088' />
  <node id='-117' visible='true' lat='42.2098574236447' lon='19.4422950830803' />
  <node id='-118' visible='true' lat='42.2105137545418' lon='19.4413337918964' />
  <node id='-119' visible='true' lat='42.2106534720573' lon='19.4408028211801' />
  <node id='-120' visible='true' lat='42.2107582569833' lon='19.4402689939813' />
  <way id='-121' visible='true'>
    <nd ref='-109' />
    <nd ref='-110' />
    <nd ref='-111' />
    <nd ref='-112' />
    <nd ref='-113' />
    <nd ref='-114' />
    <nd ref='-115' />
    <nd ref='-116' />
    <nd ref='-117' />
    <nd ref='-118' />
    <nd ref='-119' />
    <nd ref='-120' />
    <tag k="ID" v="87188.000"/>
    <tag k="CATEGORY" v="4"/>
    <tag k="SHAPE_LE_1" v="876.829"/>
    <tag k="ET_ID" v="81975"/>
    <tag k="WAY_TYPE" v="Village Road"/>
    <tag k="SHAPE_LENG" v="0.000"/>
    <tag k="CAT2" v="40"/>
  </way>
  <node id='-122' visible='true' lat='42.2157205909988' lon='19.4621787837827' />
  <node id='-123' visible='true' lat='42.2155998131776' lon='19.4614004657933' />
  <node id='-124' visible='true' lat='42.215337888381' lon='19.460131859269' />
  <node id='-125' visible='true' lat='42.2151797858875' lon='19.4593003836854' />
  <node id='-126' visible='true' lat='42.2148922827588' lon='19.4585599810884' />
  <node id='-127' visible='true' lat='42.2141282086996' lon='19.4575893894179' />
  <node id='-128' visible='true' lat='42.2134834044555' lon='19.4569895979749' />
  <node id='-129' visible='true' lat='42.2129193159093' lon='19.4563219138403' />
  <node id='-130' visible='true' lat='42.2126030001735' lon='19.4558680114292' />
  <node id='-131' visible='true' lat='42.2118433184254' lon='19.4548358128588' />
  <node id='-132' visible='true' lat='42.2115625987382' lon='19.4546008674037' />
  <node id='-133' visible='true' lat='42.2111249330464' lon='19.4545445106104' />
  <way id='-134' visible='true'>
    <nd ref='-122' />
    <nd ref='-123' />
    <nd ref='-124' />
    <nd ref='-125' />
    <nd ref='-126' />
    <nd ref='-127' />
    <nd ref='-128' />
    <nd ref='-129' />
    <nd ref='-130' />
    <nd ref='-131' />
    <nd ref='-132' />
    <nd ref='-133' />
    <tag k="ID" v="87189.000"/>
    <tag k="CATEGORY" v="4"/>
    <tag k="SHAPE_LE_1" v="858.538"/>
    <tag k="ET_ID" v="81976"/>
    <tag k="WAY_TYPE" v="Village Road"/>
    <tag k="SHAPE_LENG" v="0.000"/>
    <tag k="CAT2" v="40"/>
  </way>
  <node id='-135' visible='true' lat='42.2139354568284' lon='19.4608789853403' />
  <node id='-136' visible='true' lat='42.2131635750462' lon='19.4612234394554' />
  <node id='-137' visible='true' lat='42.2123985429244' lon='19.4613958822123' />
  <node id='-138' visible='true' lat='42.2112610313246' lon='19.4615480913152' />
  <way id='-139' visible='true'>
    <nd ref='-135' />
    <nd ref='-136' />
    <nd ref='-137' />
    <nd ref='-138' />
    <tag k="ID" v="87190.000"/>
    <tag k="CATEGORY" v="4"/>
    <tag k="SHAPE_LE_1" v="303.537"/>
    <tag k="ET_ID" v="81977"/>
    <tag k="WAY_TYPE" v="Village Road"/>
    <tag k="SHAPE_LENG" v="0.000"/>
    <tag k="CAT2" v="40"/>
  </way>
  <node id='-140' visible='true' lat='42.2157205909988' lon='19.4621787837827' />
  <node id='-141' visible='true' lat='42.2152878809146' lon='19.4625787192405' />
  <node id='-142' visible='true' lat='42.2150002823765' lon='19.4630473207129' />
  <node id='-143' visible='true' lat='42.2146034392826' lon='19.4638922547857' />
  <node id='-144' visible='true' lat='42.2142645201093' lon='19.4641862356102' />
  <node id='-145' visible='true' lat='42.2138521114307' lon='19.4643961945092' />
  <way id='-146' visible='true'>
    <nd ref='-140' />
    <nd ref='-141' />
    <nd ref='-142' />
    <nd ref='-143' />
    <nd ref='-144' />
    <nd ref='-145' />
    <tag k="ID" v="87191.000"/>
    <tag k="CATEGORY" v="4"/>
    <tag k="SHAPE_LE_1" v="284.853"/>
    <tag k="ET_ID" v="81978"/>
    <tag k="WAY_TYPE" v="Village Road"/>
    <tag k="SHAPE_LENG" v="0.000"/>
    <tag k="CAT2" v="40"/>
  </way>
  <node id='-147' visible='true' lat='42.2138521114307' lon='19.4643961945092' />
  <node id='-148' visible='true' lat='42.214026762779' lon='19.4647195546675' />
  <node id='-149' visible='true' lat='42.2143667155656' lon='19.4657224855338' />
  <node id='-150' visible='true' lat='42.214621821431' lon='19.4664856789822' />
  <node id='-151' visible='true' lat='42.2148775096425' lon='19.4672928250978' />
  <way id='-152' visible='true'>
    <nd ref='-147' />
    <nd ref='-148' />
    <nd ref='-149' />
    <nd ref='-150' />
    <nd ref='-151' />
    <tag k="ID" v="87192.000"/>
    <tag k="CATEGORY" v="4"/>
    <tag k="SHAPE_LE_1" v="265.621"/>
    <tag k="ET_ID" v="81979"/>
    <tag k="WAY_TYPE" v="Village Road"/>
    <tag k="SHAPE_LENG" v="0.000"/>
    <tag k="CAT2" v="40"/>
  </way>
  <node id='-153' visible='true' lat='42.2082081136946' lon='19.4579471784699' />
  <node id='-154' visible='true' lat='42.2083254156304' lon='19.4577818796873' />
  <way id='-155' visible='true'>
    <nd ref='-153' />
    <nd ref='-154' />
    <tag k="ID" v="87194.000"/>
    <tag k="CATEGORY" v="4"/>
    <tag k="SHAPE_LE_1" v="18.875"/>
    <tag k="ET_ID" v="81981"/>
    <tag k="WAY_TYPE" v="Village Road"/>
    <tag k="SHAPE_LENG" v="0.000"/>
    <tag k="CAT2" v="40"/>
  </way>
  <node id='-156' visible='true' lat='42.2001223712126' lon='19.4374305575958' />
  <node id='-157' visible='true' lat='42.2007331267947' lon='19.4381439041598' />
  <node id='-158' visible='true' lat='42.2007673217089' lon='19.4385101219539' />
  <node id='-159' visible='true' lat='42.2007622243984' lon='19.4388510921077' />
  <node id='-160' visible='true' lat='42.200543599423' lon='19.4392504497736' />
  <way id='-161' visible='true'>
    <nd ref='-156' />
    <nd ref='-157' />
    <nd ref='-158' />
    <nd ref='-159' />
    <nd ref='-160' />
    <tag k="ID" v="87203.000"/>
    <tag k="CATEGORY" v="4"/>
    <tag k="SHAPE_LE_1" v="189.503"/>
    <tag k="ET_ID" v="81990"/>
    <tag k="WAY_TYPE" v="Village Road"/>
    <tag k="SHAPE_LENG" v="0.000"/>
    <tag k="CAT2" v="40"/>
  </way>
  <node id='-162' visible='true' lat='42.2001223712126' lon='19.4374305575958' />
  <node id='-163' visible='true' lat='42.1994568633222' lon='19.4378016624149' />
  <node id='-164' visible='true' lat='42.1991786853743' lon='19.4379785434761' />
  <node id='-165' visible='true' lat='42.1987446918341' lon='19.4380459099805' />
  <node id='-166' visible='true' lat='42.1983091550143' lon='19.4379999633604' />
  <node id='-167' visible='true' lat='42.1974923829247' lon='19.4377744919034' />
  <node id='-168' visible='true' lat='42.1968161142327' lon='19.4375644573729' />
  <node id='-169' visible='true' lat='42.1966810696733' lon='19.4375677847089' />
  <way id='-170' visible='true'>
    <nd ref='-162' />
    <nd ref='-163' />
    <nd ref='-164' />
    <nd ref='-165' />
    <nd ref='-166' />
    <nd ref='-167' />
    <nd ref='-168' />
    <nd ref='-169' />
    <tag k="ID" v="156877.000"/>
    <tag k="CATEGORY" v="3"/>
    <tag k="SHAPE_LE_1" v="396.059"/>
    <tag k="ET_ID" v="149101"/>
    <tag k="WAY_TYPE" v="Seasonal Road"/>
    <tag k="SHAPE_LENG" v="0.000"/>
    <tag k="CAT2" v="30"/>
  </way>
  <node id='-171' visible='true' lat='42.1966810696733' lon='19.4375677847089' />
  <node id='-172' visible='true' lat='42.1963953745546' lon='19.4375748238185' />
  <way id='-173' visible='true'>
    <nd ref='-171' />
    <nd ref='-172' />
    <tag k="ID" v="162314.000"/>
    <tag k="CATEGORY" v="3"/>
    <tag k="SHAPE_LE_1" v="31.747"/>
    <tag k="ET_ID" v="154287"/>
    <tag k="WAY_TYPE" v="Seasonal Road"/>
    <tag k="SHAPE_LENG" v="0.000"/>
    <tag k="CAT2" v="30"/>
  </way>
  <node id='-174' visible='true' lat='42.2139354568284' lon='19.4608789853403' />
  <node id='-175' visible='true' lat='42.214001796567' lon='19.4609243351552' />
  <node id='-176' visible='true' lat='42.2153143182733' lon='19.4618688440707' />
  <node id='-177' visible='true' lat='42.2157205909988' lon='19.4621787837827' />
  <way id='-178' visible='true'>
    <nd ref='-174' />
    <nd ref='-175' />
    <nd ref='-176' />
    <nd ref='-177' />
    <tag k="ID" v="179218.000"/>
    <tag k="CATEGORY" v="2"/>
    <tag k="SHAPE_LE_1" v="225.534"/>
    <tag k="ET_ID" v="165974"/>
    <tag k="WAY_TYPE" v="Well-Kept Gravel Road"/>
    <tag k="SHAPE_LENG" v="0.000"/>
    <tag k="CAT2" v="20"/>
  </way>
  <node id='-179' visible='true' lat='42.2108141304788' lon='19.4585880070596' />
  <node id='-180' visible='true' lat='42.2114506424529' lon='19.4590635015394' />
  <node id='-181' visible='true' lat='42.2120584173126' lon='19.4594908347499' />
  <node id='-182' visible='true' lat='42.2126484836659' lon='19.4599992826269' />
  <node id='-183' visible='true' lat='42.2139354568284' lon='19.4608789853403' />
  <way id='-184' visible='true'>
    <nd ref='-179' />
    <nd ref='-180' />
    <nd ref='-181' />
    <nd ref='-182' />
    <nd ref='-183' />
    <tag k="ID" v="179219.000"/>
    <tag k="CATEGORY" v="2"/>
    <tag k="SHAPE_LE_1" v="395.323"/>
    <tag k="ET_ID" v="165975"/>
    <tag k="WAY_TYPE" v="Well-Kept Gravel Road"/>
    <tag k="SHAPE_LENG" v="0.000"/>
    <tag k="CAT2" v="20"/>
  </way>
  <node id='-185' visible='true' lat='42.2078965577061' lon='19.4467146567379' />
  <node id='-186' visible='true' lat='42.2077591212516' lon='19.446538333384' />
  <node id='-187' visible='true' lat='42.2073940686302' lon='19.4460549979815' />
  <node id='-188' visible='true' lat='42.2071461779296' lon='19.44575219183' />
  <node id='-189' visible='true' lat='42.2068111033522' lon='19.4453646514414' />
  <node id='-190' visible='true' lat='42.2063616058732' lon='19.444934330594' />
  <node id='-191' visible='true' lat='42.2058237358873' lon='19.4443973399934' />
  <node id='-192' visible='true' lat='42.205505871083' lon='19.4442217418177' />
  <node id='-193' visible='true' lat='42.2051795228808' lon='19.4439498349273' />
  <node id='-194' visible='true' lat='42.2048615298239' lon='19.4435895766822' />
  <way id='-195' visible='true'>
    <nd ref='-185' />
    <nd ref='-186' />
    <nd ref='-187' />
    <nd ref='-188' />
    <nd ref='-189' />
    <nd ref='-190' />
    <nd ref='-191' />
    <nd ref='-192' />
    <nd ref='-193' />
    <nd ref='-194' />
    <tag k="ID" v="179220.000"/>
    <tag k="CATEGORY" v="2"/>
    <tag k="SHAPE_LE_1" v="427.053"/>
    <tag k="ET_ID" v="165976"/>
    <tag k="WAY_TYPE" v="Well-Kept Gravel Road"/>
    <tag k="SHAPE_LENG" v="0.000"/>
    <tag k="CAT2" v="20"/>
  </way>
  <node id='-196' visible='true' lat='42.2101181016973' lon='19.450373310035' />
  <node id='-197' visible='true' lat='42.2098082504051' lon='19.4497569679085' />
  <node id='-198' visible='true' lat='42.2094106227926' lon='19.4489848016119' />
  <node id='-199' visible='true' lat='42.2091829426148' lon='19.4485849489536' />
  <node id='-200' visible='true' lat='42.2087380212032' lon='19.4478754014995' />
  <node id='-201' visible='true' lat='42.2083866550666' lon='19.447343444757' />
  <node id='-202' visible='true' lat='42.2078965577061' lon='19.4467146567379' />
  <way id='-203' visible='true'>
    <nd ref='-196' />
    <nd ref='-197' />
    <nd ref='-198' />
    <nd ref='-199' />
    <nd ref='-200' />
    <nd ref='-201' />
    <nd ref='-202' />
    <tag k="ID" v="179221.000"/>
    <tag k="CATEGORY" v="2"/>
    <tag k="SHAPE_LE_1" v="391.332"/>
    <tag k="ET_ID" v="165977"/>
    <tag k="WAY_TYPE" v="Well-Kept Gravel Road"/>
    <tag k="SHAPE_LENG" v="0.000"/>
    <tag k="CAT2" v="20"/>
  </way>
  <node id='-204' visible='true' lat='42.2131425418862' lon='19.4431801031526' />
  <node id='-205' visible='true' lat='42.2135290175019' lon='19.4437484708585' />
  <node id='-206' visible='true' lat='42.2139197628163' lon='19.4441649518884' />
  <node id='-207' visible='true' lat='42.2143532609506' lon='19.4446915354535' />
  <node id='-208' visible='true' lat='42.2146630145262' lon='19.4452211558448' />
  <node id='-209' visible='true' lat='42.2148900246339' lon='19.4457342902117' />
  <node id='-210' visible='true' lat='42.2151737853275' lon='19.4463757180236' />
  <node id='-211' visible='true' lat='42.2154140378764' lon='19.4468514824193' />
  <node id='-212' visible='true' lat='42.2160860180058' lon='19.4477242362746' />
  <node id='-213' visible='true' lat='42.2164522581107' lon='19.4483636654744' />
  <node id='-214' visible='true' lat='42.2168042445426' lon='19.4489663901979' />
  <node id='-215' visible='true' lat='42.2170167380091' lon='19.4494243346653' />
  <node id='-216' visible='true' lat='42.2172493519323' lon='19.4496895343564' />
  <node id='-217' visible='true' lat='42.2175823309175' lon='19.4499036928007' />
  <node id='-218' visible='true' lat='42.2177805711411' lon='19.4503249456772' />
  <node id='-219' visible='true' lat='42.2180375542563' lon='19.4510226481042' />
  <node id='-220' visible='true' lat='42.2186510055921' lon='19.4526564890398' />
  <node id='-221' visible='true' lat='42.2193319318909' lon='19.4541960880166' />
  <node id='-222' visible='true' lat='42.2195746483349' lon='19.4548571211494' />
  <node id='-223' visible='true' lat='42.2197438754374' lon='19.4551679413335' />
  <node id='-224' visible='true' lat='42.2199888306872' lon='19.4559956691723' />
  <node id='-225' visible='true' lat='42.2202220245127' lon='19.4569719034962' />
  <node id='-226' visible='true' lat='42.2204089812123' lon='19.4575787351464' />
  <node id='-227' visible='true' lat='42.2206769358392' lon='19.4580724352551' />
  <way id='-228' visible='true'>
    <nd ref='-204' />
    <nd ref='-205' />
    <nd ref='-206' />
    <nd ref='-207' />
    <nd ref='-208' />
    <nd ref='-209' />
    <nd ref='-210' />
    <nd ref='-211' />
    <nd ref='-212' />
    <nd ref='-213' />
    <nd ref='-214' />
    <nd ref='-215' />
    <nd ref='-216' />
    <nd ref='-217' />
    <nd ref='-218' />
    <nd ref='-219' />
    <nd ref='-220' />
    <nd ref='-221' />
    <nd ref='-222' />
    <nd ref='-223' />
    <nd ref='-224' />
    <nd ref='-225' />
    <nd ref='-226' />
    <nd ref='-227' />
    <tag k="ID" v="179226.000"/>
    <tag k="CATEGORY" v="2"/>
    <tag k="SHAPE_LE_1" v="1511.519"/>
    <tag k="ET_ID" v="165982"/>
    <tag k="WAY_TYPE" v="Well-Kept Gravel Road"/>
    <tag k="SHAPE_LENG" v="0.000"/>
    <tag k="CAT2" v="20"/>
  </way>
  <node id='-229' visible='true' lat='42.2020618384451' lon='19.4462262307454' />
  <node id='-230' visible='true' lat='42.2026955736848' lon='19.4470884959368' />
  <node id='-231' visible='true' lat='42.2031827814889' lon='19.4477028010349' />
  <node id='-232' visible='true' lat='42.2042695977396' lon='19.4491497200128' />
  <node id='-233' visible='true' lat='42.2052305621756' lon='19.4503971484454' />
  <node id='-234' visible='true' lat='42.205865260532' lon='19.4512521711744' />
  <way id='-235' visible='true'>
    <nd ref='-229' />
    <nd ref='-230' />
    <nd ref='-231' />
    <nd ref='-232' />
    <nd ref='-233' />
    <nd ref='-234' />
    <tag k="ID" v="179204.000"/>
    <tag k="CATEGORY" v="2"/>
    <tag k="SHAPE_LE_1" v="592.429"/>
    <tag k="ET_ID" v="170767"/>
    <tag k="WAY_TYPE" v="Well-Kept Gravel Road"/>
    <tag k="SHAPE_LENG" v="0.000"/>
    <tag k="CAT2" v="20"/>
  </way>
  <node id='-236' visible='true' lat='42.20545822851' lon='19.4521909216756' />
  <node id='-237' visible='true' lat='42.2059007965084' lon='19.4523624738653' />
  <node id='-238' visible='true' lat='42.2066001185228' lon='19.4524743391734' />
  <node id='-239' visible='true' lat='42.2074747570222' lon='19.4526181825593' />
  <node id='-240' visible='true' lat='42.208092012053' lon='19.4527320561481' />
  <node id='-241' visible='true' lat='42.2085456258592' lon='19.4528867647925' />
  <node id='-242' visible='true' lat='42.2088617119817' lon='19.4529895733359' />
  <way id='-243' visible='true'>
    <nd ref='-236' />
    <nd ref='-237' />
    <nd ref='-238' />
    <nd ref='-239' />
    <nd ref='-240' />
    <nd ref='-241' />
    <nd ref='-242' />
    <tag k="ID" v="179205.000"/>
    <tag k="CATEGORY" v="2"/>
    <tag k="SHAPE_LE_1" v="384.654"/>
    <tag k="ET_ID" v="170768"/>
    <tag k="WAY_TYPE" v="Well-Kept Gravel Road"/>
    <tag k="SHAPE_LENG" v="0.000"/>
    <tag k="CAT2" v="20"/>
  </way>
  <node id='-244' visible='true' lat='42.204677480134' lon='19.4519502736859' />
  <node id='-245' visible='true' lat='42.2053643651238' lon='19.4521545351367' />
  <node id='-246' visible='true' lat='42.20545822851' lon='19.4521909216756' />
  <way id='-247' visible='true'>
    <nd ref='-244' />
    <nd ref='-245' />
    <nd ref='-246' />
    <tag k="ID" v="179206.000"/>
    <tag k="CATEGORY" v="2"/>
    <tag k="SHAPE_LE_1" v="89.010"/>
    <tag k="ET_ID" v="170769"/>
    <tag k="WAY_TYPE" v="Well-Kept Gravel Road"/>
    <tag k="SHAPE_LENG" v="0.000"/>
    <tag k="CAT2" v="20"/>
  </way>
  <node id='-248' visible='true' lat='42.2108141304788' lon='19.4585880070596' />
  <node id='-249' visible='true' lat='42.2103023468919' lon='19.4581767754894' />
  <node id='-250' visible='true' lat='42.2099989547486' lon='19.4579999444509' />
  <node id='-251' visible='true' lat='42.209752002317' lon='19.4579506928277' />
  <node id='-252' visible='true' lat='42.2093558342638' lon='19.4579971701914' />
  <node id='-253' visible='true' lat='42.2091237998223' lon='19.4580396541405' />
  <node id='-254' visible='true' lat='42.208877594713' lon='19.4580456433812' />
  <node id='-255' visible='true' lat='42.2087127137101' lon='19.4579943957947' />
  <node id='-256' visible='true' lat='42.2084923786074' lon='19.4578892330309' />
  <node id='-257' visible='true' lat='42.2083254156304' lon='19.4577818796873' />
  <way id='-258' visible='true'>
    <nd ref='-248' />
    <nd ref='-249' />
    <nd ref='-250' />
    <nd ref='-251' />
    <nd ref='-252' />
    <nd ref='-253' />
    <nd ref='-254' />
    <nd ref='-255' />
    <nd ref='-256' />
    <nd ref='-257' />
    <tag k="ID" v="179207.000"/>
    <tag k="CATEGORY" v="2"/>
    <tag k="SHAPE_LE_1" v="293.598"/>
    <tag k="ET_ID" v="170770"/>
    <tag k="WAY_TYPE" v="Well-Kept Gravel Road"/>
    <tag k="SHAPE_LENG" v="0.000"/>
    <tag k="CAT2" v="20"/>
  </way>
  <node id='-259' visible='true' lat='42.2110895665909' lon='19.455205089466' />
  <node id='-260' visible='true' lat='42.2110623128292' lon='19.4554528605554' />
  <node id='-261' visible='true' lat='42.2110002833329' lon='19.4561519014558' />
  <node id='-262' visible='true' lat='42.2109945389766' lon='19.456741511115' />
  <node id='-263' visible='true' lat='42.2110004854206' lon='19.4571834748848' />
  <node id='-264' visible='true' lat='42.2109890347564' lon='19.4573495411922' />
  <node id='-265' visible='true' lat='42.2109544429995' lon='19.4578293316512' />
  <node id='-266' visible='true' lat='42.2108519483696' lon='19.458347613469' />
  <node id='-267' visible='true' lat='42.2108141304788' lon='19.4585880070596' />
  <way id='-268' visible='true'>
    <nd ref='-259' />
    <nd ref='-260' />
    <nd ref='-261' />
    <nd ref='-262' />
    <nd ref='-263' />
    <nd ref='-264' />
    <nd ref='-265' />
    <nd ref='-266' />
    <nd ref='-267' />
    <tag k="ID" v="179208.000"/>
    <tag k="CATEGORY" v="2"/>
    <tag k="SHAPE_LE_1" v="282.226"/>
    <tag k="ET_ID" v="170771"/>
    <tag k="WAY_TYPE" v="Well-Kept Gravel Road"/>
    <tag k="SHAPE_LENG" v="0.000"/>
    <tag k="CAT2" v="20"/>
  </way>
  <node id='-269' visible='true' lat='42.2111249330464' lon='19.4545445106104' />
  <node id='-270' visible='true' lat='42.2111354492742' lon='19.4547879203085' />
  <node id='-271' visible='true' lat='42.2110895665909' lon='19.455205089466' />
  <way id='-272' visible='true'>
    <nd ref='-269' />
    <nd ref='-270' />
    <nd ref='-271' />
    <tag k="ID" v="179209.000"/>
    <tag k="CATEGORY" v="2"/>
    <tag k="SHAPE_LE_1" v="54.969"/>
    <tag k="ET_ID" v="170772"/>
    <tag k="WAY_TYPE" v="Well-Kept Gravel Road"/>
    <tag k="SHAPE_LENG" v="0.000"/>
    <tag k="CAT2" v="20"/>
  </way>
  <node id='-273' visible='true' lat='42.2109755793284' lon='19.4530786573881' />
  <node id='-274' visible='true' lat='42.2110932013988' lon='19.4536836836172' />
  <node id='-275' visible='true' lat='42.2111155699357' lon='19.4543278754568' />
  <node id='-276' visible='true' lat='42.2111249330464' lon='19.4545445106104' />
  <way id='-277' visible='true'>
    <nd ref='-273' />
    <nd ref='-274' />
    <nd ref='-275' />
    <nd ref='-276' />
    <tag k="ID" v="179210.000"/>
    <tag k="CATEGORY" v="2"/>
    <tag k="SHAPE_LE_1" v="122.840"/>
    <tag k="ET_ID" v="170773"/>
    <tag k="WAY_TYPE" v="Well-Kept Gravel Road"/>
    <tag k="SHAPE_LENG" v="0.000"/>
    <tag k="CAT2" v="20"/>
  </way>
  <node id='-278' visible='true' lat='42.2088617119817' lon='19.4529895733359' />
  <node id='-279' visible='true' lat='42.2086966131494' lon='19.4536964383602' />
  <node id='-280' visible='true' lat='42.2085555830928' lon='19.4543998485525' />
  <node id='-281' visible='true' lat='42.2085625305923' lon='19.4549154484274' />
  <node id='-282' visible='true' lat='42.2085794355334' lon='19.4551545016272' />
  <node id='-283' visible='true' lat='42.2085963399782' lon='19.4553935549693' />
  <node id='-284' visible='true' lat='42.20869679384' lon='19.4557410959582' />
  <node id='-285' visible='true' lat='42.2089118834201' lon='19.4564726749931' />
  <way id='-286' visible='true'>
    <nd ref='-278' />
    <nd ref='-279' />
    <nd ref='-280' />
    <nd ref='-281' />
    <nd ref='-282' />
    <nd ref='-283' />
    <nd ref='-284' />
    <nd ref='-285' />
    <tag k="ID" v="179211.000"/>
    <tag k="CATEGORY" v="2"/>
    <tag k="SHAPE_LE_1" v="299.417"/>
    <tag k="ET_ID" v="170774"/>
    <tag k="WAY_TYPE" v="Well-Kept Gravel Road"/>
    <tag k="SHAPE_LENG" v="0.000"/>
    <tag k="CAT2" v="20"/>
  </way>
  <node id='-287' visible='true' lat='42.2070265322254' lon='19.4265982297761' />
  <node id='-288' visible='true' lat='42.2074753874097' lon='19.4271353531161' />
  <node id='-289' visible='true' lat='42.2092429879418' lon='19.429322082775' />
  <node id='-290' visible='true' lat='42.210176393883' lon='19.4304938649652' />
  <node id='-291' visible='true' lat='42.2111157001827' lon='19.4316773587129' />
  <node id='-292' visible='true' lat='42.2114054328364' lon='19.4320175888444' />
  <node id='-293' visible='true' lat='42.2117786671845' lon='19.4322440999407' />
  <way id='-294' visible='true'>
    <nd ref='-287' />
    <nd ref='-288' />
    <nd ref='-289' />
    <nd ref='-290' />
    <nd ref='-291' />
    <nd ref='-292' />
    <nd ref='-293' />
    <tag k="ID" v="181900.000"/>
    <tag k="CATEGORY" v="2"/>
    <tag k="SHAPE_LE_1" v="706.627"/>
    <tag k="ET_ID" v="173461"/>
    <tag k="WAY_TYPE" v="Well-Kept Gravel Road"/>
    <tag k="SHAPE_LENG" v="0.000"/>
    <tag k="CAT2" v="20"/>
  </way>
  <node id='-295' visible='true' lat='42.2048615298239' lon='19.4435895766822' />
  <node id='-296' visible='true' lat='42.2046624974167' lon='19.4433640885943' />
  <node id='-297' visible='true' lat='42.2041256495478' lon='19.4427946344443' />
  <node id='-298' visible='true' lat='42.2036743045171' lon='19.442294157274' />
  <node id='-299' visible='true' lat='42.2032310444947' lon='19.4418610537439' />
  <node id='-300' visible='true' lat='42.2029546056636' lon='19.4415686373553' />
  <node id='-301' visible='true' lat='42.2023953478839' lon='19.4410418751754' />
  <node id='-302' visible='true' lat='42.2021554009885' lon='19.4407968287746' />
  <node id='-303' visible='true' lat='42.201604922395' lon='19.4403149744533' />
  <node id='-304' visible='true' lat='42.200543599423' lon='19.4392504497736' />
  <way id='-305' visible='true'>
    <nd ref='-295' />
    <nd ref='-296' />
    <nd ref='-297' />
    <nd ref='-298' />
    <nd ref='-299' />
    <nd ref='-300' />
    <nd ref='-301' />
    <nd ref='-302' />
    <nd ref='-303' />
    <nd ref='-304' />
    <tag k="ID" v="181901.000"/>
    <tag k="CATEGORY" v="2"/>
    <tag k="SHAPE_LE_1" v="599.202"/>
    <tag k="ET_ID" v="173462"/>
    <tag k="WAY_TYPE" v="Well-Kept Gravel Road"/>
    <tag k="SHAPE_LENG" v="0.000"/>
    <tag k="CAT2" v="20"/>
  </way>
  <node id='-306' visible='true' lat='42.2089118834201' lon='19.4564726749931' />
  <node id='-307' visible='true' lat='42.2091822263922' lon='19.4562266242907' />
  <node id='-308' visible='true' lat='42.2095778977235' lon='19.4561433024323' />
  <node id='-309' visible='true' lat='42.2099464659536' lon='19.456079065695' />
  <node id='-310' visible='true' lat='42.2104075531611' lon='19.4557731022565' />
  <node id='-311' visible='true' lat='42.2110895665909' lon='19.455205089466' />
  <way id='-312' visible='true'>
    <nd ref='-306' />
    <nd ref='-307' />
    <nd ref='-308' />
    <nd ref='-309' />
    <nd ref='-310' />
    <nd ref='-311' />
    <tag k="ID" v="181903.000"/>
    <tag k="CATEGORY" v="2"/>
    <tag k="SHAPE_LE_1" v="268.293"/>
    <tag k="ET_ID" v="173464"/>
    <tag k="WAY_TYPE" v="Well-Kept Gravel Road"/>
    <tag k="SHAPE_LENG" v="0.000"/>
    <tag k="CAT2" v="20"/>
  </way>
  <node id='-313' visible='true' lat='42.2089118834201' lon='19.4564726749931' />
  <node id='-314' visible='true' lat='42.2086305898911' lon='19.4569216105152' />
  <node id='-315' visible='true' lat='42.208472149375' lon='19.4573491328068' />
  <node id='-316' visible='true' lat='42.2083254156304' lon='19.4577818796873' />
  <way id='-317' visible='true'>
    <nd ref='-313' />
    <nd ref='-314' />
    <nd ref='-315' />
    <nd ref='-316' />
    <tag k="ID" v="181904.000"/>
    <tag k="CATEGORY" v="2"/>
    <tag k="SHAPE_LE_1" v="127.237"/>
    <tag k="ET_ID" v="173465"/>
    <tag k="WAY_TYPE" v="Well-Kept Gravel Road"/>
    <tag k="SHAPE_LENG" v="0.000"/>
    <tag k="CAT2" v="20"/>
  </way>
  <node id='-318' visible='true' lat='42.2083254156304' lon='19.4577818796873' />
  <node id='-319' visible='true' lat='42.2079955064892' lon='19.4575697613855' />
  <node id='-320' visible='true' lat='42.2071773480044' lon='19.4567607686521' />
  <node id='-321' visible='true' lat='42.2064472061948' lon='19.456089508115' />
  <node id='-322' visible='true' lat='42.2047134876554' lon='19.4546201880148' />
  <way id='-323' visible='true'>
    <nd ref='-318' />
    <nd ref='-319' />
    <nd ref='-320' />
    <nd ref='-321' />
    <nd ref='-322' />
    <tag k="ID" v="181905.000"/>
    <tag k="CATEGORY" v="2"/>
    <tag k="SHAPE_LE_1" v="479.368"/>
    <tag k="ET_ID" v="173466"/>
    <tag k="WAY_TYPE" v="Well-Kept Gravel Road"/>
    <tag k="SHAPE_LENG" v="0.000"/>
    <tag k="CAT2" v="20"/>
  </way>
  <node id='-324' visible='true' lat='42.2088617119817' lon='19.4529895733359' />
  <node id='-325' visible='true' lat='42.2091444805557' lon='19.4526511066362' />
  <node id='-326' visible='true' lat='42.2094150635112' lon='19.4524234525686' />
  <node id='-327' visible='true' lat='42.2096453512863' lon='19.4522520397702' />
  <way id='-328' visible='true'>
    <nd ref='-324' />
    <nd ref='-325' />
    <nd ref='-326' />
    <nd ref='-327' />
    <tag k="ID" v="181906.000"/>
    <tag k="CATEGORY" v="2"/>
    <tag k="SHAPE_LE_1" v="106.754"/>
    <tag k="ET_ID" v="173467"/>
    <tag k="WAY_TYPE" v="Well-Kept Gravel Road"/>
    <tag k="SHAPE_LENG" v="0.000"/>
    <tag k="CAT2" v="20"/>
  </way>
  <node id='-329' visible='true' lat='42.205865260532' lon='19.4512521711744' />
  <node id='-330' visible='true' lat='42.2059691792409' lon='19.451392164866' />
  <way id='-331' visible='true'>
    <nd ref='-329' />
    <nd ref='-330' />
    <tag k="ID" v="181908.000"/>
    <tag k="CATEGORY" v="2"/>
    <tag k="SHAPE_LE_1" v="16.341"/>
    <tag k="ET_ID" v="173469"/>
    <tag k="WAY_TYPE" v="Well-Kept Gravel Road"/>
    <tag k="SHAPE_LENG" v="0.000"/>
    <tag k="CAT2" v="20"/>
  </way>
  <node id='-332' visible='true' lat='42.2133948920508' lon='19.4356750980723' />
  <node id='-333' visible='true' lat='42.2137868675755' lon='19.435288906313' />
  <way id='-334' visible='true'>
    <nd ref='-332' />
    <nd ref='-333' />
    <tag k="ID" v="190859.000"/>
    <tag k="CATEGORY" v="1"/>
    <tag k="SHAPE_LE_1" v="53.981"/>
    <tag k="ET_ID" v="181889"/>
    <tag k="WAY_TYPE" v="National Asphalted Road"/>
    <tag k="SHAPE_LENG" v="0.000"/>
    <tag k="CAT2" v="10"/>
  </way>
  <node id='-335' visible='true' lat='42.2160155091168' lon='19.4398245525332' />
  <node id='-336' visible='true' lat='42.2165802844643' lon='19.4401422456104' />
  <node id='-337' visible='true' lat='42.2169052028532' lon='19.4402101114048' />
  <node id='-338' visible='true' lat='42.2197314835559' lon='19.44501530117' />
  <node id='-339' visible='true' lat='42.2212595007791' lon='19.4476695371555' />
  <node id='-340' visible='true' lat='42.2216755759277' lon='19.4482906324321' />
  <way id='-341' visible='true'>
    <nd ref='-335' />
    <nd ref='-336' />
    <nd ref='-337' />
    <nd ref='-338' />
    <nd ref='-339' />
    <nd ref='-340' />
    <tag k="ID" v="190960.000"/>
    <tag k="CATEGORY" v="1"/>
    <tag k="SHAPE_LE_1" v="956.882"/>
    <tag k="ET_ID" v="181984"/>
    <tag k="WAY_TYPE" v="National Asphalted Road"/>
    <tag k="SHAPE_LENG" v="0.000"/>
    <tag k="CAT2" v="11"/>
  </way>
  <node id='-342' visible='true' lat='42.2136940532951' lon='19.4384514060023' />
  <node id='-343' visible='true' lat='42.215560886595' lon='19.4395688291725' />
  <node id='-344' visible='true' lat='42.2160155091168' lon='19.4398245525332' />
  <way id='-345' visible='true'>
    <nd ref='-342' />
    <nd ref='-343' />
    <nd ref='-344' />
    <tag k="ID" v="190961.000"/>
    <tag k="CATEGORY" v="1"/>
    <tag k="SHAPE_LE_1" v="281.762"/>
    <tag k="ET_ID" v="181985"/>
    <tag k="WAY_TYPE" v="National Asphalted Road"/>
    <tag k="SHAPE_LENG" v="0.000"/>
    <tag k="CAT2" v="11"/>
  </way>
  <node id='-346' visible='true' lat='42.214077379656' lon='19.4378064941236' />
  <node id='-347' visible='true' lat='42.2136940532951' lon='19.4384514060023' />
  <way id='-348' visible='true'>
    <nd ref='-346' />
    <nd ref='-347' />
    <tag k="ID" v="190962.000"/>
    <tag k="CATEGORY" v="1"/>
    <tag k="SHAPE_LE_1" v="68.197"/>
    <tag k="ET_ID" v="181986"/>
    <tag k="WAY_TYPE" v="National Asphalted Road"/>
    <tag k="SHAPE_LENG" v="0.000"/>
    <tag k="CAT2" v="11"/>
  </way>
  <node id='-349' visible='true' lat='42.2098074630265' lon='19.439076182181' />
  <node id='-350' visible='true' lat='42.2093481808384' lon='19.4374438462531' />
  <way id='-351' visible='true'>
    <nd ref='-349' />
    <nd ref='-350' />
    <tag k="ID" v="190963.000"/>
    <tag k="CATEGORY" v="1"/>
    <tag k="SHAPE_LE_1" v="144.158"/>
    <tag k="ET_ID" v="181987"/>
    <tag k="WAY_TYPE" v="National Asphalted Road"/>
    <tag k="SHAPE_LENG" v="0.000"/>
    <tag k="CAT2" v="11"/>
  </way>
  <node id='-352' visible='true' lat='42.2020618384451' lon='19.4462262307454' />
  <node id='-353' visible='true' lat='42.2021669317331' lon='19.4460969452746' />
  <node id='-354' visible='true' lat='42.2026583356598' lon='19.4454713637234' />
  <node id='-355' visible='true' lat='42.2034142965684' lon='19.4448392828856' />
  <node id='-356' visible='true' lat='42.2048615298239' lon='19.4435895766822' />
  <way id='-357' visible='true'>
    <nd ref='-352' />
    <nd ref='-353' />
    <nd ref='-354' />
    <nd ref='-355' />
    <nd ref='-356' />
    <tag k="ID" v="191602.000"/>
    <tag k="CATEGORY" v="1"/>
    <tag k="SHAPE_LE_1" v="380.969"/>
    <tag k="ET_ID" v="182556"/>
    <tag k="WAY_TYPE" v="National Asphalted Road"/>
    <tag k="SHAPE_LENG" v="0.000"/>
    <tag k="CAT2" v="10"/>
  </way>
  <node id='-358' visible='true' lat='42.2048615298239' lon='19.4435895766822' />
  <node id='-359' visible='true' lat='42.2058091715942' lon='19.4427712345237' />
  <node id='-360' visible='true' lat='42.2087866790773' lon='19.4400853523382' />
  <way id='-361' visible='true'>
    <nd ref='-358' />
    <nd ref='-359' />
    <nd ref='-360' />
    <tag k="ID" v="193483.000"/>
    <tag k="CATEGORY" v="1"/>
    <tag k="SHAPE_LE_1" v="523.428"/>
    <tag k="ET_ID" v="184429"/>
    <tag k="WAY_TYPE" v="National Asphalted Road"/>
    <tag k="SHAPE_LENG" v="0.000"/>
    <tag k="CAT2" v="10"/>
  </way>
  <node id='-362' visible='true' lat='42.2134267432103' lon='19.4428396741008' />
  <node id='-363' visible='true' lat='42.2160155091168' lon='19.4398245525332' />
  <way id='-364' visible='true'>
    <nd ref='-362' />
    <nd ref='-363' />
    <tag k="ID" v="193551.000"/>
    <tag k="CATEGORY" v="1"/>
    <tag k="SHAPE_LE_1" v="380.439"/>
    <tag k="ET_ID" v="184495"/>
    <tag k="WAY_TYPE" v="National Asphalted Road"/>
    <tag k="SHAPE_LENG" v="0.000"/>
    <tag k="CAT2" v="11"/>
  </way>
  <node id='-365' visible='true' lat='42.2093481808384' lon='19.4374438462531' />
  <node id='-366' visible='true' lat='42.2083968601603' lon='19.438363182382' />
  <node id='-367' visible='true' lat='42.2090786336136' lon='19.4397798458286' />
  <way id='-368' visible='true'>
    <nd ref='-365' />
    <nd ref='-366' />
    <nd ref='-367' />
    <tag k="ID" v="193554.000"/>
    <tag k="CATEGORY" v="1"/>
    <tag k="SHAPE_LE_1" v="269.533"/>
    <tag k="ET_ID" v="184498"/>
    <tag k="WAY_TYPE" v="National Asphalted Road"/>
    <tag k="SHAPE_LENG" v="0.000"/>
    <tag k="CAT2" v="11"/>
  </way>
  <node id='-369' visible='true' lat='42.2137868675755' lon='19.435288906313' />
  <node id='-370' visible='true' lat='42.2133841834372' lon='19.4356513303703' />
  <way id='-371' visible='true'>
    <nd ref='-369' />
    <nd ref='-370' />
    <tag k="ID" v="193556.000"/>
    <tag k="CATEGORY" v="1"/>
    <tag k="SHAPE_LE_1" v="53.829"/>
    <tag k="ET_ID" v="184500"/>
    <tag k="WAY_TYPE" v="National Asphalted Road"/>
    <tag k="SHAPE_LENG" v="0.000"/>
    <tag k="CAT2" v="10"/>
  </way>
  <node id='-372' visible='true' lat='42.2117786671845' lon='19.4322440999407' />
  <node id='-373' visible='true' lat='42.2135664937487' lon='19.4349544071871' />
  <node id='-374' visible='true' lat='42.2137868675755' lon='19.435288906313' />
  <way id='-375' visible='true'>
    <nd ref='-372' />
    <nd ref='-373' />
    <nd ref='-374' />
    <tag k="ID" v="193558.000"/>
    <tag k="CATEGORY" v="1"/>
    <tag k="SHAPE_LE_1" v="336.187"/>
    <tag k="ET_ID" v="184502"/>
    <tag k="WAY_TYPE" v="National Asphalted Road"/>
    <tag k="SHAPE_LENG" v="0.000"/>
    <tag k="CAT2" v="11"/>
  </way>
</osm>
