<?xml version='1.0'?>
<osm version='0.5' generator='shp2osm.pl'>
  <node id='-1' visible='true' lat='42.1313856' lon='19.5420961' />
  <node id='-2' visible='true' lat='42.1312094' lon='19.5424264' />
  <way id='-3' visible='true'>
    <nd ref='-1' />
    <nd ref='-2' />
    <tag k="OSM_ID" v="51985800"/>
  </way>
  <node id='-4' visible='true' lat='42.1361455' lon='19.5422827' />
  <node id='-5' visible='true' lat='42.1357848' lon='19.5422368' />
  <node id='-6' visible='true' lat='42.1345049' lon='19.5422422' />
  <node id='-7' visible='true' lat='42.1337454' lon='19.5423319' />
  <node id='-8' visible='true' lat='42.1329077' lon='19.5424593' />
  <node id='-9' visible='true' lat='42.1322011' lon='19.5424997' />
  <node id='-10' visible='true' lat='42.1312094' lon='19.5424264' />
  <way id='-11' visible='true'>
    <nd ref='-4' />
    <nd ref='-5' />
    <nd ref='-6' />
    <nd ref='-7' />
    <nd ref='-8' />
    <nd ref='-9' />
    <nd ref='-10' />
    <tag k="OSM_ID" v="51985791"/>
  </way>
  <node id='-12' visible='true' lat='42.1369924' lon='19.5423635' />
  <node id='-13' visible='true' lat='42.136518' lon='19.5423298' />
  <node id='-14' visible='true' lat='42.1361455' lon='19.5422827' />
  <way id='-15' visible='true'>
    <nd ref='-12' />
    <nd ref='-13' />
    <nd ref='-14' />
    <tag k="OSM_ID" v="51985814"/>
  </way>
  <node id='-16' visible='true' lat='42.1341147' lon='19.5467463' />
  <node id='-17' visible='true' lat='42.1341655' lon='19.5466857' />
  <node id='-18' visible='true' lat='42.1346965' lon='19.5455545' />
  <node id='-19' visible='true' lat='42.1351658' lon='19.5446485' />
  <node id='-20' visible='true' lat='42.1360466' lon='19.5433973' />
  <node id='-21' visible='true' lat='42.1367577' lon='19.5426226' />
  <node id='-22' visible='true' lat='42.1369924' lon='19.5423635' />
  <way id='-23' visible='true'>
    <nd ref='-16' />
    <nd ref='-17' />
    <nd ref='-18' />
    <nd ref='-19' />
    <nd ref='-20' />
    <nd ref='-21' />
    <nd ref='-22' />
    <tag k="OSM_ID" v="51985817"/>
  </way>
  <node id='-24' visible='true' lat='42.1377481' lon='19.5426387' />
  <node id='-25' visible='true' lat='42.1374593' lon='19.5424527' />
  <node id='-26' visible='true' lat='42.1369924' lon='19.5423635' />
  <way id='-27' visible='true'>
    <nd ref='-24' />
    <nd ref='-25' />
    <nd ref='-26' />
    <tag k="OSM_ID" v="51985813"/>
  </way>
  <node id='-28' visible='true' lat='42.1386772' lon='19.5453264' />
  <node id='-29' visible='true' lat='42.1387521' lon='19.5448792' />
  <node id='-30' visible='true' lat='42.138575' lon='19.5443174' />
  <node id='-31' visible='true' lat='42.1381435' lon='19.5434725' />
  <node id='-32' visible='true' lat='42.1377481' lon='19.5426387' />
  <way id='-33' visible='true'>
    <nd ref='-28' />
    <nd ref='-29' />
    <nd ref='-30' />
    <nd ref='-31' />
    <nd ref='-32' />
    <tag k="OSM_ID" v="51985812"/>
  </way>
  <node id='-34' visible='true' lat='42.1399839' lon='19.5472894' />
  <node id='-35' visible='true' lat='42.1396681' lon='19.5467385' />
  <node id='-36' visible='true' lat='42.1392639' lon='19.545929' />
  <node id='-37' visible='true' lat='42.1390359' lon='19.5455851' />
  <node id='-38' visible='true' lat='42.1386772' lon='19.5453264' />
  <way id='-39' visible='true'>
    <nd ref='-34' />
    <nd ref='-35' />
    <nd ref='-36' />
    <nd ref='-37' />
    <nd ref='-38' />
    <tag k="OSM_ID" v="51985815"/>
  </way>
  <node id='-40' visible='true' lat='42.1318812' lon='19.5494061' />
  <node id='-41' visible='true' lat='42.1320088' lon='19.5492287' />
  <node id='-42' visible='true' lat='42.1328748' lon='19.5482763' />
  <node id='-43' visible='true' lat='42.1336938' lon='19.5472506' />
  <node id='-44' visible='true' lat='42.1341147' lon='19.5467463' />
  <way id='-45' visible='true'>
    <nd ref='-40' />
    <nd ref='-41' />
    <nd ref='-42' />
    <nd ref='-43' />
    <nd ref='-44' />
    <tag k="OSM_ID" v="51985790"/>
  </way>
  <node id='-46' visible='true' lat='42.1408805' lon='19.5472688' />
  <node id='-47' visible='true' lat='42.140426' lon='19.5471548' />
  <node id='-48' visible='true' lat='42.1399839' lon='19.5472894' />
  <way id='-49' visible='true'>
    <nd ref='-46' />
    <nd ref='-47' />
    <nd ref='-48' />
    <tag k="OSM_ID" v="51985816"/>
  </way>
  <node id='-50' visible='true' lat='42.1399839' lon='19.5472894' />
  <node id='-51' visible='true' lat='42.1396101' lon='19.5476957' />
  <node id='-52' visible='true' lat='42.1393346' lon='19.5485725' />
  <node id='-53' visible='true' lat='42.1392579' lon='19.5490841' />
  <node id='-54' visible='true' lat='42.1390604' lon='19.5493142' />
  <node id='-55' visible='true' lat='42.1386736' lon='19.5494351' />
  <node id='-56' visible='true' lat='42.1380523' lon='19.5492752' />
  <node id='-57' visible='true' lat='42.1376921' lon='19.5492957' />
  <node id='-58' visible='true' lat='42.1373054' lon='19.5494166' />
  <node id='-59' visible='true' lat='42.136904' lon='19.5497295' />
  <way id='-60' visible='true'>
    <nd ref='-50' />
    <nd ref='-51' />
    <nd ref='-52' />
    <nd ref='-53' />
    <nd ref='-54' />
    <nd ref='-55' />
    <nd ref='-56' />
    <nd ref='-57' />
    <nd ref='-58' />
    <nd ref='-59' />
    <tag k="OSM_ID" v="51985820"/>
  </way>
  <node id='-61' visible='true' lat='42.1291727' lon='19.552299' />
  <node id='-62' visible='true' lat='42.1292925' lon='19.5521661' />
  <node id='-63' visible='true' lat='42.1298608' lon='19.5517801' />
  <node id='-64' visible='true' lat='42.1306747' lon='19.5510778' />
  <node id='-65' visible='true' lat='42.1312728' lon='19.5502526' />
  <node id='-66' visible='true' lat='42.1318812' lon='19.5494061' />
  <way id='-67' visible='true'>
    <nd ref='-61' />
    <nd ref='-62' />
    <nd ref='-63' />
    <nd ref='-64' />
    <nd ref='-65' />
    <nd ref='-66' />
    <tag k="OSM_ID" v="51985807"/>
  </way>
  <node id='-68' visible='true' lat='42.1280617' lon='19.554258' />
  <node id='-69' visible='true' lat='42.1283759' lon='19.5535049' />
  <node id='-70' visible='true' lat='42.1287092' lon='19.5528134' />
  <node id='-71' visible='true' lat='42.1291727' lon='19.552299' />
  <way id='-72' visible='true'>
    <nd ref='-68' />
    <nd ref='-69' />
    <nd ref='-70' />
    <nd ref='-71' />
    <tag k="OSM_ID" v="51985802"/>
  </way>
  <node id='-73' visible='true' lat='42.1296348' lon='19.5545968' />
  <node id='-74' visible='true' lat='42.1294396' lon='19.5533533' />
  <node id='-75' visible='true' lat='42.1291727' lon='19.552299' />
  <way id='-76' visible='true'>
    <nd ref='-73' />
    <nd ref='-74' />
    <nd ref='-75' />
    <tag k="OSM_ID" v="51985809"/>
  </way>
  <node id='-77' visible='true' lat='42.1212784' lon='19.5552759' />
  <node id='-78' visible='true' lat='42.1216433' lon='19.5544009' />
  <node id='-79' visible='true' lat='42.1220607' lon='19.5534405' />
  <way id='-80' visible='true'>
    <nd ref='-77' />
    <nd ref='-78' />
    <nd ref='-79' />
    <tag k="OSM_ID" v="51985741"/>
  </way>
  <node id='-81' visible='true' lat='42.1288577' lon='19.5550728' />
  <node id='-82' visible='true' lat='42.1285408' lon='19.5548563' />
  <node id='-83' visible='true' lat='42.1280617' lon='19.554258' />
  <way id='-84' visible='true'>
    <nd ref='-81' />
    <nd ref='-82' />
    <nd ref='-83' />
    <tag k="OSM_ID" v="51985801"/>
  </way>
  <node id='-85' visible='true' lat='42.1212784' lon='19.5552759' />
  <node id='-86' visible='true' lat='42.1208339' lon='19.556851' />
  <node id='-87' visible='true' lat='42.1207787' lon='19.5581595' />
  <node id='-88' visible='true' lat='42.1210438' lon='19.5588966' />
  <node id='-89' visible='true' lat='42.1214148' lon='19.559402' />
  <way id='-90' visible='true'>
    <nd ref='-85' />
    <nd ref='-86' />
    <nd ref='-87' />
    <nd ref='-88' />
    <nd ref='-89' />
    <tag k="OSM_ID" v="51985749"/>
  </way>
  <node id='-91' visible='true' lat='42.0942926' lon='19.5556991' />
  <node id='-92' visible='true' lat='42.0944122' lon='19.5557471' />
  <node id='-93' visible='true' lat='42.0948092' lon='19.5562253' />
  <node id='-94' visible='true' lat='42.0949377' lon='19.5566528' />
  <node id='-95' visible='true' lat='42.0949302' lon='19.5570337' />
  <node id='-96' visible='true' lat='42.094514' lon='19.5582184' />
  <node id='-97' visible='true' lat='42.0945093' lon='19.5583154' />
  <way id='-98' visible='true'>
    <nd ref='-91' />
    <nd ref='-92' />
    <nd ref='-93' />
    <nd ref='-94' />
    <nd ref='-95' />
    <nd ref='-96' />
    <nd ref='-97' />
    <tag k="OSM_ID" v="51985734"/>
  </way>
  <node id='-99' visible='true' lat='42.1229214' lon='19.5577225' />
  <node id='-100' visible='true' lat='42.1233847' lon='19.5573824' />
  <node id='-101' visible='true' lat='42.1239339' lon='19.5569521' />
  <way id='-102' visible='true'>
    <nd ref='-99' />
    <nd ref='-100' />
    <nd ref='-101' />
    <tag k="OSM_ID" v="51985855"/>
  </way>
  <node id='-103' visible='true' lat='42.113525' lon='19.5575301' />
  <node id='-104' visible='true' lat='42.1139433' lon='19.5578742' />
  <node id='-105' visible='true' lat='42.114951' lon='19.5590067' />
  <node id='-106' visible='true' lat='42.1156377' lon='19.5596345' />
  <node id='-107' visible='true' lat='42.1164097' lon='19.5605317' />
  <node id='-108' visible='true' lat='42.1170134' lon='19.5615652' />
  <node id='-109' visible='true' lat='42.1176007' lon='19.5627193' />
  <way id='-110' visible='true'>
    <nd ref='-103' />
    <nd ref='-104' />
    <nd ref='-105' />
    <nd ref='-106' />
    <nd ref='-107' />
    <nd ref='-108' />
    <nd ref='-109' />
    <tag k="OSM_ID" v="51985844"/>
  </way>
  <node id='-111' visible='true' lat='42.1214148' lon='19.559402' />
  <node id='-112' visible='true' lat='42.1221509' lon='19.558457' />
  <node id='-113' visible='true' lat='42.122574' lon='19.5579777' />
  <node id='-114' visible='true' lat='42.1229214' lon='19.5577225' />
  <way id='-115' visible='true'>
    <nd ref='-111' />
    <nd ref='-112' />
    <nd ref='-113' />
    <nd ref='-114' />
    <tag k="OSM_ID" v="51985748"/>
  </way>
  <node id='-116' visible='true' lat='42.0945093' lon='19.5583154' />
  <node id='-117' visible='true' lat='42.0954166' lon='19.5592365' />
  <node id='-118' visible='true' lat='42.0966771' lon='19.5605377' />
  <node id='-119' visible='true' lat='42.0974888' lon='19.5612521' />
  <node id='-120' visible='true' lat='42.09876' lon='19.5624329' />
  <way id='-121' visible='true'>
    <nd ref='-116' />
    <nd ref='-117' />
    <nd ref='-118' />
    <nd ref='-119' />
    <nd ref='-120' />
    <tag k="OSM_ID" v="51985733"/>
  </way>
  <node id='-122' visible='true' lat='42.1209482' lon='19.5600658' />
  <node id='-123' visible='true' lat='42.1213849' lon='19.5594403' />
  <node id='-124' visible='true' lat='42.1214148' lon='19.559402' />
  <way id='-125' visible='true'>
    <nd ref='-122' />
    <nd ref='-123' />
    <nd ref='-124' />
    <tag k="OSM_ID" v="51985845"/>
  </way>
  <node id='-126' visible='true' lat='42.1214148' lon='19.559402' />
  <node id='-127' visible='true' lat='42.122137' lon='19.5603857' />
  <node id='-128' visible='true' lat='42.1225448' lon='19.5610782' />
  <node id='-129' visible='true' lat='42.1225819' lon='19.5615404' />
  <node id='-130' visible='true' lat='42.1225136' lon='19.5621214' />
  <way id='-131' visible='true'>
    <nd ref='-126' />
    <nd ref='-127' />
    <nd ref='-128' />
    <nd ref='-129' />
    <nd ref='-130' />
    <tag k="OSM_ID" v="51985747"/>
  </way>
  <node id='-132' visible='true' lat='42.1204782' lon='19.5604924' />
  <node id='-133' visible='true' lat='42.1208489' lon='19.5602078' />
  <node id='-134' visible='true' lat='42.1209482' lon='19.5600658' />
  <way id='-135' visible='true'>
    <nd ref='-132' />
    <nd ref='-133' />
    <nd ref='-134' />
    <tag k="OSM_ID" v="51985841"/>
  </way>
  <node id='-136' visible='true' lat='42.1189395' lon='19.5615123' />
  <node id='-137' visible='true' lat='42.1197322' lon='19.5610649' />
  <node id='-138' visible='true' lat='42.1204782' lon='19.5604924' />
  <way id='-139' visible='true'>
    <nd ref='-136' />
    <nd ref='-137' />
    <nd ref='-138' />
    <tag k="OSM_ID" v="51985846"/>
  </way>
  <node id='-140' visible='true' lat='42.1202402' lon='19.5642324' />
  <node id='-141' visible='true' lat='42.1203117' lon='19.5629412' />
  <node id='-142' visible='true' lat='42.1204457' lon='19.5613969' />
  <node id='-143' visible='true' lat='42.1204782' lon='19.5604924' />
  <way id='-144' visible='true'>
    <nd ref='-140' />
    <nd ref='-141' />
    <nd ref='-142' />
    <nd ref='-143' />
    <tag k="OSM_ID" v="51985849"/>
  </way>
  <node id='-145' visible='true' lat='42.1202402' lon='19.5642324' />
  <node id='-146' visible='true' lat='42.1200994' lon='19.5640891' />
  <node id='-147' visible='true' lat='42.1196386' lon='19.5631468' />
  <node id='-148' visible='true' lat='42.1191944' lon='19.5619492' />
  <node id='-149' visible='true' lat='42.1189395' lon='19.5615123' />
  <way id='-150' visible='true'>
    <nd ref='-145' />
    <nd ref='-146' />
    <nd ref='-147' />
    <nd ref='-148' />
    <nd ref='-149' />
    <tag k="OSM_ID" v="51985848"/>
  </way>
  <node id='-151' visible='true' lat='42.0995243' lon='19.562108' />
  <node id='-152' visible='true' lat='42.0990245' lon='19.5623412' />
  <node id='-153' visible='true' lat='42.09876' lon='19.5624329' />
  <way id='-154' visible='true'>
    <nd ref='-151' />
    <nd ref='-152' />
    <nd ref='-153' />
    <tag k="OSM_ID" v="51985726"/>
  </way>
  <node id='-155' visible='true' lat='42.1042897' lon='19.5652611' />
  <node id='-156' visible='true' lat='42.1040746' lon='19.5654676' />
  <node id='-157' visible='true' lat='42.103698' lon='19.565345' />
  <node id='-158' visible='true' lat='42.1032518' lon='19.5650727' />
  <node id='-159' visible='true' lat='42.1027192' lon='19.5644795' />
  <node id='-160' visible='true' lat='42.1022235' lon='19.563835' />
  <node id='-161' visible='true' lat='42.1016669' lon='19.5631413' />
  <node id='-162' visible='true' lat='42.1012659' lon='19.5627648' />
  <node id='-163' visible='true' lat='42.1008651' lon='19.5625114' />
  <node id='-164' visible='true' lat='42.1001558' lon='19.5622047' />
  <node id='-165' visible='true' lat='42.0995243' lon='19.562108' />
  <way id='-166' visible='true'>
    <nd ref='-155' />
    <nd ref='-156' />
    <nd ref='-157' />
    <nd ref='-158' />
    <nd ref='-159' />
    <nd ref='-160' />
    <nd ref='-161' />
    <nd ref='-162' />
    <nd ref='-163' />
    <nd ref='-164' />
    <nd ref='-165' />
    <tag k="OSM_ID" v="51985696"/>
  </way>
  <node id='-167' visible='true' lat='42.1225136' lon='19.5621214' />
  <node id='-168' visible='true' lat='42.1224524' lon='19.5626442' />
  <way id='-169' visible='true'>
    <nd ref='-167' />
    <nd ref='-168' />
    <tag k="OSM_ID" v="51985853"/>
  </way>
  <node id='-170' visible='true' lat='42.09876' lon='19.5624329' />
  <node id='-171' visible='true' lat='42.0986833' lon='19.5624594' />
  <node id='-172' visible='true' lat='42.098192' lon='19.5627731' />
  <node id='-173' visible='true' lat='42.097973' lon='19.5632623' />
  <node id='-174' visible='true' lat='42.0975979' lon='19.5638658' />
  <node id='-175' visible='true' lat='42.0971157' lon='19.5643005' />
  <node id='-176' visible='true' lat='42.0963828' lon='19.5650162' />
  <node id='-177' visible='true' lat='42.0955589' lon='19.5657308' />
  <node id='-178' visible='true' lat='42.0946463' lon='19.5665583' />
  <way id='-179' visible='true'>
    <nd ref='-170' />
    <nd ref='-171' />
    <nd ref='-172' />
    <nd ref='-173' />
    <nd ref='-174' />
    <nd ref='-175' />
    <nd ref='-176' />
    <nd ref='-177' />
    <nd ref='-178' />
    <tag k="OSM_ID" v="51985727"/>
  </way>
  <node id='-180' visible='true' lat='42.1176007' lon='19.5627193' />
  <node id='-181' visible='true' lat='42.1168777' lon='19.5635903' />
  <node id='-182' visible='true' lat='42.1164647' lon='19.5642014' />
  <node id='-183' visible='true' lat='42.1159086' lon='19.5648276' />
  <node id='-184' visible='true' lat='42.1156137' lon='19.5648705' />
  <node id='-185' visible='true' lat='42.1152343' lon='19.5645902' />
  <node id='-186' visible='true' lat='42.1149567' lon='19.5645723' />
  <node id='-187' visible='true' lat='42.1147362' lon='19.5648422' />
  <node id='-188' visible='true' lat='42.1144711' lon='19.565386' />
  <node id='-189' visible='true' lat='42.1141231' lon='19.5659564' />
  <way id='-190' visible='true'>
    <nd ref='-180' />
    <nd ref='-181' />
    <nd ref='-182' />
    <nd ref='-183' />
    <nd ref='-184' />
    <nd ref='-185' />
    <nd ref='-186' />
    <nd ref='-187' />
    <nd ref='-188' />
    <nd ref='-189' />
    <tag k="OSM_ID" v="51985842"/>
  </way>
  <node id='-191' visible='true' lat='42.1198418' lon='19.5654702' />
  <node id='-192' visible='true' lat='42.1200699' lon='19.564887' />
  <node id='-193' visible='true' lat='42.1202402' lon='19.5642324' />
  <way id='-194' visible='true'>
    <nd ref='-191' />
    <nd ref='-192' />
    <nd ref='-193' />
    <tag k="OSM_ID" v="51985839"/>
  </way>
  <node id='-195' visible='true' lat='42.1219308' lon='19.5651772' />
  <node id='-196' visible='true' lat='42.121725' lon='19.565048' />
  <node id='-197' visible='true' lat='42.1204504' lon='19.5644461' />
  <node id='-198' visible='true' lat='42.1202402' lon='19.5642324' />
  <way id='-199' visible='true'>
    <nd ref='-195' />
    <nd ref='-196' />
    <nd ref='-197' />
    <nd ref='-198' />
    <tag k="OSM_ID" v="51985752"/>
  </way>
  <node id='-200' visible='true' lat='42.103399' lon='19.5698271' />
  <node id='-201' visible='true' lat='42.1026664' lon='19.5692179' />
  <node id='-202' visible='true' lat='42.1023628' lon='19.5685509' />
  <node id='-203' visible='true' lat='42.1022188' lon='19.5677839' />
  <node id='-204' visible='true' lat='42.1022275' lon='19.567225' />
  <node id='-205' visible='true' lat='42.1021779' lon='19.5668289' />
  <node id='-206' visible='true' lat='42.1019841' lon='19.5663641' />
  <node id='-207' visible='true' lat='42.1015457' lon='19.565664' />
  <node id='-208' visible='true' lat='42.1011813' lon='19.5651547' />
  <way id='-209' visible='true'>
    <nd ref='-200' />
    <nd ref='-201' />
    <nd ref='-202' />
    <nd ref='-203' />
    <nd ref='-204' />
    <nd ref='-205' />
    <nd ref='-206' />
    <nd ref='-207' />
    <nd ref='-208' />
    <tag k="OSM_ID" v="51985830"/>
  </way>
  <node id='-210' visible='true' lat='42.1287943' lon='19.5665426' />
  <node id='-211' visible='true' lat='42.1277619' lon='19.5669685' />
  <node id='-212' visible='true' lat='42.1268841' lon='19.5677935' />
  <node id='-213' visible='true' lat='42.1264785' lon='19.5680709' />
  <node id='-214' visible='true' lat='42.1260128' lon='19.568149' />
  <node id='-215' visible='true' lat='42.1256824' lon='19.5680492' />
  <node id='-216' visible='true' lat='42.1252265' lon='19.5675093' />
  <node id='-217' visible='true' lat='42.1246894' lon='19.5668369' />
  <node id='-218' visible='true' lat='42.1238342' lon='19.5662793' />
  <node id='-219' visible='true' lat='42.1234735' lon='19.5661532' />
  <node id='-220' visible='true' lat='42.1229219' lon='19.5657993' />
  <node id='-221' visible='true' lat='42.1219308' lon='19.5651772' />
  <way id='-222' visible='true'>
    <nd ref='-210' />
    <nd ref='-211' />
    <nd ref='-212' />
    <nd ref='-213' />
    <nd ref='-214' />
    <nd ref='-215' />
    <nd ref='-216' />
    <nd ref='-217' />
    <nd ref='-218' />
    <nd ref='-219' />
    <nd ref='-220' />
    <nd ref='-221' />
    <tag k="OSM_ID" v="51985854"/>
  </way>
  <node id='-223' visible='true' lat='42.1141231' lon='19.5659564' />
  <node id='-224' visible='true' lat='42.1138308' lon='19.5664355' />
  <node id='-225' visible='true' lat='42.1132642' lon='19.5669296' />
  <node id='-226' visible='true' lat='42.1126106' lon='19.5674865' />
  <node id='-227' visible='true' lat='42.1121866' lon='19.5679294' />
  <node id='-228' visible='true' lat='42.1120224' lon='19.5684024' />
  <node id='-229' visible='true' lat='42.1119186' lon='19.5694036' />
  <node id='-230' visible='true' lat='42.1116938' lon='19.5700581' />
  <way id='-231' visible='true'>
    <nd ref='-223' />
    <nd ref='-224' />
    <nd ref='-225' />
    <nd ref='-226' />
    <nd ref='-227' />
    <nd ref='-228' />
    <nd ref='-229' />
    <nd ref='-230' />
    <tag k="OSM_ID" v="51985843"/>
  </way>
  <node id='-232' visible='true' lat='42.0946463' lon='19.5665583' />
  <node id='-233' visible='true' lat='42.0945833' lon='19.5672192' />
  <way id='-234' visible='true'>
    <nd ref='-232' />
    <nd ref='-233' />
    <tag k="OSM_ID" v="51985729"/>
  </way>
  <node id='-235' visible='true' lat='42.0945833' lon='19.5672192' />
  <node id='-236' visible='true' lat='42.0944485' lon='19.5678374' />
  <node id='-237' visible='true' lat='42.0941185' lon='19.5684399' />
  <node id='-238' visible='true' lat='42.0934324' lon='19.5693933' />
  <node id='-239' visible='true' lat='42.0933053' lon='19.5698532' />
  <node id='-240' visible='true' lat='42.0932845' lon='19.5705899' />
  <node id='-241' visible='true' lat='42.0934644' lon='19.5723811' />
  <node id='-242' visible='true' lat='42.0933694' lon='19.5731901' />
  <way id='-243' visible='true'>
    <nd ref='-235' />
    <nd ref='-236' />
    <nd ref='-237' />
    <nd ref='-238' />
    <nd ref='-239' />
    <nd ref='-240' />
    <nd ref='-241' />
    <nd ref='-242' />
    <tag k="OSM_ID" v="51985728"/>
  </way>
  <node id='-244' visible='true' lat='42.1096136' lon='19.5673722' />
  <node id='-245' visible='true' lat='42.1098457' lon='19.5687558' />
  <node id='-246' visible='true' lat='42.1099327' lon='19.5699913' />
  <node id='-247' visible='true' lat='42.1097516' lon='19.5710543' />
  <node id='-248' visible='true' lat='42.1096093' lon='19.5727763' />
  <node id='-249' visible='true' lat='42.1094634' lon='19.5739279' />
  <way id='-250' visible='true'>
    <nd ref='-244' />
    <nd ref='-245' />
    <nd ref='-246' />
    <nd ref='-247' />
    <nd ref='-248' />
    <nd ref='-249' />
    <tag k="NAME" v="No Name"/>
    <tag k="OSM_ID" v="52434801"/>
  </way>
  <node id='-251' visible='true' lat='42.103399' lon='19.5698271' />
  <node id='-252' visible='true' lat='42.1035924' lon='19.5695459' />
  <node id='-253' visible='true' lat='42.104469' lon='19.5687801' />
  <way id='-254' visible='true'>
    <nd ref='-251' />
    <nd ref='-252' />
    <nd ref='-253' />
    <tag k="OSM_ID" v="51985834"/>
  </way>
  <node id='-255' visible='true' lat='42.104469' lon='19.5687801' />
  <node id='-256' visible='true' lat='42.1045788' lon='19.5689822' />
  <way id='-257' visible='true'>
    <nd ref='-255' />
    <nd ref='-256' />
    <tag k="OSM_ID" v="51985835"/>
  </way>
  <node id='-258' visible='true' lat='42.1045788' lon='19.5689822' />
  <node id='-259' visible='true' lat='42.1055358' lon='19.569995' />
  <node id='-260' visible='true' lat='42.1064888' lon='19.5710447' />
  <node id='-261' visible='true' lat='42.1068467' lon='19.5717587' />
  <way id='-262' visible='true'>
    <nd ref='-258' />
    <nd ref='-259' />
    <nd ref='-260' />
    <nd ref='-261' />
    <tag k="OSM_ID" v="51985831"/>
  </way>
  <node id='-263' visible='true' lat='42.1037723' lon='19.5722298' />
  <node id='-264' visible='true' lat='42.1037522' lon='19.5716001' />
  <node id='-265' visible='true' lat='42.103674' lon='19.5710723' />
  <node id='-266' visible='true' lat='42.1034231' lon='19.5703199' />
  <node id='-267' visible='true' lat='42.103399' lon='19.5698271' />
  <way id='-268' visible='true'>
    <nd ref='-263' />
    <nd ref='-264' />
    <nd ref='-265' />
    <nd ref='-266' />
    <nd ref='-267' />
    <tag k="OSM_ID" v="51985833"/>
  </way>
  <node id='-269' visible='true' lat='42.104748' lon='19.571522' />
  <node id='-270' visible='true' lat='42.1040558' lon='19.5720069' />
  <node id='-271' visible='true' lat='42.1037723' lon='19.5722298' />
  <way id='-272' visible='true'>
    <nd ref='-269' />
    <nd ref='-270' />
    <nd ref='-271' />
    <tag k="OSM_ID" v="51985836"/>
  </way>
  <node id='-273' visible='true' lat='42.105341' lon='19.573543' />
  <node id='-274' visible='true' lat='42.1053247' lon='19.573278' />
  <node id='-275' visible='true' lat='42.1052986' lon='19.5726167' />
  <node id='-276' visible='true' lat='42.1051314' lon='19.5721272' />
  <node id='-277' visible='true' lat='42.104748' lon='19.571522' />
  <way id='-278' visible='true'>
    <nd ref='-273' />
    <nd ref='-274' />
    <nd ref='-275' />
    <nd ref='-276' />
    <nd ref='-277' />
    <tag k="OSM_ID" v="51985837"/>
  </way>
  <node id='-279' visible='true' lat='42.1037723' lon='19.5722298' />
  <node id='-280' visible='true' lat='42.1035698' lon='19.5725045' />
  <way id='-281' visible='true'>
    <nd ref='-279' />
    <nd ref='-280' />
    <tag k="OSM_ID" v="51985838"/>
  </way>
  <node id='-282' visible='true' lat='42.1054371' lon='19.5751166' />
  <node id='-283' visible='true' lat='42.105341' lon='19.573543' />
  <way id='-284' visible='true'>
    <nd ref='-282' />
    <nd ref='-283' />
    <tag k="OSM_ID" v="51985832"/>
  </way>
  <node id='-285' visible='true' lat='42.1143166' lon='19.5752883' />
  <node id='-286' visible='true' lat='42.1141037' lon='19.5749098' />
  <node id='-287' visible='true' lat='42.1133711' lon='19.5743898' />
  <node id='-288' visible='true' lat='42.1126003' lon='19.5740909' />
  <node id='-289' visible='true' lat='42.1114664' lon='19.5740821' />
  <node id='-290' visible='true' lat='42.111006' lon='19.574065' />
  <node id='-291' visible='true' lat='42.1104503' lon='19.5737887' />
  <node id='-292' visible='true' lat='42.1094634' lon='19.5739279' />
  <way id='-293' visible='true'>
    <nd ref='-285' />
    <nd ref='-286' />
    <nd ref='-287' />
    <nd ref='-288' />
    <nd ref='-289' />
    <nd ref='-290' />
    <nd ref='-291' />
    <nd ref='-292' />
    <tag k="NAME" v="Kiri"/>
    <tag k="OSM_ID" v="52434800"/>
  </way>
  <node id='-294' visible='true' lat='42.1783' lon='19.71975' />
  <node id='-295' visible='true' lat='42.1780669' lon='19.71955' />
  <node id='-296' visible='true' lat='42.17725' lon='19.7185169' />
  <node id='-297' visible='true' lat='42.17595' lon='19.7166169' />
  <node id='-298' visible='true' lat='42.174767' lon='19.7144' />
  <node id='-299' visible='true' lat='42.1739669' lon='19.7111669' />
  <node id='-300' visible='true' lat='42.173433' lon='19.7100329' />
  <node id='-301' visible='true' lat='42.1718169' lon='19.708417' />
  <node id='-302' visible='true' lat='42.17085' lon='19.706617' />
  <node id='-303' visible='true' lat='42.170433' lon='19.703433' />
  <node id='-304' visible='true' lat='42.170883' lon='19.7003999' />
  <node id='-305' visible='true' lat='42.1711329' lon='19.697917' />
  <node id='-306' visible='true' lat='42.170417' lon='19.6961329' />
  <node id='-307' visible='true' lat='42.1686499' lon='19.696117' />
  <node id='-308' visible='true' lat='42.1671329' lon='19.697983' />
  <node id='-309' visible='true' lat='42.1662' lon='19.6978329' />
  <node id='-310' visible='true' lat='42.1653' lon='19.6954829' />
  <node id='-311' visible='true' lat='42.164833' lon='19.6942669' />
  <node id='-312' visible='true' lat='42.165367' lon='19.692817' />
  <node id='-313' visible='true' lat='42.1656499' lon='19.6914' />
  <node id='-314' visible='true' lat='42.165317' lon='19.6898' />
  <node id='-315' visible='true' lat='42.1656329' lon='19.6888669' />
  <node id='-316' visible='true' lat='42.1641499' lon='19.6880829' />
  <node id='-317' visible='true' lat='42.1638329' lon='19.686467' />
  <node id='-318' visible='true' lat='42.163817' lon='19.6842329' />
  <node id='-319' visible='true' lat='42.163017' lon='19.6805829' />
  <node id='-320' visible='true' lat='42.1630499' lon='19.6797329' />
  <node id='-321' visible='true' lat='42.16275' lon='19.6776' />
  <node id='-322' visible='true' lat='42.1613169' lon='19.675933' />
  <node id='-323' visible='true' lat='42.1606329' lon='19.6745829' />
  <node id='-324' visible='true' lat='42.1598329' lon='19.6730829' />
  <node id='-325' visible='true' lat='42.1576' lon='19.67235' />
  <node id='-326' visible='true' lat='42.1550829' lon='19.6687329' />
  <node id='-327' visible='true' lat='42.1535999' lon='19.666917' />
  <node id='-328' visible='true' lat='42.1508499' lon='19.664317' />
  <node id='-329' visible='true' lat='42.1499829' lon='19.6631999' />
  <node id='-330' visible='true' lat='42.1491499' lon='19.6611669' />
  <node id='-331' visible='true' lat='42.14835' lon='19.66015' />
  <node id='-332' visible='true' lat='42.1471999' lon='19.658' />
  <node id='-333' visible='true' lat='42.146067' lon='19.65725' />
  <node id='-334' visible='true' lat='42.14495' lon='19.655117' />
  <node id='-335' visible='true' lat='42.143917' lon='19.6536669' />
  <node id='-336' visible='true' lat='42.142833' lon='19.6522669' />
  <node id='-337' visible='true' lat='42.1427169' lon='19.64955' />
  <node id='-338' visible='true' lat='42.14195' lon='19.647717' />
  <node id='-339' visible='true' lat='42.140683' lon='19.64675' />
  <node id='-340' visible='true' lat='42.1407669' lon='19.644217' />
  <node id='-341' visible='true' lat='42.1410499' lon='19.642617' />
  <node id='-342' visible='true' lat='42.14175' lon='19.640833' />
  <node id='-343' visible='true' lat='42.1418829' lon='19.639233' />
  <node id='-344' visible='true' lat='42.1410169' lon='19.6382669' />
  <node id='-345' visible='true' lat='42.139817' lon='19.638417' />
  <node id='-346' visible='true' lat='42.1399169' lon='19.636717' />
  <node id='-347' visible='true' lat='42.1394329' lon='19.6339' />
  <node id='-348' visible='true' lat='42.137067' lon='19.6314169' />
  <node id='-349' visible='true' lat='42.13575' lon='19.6295329' />
  <node id='-350' visible='true' lat='42.133667' lon='19.6254999' />
  <node id='-351' visible='true' lat='42.132133' lon='19.6235329' />
  <node id='-352' visible='true' lat='42.130667' lon='19.621317' />
  <node id='-353' visible='true' lat='42.1306999' lon='19.6188499' />
  <node id='-354' visible='true' lat='42.130267' lon='19.6152499' />
  <node id='-355' visible='true' lat='42.13045' lon='19.6137669' />
  <node id='-356' visible='true' lat='42.130867' lon='19.6113169' />
  <node id='-357' visible='true' lat='42.1305669' lon='19.609283' />
  <node id='-358' visible='true' lat='42.12955' lon='19.6074829' />
  <node id='-359' visible='true' lat='42.1281499' lon='19.604983' />
  <node id='-360' visible='true' lat='42.1261' lon='19.603683' />
  <node id='-361' visible='true' lat='42.1241669' lon='19.6038169' />
  <node id='-362' visible='true' lat='42.123367' lon='19.60235' />
  <node id='-363' visible='true' lat='42.123767' lon='19.5992999' />
  <node id='-364' visible='true' lat='42.1232499' lon='19.5979169' />
  <node id='-365' visible='true' lat='42.123317' lon='19.5957669' />
  <node id='-366' visible='true' lat='42.1242329' lon='19.5933829' />
  <node id='-367' visible='true' lat='42.1255329' lon='19.5924669' />
  <node id='-368' visible='true' lat='42.1262499' lon='19.5896' />
  <node id='-369' visible='true' lat='42.1266329' lon='19.5880499' />
  <node id='-370' visible='true' lat='42.127383' lon='19.5858999' />
  <node id='-371' visible='true' lat='42.1283829' lon='19.5857829' />
  <node id='-372' visible='true' lat='42.1275329' lon='19.5846669' />
  <node id='-373' visible='true' lat='42.126483' lon='19.582667' />
  <node id='-374' visible='true' lat='42.1262909' lon='19.5821092' />
  <node id='-375' visible='true' lat='42.125633' lon='19.5802' />
  <node id='-376' visible='true' lat='42.12375' lon='19.5780169' />
  <node id='-377' visible='true' lat='42.121917' lon='19.577283' />
  <node id='-378' visible='true' lat='42.120283' lon='19.5760669' />
  <node id='-379' visible='true' lat='42.1191371' lon='19.5761305' />
  <node id='-380' visible='true' lat='42.11675' lon='19.575433' />
  <node id='-381' visible='true' lat='42.1157669' lon='19.5747169' />
  <way id='-382' visible='true'>
    <nd ref='-294' />
    <nd ref='-295' />
    <nd ref='-296' />
    <nd ref='-297' />
    <nd ref='-298' />
    <nd ref='-299' />
    <nd ref='-300' />
    <nd ref='-301' />
    <nd ref='-302' />
    <nd ref='-303' />
    <nd ref='-304' />
    <nd ref='-305' />
    <nd ref='-306' />
    <nd ref='-307' />
    <nd ref='-308' />
    <nd ref='-309' />
    <nd ref='-310' />
    <nd ref='-311' />
    <nd ref='-312' />
    <nd ref='-313' />
    <nd ref='-314' />
    <nd ref='-315' />
    <nd ref='-316' />
    <nd ref='-317' />
    <nd ref='-318' />
    <nd ref='-319' />
    <nd ref='-320' />
    <nd ref='-321' />
    <nd ref='-322' />
    <nd ref='-323' />
    <nd ref='-324' />
    <nd ref='-325' />
    <nd ref='-326' />
    <nd ref='-327' />
    <nd ref='-328' />
    <nd ref='-329' />
    <nd ref='-330' />
    <nd ref='-331' />
    <nd ref='-332' />
    <nd ref='-333' />
    <nd ref='-334' />
    <nd ref='-335' />
    <nd ref='-336' />
    <nd ref='-337' />
    <nd ref='-338' />
    <nd ref='-339' />
    <nd ref='-340' />
    <nd ref='-341' />
    <nd ref='-342' />
    <nd ref='-343' />
    <nd ref='-344' />
    <nd ref='-345' />
    <nd ref='-346' />
    <nd ref='-347' />
    <nd ref='-348' />
    <nd ref='-349' />
    <nd ref='-350' />
    <nd ref='-351' />
    <nd ref='-352' />
    <nd ref='-353' />
    <nd ref='-354' />
    <nd ref='-355' />
    <nd ref='-356' />
    <nd ref='-357' />
    <nd ref='-358' />
    <nd ref='-359' />
    <nd ref='-360' />
    <nd ref='-361' />
    <nd ref='-362' />
    <nd ref='-363' />
    <nd ref='-364' />
    <nd ref='-365' />
    <nd ref='-366' />
    <nd ref='-367' />
    <nd ref='-368' />
    <nd ref='-369' />
    <nd ref='-370' />
    <nd ref='-371' />
    <nd ref='-372' />
    <nd ref='-373' />
    <nd ref='-374' />
    <nd ref='-375' />
    <nd ref='-376' />
    <nd ref='-377' />
    <nd ref='-378' />
    <nd ref='-379' />
    <nd ref='-380' />
    <nd ref='-381' />
    <tag k="OSM_ID" v="30507213"/>
  </way>
  <node id='-383' visible='true' lat='42.1036494' lon='19.5763053' />
  <node id='-384' visible='true' lat='42.1032918' lon='19.5772569' />
  <node id='-385' visible='true' lat='42.102927' lon='19.5776293' />
  <node id='-386' visible='true' lat='42.1023539' lon='19.578089' />
  <node id='-387' visible='true' lat='42.1019892' lon='19.578478' />
  <node id='-388' visible='true' lat='42.1016783' lon='19.5792134' />
  <node id='-389' visible='true' lat='42.1015111' lon='19.5806408' />
  <way id='-390' visible='true'>
    <nd ref='-383' />
    <nd ref='-384' />
    <nd ref='-385' />
    <nd ref='-386' />
    <nd ref='-387' />
    <nd ref='-388' />
    <nd ref='-389' />
    <tag k="OSM_ID" v="51985825"/>
  </way>
  <node id='-391' visible='true' lat='42.1049849' lon='19.585919' />
  <node id='-392' visible='true' lat='42.1048053' lon='19.5850943' />
  <node id='-393' visible='true' lat='42.1045057' lon='19.5837767' />
  <node id='-394' visible='true' lat='42.104488' lon='19.5833301' />
  <node id='-395' visible='true' lat='42.1046067' lon='19.5829798' />
  <node id='-396' visible='true' lat='42.104944' lon='19.5823597' />
  <node id='-397' visible='true' lat='42.1051649' lon='19.5813118' />
  <node id='-398' visible='true' lat='42.1050989' lon='19.5809491' />
  <node id='-399' visible='true' lat='42.1048965' lon='19.5805231' />
  <node id='-400' visible='true' lat='42.104454' lon='19.5796315' />
  <node id='-401' visible='true' lat='42.1041471' lon='19.5787112' />
  <node id='-402' visible='true' lat='42.1039236' lon='19.5775573' />
  <node id='-403' visible='true' lat='42.1036494' lon='19.5763053' />
  <way id='-404' visible='true'>
    <nd ref='-391' />
    <nd ref='-392' />
    <nd ref='-393' />
    <nd ref='-394' />
    <nd ref='-395' />
    <nd ref='-396' />
    <nd ref='-397' />
    <nd ref='-398' />
    <nd ref='-399' />
    <nd ref='-400' />
    <nd ref='-401' />
    <nd ref='-402' />
    <nd ref='-403' />
    <tag k="OSM_ID" v="51985826"/>
  </way>
  <node id='-405' visible='true' lat='42.1248608' lon='19.5786331' />
  <node id='-406' visible='true' lat='42.1247202' lon='19.5786076' />
  <node id='-407' visible='true' lat='42.1236591' lon='19.5786163' />
  <way id='-408' visible='true'>
    <nd ref='-405' />
    <nd ref='-406' />
    <nd ref='-407' />
    <tag k="OSM_ID" v="51985852"/>
  </way>
  <node id='-409' visible='true' lat='42.1259619' lon='19.5799249' />
  <node id='-410' visible='true' lat='42.1257658' lon='19.5791551' />
  <node id='-411' visible='true' lat='42.1253808' lon='19.578728' />
  <node id='-412' visible='true' lat='42.1248608' lon='19.5786331' />
  <way id='-413' visible='true'>
    <nd ref='-409' />
    <nd ref='-410' />
    <nd ref='-411' />
    <nd ref='-412' />
    <tag k="OSM_ID" v="51985857"/>
  </way>
  <node id='-414' visible='true' lat='42.1015111' lon='19.5806408' />
  <node id='-415' visible='true' lat='42.1011732' lon='19.5817118' />
  <node id='-416' visible='true' lat='42.1008576' lon='19.582083' />
  <node id='-417' visible='true' lat='42.1002567' lon='19.5822785' />
  <node id='-418' visible='true' lat='42.0995691' lon='19.5824429' />
  <node id='-419' visible='true' lat='42.0988624' lon='19.5830379' />
  <node id='-420' visible='true' lat='42.0978607' lon='19.5834976' />
  <way id='-421' visible='true'>
    <nd ref='-414' />
    <nd ref='-415' />
    <nd ref='-416' />
    <nd ref='-417' />
    <nd ref='-418' />
    <nd ref='-419' />
    <nd ref='-420' />
    <tag k="OSM_ID" v="51985698"/>
  </way>
  <node id='-422' visible='true' lat='42.1271485' lon='19.5836715' />
  <node id='-423' visible='true' lat='42.1276521' lon='19.5835715' />
  <node id='-424' visible='true' lat='42.1284734' lon='19.5833474' />
  <way id='-425' visible='true'>
    <nd ref='-422' />
    <nd ref='-423' />
    <nd ref='-424' />
    <tag k="OSM_ID" v="51985851"/>
  </way>
  <node id='-426' visible='true' lat='42.1512091' lon='19.5850207' />
  <node id='-427' visible='true' lat='42.151002' lon='19.5851682' />
  <node id='-428' visible='true' lat='42.1505708' lon='19.585819' />
  <node id='-429' visible='true' lat='42.1502961' lon='19.5862778' />
  <node id='-430' visible='true' lat='42.1497413' lon='19.5867426' />
  <node id='-431' visible='true' lat='42.1494211' lon='19.5871691' />
  <node id='-432' visible='true' lat='42.1491285' lon='19.5876784' />
  <node id='-433' visible='true' lat='42.1485251' lon='19.5880061' />
  <node id='-434' visible='true' lat='42.1480345' lon='19.5883816' />
  <node id='-435' visible='true' lat='42.147494' lon='19.5885068' />
  <node id='-436' visible='true' lat='42.1469163' lon='19.5886454' />
  <node id='-437' visible='true' lat='42.146322' lon='19.5888348' />
  <node id='-438' visible='true' lat='42.14538' lon='19.5889816' />
  <node id='-439' visible='true' lat='42.1448132' lon='19.589233' />
  <node id='-440' visible='true' lat='42.1440802' lon='19.5896641' />
  <node id='-441' visible='true' lat='42.143216' lon='19.5898476' />
  <node id='-442' visible='true' lat='42.1427806' lon='19.5901589' />
  <node id='-443' visible='true' lat='42.1426349' lon='19.5904765' />
  <node id='-444' visible='true' lat='42.1425586' lon='19.5911067' />
  <way id='-445' visible='true'>
    <nd ref='-426' />
    <nd ref='-427' />
    <nd ref='-428' />
    <nd ref='-429' />
    <nd ref='-430' />
    <nd ref='-431' />
    <nd ref='-432' />
    <nd ref='-433' />
    <nd ref='-434' />
    <nd ref='-435' />
    <nd ref='-436' />
    <nd ref='-437' />
    <nd ref='-438' />
    <nd ref='-439' />
    <nd ref='-440' />
    <nd ref='-441' />
    <nd ref='-442' />
    <nd ref='-443' />
    <nd ref='-444' />
    <tag k="OSM_ID" v="51985739"/>
  </way>
  <node id='-446' visible='true' lat='42.1283829' lon='19.5857829' />
  <node id='-447' visible='true' lat='42.1322102' lon='19.5867949' />
  <node id='-448' visible='true' lat='42.1348543' lon='19.5877301' />
  <node id='-449' visible='true' lat='42.1354177' lon='19.5899512' />
  <node id='-450' visible='true' lat='42.1348977' lon='19.5914125' />
  <node id='-451' visible='true' lat='42.1354177' lon='19.5926399' />
  <node id='-452' visible='true' lat='42.1377148' lon='19.593049' />
  <node id='-453' visible='true' lat='42.1398386' lon='19.5929906' />
  <node id='-454' visible='true' lat='42.1409221' lon='19.593692' />
  <node id='-455' visible='true' lat='42.1421789' lon='19.5918799' />
  <node id='-456' visible='true' lat='42.145256' lon='19.5917047' />
  <node id='-457' visible='true' lat='42.1483327' lon='19.5912371' />
  <node id='-458' visible='true' lat='42.1505428' lon='19.5908863' />
  <node id='-459' visible='true' lat='42.153186' lon='19.5897174' />
  <node id='-460' visible='true' lat='42.1540527' lon='19.589659' />
  <node id='-461' visible='true' lat='42.1550493' lon='19.5905942' />
  <node id='-462' visible='true' lat='42.1560892' lon='19.5914125' />
  <node id='-463' visible='true' lat='42.1571291' lon='19.5928152' />
  <node id='-464' visible='true' lat='42.1587322' lon='19.5943348' />
  <node id='-465' visible='true' lat='42.1610286' lon='19.5956791' />
  <node id='-466' visible='true' lat='42.1607686' lon='19.5975496' />
  <node id='-467' visible='true' lat='42.1617218' lon='19.5996537' />
  <node id='-468' visible='true' lat='42.1618951' lon='19.6025178' />
  <node id='-469' visible='true' lat='42.1631082' lon='19.6037451' />
  <node id='-470' visible='true' lat='42.1644513' lon='19.6053817' />
  <node id='-471' visible='true' lat='42.1656643' lon='19.6062' />
  <node id='-472' visible='true' lat='42.1663142' lon='19.6079535' />
  <node id='-473' visible='true' lat='42.167787' lon='19.6090055' />
  <node id='-474' visible='true' lat='42.1693466' lon='19.610876' />
  <node id='-475' visible='true' lat='42.1702563' lon='19.6125125' />
  <node id='-476' visible='true' lat='42.1720325' lon='19.6127463' />
  <node id='-477' visible='true' lat='42.1755844' lon='19.6140322' />
  <node id='-478' visible='true' lat='42.1783132' lon='19.6140322' />
  <node id='-479' visible='true' lat='42.1802191' lon='19.6143244' />
  <node id='-480' visible='true' lat='42.1823847' lon='19.6159025' />
  <way id='-481' visible='true'>
    <nd ref='-446' />
    <nd ref='-447' />
    <nd ref='-448' />
    <nd ref='-449' />
    <nd ref='-450' />
    <nd ref='-451' />
    <nd ref='-452' />
    <nd ref='-453' />
    <nd ref='-454' />
    <nd ref='-455' />
    <nd ref='-456' />
    <nd ref='-457' />
    <nd ref='-458' />
    <nd ref='-459' />
    <nd ref='-460' />
    <nd ref='-461' />
    <nd ref='-462' />
    <nd ref='-463' />
    <nd ref='-464' />
    <nd ref='-465' />
    <nd ref='-466' />
    <nd ref='-467' />
    <nd ref='-468' />
    <nd ref='-469' />
    <nd ref='-470' />
    <nd ref='-471' />
    <nd ref='-472' />
    <nd ref='-473' />
    <nd ref='-474' />
    <nd ref='-475' />
    <nd ref='-476' />
    <nd ref='-477' />
    <nd ref='-478' />
    <nd ref='-479' />
    <nd ref='-480' />
    <tag k="OSM_ID" v="48648442"/>
  </way>
  <node id='-482' visible='true' lat='42.1120317' lon='19.5974031' />
  <node id='-483' visible='true' lat='42.1123554' lon='19.5967118' />
  <node id='-484' visible='true' lat='42.1124726' lon='19.596229' />
  <node id='-485' visible='true' lat='42.1122793' lon='19.5955213' />
  <node id='-486' visible='true' lat='42.1119509' lon='19.5948497' />
  <node id='-487' visible='true' lat='42.111009' lon='19.5933473' />
  <node id='-488' visible='true' lat='42.110144' lon='19.5921081' />
  <node id='-489' visible='true' lat='42.1093924' lon='19.5910651' />
  <node id='-490' visible='true' lat='42.1086351' lon='19.5901299' />
  <node id='-491' visible='true' lat='42.1077135' lon='19.5892894' />
  <node id='-492' visible='true' lat='42.1064168' lon='19.5879937' />
  <node id='-493' visible='true' lat='42.1054084' lon='19.5870676' />
  <node id='-494' visible='true' lat='42.1050924' lon='19.5864125' />
  <node id='-495' visible='true' lat='42.1049849' lon='19.585919' />
  <way id='-496' visible='true'>
    <nd ref='-482' />
    <nd ref='-483' />
    <nd ref='-484' />
    <nd ref='-485' />
    <nd ref='-486' />
    <nd ref='-487' />
    <nd ref='-488' />
    <nd ref='-489' />
    <nd ref='-490' />
    <nd ref='-491' />
    <nd ref='-492' />
    <nd ref='-493' />
    <nd ref='-494' />
    <nd ref='-495' />
    <tag k="OSM_ID" v="51985829"/>
  </way>
  <node id='-497' visible='true' lat='42.1264377' lon='19.5874528' />
  <node id='-498' visible='true' lat='42.1271036' lon='19.5879921' />
  <node id='-499' visible='true' lat='42.127405' lon='19.5885713' />
  <node id='-500' visible='true' lat='42.1274513' lon='19.5887884' />
  <way id='-501' visible='true'>
    <nd ref='-497' />
    <nd ref='-498' />
    <nd ref='-499' />
    <nd ref='-500' />
    <tag k="OSM_ID" v="51985850"/>
  </way>
  <node id='-502' visible='true' lat='42.1425586' lon='19.5911067' />
  <node id='-503' visible='true' lat='42.1430432' lon='19.5909954' />
  <node id='-504' visible='true' lat='42.1436531' lon='19.5911955' />
  <node id='-505' visible='true' lat='42.1440168' lon='19.5911498' />
  <node id='-506' visible='true' lat='42.1445658' lon='19.590949' />
  <node id='-507' visible='true' lat='42.1450186' lon='19.5906634' />
  <node id='-508' visible='true' lat='42.1460154' lon='19.590415' />
  <node id='-509' visible='true' lat='42.1465199' lon='19.5904038' />
  <node id='-510' visible='true' lat='42.1471218' lon='19.5907173' />
  <node id='-511' visible='true' lat='42.1474133' lon='19.5908742' />
  <node id='-512' visible='true' lat='42.1477476' lon='19.5908927' />
  <node id='-513' visible='true' lat='42.148386' lon='19.5903756' />
  <node id='-514' visible='true' lat='42.1487035' lon='19.5903686' />
  <node id='-515' visible='true' lat='42.1490779' lon='19.5904105' />
  <node id='-516' visible='true' lat='42.1494969' lon='19.5902881' />
  <node id='-517' visible='true' lat='42.1499297' lon='19.589763' />
  <node id='-518' visible='true' lat='42.1502473' lon='19.5890017' />
  <node id='-519' visible='true' lat='42.1504777' lon='19.588895' />
  <node id='-520' visible='true' lat='42.1511138' lon='19.5889562' />
  <node id='-521' visible='true' lat='42.1521868' lon='19.5888193' />
  <node id='-522' visible='true' lat='42.1525159' lon='19.588988' />
  <node id='-523' visible='true' lat='42.1531391' lon='19.5895147' />
  <node id='-524' visible='true' lat='42.1534752' lon='19.5897095' />
  <node id='-525' visible='true' lat='42.1536333' lon='19.5896557' />
  <node id='-526' visible='true' lat='42.1538462' lon='19.5894875' />
  <node id='-527' visible='true' lat='42.1539956' lon='19.5894717' />
  <way id='-528' visible='true'>
    <nd ref='-502' />
    <nd ref='-503' />
    <nd ref='-504' />
    <nd ref='-505' />
    <nd ref='-506' />
    <nd ref='-507' />
    <nd ref='-508' />
    <nd ref='-509' />
    <nd ref='-510' />
    <nd ref='-511' />
    <nd ref='-512' />
    <nd ref='-513' />
    <nd ref='-514' />
    <nd ref='-515' />
    <nd ref='-516' />
    <nd ref='-517' />
    <nd ref='-518' />
    <nd ref='-519' />
    <nd ref='-520' />
    <nd ref='-521' />
    <nd ref='-522' />
    <nd ref='-523' />
    <nd ref='-524' />
    <nd ref='-525' />
    <nd ref='-526' />
    <nd ref='-527' />
    <tag k="OSM_ID" v="51985737"/>
  </way>
  <node id='-529' visible='true' lat='42.0969331' lon='19.5902385' />
  <node id='-530' visible='true' lat='42.097742' lon='19.5899393' />
  <node id='-531' visible='true' lat='42.0980131' lon='19.5899497' />
  <node id='-532' visible='true' lat='42.0989232' lon='19.5908566' />
  <node id='-533' visible='true' lat='42.099249' lon='19.5913129' />
  <node id='-534' visible='true' lat='42.0997071' lon='19.5918753' />
  <node id='-535' visible='true' lat='42.1003766' lon='19.5922413' />
  <node id='-536' visible='true' lat='42.1010482' lon='19.5927727' />
  <node id='-537' visible='true' lat='42.1020769' lon='19.5933127' />
  <node id='-538' visible='true' lat='42.102609' lon='19.5938991' />
  <node id='-539' visible='true' lat='42.1034462' lon='19.5948904' />
  <node id='-540' visible='true' lat='42.1039279' lon='19.5950121' />
  <node id='-541' visible='true' lat='42.1047566' lon='19.5953085' />
  <node id='-542' visible='true' lat='42.105229' lon='19.5956788' />
  <node id='-543' visible='true' lat='42.1055227' lon='19.5965331' />
  <node id='-544' visible='true' lat='42.1061343' lon='19.5972498' />
  <node id='-545' visible='true' lat='42.1073027' lon='19.5981512' />
  <way id='-546' visible='true'>
    <nd ref='-529' />
    <nd ref='-530' />
    <nd ref='-531' />
    <nd ref='-532' />
    <nd ref='-533' />
    <nd ref='-534' />
    <nd ref='-535' />
    <nd ref='-536' />
    <nd ref='-537' />
    <nd ref='-538' />
    <nd ref='-539' />
    <nd ref='-540' />
    <nd ref='-541' />
    <nd ref='-542' />
    <nd ref='-543' />
    <nd ref='-544' />
    <nd ref='-545' />
    <tag k="OSM_ID" v="51985695"/>
  </way>
  <node id='-547' visible='true' lat='42.1045166' lon='19.6170696' />
  <node id='-548' visible='true' lat='42.1037734' lon='19.6167787' />
  <node id='-549' visible='true' lat='42.1027695' lon='19.6162378' />
  <node id='-550' visible='true' lat='42.1019745' lon='19.6156757' />
  <node id='-551' visible='true' lat='42.1010804' lon='19.6150495' />
  <node id='-552' visible='true' lat='42.1006226' lon='19.6146591' />
  <node id='-553' visible='true' lat='42.0999922' lon='19.6144578' />
  <node id='-554' visible='true' lat='42.0993761' lon='19.6144214' />
  <node id='-555' visible='true' lat='42.0988411' lon='19.6139696' />
  <node id='-556' visible='true' lat='42.0976175' lon='19.6125892' />
  <node id='-557' visible='true' lat='42.0970348' lon='19.6120024' />
  <node id='-558' visible='true' lat='42.0965077' lon='19.6111861' />
  <node id='-559' visible='true' lat='42.095908' lon='19.6104708' />
  <node id='-560' visible='true' lat='42.0954058' lon='19.6096707' />
  <node id='-561' visible='true' lat='42.0952271' lon='19.6091616' />
  <node id='-562' visible='true' lat='42.0952781' lon='19.6082831' />
  <node id='-563' visible='true' lat='42.0952674' lon='19.607406' />
  <node id='-564' visible='true' lat='42.0950381' lon='19.6067821' />
  <node id='-565' visible='true' lat='42.0945863' lon='19.6060802' />
  <node id='-566' visible='true' lat='42.0940803' lon='19.6056498' />
  <node id='-567' visible='true' lat='42.0936433' lon='19.6051628' />
  <node id='-568' visible='true' lat='42.0934609' lon='19.6043391' />
  <node id='-569' visible='true' lat='42.09299' lon='19.6030751' />
  <node id='-570' visible='true' lat='42.0928721' lon='19.6024983' />
  <node id='-571' visible='true' lat='42.0928905' lon='19.6019848' />
  <node id='-572' visible='true' lat='42.0931123' lon='19.6009868' />
  <node id='-573' visible='true' lat='42.0931313' lon='19.6005229' />
  <node id='-574' visible='true' lat='42.0929867' lon='19.5997811' />
  <node id='-575' visible='true' lat='42.0928791' lon='19.5990387' />
  <node id='-576' visible='true' lat='42.0929856' lon='19.5986888' />
  <node id='-577' visible='true' lat='42.0935258' lon='19.5985444' />
  <node id='-578' visible='true' lat='42.0940147' lon='19.5982522' />
  <node id='-579' visible='true' lat='42.0944393' lon='19.5977299' />
  <node id='-580' visible='true' lat='42.094672' lon='19.5972347' />
  <node id='-581' visible='true' lat='42.0949798' lon='19.5962348' />
  <node id='-582' visible='true' lat='42.0953257' lon='19.5953167' />
  <node id='-583' visible='true' lat='42.0954381' lon='19.5944369' />
  <node id='-584' visible='true' lat='42.095674' lon='19.5935875' />
  <node id='-585' visible='true' lat='42.0961836' lon='19.5929803' />
  <node id='-586' visible='true' lat='42.0964329' lon='19.5922133' />
  <node id='-587' visible='true' lat='42.0966633' lon='19.5913371' />
  <node id='-588' visible='true' lat='42.0969331' lon='19.5902385' />
  <way id='-589' visible='true'>
    <nd ref='-547' />
    <nd ref='-548' />
    <nd ref='-549' />
    <nd ref='-550' />
    <nd ref='-551' />
    <nd ref='-552' />
    <nd ref='-553' />
    <nd ref='-554' />
    <nd ref='-555' />
    <nd ref='-556' />
    <nd ref='-557' />
    <nd ref='-558' />
    <nd ref='-559' />
    <nd ref='-560' />
    <nd ref='-561' />
    <nd ref='-562' />
    <nd ref='-563' />
    <nd ref='-564' />
    <nd ref='-565' />
    <nd ref='-566' />
    <nd ref='-567' />
    <nd ref='-568' />
    <nd ref='-569' />
    <nd ref='-570' />
    <nd ref='-571' />
    <nd ref='-572' />
    <nd ref='-573' />
    <nd ref='-574' />
    <nd ref='-575' />
    <nd ref='-576' />
    <nd ref='-577' />
    <nd ref='-578' />
    <nd ref='-579' />
    <nd ref='-580' />
    <nd ref='-581' />
    <nd ref='-582' />
    <nd ref='-583' />
    <nd ref='-584' />
    <nd ref='-585' />
    <nd ref='-586' />
    <nd ref='-587' />
    <nd ref='-588' />
    <tag k="OSM_ID" v="51985694"/>
  </way>
  <node id='-590' visible='true' lat='42.1007543' lon='19.5903732' />
  <node id='-591' visible='true' lat='42.104496' lon='19.5937054' />
  <node id='-592' visible='true' lat='42.1079703' lon='19.5977579' />
  <way id='-593' visible='true'>
    <nd ref='-590' />
    <nd ref='-591' />
    <nd ref='-592' />
    <tag k="OSM_ID" v="48648874"/>
  </way>
  <node id='-594' visible='true' lat='42.1073027' lon='19.5981512' />
  <node id='-595' visible='true' lat='42.107888' lon='19.5976746' />
  <node id='-596' visible='true' lat='42.1085333' lon='19.5970809' />
  <node id='-597' visible='true' lat='42.1088406' lon='19.5970246' />
  <node id='-598' visible='true' lat='42.1099389' lon='19.5972155' />
  <node id='-599' visible='true' lat='42.1107027' lon='19.5974822' />
  <node id='-600' visible='true' lat='42.1113679' lon='19.5975006' />
  <node id='-601' visible='true' lat='42.1120317' lon='19.5974031' />
  <way id='-602' visible='true'>
    <nd ref='-594' />
    <nd ref='-595' />
    <nd ref='-596' />
    <nd ref='-597' />
    <nd ref='-598' />
    <nd ref='-599' />
    <nd ref='-600' />
    <nd ref='-601' />
    <tag k="OSM_ID" v="51985823"/>
  </way>
  <node id='-603' visible='true' lat='42.1658345' lon='19.5992418' />
  <node id='-604' visible='true' lat='42.165705' lon='19.5985909' />
  <node id='-605' visible='true' lat='42.1655707' lon='19.5976369' />
  <way id='-606' visible='true'>
    <nd ref='-603' />
    <nd ref='-604' />
    <nd ref='-605' />
    <tag k="OSM_ID" v="51985865"/>
  </way>
  <node id='-607' visible='true' lat='42.1365655' lon='19.601527' />
  <node id='-608' visible='true' lat='42.1364011' lon='19.6021005' />
  <node id='-609' visible='true' lat='42.1360634' lon='19.6025421' />
  <node id='-610' visible='true' lat='42.135758' lon='19.6031459' />
  <node id='-611' visible='true' lat='42.1356139' lon='19.6037326' />
  <node id='-612' visible='true' lat='42.1356491' lon='19.6041388' />
  <node id='-613' visible='true' lat='42.1358165' lon='19.6046371' />
  <node id='-614' visible='true' lat='42.1362944' lon='19.6049523' />
  <node id='-615' visible='true' lat='42.1370572' lon='19.6054512' />
  <node id='-616' visible='true' lat='42.1374258' lon='19.6059045' />
  <node id='-617' visible='true' lat='42.1376484' lon='19.6067952' />
  <way id='-618' visible='true'>
    <nd ref='-607' />
    <nd ref='-608' />
    <nd ref='-609' />
    <nd ref='-610' />
    <nd ref='-611' />
    <nd ref='-612' />
    <nd ref='-613' />
    <nd ref='-614' />
    <nd ref='-615' />
    <nd ref='-616' />
    <nd ref='-617' />
    <tag k="OSM_ID" v="51985869"/>
  </way>
  <node id='-619' visible='true' lat='42.1392538' lon='19.6021488' />
  <node id='-620' visible='true' lat='42.1387775' lon='19.6019694' />
  <node id='-621' visible='true' lat='42.1381791' lon='19.6016976' />
  <node id='-622' visible='true' lat='42.1375225' lon='19.601617' />
  <node id='-623' visible='true' lat='42.1371315' lon='19.6016231' />
  <node id='-624' visible='true' lat='42.1365655' lon='19.601527' />
  <way id='-625' visible='true'>
    <nd ref='-619' />
    <nd ref='-620' />
    <nd ref='-621' />
    <nd ref='-622' />
    <nd ref='-623' />
    <nd ref='-624' />
    <tag k="OSM_ID" v="51985870"/>
  </way>
  <node id='-626' visible='true' lat='42.1398537' lon='19.6050125' />
  <node id='-627' visible='true' lat='42.139498' lon='19.6048031' />
  <node id='-628' visible='true' lat='42.1392427' lon='19.6045508' />
  <node id='-629' visible='true' lat='42.1391374' lon='19.6041868' />
  <node id='-630' visible='true' lat='42.1391792' lon='19.6034667' />
  <node id='-631' visible='true' lat='42.1392538' lon='19.6021488' />
  <way id='-632' visible='true'>
    <nd ref='-626' />
    <nd ref='-627' />
    <nd ref='-628' />
    <nd ref='-629' />
    <nd ref='-630' />
    <nd ref='-631' />
    <tag k="OSM_ID" v="51985868"/>
  </way>
  <node id='-633' visible='true' lat='42.1472315' lon='19.602374' />
  <node id='-634' visible='true' lat='42.1464909' lon='19.6033088' />
  <node id='-635' visible='true' lat='42.1461451' lon='19.6039135' />
  <node id='-636' visible='true' lat='42.1460422' lon='19.6045808' />
  <node id='-637' visible='true' lat='42.1460088' lon='19.6051515' />
  <node id='-638' visible='true' lat='42.1460435' lon='19.6055172' />
  <node id='-639' visible='true' lat='42.1463807' lon='19.6066904' />
  <node id='-640' visible='true' lat='42.1466077' lon='19.6071197' />
  <node id='-641' visible='true' lat='42.1469813' lon='19.6071388' />
  <node id='-642' visible='true' lat='42.1481294' lon='19.6069779' />
  <node id='-643' visible='true' lat='42.148524' lon='19.6070777' />
  <way id='-644' visible='true'>
    <nd ref='-633' />
    <nd ref='-634' />
    <nd ref='-635' />
    <nd ref='-636' />
    <nd ref='-637' />
    <nd ref='-638' />
    <nd ref='-639' />
    <nd ref='-640' />
    <nd ref='-641' />
    <nd ref='-642' />
    <nd ref='-643' />
    <tag k="OSM_ID" v="51985878"/>
  </way>
  <node id='-645' visible='true' lat='42.1448171' lon='19.6075315' />
  <node id='-646' visible='true' lat='42.144306' lon='19.6074443' />
  <node id='-647' visible='true' lat='42.1433139' lon='19.6071674' />
  <node id='-648' visible='true' lat='42.142757' lon='19.6067712' />
  <node id='-649' visible='true' lat='42.142461' lon='19.6064927' />
  <node id='-650' visible='true' lat='42.1421983' lon='19.6064576' />
  <node id='-651' visible='true' lat='42.1418456' lon='19.6064925' />
  <node id='-652' visible='true' lat='42.1416629' lon='19.6063881' />
  <node id='-653' visible='true' lat='42.1412623' lon='19.6057997' />
  <node id='-654' visible='true' lat='42.1409019' lon='19.605197' />
  <node id='-655' visible='true' lat='42.1405864' lon='19.6049733' />
  <node id='-656' visible='true' lat='42.1402158' lon='19.6049231' />
  <node id='-657' visible='true' lat='42.1398537' lon='19.6050125' />
  <way id='-658' visible='true'>
    <nd ref='-645' />
    <nd ref='-646' />
    <nd ref='-647' />
    <nd ref='-648' />
    <nd ref='-649' />
    <nd ref='-650' />
    <nd ref='-651' />
    <nd ref='-652' />
    <nd ref='-653' />
    <nd ref='-654' />
    <nd ref='-655' />
    <nd ref='-656' />
    <nd ref='-657' />
    <tag k="OSM_ID" v="51985740"/>
  </way>
  <node id='-659' visible='true' lat='42.1372882' lon='19.6213009' />
  <node id='-660' visible='true' lat='42.1372427' lon='19.62048' />
  <node id='-661' visible='true' lat='42.1372309' lon='19.6195033' />
  <node id='-662' visible='true' lat='42.1371505' lon='19.6186909' />
  <node id='-663' visible='true' lat='42.1368589' lon='19.6179237' />
  <node id='-664' visible='true' lat='42.1366707' lon='19.617385' />
  <node id='-665' visible='true' lat='42.136616' lon='19.6170335' />
  <node id='-666' visible='true' lat='42.1367268' lon='19.6161762' />
  <node id='-667' visible='true' lat='42.1368275' lon='19.6156232' />
  <node id='-668' visible='true' lat='42.1368401' lon='19.6149987' />
  <node id='-669' visible='true' lat='42.1368156' lon='19.6146464' />
  <node id='-670' visible='true' lat='42.1366826' lon='19.6144865' />
  <node id='-671' visible='true' lat='42.1361168' lon='19.6144174' />
  <node id='-672' visible='true' lat='42.1354509' lon='19.6144049' />
  <node id='-673' visible='true' lat='42.1349244' lon='19.6142399' />
  <node id='-674' visible='true' lat='42.1345681' lon='19.6139763' />
  <node id='-675' visible='true' lat='42.1342045' lon='19.6137924' />
  <node id='-676' visible='true' lat='42.1336701' lon='19.6138176' />
  <node id='-677' visible='true' lat='42.1333861' lon='19.6136881' />
  <node id='-678' visible='true' lat='42.1332882' lon='19.6131068' />
  <node id='-679' visible='true' lat='42.1332706' lon='19.612483' />
  <node id='-680' visible='true' lat='42.1332717' lon='19.6117367' />
  <node id='-681' visible='true' lat='42.1332061' lon='19.6113175' />
  <node id='-682' visible='true' lat='42.13305' lon='19.6109274' />
  <node id='-683' visible='true' lat='42.1326413' lon='19.6105023' />
  <node id='-684' visible='true' lat='42.132314' lon='19.610116' />
  <node id='-685' visible='true' lat='42.1320344' lon='19.609525' />
  <node id='-686' visible='true' lat='42.1317941' lon='19.6088383' />
  <node id='-687' visible='true' lat='42.1316429' lon='19.608453' />
  <node id='-688' visible='true' lat='42.1312044' lon='19.6080693' />
  <node id='-689' visible='true' lat='42.1306365' lon='19.6078238' />
  <node id='-690' visible='true' lat='42.1300978' lon='19.6074829' />
  <node id='-691' visible='true' lat='42.1296569' lon='19.6068956' />
  <node id='-692' visible='true' lat='42.1291895' lon='19.6066344' />
  <way id='-693' visible='true'>
    <nd ref='-659' />
    <nd ref='-660' />
    <nd ref='-661' />
    <nd ref='-662' />
    <nd ref='-663' />
    <nd ref='-664' />
    <nd ref='-665' />
    <nd ref='-666' />
    <nd ref='-667' />
    <nd ref='-668' />
    <nd ref='-669' />
    <nd ref='-670' />
    <nd ref='-671' />
    <nd ref='-672' />
    <nd ref='-673' />
    <nd ref='-674' />
    <nd ref='-675' />
    <nd ref='-676' />
    <nd ref='-677' />
    <nd ref='-678' />
    <nd ref='-679' />
    <nd ref='-680' />
    <nd ref='-681' />
    <nd ref='-682' />
    <nd ref='-683' />
    <nd ref='-684' />
    <nd ref='-685' />
    <nd ref='-686' />
    <nd ref='-687' />
    <nd ref='-688' />
    <nd ref='-689' />
    <nd ref='-690' />
    <nd ref='-691' />
    <nd ref='-692' />
    <tag k="OSM_ID" v="51985874"/>
  </way>
  <node id='-694' visible='true' lat='42.1376484' lon='19.6067952' />
  <node id='-695' visible='true' lat='42.1379386' lon='19.607314' />
  <way id='-696' visible='true'>
    <nd ref='-694' />
    <nd ref='-695' />
    <tag k="OSM_ID" v="51985872"/>
  </way>
  <node id='-697' visible='true' lat='42.148524' lon='19.6070777' />
  <node id='-698' visible='true' lat='42.1479165' lon='19.6077289' />
  <node id='-699' visible='true' lat='42.1469937' lon='19.6081699' />
  <node id='-700' visible='true' lat='42.1466801' lon='19.6080952' />
  <node id='-701' visible='true' lat='42.1462914' lon='19.6076423' />
  <node id='-702' visible='true' lat='42.1459345' lon='19.607338' />
  <node id='-703' visible='true' lat='42.1456202' lon='19.6071956' />
  <node id='-704' visible='true' lat='42.1452619' lon='19.607247' />
  <node id='-705' visible='true' lat='42.1448171' lon='19.6075315' />
  <way id='-706' visible='true'>
    <nd ref='-697' />
    <nd ref='-698' />
    <nd ref='-699' />
    <nd ref='-700' />
    <nd ref='-701' />
    <nd ref='-702' />
    <nd ref='-703' />
    <nd ref='-704' />
    <nd ref='-705' />
    <tag k="OSM_ID" v="51985876"/>
  </way>
  <node id='-707' visible='true' lat='42.1163939' lon='19.6203664' />
  <node id='-708' visible='true' lat='42.1131681' lon='19.6191014' />
  <node id='-709' visible='true' lat='42.1112441' lon='19.6174444' />
  <node id='-710' visible='true' lat='42.109444' lon='19.6183329' />
  <node id='-711' visible='true' lat='42.1052577' lon='19.6170121' />
  <way id='-712' visible='true'>
    <nd ref='-707' />
    <nd ref='-708' />
    <nd ref='-709' />
    <nd ref='-710' />
    <nd ref='-711' />
    <tag k="OSM_ID" v="48648875"/>
  </way>
  <node id='-713' visible='true' lat='42.1566301' lon='19.6214882' />
  <node id='-714' visible='true' lat='42.15601' lon='19.6210945' />
  <node id='-715' visible='true' lat='42.1548315' lon='19.6204007' />
  <node id='-716' visible='true' lat='42.1542559' lon='19.620166' />
  <node id='-717' visible='true' lat='42.1535821' lon='19.6203299' />
  <node id='-718' visible='true' lat='42.1528841' lon='19.6210102' />
  <node id='-719' visible='true' lat='42.1521552' lon='19.6216366' />
  <node id='-720' visible='true' lat='42.1516745' lon='19.6219321' />
  <node id='-721' visible='true' lat='42.1507871' lon='19.6224944' />
  <node id='-722' visible='true' lat='42.1502083' lon='19.6230228' />
  <node id='-723' visible='true' lat='42.1498605' lon='19.6235254' />
  <node id='-724' visible='true' lat='42.1497231' lon='19.6242631' />
  <way id='-725' visible='true'>
    <nd ref='-713' />
    <nd ref='-714' />
    <nd ref='-715' />
    <nd ref='-716' />
    <nd ref='-717' />
    <nd ref='-718' />
    <nd ref='-719' />
    <nd ref='-720' />
    <nd ref='-721' />
    <nd ref='-722' />
    <nd ref='-723' />
    <nd ref='-724' />
    <tag k="OSM_ID" v="51985875"/>
  </way>
  <node id='-726' visible='true' lat='42.1369309' lon='19.6235259' />
  <node id='-727' visible='true' lat='42.1367174' lon='19.6225808' />
  <node id='-728' visible='true' lat='42.1367732' lon='19.6221861' />
  <node id='-729' visible='true' lat='42.1369893' lon='19.6217064' />
  <node id='-730' visible='true' lat='42.1372882' lon='19.6213009' />
  <way id='-731' visible='true'>
    <nd ref='-726' />
    <nd ref='-727' />
    <nd ref='-728' />
    <nd ref='-729' />
    <nd ref='-730' />
    <tag k="OSM_ID" v="51985873"/>
  </way>
  <node id='-732' visible='true' lat='42.1497231' lon='19.6242631' />
  <node id='-733' visible='true' lat='42.1495971' lon='19.6244164' />
  <node id='-734' visible='true' lat='42.1495692' lon='19.6247611' />
  <node id='-735' visible='true' lat='42.149542' lon='19.6251704' />
  <node id='-736' visible='true' lat='42.1493853' lon='19.6254321' />
  <node id='-737' visible='true' lat='42.1491483' lon='19.6256522' />
  <node id='-738' visible='true' lat='42.1485904' lon='19.6257935' />
  <node id='-739' visible='true' lat='42.1482075' lon='19.6258662' />
  <node id='-740' visible='true' lat='42.1476879' lon='19.6265229' />
  <node id='-741' visible='true' lat='42.147328' lon='19.6267107' />
  <node id='-742' visible='true' lat='42.1468161' lon='19.6266788' />
  <node id='-743' visible='true' lat='42.146641' lon='19.626747' />
  <node id='-744' visible='true' lat='42.1464216' lon='19.6271175' />
  <node id='-745' visible='true' lat='42.146025' lon='19.6273628' />
  <way id='-746' visible='true'>
    <nd ref='-732' />
    <nd ref='-733' />
    <nd ref='-734' />
    <nd ref='-735' />
    <nd ref='-736' />
    <nd ref='-737' />
    <nd ref='-738' />
    <nd ref='-739' />
    <nd ref='-740' />
    <nd ref='-741' />
    <nd ref='-742' />
    <nd ref='-743' />
    <nd ref='-744' />
    <nd ref='-745' />
    <tag k="OSM_ID" v="51985877"/>
  </way>
  <node id='-747' visible='true' lat='42.1334063' lon='19.5377128' />
  <node id='-748' visible='true' lat='42.1324427' lon='19.5396087' />
  <node id='-749' visible='true' lat='42.1313856' lon='19.5420961' />
  <way id='-750' visible='true'>
    <nd ref='-747' />
    <nd ref='-748' />
    <nd ref='-749' />
    <tag k="OSM_ID" v="51985794"/>
  </way>
  <node id='-751' visible='true' lat='42.1350338' lon='19.5402529' />
  <node id='-752' visible='true' lat='42.1348948' lon='19.5400382' />
  <node id='-753' visible='true' lat='42.1342556' lon='19.5390416' />
  <node id='-754' visible='true' lat='42.1334063' lon='19.5377128' />
  <way id='-755' visible='true'>
    <nd ref='-751' />
    <nd ref='-752' />
    <nd ref='-753' />
    <nd ref='-754' />
    <tag k="OSM_ID" v="51985822"/>
  </way>
  <node id='-756' visible='true' lat='42.1313856' lon='19.5420961' />
  <node id='-757' visible='true' lat='42.1320881' lon='19.541743' />
  <node id='-758' visible='true' lat='42.1334316' lon='19.5411344' />
  <node id='-759' visible='true' lat='42.1350338' lon='19.5402529' />
  <way id='-760' visible='true'>
    <nd ref='-756' />
    <nd ref='-757' />
    <nd ref='-758' />
    <nd ref='-759' />
    <tag k="OSM_ID" v="51985792"/>
  </way>
  <node id='-761' visible='true' lat='42.1361455' lon='19.5422827' />
  <node id='-762' visible='true' lat='42.1357714' lon='19.5415844' />
  <node id='-763' visible='true' lat='42.1354402' lon='19.5408818' />
  <node id='-764' visible='true' lat='42.1350338' lon='19.5402529' />
  <way id='-765' visible='true'>
    <nd ref='-761' />
    <nd ref='-762' />
    <nd ref='-763' />
    <nd ref='-764' />
    <tag k="OSM_ID" v="51985819"/>
  </way>
</osm>
