<?xml version='1.0'?>
<osm version='0.5' generator='shp2osm.pl'>
  <node id='-1' visible='true' lat='39.7439417' lon='20.0188556' />
  <node id='-2' visible='true' lat='39.7438712' lon='20.0190549' />
  <node id='-3' visible='true' lat='39.7439899' lon='20.0194153' />
  <node id='-4' visible='true' lat='39.7446764' lon='20.0195183' />
  <node id='-5' visible='true' lat='39.7450722' lon='20.0195699' />
  <node id='-6' visible='true' lat='39.7451118' lon='20.0200333' />
  <node id='-7' visible='true' lat='39.7453561' lon='20.0203422' />
  <node id='-8' visible='true' lat='39.7454682' lon='20.0203595' />
  <node id='-9' visible='true' lat='39.7455738' lon='20.0208572' />
  <node id='-10' visible='true' lat='39.7455078' lon='20.0209602' />
  <node id='-11' visible='true' lat='39.7455343' lon='20.0210462' />
  <node id='-12' visible='true' lat='39.7456399' lon='20.0210633' />
  <node id='-13' visible='true' lat='39.7457058' lon='20.0213466' />
  <node id='-14' visible='true' lat='39.745422' lon='20.0215439' />
  <node id='-15' visible='true' lat='39.7453561' lon='20.021664' />
  <node id='-16' visible='true' lat='39.7452438' lon='20.0219045' />
  <node id='-17' visible='true' lat='39.7452241' lon='20.0222306' />
  <node id='-18' visible='true' lat='39.7454023' lon='20.022634' />
  <node id='-19' visible='true' lat='39.7454881' lon='20.0227456' />
  <node id='-20' visible='true' lat='39.7454881' lon='20.0229172' />
  <node id='-21' visible='true' lat='39.7455738' lon='20.0230631' />
  <node id='-22' visible='true' lat='39.7457719' lon='20.0229172' />
  <node id='-23' visible='true' lat='39.7459963' lon='20.0229344' />
  <node id='-24' visible='true' lat='39.7461018' lon='20.0230031' />
  <node id='-25' visible='true' lat='39.746214' lon='20.0231919' />
  <node id='-26' visible='true' lat='39.746445' lon='20.0230373' />
  <node id='-27' visible='true' lat='39.7463789' lon='20.0231919' />
  <node id='-28' visible='true' lat='39.7464581' lon='20.0233464' />
  <node id='-29' visible='true' lat='39.746577' lon='20.0232777' />
  <node id='-30' visible='true' lat='39.7466957' lon='20.0231747' />
  <node id='-31' visible='true' lat='39.746907' lon='20.0231233' />
  <node id='-32' visible='true' lat='39.7471049' lon='20.0232606' />
  <node id='-33' visible='true' lat='39.7472868' lon='20.0232519' />
  <node id='-34' visible='true' lat='39.7478638' lon='20.0228314' />
  <node id='-35' visible='true' lat='39.7478969' lon='20.0225223' />
  <node id='-36' visible='true' lat='39.7479761' lon='20.0223164' />
  <node id='-37' visible='true' lat='39.74791' lon='20.022076' />
  <node id='-38' visible='true' lat='39.7477979' lon='20.0217327' />
  <node id='-39' visible='true' lat='39.7476328' lon='20.0213208' />
  <node id='-40' visible='true' lat='39.747646' lon='20.0212006' />
  <node id='-41' visible='true' lat='39.7477517' lon='20.0210891' />
  <node id='-42' visible='true' lat='39.7476659' lon='20.0210633' />
  <node id='-43' visible='true' lat='39.7476659' lon='20.0208916' />
  <node id='-44' visible='true' lat='39.7474018' lon='20.0205741' />
  <node id='-45' visible='true' lat='39.747316' lon='20.0205483' />
  <node id='-46' visible='true' lat='39.7473029' lon='20.0202564' />
  <node id='-47' visible='true' lat='39.7466429' lon='20.0198445' />
  <node id='-48' visible='true' lat='39.7462602' lon='20.0199989' />
  <node id='-49' visible='true' lat='39.7460821' lon='20.0204452' />
  <node id='-50' visible='true' lat='39.7460622' lon='20.0199132' />
  <node id='-51' visible='true' lat='39.745752' lon='20.0197414' />
  <node id='-52' visible='true' lat='39.7454419' lon='20.0196299' />
  <node id='-53' visible='true' lat='39.7450722' lon='20.0195699' />
  <way id='-54' visible='true'>
    <nd ref='-1' />
    <nd ref='-2' />
    <nd ref='-3' />
    <nd ref='-4' />
    <nd ref='-5' />
    <nd ref='-6' />
    <nd ref='-7' />
    <nd ref='-8' />
    <nd ref='-9' />
    <nd ref='-10' />
    <nd ref='-11' />
    <nd ref='-12' />
    <nd ref='-13' />
    <nd ref='-14' />
    <nd ref='-15' />
    <nd ref='-16' />
    <nd ref='-17' />
    <nd ref='-18' />
    <nd ref='-19' />
    <nd ref='-20' />
    <nd ref='-21' />
    <nd ref='-22' />
    <nd ref='-23' />
    <nd ref='-24' />
    <nd ref='-25' />
    <nd ref='-26' />
    <nd ref='-27' />
    <nd ref='-28' />
    <nd ref='-29' />
    <nd ref='-30' />
    <nd ref='-31' />
    <nd ref='-32' />
    <nd ref='-33' />
    <nd ref='-34' />
    <nd ref='-35' />
    <nd ref='-36' />
    <nd ref='-37' />
    <nd ref='-38' />
    <nd ref='-39' />
    <nd ref='-40' />
    <nd ref='-41' />
    <nd ref='-42' />
    <nd ref='-43' />
    <nd ref='-44' />
    <nd ref='-45' />
    <nd ref='-46' />
    <nd ref='-47' />
    <nd ref='-48' />
    <nd ref='-49' />
    <nd ref='-50' />
    <nd ref='-51' />
    <nd ref='-52' />
    <nd ref='-53' />
    <tag k="OSM_ID" v="25996493"/>
  </way>
  <node id='-55' visible='true' lat='39.7429539' lon='20.0188661' />
  <node id='-56' visible='true' lat='39.7426634' lon='20.0189003' />
  <node id='-57' visible='true' lat='39.7424522' lon='20.0191836' />
  <node id='-58' visible='true' lat='39.7421949' lon='20.0195955' />
  <way id='-59' visible='true'>
    <nd ref='-55' />
    <nd ref='-56' />
    <nd ref='-57' />
    <nd ref='-58' />
    <tag k="OSM_ID" v="25996538"/>
  </way>
  <node id='-60' visible='true' lat='39.7436006' lon='20.018909' />
  <node id='-61' visible='true' lat='39.7429539' lon='20.0188661' />
  <way id='-62' visible='true'>
    <nd ref='-60' />
    <nd ref='-61' />
    <tag k="OSM_ID" v="25996536"/>
  </way>
  <node id='-63' visible='true' lat='39.7249528' lon='20.0700786' />
  <node id='-64' visible='true' lat='39.7262732' lon='20.0702503' />
  <node id='-65' visible='true' lat='39.7279894' lon='20.0702503' />
  <node id='-66' visible='true' lat='39.7285176' lon='20.0707653' />
  <node id='-67' visible='true' lat='39.7298377' lon='20.070422' />
  <node id='-68' visible='true' lat='39.7308938' lon='20.0699071' />
  <node id='-69' visible='true' lat='39.7319499' lon='20.0700786' />
  <node id='-70' visible='true' lat='39.7327421' lon='20.0712803' />
  <node id='-71' visible='true' lat='39.7340621' lon='20.0711086' />
  <node id='-72' visible='true' lat='39.7349863' lon='20.0711086' />
  <node id='-73' visible='true' lat='39.7357784' lon='20.071452' />
  <node id='-74' visible='true' lat='39.7361744' lon='20.072482' />
  <node id='-75' visible='true' lat='39.7368343' lon='20.0736835' />
  <node id='-76' visible='true' lat='39.7376264' lon='20.0740268' />
  <node id='-77' visible='true' lat='39.7388144' lon='20.0740268' />
  <node id='-78' visible='true' lat='39.7397385' lon='20.0743702' />
  <node id='-79' visible='true' lat='39.7409265' lon='20.0738553' />
  <node id='-80' visible='true' lat='39.7414545' lon='20.072997' />
  <node id='-81' visible='true' lat='39.7423783' lon='20.0726535' />
  <node id='-82' visible='true' lat='39.7438304' lon='20.0728253' />
  <node id='-83' visible='true' lat='39.7448862' lon='20.0738553' />
  <node id='-84' visible='true' lat='39.7464701' lon='20.0741985' />
  <node id='-85' visible='true' lat='39.747658' lon='20.0748852' />
  <node id='-86' visible='true' lat='39.7483179' lon='20.0750568' />
  <node id='-87' visible='true' lat='39.7497698' lon='20.0738553' />
  <node id='-88' visible='true' lat='39.7508255' lon='20.0740268' />
  <node id='-89' visible='true' lat='39.7521454' lon='20.0752285' />
  <way id='-90' visible='true'>
    <nd ref='-63' />
    <nd ref='-64' />
    <nd ref='-65' />
    <nd ref='-66' />
    <nd ref='-67' />
    <nd ref='-68' />
    <nd ref='-69' />
    <nd ref='-70' />
    <nd ref='-71' />
    <nd ref='-72' />
    <nd ref='-73' />
    <nd ref='-74' />
    <nd ref='-75' />
    <nd ref='-76' />
    <nd ref='-77' />
    <nd ref='-78' />
    <nd ref='-79' />
    <nd ref='-80' />
    <nd ref='-81' />
    <nd ref='-82' />
    <nd ref='-83' />
    <nd ref='-84' />
    <nd ref='-85' />
    <nd ref='-86' />
    <nd ref='-87' />
    <nd ref='-88' />
    <nd ref='-89' />
    <tag k="OSM_ID" v="41468089"/>
  </way>
</osm>
