<?xml version='1.0'?>
<osm version='0.5' generator='shp2osm.pl'>
  <node id='-1' visible='true' lat='41.9190132' lon='19.5921796' />
  <node id='-2' visible='true' lat='41.9184606' lon='19.5926688' />
  <way id='-3' visible='true'>
    <nd ref='-1' />
    <nd ref='-2' />
    <tag k="OSM_ID" v="48736256"/>
  </way>
</osm>
