<?xml version='1.0'?>
<osm version='0.5' generator='shp2osm.pl'>
  <node id='-1' visible='true' lat='41.6746162' lon='19.6737557' />
  <node id='-2' visible='true' lat='41.6738788' lon='19.6737387' />
  <node id='-3' visible='true' lat='41.6710836' lon='19.6737557' />
  <node id='-4' visible='true' lat='41.6703972' lon='19.6738989' />
  <way id='-5' visible='true'>
    <nd ref='-1' />
    <nd ref='-2' />
    <nd ref='-3' />
    <nd ref='-4' />
    <tag k="OSM_ID" v="35324656"/>
  </way>
  <node id='-6' visible='true' lat='41.6703972' lon='19.6738989' />
  <node id='-7' visible='true' lat='41.6710194' lon='19.6742106' />
  <node id='-8' visible='true' lat='41.673943' lon='19.6743823' />
  <node id='-9' visible='true' lat='41.6746353' lon='19.6743309' />
  <way id='-10' visible='true'>
    <nd ref='-6' />
    <nd ref='-7' />
    <nd ref='-8' />
    <nd ref='-9' />
    <tag k="OSM_ID" v="35324659"/>
  </way>
  <node id='-11' visible='true' lat='41.6925579' lon='19.8309719' />
  <node id='-12' visible='true' lat='41.6936859' lon='19.8286286' />
  <way id='-13' visible='true'>
    <nd ref='-11' />
    <nd ref='-12' />
    <tag k="OSM_ID" v="35324651"/>
  </way>
</osm>
