<?xml version='1.0'?>
<osm version='0.5' generator='shp2osm.pl'>
  <node id='-1' visible='true' lat='41.7743755' lon='19.6438473' />
  <node id='-2' visible='true' lat='41.7746317' lon='19.6519155' />
  <node id='-3' visible='true' lat='41.7619564' lon='19.6613569' />
  <node id='-4' visible='true' lat='41.7624685' lon='19.6635884' />
  <node id='-5' visible='true' lat='41.7596515' lon='19.6692533' />
  <node id='-6' visible='true' lat='41.7599428' lon='19.6722433' />
  <way id='-7' visible='true'>
    <nd ref='-1' />
    <nd ref='-2' />
    <nd ref='-3' />
    <nd ref='-4' />
    <nd ref='-5' />
    <nd ref='-6' />
    <tag k="OSM_ID" v="41494857"/>
  </way>
</osm>
