<?xml version='1.0'?>
<osm version='0.5' generator='shp2osm.pl'>
  <node id='-1' visible='true' lat='41.3962299' lon='19.6540686' />
  <node id='-2' visible='true' lat='41.3966714' lon='19.6532401' />
  <way id='-3' visible='true'>
    <nd ref='-1' />
    <nd ref='-2' />
    <tag k="OSM_ID" v="27529783"/>
  </way>
  <node id='-4' visible='true' lat='41.3932059' lon='19.6585122' />
  <node id='-5' visible='true' lat='41.3933175' lon='19.6581444' />
  <node id='-6' visible='true' lat='41.3935815' lon='19.6577668' />
  <node id='-7' visible='true' lat='41.3938198' lon='19.657389' />
  <node id='-8' visible='true' lat='41.3941973' lon='19.6567238' />
  <way id='-9' visible='true'>
    <nd ref='-4' />
    <nd ref='-5' />
    <nd ref='-6' />
    <nd ref='-7' />
    <nd ref='-8' />
    <tag k="OSM_ID" v="27559539"/>
  </way>
  <node id='-10' visible='true' lat='41.3933175' lon='19.6581444' />
  <node id='-11' visible='true' lat='41.3932015' lon='19.6582816' />
  <node id='-12' visible='true' lat='41.3930664' lon='19.6583846' />
  <way id='-13' visible='true'>
    <nd ref='-10' />
    <nd ref='-11' />
    <nd ref='-12' />
    <tag k="OSM_ID" v="27559766"/>
  </way>
  <node id='-14' visible='true' lat='41.3931952' lon='19.6587624' />
  <node id='-15' visible='true' lat='41.3932069' lon='19.658643' />
  <node id='-16' visible='true' lat='41.3932144' lon='19.6585649' />
  <node id='-17' visible='true' lat='41.3932059' lon='19.6585122' />
  <node id='-18' visible='true' lat='41.3931952' lon='19.6584448' />
  <node id='-19' visible='true' lat='41.3930664' lon='19.6583846' />
  <node id='-20' visible='true' lat='41.3929569' lon='19.6584362' />
  <node id='-21' visible='true' lat='41.3928989' lon='19.6585736' />
  <node id='-22' visible='true' lat='41.392886' lon='19.6587366' />
  <node id='-23' visible='true' lat='41.3930148' lon='19.6588482' />
  <node id='-24' visible='true' lat='41.3930921' lon='19.6588224' />
  <node id='-25' visible='true' lat='41.3931952' lon='19.6587624' />
  <way id='-26' visible='true'>
    <nd ref='-14' />
    <nd ref='-15' />
    <nd ref='-16' />
    <nd ref='-17' />
    <nd ref='-18' />
    <nd ref='-19' />
    <nd ref='-20' />
    <nd ref='-21' />
    <nd ref='-22' />
    <nd ref='-23' />
    <nd ref='-24' />
    <nd ref='-25' />
    <tag k="OSM_ID" v="27559452"/>
  </way>
  <node id='-27' visible='true' lat='41.3937939' lon='19.6595262' />
  <node id='-28' visible='true' lat='41.3932853' lon='19.6588825' />
  <node id='-29' visible='true' lat='41.3932069' lon='19.658643' />
  <way id='-30' visible='true'>
    <nd ref='-27' />
    <nd ref='-28' />
    <nd ref='-29' />
    <tag k="OSM_ID" v="28113195"/>
  </way>
  <node id='-31' visible='true' lat='41.392886' lon='19.6587366' />
  <node id='-32' visible='true' lat='41.3928668' lon='19.6588311' />
  <node id='-33' visible='true' lat='41.3928281' lon='19.6589683' />
  <way id='-34' visible='true'>
    <nd ref='-31' />
    <nd ref='-32' />
    <nd ref='-33' />
    <tag k="OSM_ID" v="27559759"/>
  </way>
  <node id='-35' visible='true' lat='41.3930921' lon='19.6588224' />
  <node id='-36' visible='true' lat='41.3931822' lon='19.6588653' />
  <node id='-37' visible='true' lat='41.3932853' lon='19.6588825' />
  <way id='-38' visible='true'>
    <nd ref='-35' />
    <nd ref='-36' />
    <nd ref='-37' />
    <tag k="OSM_ID" v="27559775"/>
  </way>
  <node id='-39' visible='true' lat='41.3930148' lon='19.6588482' />
  <node id='-40' visible='true' lat='41.3928281' lon='19.6589683' />
  <node id='-41' visible='true' lat='41.3926349' lon='19.6592258' />
  <node id='-42' visible='true' lat='41.3921133' lon='19.6599383' />
  <node id='-43' visible='true' lat='41.3911475' lon='19.6611657' />
  <node id='-44' visible='true' lat='41.3909672' lon='19.661466' />
  <way id='-45' visible='true'>
    <nd ref='-39' />
    <nd ref='-40' />
    <nd ref='-41' />
    <nd ref='-42' />
    <nd ref='-43' />
    <nd ref='-44' />
    <tag k="OSM_ID" v="27559725"/>
  </way>
  <node id='-46' visible='true' lat='41.3941171' lon='19.6598618' />
  <node id='-47' visible='true' lat='41.3948847' lon='19.659418' />
  <node id='-48' visible='true' lat='41.395445' lon='19.6592464' />
  <node id='-49' visible='true' lat='41.3960308' lon='19.6592379' />
  <node id='-50' visible='true' lat='41.3966875' lon='19.6594525' />
  <node id='-51' visible='true' lat='41.3972027' lon='19.6598301' />
  <node id='-52' visible='true' lat='41.3981941' lon='19.6608687' />
  <node id='-53' visible='true' lat='41.3993699' lon='19.6621966' />
  <way id='-54' visible='true'>
    <nd ref='-46' />
    <nd ref='-47' />
    <nd ref='-48' />
    <nd ref='-49' />
    <nd ref='-50' />
    <nd ref='-51' />
    <nd ref='-52' />
    <nd ref='-53' />
    <tag k="OSM_ID" v="28113238"/>
  </way>
  <node id='-55' visible='true' lat='41.3919104' lon='19.6593677' />
  <node id='-56' visible='true' lat='41.3916116' lon='19.6595617' />
  <node id='-57' visible='true' lat='41.3912827' lon='19.6597751' />
  <node id='-58' visible='true' lat='41.3911439' lon='19.6598791' />
  <node id='-59' visible='true' lat='41.3910187' lon='19.6599725' />
  <node id='-60' visible='true' lat='41.390787' lon='19.66017' />
  <node id='-61' visible='true' lat='41.3905809' lon='19.6603846' />
  <node id='-62' visible='true' lat='41.3904649' lon='19.6604789' />
  <node id='-63' visible='true' lat='41.3902525' lon='19.6604962' />
  <way id='-64' visible='true'>
    <nd ref='-55' />
    <nd ref='-56' />
    <nd ref='-57' />
    <nd ref='-58' />
    <nd ref='-59' />
    <nd ref='-60' />
    <nd ref='-61' />
    <nd ref='-62' />
    <nd ref='-63' />
    <tag k="OSM_ID" v="27559608"/>
  </way>
  <node id='-65' visible='true' lat='41.3946165' lon='19.660651' />
  <node id='-66' visible='true' lat='41.3937939' lon='19.6595262' />
  <way id='-67' visible='true'>
    <nd ref='-65' />
    <nd ref='-66' />
    <tag k="OSM_ID" v="28113194"/>
  </way>
  <node id='-68' visible='true' lat='41.3903876' lon='19.6607021' />
  <node id='-69' visible='true' lat='41.3903491' lon='19.660582' />
  <node id='-70' visible='true' lat='41.3902525' lon='19.6604962' />
  <node id='-71' visible='true' lat='41.3901236' lon='19.6605305' />
  <node id='-72' visible='true' lat='41.3900529' lon='19.6606334' />
  <node id='-73' visible='true' lat='41.3900529' lon='19.6607793' />
  <node id='-74' visible='true' lat='41.3901043' lon='19.6609425' />
  <node id='-75' visible='true' lat='41.390246' lon='19.6609854' />
  <node id='-76' visible='true' lat='41.3903491' lon='19.6609252' />
  <node id='-77' visible='true' lat='41.3903735' lon='19.6607836' />
  <node id='-78' visible='true' lat='41.3903876' lon='19.6607021' />
  <way id='-79' visible='true'>
    <nd ref='-68' />
    <nd ref='-69' />
    <nd ref='-70' />
    <nd ref='-71' />
    <nd ref='-72' />
    <nd ref='-73' />
    <nd ref='-74' />
    <nd ref='-75' />
    <nd ref='-76' />
    <nd ref='-77' />
    <nd ref='-78' />
    <tag k="OSM_ID" v="27559568"/>
  </way>
  <node id='-80' visible='true' lat='41.3900529' lon='19.6607793' />
  <node id='-81' visible='true' lat='41.3900207' lon='19.661097' />
  <node id='-82' visible='true' lat='41.3898725' lon='19.6612858' />
  <node id='-83' visible='true' lat='41.3897503' lon='19.6614488' />
  <node id='-84' visible='true' lat='41.3895635' lon='19.6617493' />
  <node id='-85' visible='true' lat='41.3893638' lon='19.6621698' />
  <node id='-86' visible='true' lat='41.3891449' lon='19.6625818' />
  <node id='-87' visible='true' lat='41.3889708' lon='19.6629602' />
  <way id='-88' visible='true'>
    <nd ref='-80' />
    <nd ref='-81' />
    <nd ref='-82' />
    <nd ref='-83' />
    <nd ref='-84' />
    <nd ref='-85' />
    <nd ref='-86' />
    <nd ref='-87' />
    <tag k="OSM_ID" v="27559632"/>
  </way>
  <node id='-89' visible='true' lat='41.3903735' lon='19.6607836' />
  <node id='-90' visible='true' lat='41.3904198' lon='19.6609167' />
  <node id='-91' visible='true' lat='41.3904714' lon='19.6610112' />
  <node id='-92' visible='true' lat='41.3906131' lon='19.6612429' />
  <node id='-93' visible='true' lat='41.3907674' lon='19.6613764' />
  <way id='-94' visible='true'>
    <nd ref='-89' />
    <nd ref='-90' />
    <nd ref='-91' />
    <nd ref='-92' />
    <nd ref='-93' />
    <tag k="OSM_ID" v="27559597"/>
  </way>
  <node id='-95' visible='true' lat='41.3906324' lon='19.6609252' />
  <node id='-96' visible='true' lat='41.3903555' lon='19.6612687' />
  <way id='-97' visible='true'>
    <nd ref='-95' />
    <nd ref='-96' />
    <tag k="OSM_ID" v="27559616"/>
  </way>
  <node id='-98' visible='true' lat='41.390246' lon='19.6609854' />
  <node id='-99' visible='true' lat='41.3903555' lon='19.6610112' />
  <node id='-100' visible='true' lat='41.3904135' lon='19.6610797' />
  <node id='-101' visible='true' lat='41.3906066' lon='19.6613201' />
  <node id='-102' visible='true' lat='41.390648' lon='19.6614943' />
  <way id='-103' visible='true'>
    <nd ref='-98' />
    <nd ref='-99' />
    <nd ref='-100' />
    <nd ref='-101' />
    <nd ref='-102' />
    <tag k="OSM_ID" v="27559581"/>
  </way>
  <node id='-104' visible='true' lat='41.390407' lon='19.6613545' />
  <node id='-105' visible='true' lat='41.3906903' lon='19.6610025' />
  <way id='-106' visible='true'>
    <nd ref='-104' />
    <nd ref='-105' />
    <tag k="OSM_ID" v="27559688"/>
  </way>
  <node id='-107' visible='true' lat='41.3908507' lon='19.6613755' />
  <node id='-108' visible='true' lat='41.3909543' lon='19.6612943' />
  <node id='-109' visible='true' lat='41.3911475' lon='19.6611657' />
  <way id='-110' visible='true'>
    <nd ref='-107' />
    <nd ref='-108' />
    <nd ref='-109' />
    <tag k="OSM_ID" v="27559738"/>
  </way>
  <node id='-111' visible='true' lat='41.3903555' lon='19.6612687' />
  <node id='-112' visible='true' lat='41.3898597' lon='19.6618952' />
  <node id='-113' visible='true' lat='41.3889708' lon='19.6629602' />
  <node id='-114' visible='true' lat='41.3886491' lon='19.6633457' />
  <node id='-115' visible='true' lat='41.3881182' lon='19.6639796' />
  <way id='-116' visible='true'>
    <nd ref='-111' />
    <nd ref='-112' />
    <nd ref='-113' />
    <nd ref='-114' />
    <nd ref='-115' />
    <tag k="OSM_ID" v="27559620"/>
  </way>
  <node id='-117' visible='true' lat='41.3878478' lon='19.6645044' />
  <node id='-118' visible='true' lat='41.3888487' lon='19.6632427' />
  <node id='-119' visible='true' lat='41.389076' lon='19.6629682' />
  <node id='-120' visible='true' lat='41.3900786' lon='19.6617579' />
  <node id='-121' visible='true' lat='41.3902667' lon='19.6615266' />
  <node id='-122' visible='true' lat='41.390407' lon='19.6613545' />
  <way id='-123' visible='true'>
    <nd ref='-117' />
    <nd ref='-118' />
    <nd ref='-119' />
    <nd ref='-120' />
    <nd ref='-121' />
    <nd ref='-122' />
    <tag k="OSM_ID" v="27559390"/>
  </way>
  <node id='-124' visible='true' lat='41.3909802' lon='19.6616463' />
  <node id='-125' visible='true' lat='41.3909865' lon='19.6615605' />
  <node id='-126' visible='true' lat='41.3909672' lon='19.661466' />
  <node id='-127' visible='true' lat='41.3909029' lon='19.6613801' />
  <node id='-128' visible='true' lat='41.3908507' lon='19.6613755' />
  <node id='-129' visible='true' lat='41.3908063' lon='19.6613715' />
  <node id='-130' visible='true' lat='41.3907674' lon='19.6613764' />
  <node id='-131' visible='true' lat='41.3906646' lon='19.6613888' />
  <node id='-132' visible='true' lat='41.390648' lon='19.6614943' />
  <node id='-133' visible='true' lat='41.3906324' lon='19.6615947' />
  <node id='-134' visible='true' lat='41.390684' lon='19.6617235' />
  <node id='-135' visible='true' lat='41.3907377' lon='19.6617764' />
  <node id='-136' visible='true' lat='41.3908063' lon='19.6618436' />
  <node id='-137' visible='true' lat='41.3909286' lon='19.6618093' />
  <node id='-138' visible='true' lat='41.3909802' lon='19.6616463' />
  <way id='-139' visible='true'>
    <nd ref='-124' />
    <nd ref='-125' />
    <nd ref='-126' />
    <nd ref='-127' />
    <nd ref='-128' />
    <nd ref='-129' />
    <nd ref='-130' />
    <nd ref='-131' />
    <nd ref='-132' />
    <nd ref='-133' />
    <nd ref='-134' />
    <nd ref='-135' />
    <nd ref='-136' />
    <nd ref='-137' />
    <nd ref='-138' />
    <tag k="OSM_ID" v="27559574"/>
  </way>
  <node id='-140' visible='true' lat='41.389076' lon='19.6629682' />
  <node id='-141' visible='true' lat='41.3895377' lon='19.6626677' />
  <node id='-142' visible='true' lat='41.3899047' lon='19.6624102' />
  <node id='-143' visible='true' lat='41.3902912' lon='19.6621184' />
  <node id='-144' visible='true' lat='41.3904135' lon='19.6619467' />
  <node id='-145' visible='true' lat='41.3905486' lon='19.6618266' />
  <node id='-146' visible='true' lat='41.3907377' lon='19.6617764' />
  <way id='-147' visible='true'>
    <nd ref='-140' />
    <nd ref='-141' />
    <nd ref='-142' />
    <nd ref='-143' />
    <nd ref='-144' />
    <nd ref='-145' />
    <nd ref='-146' />
    <tag k="OSM_ID" v="27559701"/>
  </way>
</osm>
