<?xml version='1.0'?>
<osm version='0.5' generator='shp2osm.pl'>
  <node id='-1' visible='true' lat='40.6265201747509' lon='20.9856664573241' />
  <node id='-2' visible='true' lat='40.6264825632266' lon='20.9855321504743' />
  <node id='-3' visible='true' lat='40.626373329903' lon='20.9849967973131' />
  <way id='-4' visible='true'>
    <nd ref='-1' />
    <nd ref='-2' />
    <nd ref='-3' />
    <tag k="ID" v="5070.000"/>
    <tag k="CATEGORY" v="5"/>
    <tag k="SHAPE_LE_1" v="58.999"/>
    <tag k="WAY_TYPE" v="Dwelling Area Road"/>
    <tag k="ET_ID" v="4824"/>
    <tag k="CAT2" v="50"/>
    <tag k="SHAPE_LENG" v="0.000"/>
  </way>
  <node id='-5' visible='true' lat='40.6266566155426' lon='20.9861537112078' />
  <node id='-6' visible='true' lat='40.6265201747509' lon='20.9856664573241' />
  <way id='-7' visible='true'>
    <nd ref='-5' />
    <nd ref='-6' />
    <tag k="ID" v="5071.000"/>
    <tag k="CATEGORY" v="5"/>
    <tag k="SHAPE_LE_1" v="43.922"/>
    <tag k="ET_ID" v="4825"/>
    <tag k="WAY_TYPE" v="Dwelling Area Road"/>
    <tag k="SHAPE_LENG" v="0.000"/>
    <tag k="CAT2" v="50"/>
  </way>
  <node id='-8' visible='true' lat='40.6266950750521' lon='20.9862910502978' />
  <node id='-9' visible='true' lat='40.6266566155426' lon='20.9861537112078' />
  <way id='-10' visible='true'>
    <nd ref='-8' />
    <nd ref='-9' />
    <tag k="ID" v="5072.000"/>
    <tag k="CATEGORY" v="5"/>
    <tag k="SHAPE_LE_1" v="12.380"/>
    <tag k="ET_ID" v="4826"/>
    <tag k="WAY_TYPE" v="Dwelling Area Road"/>
    <tag k="SHAPE_LENG" v="0.000"/>
    <tag k="CAT2" v="50"/>
  </way>
  <node id='-11' visible='true' lat='40.6267574091136' lon='20.9866352012038' />
  <node id='-12' visible='true' lat='40.6267268600664' lon='20.986404554697' />
  <node id='-13' visible='true' lat='40.6266950750521' lon='20.9862910502978' />
  <way id='-14' visible='true'>
    <nd ref='-11' />
    <nd ref='-12' />
    <nd ref='-13' />
    <tag k="ID" v="5073.000"/>
    <tag k="CATEGORY" v="5"/>
    <tag k="SHAPE_LE_1" v="30.039"/>
    <tag k="ET_ID" v="4827"/>
    <tag k="WAY_TYPE" v="Dwelling Area Road"/>
    <tag k="SHAPE_LENG" v="0.000"/>
    <tag k="CAT2" v="50"/>
  </way>
  <node id='-15' visible='true' lat='40.6258063988382' lon='20.9881404091694' />
  <node id='-16' visible='true' lat='40.6267574091136' lon='20.9866352012038' />
  <way id='-17' visible='true'>
    <nd ref='-15' />
    <nd ref='-16' />
    <tag k="ID" v="5074.000"/>
    <tag k="CATEGORY" v="5"/>
    <tag k="SHAPE_LE_1" v="165.447"/>
    <tag k="ET_ID" v="4828"/>
    <tag k="WAY_TYPE" v="Dwelling Area Road"/>
    <tag k="SHAPE_LENG" v="0.000"/>
    <tag k="CAT2" v="50"/>
  </way>
  <node id='-18' visible='true' lat='40.6253637788582' lon='20.9878897858455' />
  <node id='-19' visible='true' lat='40.6258063988382' lon='20.9881404091694' />
  <way id='-20' visible='true'>
    <nd ref='-18' />
    <nd ref='-19' />
    <tag k="ID" v="5075.000"/>
    <tag k="CATEGORY" v="5"/>
    <tag k="SHAPE_LE_1" v="53.532"/>
    <tag k="ET_ID" v="4829"/>
    <tag k="WAY_TYPE" v="Dwelling Area Road"/>
    <tag k="SHAPE_LENG" v="0.000"/>
    <tag k="CAT2" v="50"/>
  </way>
  <node id='-21' visible='true' lat='40.6252187382587' lon='20.9873683562294' />
  <node id='-22' visible='true' lat='40.6253637788582' lon='20.9878897858455' />
  <way id='-23' visible='true'>
    <nd ref='-21' />
    <nd ref='-22' />
    <tag k="ID" v="5076.000"/>
    <tag k="CATEGORY" v="5"/>
    <tag k="SHAPE_LE_1" v="46.967"/>
    <tag k="ET_ID" v="4830"/>
    <tag k="WAY_TYPE" v="Dwelling Area Road"/>
    <tag k="SHAPE_LENG" v="0.000"/>
    <tag k="CAT2" v="50"/>
  </way>
  <node id='-24' visible='true' lat='40.6247556423559' lon='20.986603619869' />
  <node id='-25' visible='true' lat='40.6252187382587' lon='20.9873683562294' />
  <way id='-26' visible='true'>
    <nd ref='-24' />
    <nd ref='-25' />
    <tag k="ID" v="5077.000"/>
    <tag k="CATEGORY" v="5"/>
    <tag k="SHAPE_LE_1" v="82.653"/>
    <tag k="ET_ID" v="4831"/>
    <tag k="WAY_TYPE" v="Dwelling Area Road"/>
    <tag k="SHAPE_LENG" v="0.000"/>
    <tag k="CAT2" v="50"/>
  </way>
  <node id='-27' visible='true' lat='40.6237856641083' lon='20.9884720201651' />
  <node id='-28' visible='true' lat='40.6244581998538' lon='20.9899235640768' />
  <way id='-29' visible='true'>
    <nd ref='-27' />
    <nd ref='-28' />
    <tag k="ID" v="5078.000"/>
    <tag k="CATEGORY" v="5"/>
    <tag k="SHAPE_LE_1" v="143.744"/>
    <tag k="ET_ID" v="4832"/>
    <tag k="WAY_TYPE" v="Dwelling Area Road"/>
    <tag k="SHAPE_LENG" v="0.000"/>
    <tag k="CAT2" v="50"/>
  </way>
  <node id='-30' visible='true' lat='40.6253637788582' lon='20.9878897858455' />
  <node id='-31' visible='true' lat='40.6243330466' lon='20.9871086276282' />
  <way id='-32' visible='true'>
    <nd ref='-30' />
    <nd ref='-31' />
    <tag k="ID" v="5079.000"/>
    <tag k="CATEGORY" v="5"/>
    <tag k="SHAPE_LE_1" v="132.174"/>
    <tag k="ET_ID" v="4833"/>
    <tag k="WAY_TYPE" v="Dwelling Area Road"/>
    <tag k="SHAPE_LENG" v="0.000"/>
    <tag k="CAT2" v="50"/>
  </way>
  <node id='-33' visible='true' lat='40.6255241520258' lon='20.9891232142022' />
  <node id='-34' visible='true' lat='40.6253637788582' lon='20.9878897858455' />
  <way id='-35' visible='true'>
    <nd ref='-33' />
    <nd ref='-34' />
    <tag k="ID" v="5080.000"/>
    <tag k="CATEGORY" v="5"/>
    <tag k="SHAPE_LE_1" v="105.870"/>
    <tag k="ET_ID" v="4834"/>
    <tag k="WAY_TYPE" v="Dwelling Area Road"/>
    <tag k="SHAPE_LENG" v="0.000"/>
    <tag k="CAT2" v="50"/>
  </way>
  <node id='-36' visible='true' lat='40.6244581998538' lon='20.9899235640768' />
  <node id='-37' visible='true' lat='40.6255241520258' lon='20.9891232142022' />
  <way id='-38' visible='true'>
    <nd ref='-36' />
    <nd ref='-37' />
    <tag k="ID" v="5081.000"/>
    <tag k="CATEGORY" v="5"/>
    <tag k="SHAPE_LE_1" v="136.374"/>
    <tag k="ET_ID" v="4835"/>
    <tag k="WAY_TYPE" v="Dwelling Area Road"/>
    <tag k="SHAPE_LENG" v="0.000"/>
    <tag k="CAT2" v="50"/>
  </way>
  <node id='-39' visible='true' lat='40.6265210752577' lon='20.9887612383489' />
  <node id='-40' visible='true' lat='40.6260991143792' lon='20.9883946804207' />
  <way id='-41' visible='true'>
    <nd ref='-39' />
    <nd ref='-40' />
    <tag k="ID" v="5082.000"/>
    <tag k="CATEGORY" v="5"/>
    <tag k="SHAPE_LE_1" v="56.192"/>
    <tag k="ET_ID" v="4836"/>
    <tag k="WAY_TYPE" v="Dwelling Area Road"/>
    <tag k="SHAPE_LENG" v="0.000"/>
    <tag k="CAT2" v="50"/>
  </way>
  <node id='-42' visible='true' lat='40.6272003010793' lon='20.9895232770685' />
  <node id='-43' visible='true' lat='40.6265210752577' lon='20.9887612383489' />
  <way id='-44' visible='true'>
    <nd ref='-42' />
    <nd ref='-43' />
    <tag k="ID" v="5083.000"/>
    <tag k="CATEGORY" v="5"/>
    <tag k="SHAPE_LE_1" v="99.229"/>
    <tag k="ET_ID" v="4837"/>
    <tag k="WAY_TYPE" v="Dwelling Area Road"/>
    <tag k="SHAPE_LENG" v="0.000"/>
    <tag k="CAT2" v="50"/>
  </way>
  <node id='-45' visible='true' lat='40.6272078462091' lon='20.988620725246' />
  <node id='-46' visible='true' lat='40.6272003010793' lon='20.9895232770685' />
  <way id='-47' visible='true'>
    <nd ref='-45' />
    <nd ref='-46' />
    <tag k="ID" v="5084.000"/>
    <tag k="CATEGORY" v="5"/>
    <tag k="SHAPE_LE_1" v="76.368"/>
    <tag k="ET_ID" v="4838"/>
    <tag k="WAY_TYPE" v="Dwelling Area Road"/>
    <tag k="SHAPE_LENG" v="0.000"/>
    <tag k="CAT2" v="50"/>
  </way>
  <node id='-48' visible='true' lat='40.6271467489203' lon='20.9881393732911' />
  <node id='-49' visible='true' lat='40.6272078462091' lon='20.988620725246' />
  <way id='-50' visible='true'>
    <nd ref='-48' />
    <nd ref='-49' />
    <tag k="ID" v="5085.000"/>
    <tag k="CATEGORY" v="5"/>
    <tag k="SHAPE_LE_1" v="41.288"/>
    <tag k="ET_ID" v="4839"/>
    <tag k="WAY_TYPE" v="Dwelling Area Road"/>
    <tag k="SHAPE_LENG" v="0.000"/>
    <tag k="CAT2" v="50"/>
  </way>
  <node id='-51' visible='true' lat='40.6270398589161' lon='20.9875878348568' />
  <node id='-52' visible='true' lat='40.6271467489203' lon='20.9881393732911' />
  <way id='-53' visible='true'>
    <nd ref='-51' />
    <nd ref='-52' />
    <tag k="ID" v="5086.000"/>
    <tag k="CATEGORY" v="5"/>
    <tag k="SHAPE_LE_1" v="48.151"/>
    <tag k="ET_ID" v="4840"/>
    <tag k="WAY_TYPE" v="Dwelling Area Road"/>
    <tag k="SHAPE_LENG" v="0.000"/>
    <tag k="CAT2" v="50"/>
  </way>
  <node id='-54' visible='true' lat='40.6267574091136' lon='20.9866352012038' />
  <node id='-55' visible='true' lat='40.6269635107397' lon='20.9872368583541' />
  <node id='-56' visible='true' lat='40.6270398589161' lon='20.9875878348568' />
  <way id='-57' visible='true'>
    <nd ref='-54' />
    <nd ref='-55' />
    <nd ref='-56' />
    <tag k="ID" v="5087.000"/>
    <tag k="CATEGORY" v="5"/>
    <tag k="SHAPE_LE_1" v="86.697"/>
    <tag k="ET_ID" v="4841"/>
    <tag k="WAY_TYPE" v="Dwelling Area Road"/>
    <tag k="SHAPE_LENG" v="0.000"/>
    <tag k="CAT2" v="50"/>
  </way>
  <node id='-58' visible='true' lat='40.6255241520258' lon='20.9891232142022' />
  <node id='-59' visible='true' lat='40.6256435711821' lon='20.9892728176639' />
  <way id='-60' visible='true'>
    <nd ref='-58' />
    <nd ref='-59' />
    <tag k="ID" v="5088.000"/>
    <tag k="CATEGORY" v="5"/>
    <tag k="SHAPE_LE_1" v="18.333"/>
    <tag k="ET_ID" v="4842"/>
    <tag k="WAY_TYPE" v="Dwelling Area Road"/>
    <tag k="SHAPE_LENG" v="0.000"/>
    <tag k="CAT2" v="50"/>
  </way>
  <node id='-61' visible='true' lat='40.6260991143792' lon='20.9883946804207' />
  <node id='-62' visible='true' lat='40.6255241520258' lon='20.9891232142022' />
  <way id='-63' visible='true'>
    <nd ref='-61' />
    <nd ref='-62' />
    <tag k="ID" v="5089.000"/>
    <tag k="CATEGORY" v="5"/>
    <tag k="SHAPE_LE_1" v="88.749"/>
    <tag k="ET_ID" v="4843"/>
    <tag k="WAY_TYPE" v="Dwelling Area Road"/>
    <tag k="SHAPE_LENG" v="0.000"/>
    <tag k="CAT2" v="50"/>
  </way>
  <node id='-64' visible='true' lat='40.6272460906107' lon='20.989593465916' />
  <node id='-65' visible='true' lat='40.6260404795111' lon='20.9904360201913' />
  <way id='-66' visible='true'>
    <nd ref='-64' />
    <nd ref='-65' />
    <tag k="ID" v="5090.000"/>
    <tag k="CATEGORY" v="5"/>
    <tag k="SHAPE_LE_1" v="151.678"/>
    <tag k="ET_ID" v="4844"/>
    <tag k="WAY_TYPE" v="Dwelling Area Road"/>
    <tag k="SHAPE_LENG" v="0.000"/>
    <tag k="CAT2" v="50"/>
  </way>
  <node id='-67' visible='true' lat='40.6272003010793' lon='20.9895232770685' />
  <node id='-68' visible='true' lat='40.6272460906107' lon='20.989593465916' />
  <way id='-69' visible='true'>
    <nd ref='-67' />
    <nd ref='-68' />
    <tag k="ID" v="5091.000"/>
    <tag k="CATEGORY" v="5"/>
    <tag k="SHAPE_LE_1" v="7.818"/>
    <tag k="ET_ID" v="4845"/>
    <tag k="WAY_TYPE" v="Dwelling Area Road"/>
    <tag k="SHAPE_LENG" v="0.000"/>
    <tag k="CAT2" v="50"/>
  </way>
  <node id='-70' visible='true' lat='40.6272460906107' lon='20.989593465916' />
  <node id='-71' visible='true' lat='40.6274408867563' lon='20.9898892279716' />
  <way id='-72' visible='true'>
    <nd ref='-70' />
    <nd ref='-71' />
    <tag k="ID" v="5092.000"/>
    <tag k="CATEGORY" v="5"/>
    <tag k="SHAPE_LE_1" v="33.078"/>
    <tag k="ET_ID" v="4846"/>
    <tag k="WAY_TYPE" v="Dwelling Area Road"/>
    <tag k="SHAPE_LENG" v="0.000"/>
    <tag k="CAT2" v="50"/>
  </way>
  <node id='-73' visible='true' lat='40.6284176657828' lon='20.9901799029399' />
  <node id='-74' visible='true' lat='40.6289136439078' lon='20.9897887198986' />
  <node id='-75' visible='true' lat='40.6289135634692' lon='20.9889162284595' />
  <node id='-76' visible='true' lat='40.6284099160754' lon='20.9888661691265' />
  <node id='-77' visible='true' lat='40.6272460906107' lon='20.989593465916' />
  <way id='-78' visible='true'>
    <nd ref='-73' />
    <nd ref='-74' />
    <nd ref='-75' />
    <nd ref='-76' />
    <nd ref='-77' />
    <tag k="ID" v="5093.000"/>
    <tag k="CATEGORY" v="5"/>
    <tag k="SHAPE_LE_1" v="337.308"/>
    <tag k="ET_ID" v="4847"/>
    <tag k="WAY_TYPE" v="Dwelling Area Road"/>
    <tag k="SHAPE_LENG" v="0.000"/>
    <tag k="CAT2" v="50"/>
  </way>
  <node id='-79' visible='true' lat='40.6278606433789' lon='20.9905309798665' />
  <node id='-80' visible='true' lat='40.6284176657828' lon='20.9901799029399' />
  <way id='-81' visible='true'>
    <nd ref='-79' />
    <nd ref='-80' />
    <tag k="ID" v="5094.000"/>
    <tag k="CATEGORY" v="5"/>
    <tag k="SHAPE_LE_1" v="68.619"/>
    <tag k="ET_ID" v="4848"/>
    <tag k="WAY_TYPE" v="Dwelling Area Road"/>
    <tag k="SHAPE_LENG" v="0.000"/>
    <tag k="CAT2" v="50"/>
  </way>
  <node id='-82' visible='true' lat='40.6274408867563' lon='20.9898892279716' />
  <node id='-83' visible='true' lat='40.6278606433789' lon='20.9905309798665' />
  <way id='-84' visible='true'>
    <nd ref='-82' />
    <nd ref='-83' />
    <tag k="ID" v="5095.000"/>
    <tag k="CATEGORY" v="5"/>
    <tag k="SHAPE_LE_1" v="71.561"/>
    <tag k="ET_ID" v="4849"/>
    <tag k="WAY_TYPE" v="Dwelling Area Road"/>
    <tag k="SHAPE_LENG" v="0.000"/>
    <tag k="CAT2" v="50"/>
  </way>
  <node id='-85' visible='true' lat='40.6276832583908' lon='20.9873376105908' />
  <node id='-86' visible='true' lat='40.62798848349' lon='20.9872473016677' />
  <way id='-87' visible='true'>
    <nd ref='-85' />
    <nd ref='-86' />
    <tag k="ID" v="5096.000"/>
    <tag k="CATEGORY" v="5"/>
    <tag k="SHAPE_LE_1" v="34.745"/>
    <tag k="ET_ID" v="4850"/>
    <tag k="WAY_TYPE" v="Dwelling Area Road"/>
    <tag k="SHAPE_LENG" v="0.000"/>
    <tag k="CAT2" v="50"/>
  </way>
  <node id='-88' visible='true' lat='40.6277306865314' lon='20.9880640084337' />
  <node id='-89' visible='true' lat='40.6276832583908' lon='20.9873376105908' />
  <way id='-90' visible='true'>
    <nd ref='-88' />
    <nd ref='-89' />
    <tag k="ID" v="5097.000"/>
    <tag k="CATEGORY" v="5"/>
    <tag k="SHAPE_LE_1" v="61.684"/>
    <tag k="ET_ID" v="4851"/>
    <tag k="WAY_TYPE" v="Dwelling Area Road"/>
    <tag k="SHAPE_LENG" v="0.000"/>
    <tag k="CAT2" v="50"/>
  </way>
  <node id='-91' visible='true' lat='40.6271467489203' lon='20.9881393732911' />
  <node id='-92' visible='true' lat='40.6277306865314' lon='20.9880640084337' />
  <way id='-93' visible='true'>
    <nd ref='-91' />
    <nd ref='-92' />
    <tag k="ID" v="5098.000"/>
    <tag k="CATEGORY" v="5"/>
    <tag k="SHAPE_LE_1" v="65.158"/>
    <tag k="ET_ID" v="4852"/>
    <tag k="WAY_TYPE" v="Dwelling Area Road"/>
    <tag k="SHAPE_LENG" v="0.000"/>
    <tag k="CAT2" v="50"/>
  </way>
  <node id='-94' visible='true' lat='40.6274236256458' lon='20.9857832679038' />
  <node id='-95' visible='true' lat='40.6276220749363' lon='20.9861643014827' />
  <way id='-96' visible='true'>
    <nd ref='-94' />
    <nd ref='-95' />
    <tag k="ID" v="5099.000"/>
    <tag k="CATEGORY" v="5"/>
    <tag k="SHAPE_LE_1" v="39.051"/>
    <tag k="ET_ID" v="4853"/>
    <tag k="WAY_TYPE" v="Dwelling Area Road"/>
    <tag k="SHAPE_LENG" v="0.000"/>
    <tag k="CAT2" v="50"/>
  </way>
  <node id='-97' visible='true' lat='40.6266566155426' lon='20.9861537112078' />
  <node id='-98' visible='true' lat='40.6274236256458' lon='20.9857832679038' />
  <way id='-99' visible='true'>
    <nd ref='-97' />
    <nd ref='-98' />
    <tag k="ID" v="5100.000"/>
    <tag k="CATEGORY" v="5"/>
    <tag k="SHAPE_LE_1" v="90.759"/>
    <tag k="ET_ID" v="4854"/>
    <tag k="WAY_TYPE" v="Dwelling Area Road"/>
    <tag k="SHAPE_LENG" v="0.000"/>
    <tag k="CAT2" v="50"/>
  </way>
  <node id='-100' visible='true' lat='40.6286445727922' lon='20.9858030636779' />
  <node id='-101' visible='true' lat='40.6277747304094' lon='20.9864651227365' />
  <way id='-102' visible='true'>
    <nd ref='-100' />
    <nd ref='-101' />
    <tag k="ID" v="5101.000"/>
    <tag k="CATEGORY" v="5"/>
    <tag k="SHAPE_LE_1" v="111.661"/>
    <tag k="ET_ID" v="4855"/>
    <tag k="WAY_TYPE" v="Dwelling Area Road"/>
    <tag k="SHAPE_LENG" v="0.000"/>
    <tag k="CAT2" v="50"/>
  </way>
  <node id='-103' visible='true' lat='40.6273986350322' lon='20.9856988441636' />
  <node id='-104' visible='true' lat='40.6272847051036' lon='20.9853140368139' />
  <way id='-105' visible='true'>
    <nd ref='-103' />
    <nd ref='-104' />
    <tag k="ID" v="5102.000"/>
    <tag k="CATEGORY" v="5"/>
    <tag k="SHAPE_LE_1" v="34.930"/>
    <tag k="ET_ID" v="4856"/>
    <tag k="WAY_TYPE" v="Dwelling Area Road"/>
    <tag k="SHAPE_LENG" v="0.000"/>
    <tag k="CAT2" v="50"/>
  </way>
  <node id='-106' visible='true' lat='40.6274236256458' lon='20.9857832679038' />
  <node id='-107' visible='true' lat='40.6273986350322' lon='20.9856988441636' />
  <way id='-108' visible='true'>
    <nd ref='-106' />
    <nd ref='-107' />
    <tag k="ID" v="5103.000"/>
    <tag k="CATEGORY" v="5"/>
    <tag k="SHAPE_LE_1" v="7.663"/>
    <tag k="ET_ID" v="4857"/>
    <tag k="WAY_TYPE" v="Dwelling Area Road"/>
    <tag k="SHAPE_LENG" v="0.000"/>
    <tag k="CAT2" v="50"/>
  </way>
  <node id='-109' visible='true' lat='40.6264518248883' lon='20.9923159092278' />
  <node id='-110' visible='true' lat='40.6261722169137' lon='20.9921322243328' />
  <way id='-111' visible='true'>
    <nd ref='-109' />
    <nd ref='-110' />
    <tag k="ID" v="5104.000"/>
    <tag k="CATEGORY" v="5"/>
    <tag k="SHAPE_LE_1" v="34.722"/>
    <tag k="ET_ID" v="4858"/>
    <tag k="WAY_TYPE" v="Dwelling Area Road"/>
    <tag k="SHAPE_LENG" v="0.000"/>
    <tag k="CAT2" v="50"/>
  </way>
  <node id='-112' visible='true' lat='40.6269760592915' lon='20.9921895452584' />
  <node id='-113' visible='true' lat='40.6268537340954' lon='20.9921665946579' />
  <node id='-114' visible='true' lat='40.6264518248883' lon='20.9923159092278' />
  <way id='-115' visible='true'>
    <nd ref='-112' />
    <nd ref='-113' />
    <nd ref='-114' />
    <tag k="ID" v="5105.000"/>
    <tag k="CATEGORY" v="5"/>
    <tag k="SHAPE_LE_1" v="60.107"/>
    <tag k="ET_ID" v="4859"/>
    <tag k="WAY_TYPE" v="Dwelling Area Road"/>
    <tag k="SHAPE_LENG" v="0.000"/>
    <tag k="CAT2" v="50"/>
  </way>
  <node id='-116' visible='true' lat='40.6272468915368' lon='20.9918105884165' />
  <node id='-117' visible='true' lat='40.6269760592915' lon='20.9921895452584' />
  <way id='-118' visible='true'>
    <nd ref='-116' />
    <nd ref='-117' />
    <tag k="ID" v="5106.000"/>
    <tag k="CATEGORY" v="5"/>
    <tag k="SHAPE_LE_1" v="43.961"/>
    <tag k="ET_ID" v="4860"/>
    <tag k="WAY_TYPE" v="Dwelling Area Road"/>
    <tag k="SHAPE_LENG" v="0.000"/>
    <tag k="CAT2" v="50"/>
  </way>
  <node id='-119' visible='true' lat='40.6263556468341' lon='20.9913858537184' />
  <node id='-120' visible='true' lat='40.6272468915368' lon='20.9918105884165' />
  <way id='-121' visible='true'>
    <nd ref='-119' />
    <nd ref='-120' />
    <tag k="ID" v="5107.000"/>
    <tag k="CATEGORY" v="5"/>
    <tag k="SHAPE_LE_1" v="105.294"/>
    <tag k="ET_ID" v="4861"/>
    <tag k="WAY_TYPE" v="Dwelling Area Road"/>
    <tag k="SHAPE_LENG" v="0.000"/>
    <tag k="CAT2" v="50"/>
  </way>
  <node id='-122' visible='true' lat='40.6260404795111' lon='20.9904360201913' />
  <node id='-123' visible='true' lat='40.6263556468341' lon='20.9913858537184' />
  <way id='-124' visible='true'>
    <nd ref='-122' />
    <nd ref='-123' />
    <tag k="ID" v="5108.000"/>
    <tag k="CATEGORY" v="5"/>
    <tag k="SHAPE_LE_1" v="87.656"/>
    <tag k="ET_ID" v="4862"/>
    <tag k="WAY_TYPE" v="Dwelling Area Road"/>
    <tag k="SHAPE_LENG" v="0.000"/>
    <tag k="CAT2" v="50"/>
  </way>
  <node id='-125' visible='true' lat='40.6253684309794' lon='20.9929475497814' />
  <node id='-126' visible='true' lat='40.625988806245' lon='20.9932804735959' />
  <node id='-127' visible='true' lat='40.6264169380699' lon='20.9933033893372' />
  <way id='-128' visible='true'>
    <nd ref='-125' />
    <nd ref='-126' />
    <nd ref='-127' />
    <tag k="ID" v="5109.000"/>
    <tag k="CATEGORY" v="5"/>
    <tag k="SHAPE_LE_1" v="122.011"/>
    <tag k="ET_ID" v="4863"/>
    <tag k="WAY_TYPE" v="Dwelling Area Road"/>
    <tag k="SHAPE_LENG" v="0.000"/>
    <tag k="CAT2" v="50"/>
  </way>
  <node id='-129' visible='true' lat='40.6261722169137' lon='20.9921322243328' />
  <node id='-130' visible='true' lat='40.6253684309794' lon='20.9929475497814' />
  <way id='-131' visible='true'>
    <nd ref='-129' />
    <nd ref='-130' />
    <tag k="ID" v="5110.000"/>
    <tag k="CATEGORY" v="5"/>
    <tag k="SHAPE_LE_1" v="112.810"/>
    <tag k="ET_ID" v="4864"/>
    <tag k="WAY_TYPE" v="Dwelling Area Road"/>
    <tag k="SHAPE_LENG" v="0.000"/>
    <tag k="CAT2" v="50"/>
  </way>
  <node id='-132' visible='true' lat='40.6269760592915' lon='20.9921895452584' />
  <node id='-133' visible='true' lat='40.6270023424571' lon='20.9933377812434' />
  <way id='-134' visible='true'>
    <nd ref='-132' />
    <nd ref='-133' />
    <tag k="ID" v="5111.000"/>
    <tag k="CATEGORY" v="5"/>
    <tag k="SHAPE_LE_1" v="97.195"/>
    <tag k="ET_ID" v="4865"/>
    <tag k="WAY_TYPE" v="Dwelling Area Road"/>
    <tag k="SHAPE_LENG" v="0.000"/>
    <tag k="CAT2" v="50"/>
  </way>
  <node id='-135' visible='true' lat='40.6277462463036' lon='20.9926310400955' />
  <node id='-136' visible='true' lat='40.6278445456683' lon='20.9920293655066' />
  <way id='-137' visible='true'>
    <nd ref='-135' />
    <nd ref='-136' />
    <tag k="ID" v="5112.000"/>
    <tag k="CATEGORY" v="5"/>
    <tag k="SHAPE_LE_1" v="52.064"/>
    <tag k="ET_ID" v="4866"/>
    <tag k="WAY_TYPE" v="Dwelling Area Road"/>
    <tag k="SHAPE_LENG" v="0.000"/>
    <tag k="CAT2" v="50"/>
  </way>
  <node id='-138' visible='true' lat='40.6276401685122' lon='20.9932803080853' />
  <node id='-139' visible='true' lat='40.6277462463036' lon='20.9926310400955' />
  <way id='-140' visible='true'>
    <nd ref='-138' />
    <nd ref='-139' />
    <tag k="ID" v="5113.000"/>
    <tag k="CATEGORY" v="5"/>
    <tag k="SHAPE_LE_1" v="56.182"/>
    <tag k="ET_ID" v="4867"/>
    <tag k="WAY_TYPE" v="Dwelling Area Road"/>
    <tag k="SHAPE_LENG" v="0.000"/>
    <tag k="CAT2" v="50"/>
  </way>
  <node id='-141' visible='true' lat='40.6275091228766' lon='20.9935444165634' />
  <node id='-142' visible='true' lat='40.6276401685122' lon='20.9932803080853' />
  <way id='-143' visible='true'>
    <nd ref='-141' />
    <nd ref='-142' />
    <tag k="ID" v="5114.000"/>
    <tag k="CATEGORY" v="5"/>
    <tag k="SHAPE_LE_1" v="26.667"/>
    <tag k="ET_ID" v="4868"/>
    <tag k="WAY_TYPE" v="Dwelling Area Road"/>
    <tag k="SHAPE_LENG" v="0.000"/>
    <tag k="CAT2" v="50"/>
  </way>
  <node id='-144' visible='true' lat='40.6270023424571' lon='20.9933377812434' />
  <node id='-145' visible='true' lat='40.6271421468083' lon='20.9934525921001' />
  <node id='-146' visible='true' lat='40.6275091228766' lon='20.9935444165634' />
  <way id='-147' visible='true'>
    <nd ref='-144' />
    <nd ref='-145' />
    <nd ref='-146' />
    <tag k="ID" v="5115.000"/>
    <tag k="CATEGORY" v="5"/>
    <tag k="SHAPE_LE_1" v="59.800"/>
    <tag k="ET_ID" v="4869"/>
    <tag k="WAY_TYPE" v="Dwelling Area Road"/>
    <tag k="SHAPE_LENG" v="0.000"/>
    <tag k="CAT2" v="50"/>
  </way>
  <node id='-148' visible='true' lat='40.6278445456683' lon='20.9920293655066' />
  <node id='-149' visible='true' lat='40.6279843166587' lon='20.9916504254824' />
  <way id='-150' visible='true'>
    <nd ref='-148' />
    <nd ref='-149' />
    <tag k="ID" v="5116.000"/>
    <tag k="CATEGORY" v="5"/>
    <tag k="SHAPE_LE_1" v="35.621"/>
    <tag k="ET_ID" v="4870"/>
    <tag k="WAY_TYPE" v="Dwelling Area Road"/>
    <tag k="SHAPE_LENG" v="0.000"/>
    <tag k="CAT2" v="50"/>
  </way>
  <node id='-151' visible='true' lat='40.6284299123244' lon='20.9914666468579' />
  <node id='-152' visible='true' lat='40.6287356623935' lon='20.990731712077' />
  <node id='-153' visible='true' lat='40.6287269197731' lon='20.9906628168076' />
  <way id='-154' visible='true'>
    <nd ref='-151' />
    <nd ref='-152' />
    <nd ref='-153' />
    <tag k="ID" v="5117.000"/>
    <tag k="CATEGORY" v="5"/>
    <tag k="SHAPE_LE_1" v="76.756"/>
    <tag k="ET_ID" v="4871"/>
    <tag k="WAY_TYPE" v="Dwelling Area Road"/>
    <tag k="SHAPE_LENG" v="0.000"/>
    <tag k="CAT2" v="50"/>
  </way>
  <node id='-155' visible='true' lat='40.6279843166587' lon='20.9916504254824' />
  <node id='-156' visible='true' lat='40.6280629574014' lon='20.9916848605603' />
  <node id='-157' visible='true' lat='40.6284299123244' lon='20.9914666468579' />
  <way id='-158' visible='true'>
    <nd ref='-155' />
    <nd ref='-156' />
    <nd ref='-157' />
    <tag k="ID" v="5118.000"/>
    <tag k="CATEGORY" v="5"/>
    <tag k="SHAPE_LE_1" v="53.943"/>
    <tag k="ET_ID" v="4872"/>
    <tag k="WAY_TYPE" v="Dwelling Area Road"/>
    <tag k="SHAPE_LENG" v="0.000"/>
    <tag k="CAT2" v="50"/>
  </way>
  <node id='-159' visible='true' lat='40.6291592991408' lon='20.9921221852383' />
  <node id='-160' visible='true' lat='40.6296136066991' lon='20.9916398501253' />
  <node id='-161' visible='true' lat='40.6298582046254' lon='20.99098529506' />
  <way id='-162' visible='true'>
    <nd ref='-159' />
    <nd ref='-160' />
    <nd ref='-161' />
    <tag k="ID" v="5119.000"/>
    <tag k="CATEGORY" v="5"/>
    <tag k="SHAPE_LE_1" v="126.571"/>
    <tag k="ET_ID" v="4873"/>
    <tag k="WAY_TYPE" v="Dwelling Area Road"/>
    <tag k="SHAPE_LENG" v="0.000"/>
    <tag k="CAT2" v="50"/>
  </way>
  <node id='-163' visible='true' lat='40.6285260343658' lon='20.9916618377001' />
  <node id='-164' visible='true' lat='40.6290677809551' lon='20.9920177402918' />
  <node id='-165' visible='true' lat='40.6291592991408' lon='20.9921221852383' />
  <way id='-166' visible='true'>
    <nd ref='-163' />
    <nd ref='-164' />
    <nd ref='-165' />
    <tag k="ID" v="5120.000"/>
    <tag k="CATEGORY" v="5"/>
    <tag k="SHAPE_LE_1" v="80.743"/>
    <tag k="ET_ID" v="4874"/>
    <tag k="WAY_TYPE" v="Dwelling Area Road"/>
    <tag k="SHAPE_LENG" v="0.000"/>
    <tag k="CAT2" v="50"/>
  </way>
  <node id='-167' visible='true' lat='40.6284299123244' lon='20.9914666468579' />
  <node id='-168' visible='true' lat='40.6285260343658' lon='20.9916618377001' />
  <way id='-169' visible='true'>
    <nd ref='-167' />
    <nd ref='-168' />
    <tag k="ID" v="5121.000"/>
    <tag k="CATEGORY" v="5"/>
    <tag k="SHAPE_LE_1" v="19.664"/>
    <tag k="ET_ID" v="4875"/>
    <tag k="WAY_TYPE" v="Dwelling Area Road"/>
    <tag k="SHAPE_LENG" v="0.000"/>
    <tag k="CAT2" v="50"/>
  </way>
  <node id='-170' visible='true' lat='40.6291592991408' lon='20.9921221852383' />
  <node id='-171' visible='true' lat='40.6295525078327' lon='20.992524043129' />
  <way id='-172' visible='true'>
    <nd ref='-170' />
    <nd ref='-171' />
    <tag k="ID" v="5122.000"/>
    <tag k="CATEGORY" v="5"/>
    <tag k="SHAPE_LE_1" v="55.341"/>
    <tag k="ET_ID" v="4876"/>
    <tag k="WAY_TYPE" v="Dwelling Area Road"/>
    <tag k="SHAPE_LENG" v="0.000"/>
    <tag k="CAT2" v="50"/>
  </way>
  <node id='-173' visible='true' lat='40.628932200044' lon='20.9932934556403' />
  <node id='-174' visible='true' lat='40.6286088793416' lon='20.9926389756204' />
  <node id='-175' visible='true' lat='40.6285143083632' lon='20.9921706850864' />
  <way id='-176' visible='true'>
    <nd ref='-173' />
    <nd ref='-174' />
    <nd ref='-175' />
    <tag k="ID" v="5123.000"/>
    <tag k="CATEGORY" v="5"/>
    <tag k="SHAPE_LE_1" v="106.984"/>
    <tag k="ET_ID" v="4877"/>
    <tag k="WAY_TYPE" v="Dwelling Area Road"/>
    <tag k="SHAPE_LENG" v="0.000"/>
    <tag k="CAT2" v="50"/>
  </way>
  <node id='-177' visible='true' lat='40.6294913881807' lon='20.9931670910741' />
  <node id='-178' visible='true' lat='40.6292689397696' lon='20.9932245067629' />
  <node id='-179' visible='true' lat='40.628932200044' lon='20.9932934556403' />
  <way id='-180' visible='true'>
    <nd ref='-177' />
    <nd ref='-178' />
    <nd ref='-179' />
    <tag k="ID" v="5124.000"/>
    <tag k="CATEGORY" v="5"/>
    <tag k="SHAPE_LE_1" v="63.022"/>
    <tag k="ET_ID" v="4878"/>
    <tag k="WAY_TYPE" v="Dwelling Area Road"/>
    <tag k="SHAPE_LENG" v="0.000"/>
    <tag k="CAT2" v="50"/>
  </way>
  <node id='-181' visible='true' lat='40.6295525078327' lon='20.992524043129' />
  <node id='-182' visible='true' lat='40.6294913881807' lon='20.9931670910741' />
  <way id='-183' visible='true'>
    <nd ref='-181' />
    <nd ref='-182' />
    <tag k="ID" v="5125.000"/>
    <tag k="CATEGORY" v="5"/>
    <tag k="SHAPE_LE_1" v="54.827"/>
    <tag k="ET_ID" v="4879"/>
    <tag k="WAY_TYPE" v="Dwelling Area Road"/>
    <tag k="SHAPE_LENG" v="0.000"/>
    <tag k="CAT2" v="50"/>
  </way>
  <node id='-184' visible='true' lat='40.628932200044' lon='20.9932934556403' />
  <node id='-185' visible='true' lat='40.6289609597233' lon='20.9933526307177' />
  <node id='-186' visible='true' lat='40.6288596162377' lon='20.9937164100502' />
  <way id='-187' visible='true'>
    <nd ref='-184' />
    <nd ref='-185' />
    <nd ref='-186' />
    <tag k="ID" v="5126.000"/>
    <tag k="CATEGORY" v="5"/>
    <tag k="SHAPE_LE_1" v="38.710"/>
    <tag k="ET_ID" v="4880"/>
    <tag k="WAY_TYPE" v="Dwelling Area Road"/>
    <tag k="SHAPE_LENG" v="0.000"/>
    <tag k="CAT2" v="50"/>
  </way>
  <node id='-188' visible='true' lat='40.6286257284602' lon='20.9942134117468' />
  <node id='-189' visible='true' lat='40.6289233048753' lon='20.9946851634151' />
  <way id='-190' visible='true'>
    <nd ref='-188' />
    <nd ref='-189' />
    <tag k="ID" v="5127.000"/>
    <tag k="CATEGORY" v="5"/>
    <tag k="SHAPE_LE_1" v="51.818"/>
    <tag k="ET_ID" v="4881"/>
    <tag k="WAY_TYPE" v="Dwelling Area Road"/>
    <tag k="SHAPE_LENG" v="0.000"/>
    <tag k="CAT2" v="50"/>
  </way>
  <node id='-191' visible='true' lat='40.6288596162377' lon='20.9937164100502' />
  <node id='-192' visible='true' lat='40.6286257284602' lon='20.9942134117468' />
  <way id='-193' visible='true'>
    <nd ref='-191' />
    <nd ref='-192' />
    <tag k="ID" v="5128.000"/>
    <tag k="CATEGORY" v="5"/>
    <tag k="SHAPE_LE_1" v="49.424"/>
    <tag k="ET_ID" v="4882"/>
    <tag k="WAY_TYPE" v="Dwelling Area Road"/>
    <tag k="SHAPE_LENG" v="0.000"/>
    <tag k="CAT2" v="50"/>
  </way>
  <node id='-194' visible='true' lat='40.6289233048753' lon='20.9946851634151' />
  <node id='-195' visible='true' lat='40.6285560337798' lon='20.9953100278356' />
  <way id='-196' visible='true'>
    <nd ref='-194' />
    <nd ref='-195' />
    <tag k="ID" v="5129.000"/>
    <tag k="CATEGORY" v="5"/>
    <tag k="SHAPE_LE_1" v="66.771"/>
    <tag k="ET_ID" v="4883"/>
    <tag k="WAY_TYPE" v="Dwelling Area Road"/>
    <tag k="SHAPE_LENG" v="0.000"/>
    <tag k="CAT2" v="50"/>
  </way>
  <node id='-197' visible='true' lat='40.6273916552906' lon='20.9939038684985' />
  <node id='-198' visible='true' lat='40.6273680620657' lon='20.993976057682' />
  <node id='-199' visible='true' lat='40.6269102291345' lon='20.9951260911801' />
  <way id='-200' visible='true'>
    <nd ref='-197' />
    <nd ref='-198' />
    <nd ref='-199' />
    <tag k="ID" v="5130.000"/>
    <tag k="CATEGORY" v="5"/>
    <tag k="SHAPE_LE_1" v="116.431"/>
    <tag k="ET_ID" v="4884"/>
    <tag k="WAY_TYPE" v="Dwelling Area Road"/>
    <tag k="SHAPE_LENG" v="0.000"/>
    <tag k="CAT2" v="50"/>
  </way>
  <node id='-201' visible='true' lat='40.6275091228766' lon='20.9935444165634' />
  <node id='-202' visible='true' lat='40.6273916552906' lon='20.9939038684985' />
  <way id='-203' visible='true'>
    <nd ref='-201' />
    <nd ref='-202' />
    <tag k="ID" v="5131.000"/>
    <tag k="CATEGORY" v="5"/>
    <tag k="SHAPE_LE_1" v="33.092"/>
    <tag k="ET_ID" v="4885"/>
    <tag k="WAY_TYPE" v="Dwelling Area Road"/>
    <tag k="SHAPE_LENG" v="0.000"/>
    <tag k="CAT2" v="50"/>
  </way>
  <node id='-204' visible='true' lat='40.6269102291345' lon='20.9951260911801' />
  <node id='-205' visible='true' lat='40.6266761718096' lon='20.9944976293584' />
  <node id='-206' visible='true' lat='40.6260350877255' lon='20.993695368252' />
  <way id='-207' visible='true'>
    <nd ref='-204' />
    <nd ref='-205' />
    <nd ref='-206' />
    <tag k="ID" v="5132.000"/>
    <tag k="CATEGORY" v="5"/>
    <tag k="SHAPE_LE_1" v="157.552"/>
    <tag k="ET_ID" v="4886"/>
    <tag k="WAY_TYPE" v="Dwelling Area Road"/>
    <tag k="SHAPE_LENG" v="0.000"/>
    <tag k="CAT2" v="50"/>
  </way>
  <node id='-208' visible='true' lat='40.6260350877255' lon='20.993695368252' />
  <node id='-209' visible='true' lat='40.6254754364981' lon='20.9935483338792' />
  <node id='-210' visible='true' lat='40.6248140314893' lon='20.9932809604522' />
  <node id='-211' visible='true' lat='40.6241362765649' lon='20.9928619655667' />
  <way id='-212' visible='true'>
    <nd ref='-208' />
    <nd ref='-209' />
    <nd ref='-210' />
    <nd ref='-211' />
    <tag k="ID" v="5133.000"/>
    <tag k="CATEGORY" v="5"/>
    <tag k="SHAPE_LE_1" v="223.430"/>
    <tag k="ET_ID" v="4887"/>
    <tag k="WAY_TYPE" v="Dwelling Area Road"/>
    <tag k="SHAPE_LENG" v="0.000"/>
    <tag k="CAT2" v="50"/>
  </way>
  <node id='-213' visible='true' lat='40.6255658576183' lon='20.9857570061756' />
  <node id='-214' visible='true' lat='40.6255321429194' lon='20.9857032179488' />
  <way id='-215' visible='true'>
    <nd ref='-213' />
    <nd ref='-214' />
    <tag k="ID" v="5134.000"/>
    <tag k="CATEGORY" v="5"/>
    <tag k="SHAPE_LE_1" v="5.893"/>
    <tag k="ET_ID" v="4888"/>
    <tag k="WAY_TYPE" v="Dwelling Area Road"/>
    <tag k="SHAPE_LENG" v="0.000"/>
    <tag k="CAT2" v="50"/>
  </way>
  <node id='-216' visible='true' lat='40.6258443683741' lon='20.9862012905204' />
  <node id='-217' visible='true' lat='40.6255658576183' lon='20.9857570061756' />
  <way id='-218' visible='true'>
    <nd ref='-216' />
    <nd ref='-217' />
    <tag k="ID" v="5135.000"/>
    <tag k="CATEGORY" v="5"/>
    <tag k="SHAPE_LE_1" v="48.679"/>
    <tag k="ET_ID" v="4889"/>
    <tag k="WAY_TYPE" v="Dwelling Area Road"/>
    <tag k="SHAPE_LENG" v="0.000"/>
    <tag k="CAT2" v="50"/>
  </way>
  <node id='-219' visible='true' lat='40.62504625132' lon='20.9857071398518' />
  <node id='-220' visible='true' lat='40.6252423089961' lon='20.9859816530445' />
  <way id='-221' visible='true'>
    <nd ref='-219' />
    <nd ref='-220' />
    <tag k="ID" v="5136.000"/>
    <tag k="CATEGORY" v="5"/>
    <tag k="SHAPE_LE_1" v="31.836"/>
    <tag k="ET_ID" v="4890"/>
    <tag k="WAY_TYPE" v="Dwelling Area Road"/>
    <tag k="SHAPE_LENG" v="0.000"/>
    <tag k="CAT2" v="50"/>
  </way>
  <node id='-222' visible='true' lat='40.6243330466' lon='20.9871086276282' />
  <node id='-223' visible='true' lat='40.6247556423559' lon='20.986603619869' />
  <way id='-224' visible='true'>
    <nd ref='-222' />
    <nd ref='-223' />
    <tag k="ID" v="9550.000"/>
    <tag k="CATEGORY" v="5"/>
    <tag k="SHAPE_LE_1" v="63.468"/>
    <tag k="ET_ID" v="8813"/>
    <tag k="WAY_TYPE" v="Dwelling Area Road"/>
    <tag k="SHAPE_LENG" v="0.000"/>
    <tag k="CAT2" v="50"/>
  </way>
  <node id='-225' visible='true' lat='40.6237856641083' lon='20.9884720201651' />
  <node id='-226' visible='true' lat='40.6243330466' lon='20.9871086276282' />
  <way id='-227' visible='true'>
    <nd ref='-225' />
    <nd ref='-226' />
    <tag k="ID" v="9551.000"/>
    <tag k="CATEGORY" v="5"/>
    <tag k="SHAPE_LE_1" v="130.396"/>
    <tag k="ET_ID" v="8814"/>
    <tag k="WAY_TYPE" v="Dwelling Area Road"/>
    <tag k="SHAPE_LENG" v="0.000"/>
    <tag k="CAT2" v="50"/>
  </way>
  <node id='-228' visible='true' lat='40.6225350304753' lon='20.9873675426907' />
  <node id='-229' visible='true' lat='40.6237856641083' lon='20.9884720201651' />
  <way id='-230' visible='true'>
    <nd ref='-228' />
    <nd ref='-229' />
    <tag k="ID" v="9552.000"/>
    <tag k="CATEGORY" v="5"/>
    <tag k="SHAPE_LE_1" v="167.397"/>
    <tag k="ET_ID" v="8815"/>
    <tag k="WAY_TYPE" v="Dwelling Area Road"/>
    <tag k="SHAPE_LENG" v="0.000"/>
    <tag k="CAT2" v="50"/>
  </way>
  <node id='-231' visible='true' lat='40.6247556423559' lon='20.986603619869' />
  <node id='-232' visible='true' lat='40.6245801050138' lon='20.9861886012709' />
  <way id='-233' visible='true'>
    <nd ref='-231' />
    <nd ref='-232' />
    <tag k="ID" v="9562.000"/>
    <tag k="CATEGORY" v="5"/>
    <tag k="SHAPE_LE_1" v="40.163"/>
    <tag k="ET_ID" v="8825"/>
    <tag k="WAY_TYPE" v="Dwelling Area Road"/>
    <tag k="SHAPE_LENG" v="0.000"/>
    <tag k="CAT2" v="50"/>
  </way>
  <node id='-234' visible='true' lat='40.6294913881807' lon='20.9931670910741' />
  <node id='-235' visible='true' lat='40.6300472042144' lon='20.9931688983238' />
  <node id='-236' visible='true' lat='40.6303688899367' lon='20.9934921452984' />
  <way id='-237' visible='true'>
    <nd ref='-234' />
    <nd ref='-235' />
    <nd ref='-236' />
    <tag k="ID" v="20533.000"/>
    <tag k="CATEGORY" v="5"/>
    <tag k="SHAPE_LE_1" v="106.712"/>
    <tag k="ET_ID" v="19238"/>
    <tag k="WAY_TYPE" v="Dwelling Area Road"/>
    <tag k="SHAPE_LENG" v="0.000"/>
    <tag k="CAT2" v="50"/>
  </way>
  <node id='-238' visible='true' lat='40.6216733715384' lon='20.9907997803931' />
  <node id='-239' visible='true' lat='40.6212679564354' lon='20.9901758491867' />
  <node id='-240' visible='true' lat='40.621094193438' lon='20.9897649571098' />
  <node id='-241' visible='true' lat='40.620978315378' lon='20.9891105490175' />
  <node id='-242' visible='true' lat='40.6208161154131' lon='20.988547469824' />
  <way id='-243' visible='true'>
    <nd ref='-238' />
    <nd ref='-239' />
    <nd ref='-240' />
    <nd ref='-241' />
    <nd ref='-242' />
    <tag k="ID" v="20606.000"/>
    <tag k="CATEGORY" v="5"/>
    <tag k="SHAPE_LE_1" v="216.934"/>
    <tag k="ET_ID" v="19311"/>
    <tag k="WAY_TYPE" v="Dwelling Area Road"/>
    <tag k="SHAPE_LENG" v="0.000"/>
    <tag k="CAT2" v="50"/>
  </way>
  <node id='-244' visible='true' lat='40.6257509710694' lon='20.9869098681267' />
  <node id='-245' visible='true' lat='40.6252187382587' lon='20.9873683562294' />
  <way id='-246' visible='true'>
    <nd ref='-244' />
    <nd ref='-245' />
    <tag k="ID" v="20607.000"/>
    <tag k="CATEGORY" v="5"/>
    <tag k="SHAPE_LE_1" v="70.698"/>
    <tag k="ET_ID" v="19312"/>
    <tag k="WAY_TYPE" v="Dwelling Area Road"/>
    <tag k="SHAPE_LENG" v="0.000"/>
    <tag k="CAT2" v="50"/>
  </way>
  <node id='-247' visible='true' lat='40.6252423089961' lon='20.9859816530445' />
  <node id='-248' visible='true' lat='40.6255658576183' lon='20.9857570061756' />
  <way id='-249' visible='true'>
    <nd ref='-247' />
    <nd ref='-248' />
    <tag k="ID" v="20608.000"/>
    <tag k="CATEGORY" v="5"/>
    <tag k="SHAPE_LE_1" v="40.648"/>
    <tag k="ET_ID" v="19313"/>
    <tag k="WAY_TYPE" v="Dwelling Area Road"/>
    <tag k="SHAPE_LENG" v="0.000"/>
    <tag k="CAT2" v="50"/>
  </way>
  <node id='-250' visible='true' lat='40.6255321429194' lon='20.9857032179488' />
  <node id='-251' visible='true' lat='40.6253554531363' lon='20.9853877697977' />
  <way id='-252' visible='true'>
    <nd ref='-250' />
    <nd ref='-251' />
    <tag k="ID" v="20609.000"/>
    <tag k="CATEGORY" v="5"/>
    <tag k="SHAPE_LE_1" v="33.127"/>
    <tag k="ET_ID" v="19314"/>
    <tag k="WAY_TYPE" v="Dwelling Area Road"/>
    <tag k="SHAPE_LENG" v="0.000"/>
    <tag k="CAT2" v="50"/>
  </way>
  <node id='-253' visible='true' lat='40.6255321429194' lon='20.9857032179488' />
  <node id='-254' visible='true' lat='40.626373329903' lon='20.9849967973131' />
  <way id='-255' visible='true'>
    <nd ref='-253' />
    <nd ref='-254' />
    <tag k="ID" v="20610.000"/>
    <tag k="CATEGORY" v="5"/>
    <tag k="SHAPE_LE_1" v="110.898"/>
    <tag k="ET_ID" v="19315"/>
    <tag k="WAY_TYPE" v="Dwelling Area Road"/>
    <tag k="SHAPE_LENG" v="0.000"/>
    <tag k="CAT2" v="50"/>
  </way>
  <node id='-256' visible='true' lat='40.6241362765649' lon='20.9928619655667' />
  <node id='-257' visible='true' lat='40.6242787107045' lon='20.9925544086999' />
  <node id='-258' visible='true' lat='40.6246755552124' lon='20.9926479637823' />
  <node id='-259' visible='true' lat='40.6253684309794' lon='20.9929475497814' />
  <way id='-260' visible='true'>
    <nd ref='-256' />
    <nd ref='-257' />
    <nd ref='-258' />
    <nd ref='-259' />
    <tag k="ID" v="20611.000"/>
    <tag k="CATEGORY" v="5"/>
    <tag k="SHAPE_LE_1" v="156.238"/>
    <tag k="ET_ID" v="19316"/>
    <tag k="WAY_TYPE" v="Dwelling Area Road"/>
    <tag k="SHAPE_LENG" v="0.000"/>
    <tag k="CAT2" v="50"/>
  </way>
  <node id='-261' visible='true' lat='40.6260350877255' lon='20.993695368252' />
  <node id='-262' visible='true' lat='40.6262894701856' lon='20.9937354583539' />
  <node id='-263' visible='true' lat='40.6273093462585' lon='20.9938900001563' />
  <node id='-264' visible='true' lat='40.6273916552906' lon='20.9939038684985' />
  <way id='-265' visible='true'>
    <nd ref='-261' />
    <nd ref='-262' />
    <nd ref='-263' />
    <nd ref='-264' />
    <tag k="ID" v="20612.000"/>
    <tag k="CATEGORY" v="5"/>
    <tag k="SHAPE_LE_1" v="151.675"/>
    <tag k="ET_ID" v="19317"/>
    <tag k="WAY_TYPE" v="Dwelling Area Road"/>
    <tag k="SHAPE_LENG" v="0.000"/>
    <tag k="CAT2" v="50"/>
  </way>
  <node id='-266' visible='true' lat='40.6269102291345' lon='20.9951260911801' />
  <node id='-267' visible='true' lat='40.6270323572593' lon='20.9957813114902' />
  <way id='-268' visible='true'>
    <nd ref='-266' />
    <nd ref='-267' />
    <tag k="ID" v="20613.000"/>
    <tag k="CATEGORY" v="5"/>
    <tag k="SHAPE_LE_1" v="57.072"/>
    <tag k="ET_ID" v="19318"/>
    <tag k="WAY_TYPE" v="Dwelling Area Road"/>
    <tag k="SHAPE_LENG" v="0.000"/>
    <tag k="CAT2" v="50"/>
  </way>
  <node id='-269' visible='true' lat='40.6286257284602' lon='20.9942134117468' />
  <node id='-270' visible='true' lat='40.6283321175864' lon='20.9939594384206' />
  <node id='-271' visible='true' lat='40.6276401685122' lon='20.9932803080853' />
  <way id='-272' visible='true'>
    <nd ref='-269' />
    <nd ref='-270' />
    <nd ref='-271' />
    <tag k="ID" v="20614.000"/>
    <tag k="CATEGORY" v="5"/>
    <tag k="SHAPE_LE_1" v="134.997"/>
    <tag k="ET_ID" v="19319"/>
    <tag k="WAY_TYPE" v="Dwelling Area Road"/>
    <tag k="SHAPE_LENG" v="0.000"/>
    <tag k="CAT2" v="50"/>
  </way>
  <node id='-273' visible='true' lat='40.6285560337798' lon='20.9953100278356' />
  <node id='-274' visible='true' lat='40.6289020107079' lon='20.9957379193533' />
  <way id='-275' visible='true'>
    <nd ref='-273' />
    <nd ref='-274' />
    <tag k="ID" v="20615.000"/>
    <tag k="CATEGORY" v="5"/>
    <tag k="SHAPE_LE_1" v="52.790"/>
    <tag k="ET_ID" v="19320"/>
    <tag k="WAY_TYPE" v="Dwelling Area Road"/>
    <tag k="SHAPE_LENG" v="0.000"/>
    <tag k="CAT2" v="50"/>
  </way>
  <node id='-276' visible='true' lat='40.6285560337798' lon='20.9953100278356' />
  <node id='-277' visible='true' lat='40.6279455569687' lon='20.9964065980128' />
  <way id='-278' visible='true'>
    <nd ref='-276' />
    <nd ref='-277' />
    <tag k="ID" v="20616.000"/>
    <tag k="CATEGORY" v="5"/>
    <tag k="SHAPE_LE_1" v="114.907"/>
    <tag k="ET_ID" v="19321"/>
    <tag k="WAY_TYPE" v="Dwelling Area Road"/>
    <tag k="SHAPE_LENG" v="0.000"/>
    <tag k="CAT2" v="50"/>
  </way>
  <node id='-279' visible='true' lat='40.6289233048753' lon='20.9946851634151' />
  <node id='-280' visible='true' lat='40.6292300550338' lon='20.9951714665556' />
  <way id='-281' visible='true'>
    <nd ref='-279' />
    <nd ref='-280' />
    <tag k="ID" v="20617.000"/>
    <tag k="CATEGORY" v="5"/>
    <tag k="SHAPE_LE_1" v="53.416"/>
    <tag k="ET_ID" v="19322"/>
    <tag k="WAY_TYPE" v="Dwelling Area Road"/>
    <tag k="SHAPE_LENG" v="0.000"/>
    <tag k="CAT2" v="50"/>
  </way>
  <node id='-282' visible='true' lat='40.6288596162377' lon='20.9937164100502' />
  <node id='-283' visible='true' lat='40.6295925971691' lon='20.9946949441889' />
  <way id='-284' visible='true'>
    <nd ref='-282' />
    <nd ref='-283' />
    <tag k="ID" v="20618.000"/>
    <tag k="CATEGORY" v="5"/>
    <tag k="SHAPE_LE_1" v="116.102"/>
    <tag k="ET_ID" v="19323"/>
    <tag k="WAY_TYPE" v="Dwelling Area Road"/>
    <tag k="SHAPE_LENG" v="0.000"/>
    <tag k="CAT2" v="50"/>
  </way>
  <node id='-285' visible='true' lat='40.6285143083632' lon='20.9921706850864' />
  <node id='-286' visible='true' lat='40.6277462463036' lon='20.9926310400955' />
  <way id='-287' visible='true'>
    <nd ref='-285' />
    <nd ref='-286' />
    <tag k="ID" v="20619.000"/>
    <tag k="CATEGORY" v="5"/>
    <tag k="SHAPE_LE_1" v="93.765"/>
    <tag k="ET_ID" v="19324"/>
    <tag k="WAY_TYPE" v="Dwelling Area Road"/>
    <tag k="SHAPE_LENG" v="0.000"/>
    <tag k="CAT2" v="50"/>
  </way>
  <node id='-288' visible='true' lat='40.6285143083632' lon='20.9921706850864' />
  <node id='-289' visible='true' lat='40.628495255574' lon='20.9920763324432' />
  <node id='-290' visible='true' lat='40.6285260343658' lon='20.9916618377001' />
  <way id='-291' visible='true'>
    <nd ref='-288' />
    <nd ref='-289' />
    <nd ref='-290' />
    <tag k="ID" v="20620.000"/>
    <tag k="CATEGORY" v="5"/>
    <tag k="SHAPE_LE_1" v="43.494"/>
    <tag k="ET_ID" v="19325"/>
    <tag k="WAY_TYPE" v="Dwelling Area Road"/>
    <tag k="SHAPE_LENG" v="0.000"/>
    <tag k="CAT2" v="50"/>
  </way>
  <node id='-292' visible='true' lat='40.6295525078327' lon='20.992524043129' />
  <node id='-293' visible='true' lat='40.6302777268648' lon='20.9927536224919' />
  <way id='-294' visible='true'>
    <nd ref='-292' />
    <nd ref='-293' />
    <tag k="ID" v="20621.000"/>
    <tag k="CATEGORY" v="5"/>
    <tag k="SHAPE_LE_1" v="82.844"/>
    <tag k="ET_ID" v="19326"/>
    <tag k="WAY_TYPE" v="Dwelling Area Road"/>
    <tag k="SHAPE_LENG" v="0.000"/>
    <tag k="CAT2" v="50"/>
  </way>
  <node id='-295' visible='true' lat='40.6298582046254' lon='20.99098529506' />
  <node id='-296' visible='true' lat='40.6292902630914' lon='20.9908131318153' />
  <node id='-297' visible='true' lat='40.6287269197731' lon='20.9906628168076' />
  <way id='-298' visible='true'>
    <nd ref='-295' />
    <nd ref='-296' />
    <nd ref='-297' />
    <tag k="ID" v="20622.000"/>
    <tag k="CATEGORY" v="5"/>
    <tag k="SHAPE_LE_1" v="128.567"/>
    <tag k="ET_ID" v="19327"/>
    <tag k="WAY_TYPE" v="Dwelling Area Road"/>
    <tag k="SHAPE_LENG" v="0.000"/>
    <tag k="CAT2" v="50"/>
  </way>
  <node id='-299' visible='true' lat='40.6287269197731' lon='20.9906628168076' />
  <node id='-300' visible='true' lat='40.6284176657828' lon='20.9901799029399' />
  <way id='-301' visible='true'>
    <nd ref='-299' />
    <nd ref='-300' />
    <tag k="ID" v="20623.000"/>
    <tag k="CATEGORY" v="5"/>
    <tag k="SHAPE_LE_1" v="53.374"/>
    <tag k="ET_ID" v="19328"/>
    <tag k="WAY_TYPE" v="Dwelling Area Road"/>
    <tag k="SHAPE_LENG" v="0.000"/>
    <tag k="CAT2" v="50"/>
  </way>
  <node id='-302' visible='true' lat='40.6279843166587' lon='20.9916504254824' />
  <node id='-303' visible='true' lat='40.6280279528451' lon='20.9909959133552' />
  <node id='-304' visible='true' lat='40.6278606433789' lon='20.9905309798665' />
  <way id='-305' visible='true'>
    <nd ref='-302' />
    <nd ref='-303' />
    <nd ref='-304' />
    <tag k="ID" v="20624.000"/>
    <tag k="CATEGORY" v="5"/>
    <tag k="SHAPE_LE_1" v="99.093"/>
    <tag k="ET_ID" v="19329"/>
    <tag k="WAY_TYPE" v="Dwelling Area Road"/>
    <tag k="SHAPE_LENG" v="0.000"/>
    <tag k="CAT2" v="50"/>
  </way>
  <node id='-306' visible='true' lat='40.6278445456683' lon='20.9920293655066' />
  <node id='-307' visible='true' lat='40.6272468915368' lon='20.9918105884165' />
  <way id='-308' visible='true'>
    <nd ref='-306' />
    <nd ref='-307' />
    <tag k="ID" v="20625.000"/>
    <tag k="CATEGORY" v="5"/>
    <tag k="SHAPE_LE_1" v="68.902"/>
    <tag k="ET_ID" v="19330"/>
    <tag k="WAY_TYPE" v="Dwelling Area Road"/>
    <tag k="SHAPE_LENG" v="0.000"/>
    <tag k="CAT2" v="50"/>
  </way>
  <node id='-309' visible='true' lat='40.6270023424571' lon='20.9933377812434' />
  <node id='-310' visible='true' lat='40.6264169380699' lon='20.9933033893372' />
  <way id='-311' visible='true'>
    <nd ref='-309' />
    <nd ref='-310' />
    <tag k="ID" v="20626.000"/>
    <tag k="CATEGORY" v="5"/>
    <tag k="SHAPE_LE_1" v="65.073"/>
    <tag k="ET_ID" v="19331"/>
    <tag k="WAY_TYPE" v="Dwelling Area Road"/>
    <tag k="SHAPE_LENG" v="0.000"/>
    <tag k="CAT2" v="50"/>
  </way>
  <node id='-312' visible='true' lat='40.6264169380699' lon='20.9933033893372' />
  <node id='-313' visible='true' lat='40.6264518248883' lon='20.9923159092278' />
  <way id='-314' visible='true'>
    <nd ref='-312' />
    <nd ref='-313' />
    <tag k="ID" v="20627.000"/>
    <tag k="CATEGORY" v="5"/>
    <tag k="SHAPE_LE_1" v="83.640"/>
    <tag k="ET_ID" v="19332"/>
    <tag k="WAY_TYPE" v="Dwelling Area Road"/>
    <tag k="SHAPE_LENG" v="0.000"/>
    <tag k="CAT2" v="50"/>
  </way>
  <node id='-315' visible='true' lat='40.6261722169137' lon='20.9921322243328' />
  <node id='-316' visible='true' lat='40.6263556468341' lon='20.9913858537184' />
  <way id='-317' visible='true'>
    <nd ref='-315' />
    <nd ref='-316' />
    <tag k="ID" v="20628.000"/>
    <tag k="CATEGORY" v="5"/>
    <tag k="SHAPE_LE_1" v="66.354"/>
    <tag k="ET_ID" v="19333"/>
    <tag k="WAY_TYPE" v="Dwelling Area Road"/>
    <tag k="SHAPE_LENG" v="0.000"/>
    <tag k="CAT2" v="50"/>
  </way>
  <node id='-318' visible='true' lat='40.6287072538777' lon='20.9846157559634' />
  <node id='-319' visible='true' lat='40.6273986350322' lon='20.9856988441636' />
  <way id='-320' visible='true'>
    <nd ref='-318' />
    <nd ref='-319' />
    <tag k="ID" v="20629.000"/>
    <tag k="CATEGORY" v="5"/>
    <tag k="SHAPE_LE_1" v="171.801"/>
    <tag k="ET_ID" v="19334"/>
    <tag k="WAY_TYPE" v="Dwelling Area Road"/>
    <tag k="SHAPE_LENG" v="0.000"/>
    <tag k="CAT2" v="50"/>
  </way>
  <node id='-321' visible='true' lat='40.6272847051036' lon='20.9853140368139' />
  <node id='-322' visible='true' lat='40.6287224539385' lon='20.9841644669595' />
  <way id='-323' visible='true'>
    <nd ref='-321' />
    <nd ref='-322' />
    <tag k="ID" v="20630.000"/>
    <tag k="CATEGORY" v="5"/>
    <tag k="SHAPE_LE_1" v="186.953"/>
    <tag k="ET_ID" v="19335"/>
    <tag k="WAY_TYPE" v="Dwelling Area Road"/>
    <tag k="SHAPE_LENG" v="0.000"/>
    <tag k="CAT2" v="50"/>
  </way>
  <node id='-324' visible='true' lat='40.6272847051036' lon='20.9853140368139' />
  <node id='-325' visible='true' lat='40.6272633073521' lon='20.9852417698567' />
  <node id='-326' visible='true' lat='40.6270166539218' lon='20.9846365127796' />
  <node id='-327' visible='true' lat='40.6266988939548' lon='20.9840066965891' />
  <way id='-328' visible='true'>
    <nd ref='-324' />
    <nd ref='-325' />
    <nd ref='-326' />
    <nd ref='-327' />
    <tag k="ID" v="20631.000"/>
    <tag k="CATEGORY" v="5"/>
    <tag k="SHAPE_LE_1" v="128.548"/>
    <tag k="ET_ID" v="19336"/>
    <tag k="WAY_TYPE" v="Dwelling Area Road"/>
    <tag k="SHAPE_LENG" v="0.000"/>
    <tag k="CAT2" v="50"/>
  </way>
  <node id='-329' visible='true' lat='40.6277747304094' lon='20.9864651227365' />
  <node id='-330' visible='true' lat='40.6279808440732' lon='20.9871670730515' />
  <node id='-331' visible='true' lat='40.62798848349' lon='20.9872473016677' />
  <way id='-332' visible='true'>
    <nd ref='-329' />
    <nd ref='-330' />
    <nd ref='-331' />
    <tag k="ID" v="20632.000"/>
    <tag k="CATEGORY" v="5"/>
    <tag k="SHAPE_LE_1" v="70.489"/>
    <tag k="ET_ID" v="19337"/>
    <tag k="WAY_TYPE" v="Dwelling Area Road"/>
    <tag k="SHAPE_LENG" v="0.000"/>
    <tag k="CAT2" v="50"/>
  </way>
  <node id='-333' visible='true' lat='40.6277747304094' lon='20.9864651227365' />
  <node id='-334' visible='true' lat='40.6276220749363' lon='20.9861643014827' />
  <way id='-335' visible='true'>
    <nd ref='-333' />
    <nd ref='-334' />
    <tag k="ID" v="20633.000"/>
    <tag k="CATEGORY" v="5"/>
    <tag k="SHAPE_LE_1" v="30.581"/>
    <tag k="ET_ID" v="19338"/>
    <tag k="WAY_TYPE" v="Dwelling Area Road"/>
    <tag k="SHAPE_LENG" v="0.000"/>
    <tag k="CAT2" v="50"/>
  </way>
  <node id='-336' visible='true' lat='40.6276220749363' lon='20.9861643014827' />
  <node id='-337' visible='true' lat='40.6285300703535' lon='20.9854821771225' />
  <way id='-338' visible='true'>
    <nd ref='-336' />
    <nd ref='-337' />
    <tag k="ID" v="20634.000"/>
    <tag k="CATEGORY" v="5"/>
    <tag k="SHAPE_LE_1" v="116.180"/>
    <tag k="ET_ID" v="19339"/>
    <tag k="WAY_TYPE" v="Dwelling Area Road"/>
    <tag k="SHAPE_LENG" v="0.000"/>
    <tag k="CAT2" v="50"/>
  </way>
  <node id='-339' visible='true' lat='40.6270398589161' lon='20.9875878348568' />
  <node id='-340' visible='true' lat='40.6276832583908' lon='20.9873376105908' />
  <way id='-341' visible='true'>
    <nd ref='-339' />
    <nd ref='-340' />
    <tag k="ID" v="20635.000"/>
    <tag k="CATEGORY" v="5"/>
    <tag k="SHAPE_LE_1" v="74.519"/>
    <tag k="ET_ID" v="19340"/>
    <tag k="WAY_TYPE" v="Dwelling Area Road"/>
    <tag k="SHAPE_LENG" v="0.000"/>
    <tag k="CAT2" v="50"/>
  </way>
  <node id='-342' visible='true' lat='40.62798848349' lon='20.9872473016677' />
  <node id='-343' visible='true' lat='40.6280877014989' lon='20.9873977098755' />
  <node id='-344' visible='true' lat='40.6280877707889' lon='20.9880495605489' />
  <node id='-345' visible='true' lat='40.6277306865314' lon='20.9880640084337' />
  <way id='-346' visible='true'>
    <nd ref='-342' />
    <nd ref='-343' />
    <nd ref='-344' />
    <nd ref='-345' />
    <tag k="ID" v="20636.000"/>
    <tag k="CATEGORY" v="5"/>
    <tag k="SHAPE_LE_1" v="111.657"/>
    <tag k="ET_ID" v="19341"/>
    <tag k="WAY_TYPE" v="Dwelling Area Road"/>
    <tag k="SHAPE_LENG" v="0.000"/>
    <tag k="CAT2" v="50"/>
  </way>
  <node id='-347' visible='true' lat='40.6283793803384' lon='20.9887257798188' />
  <node id='-348' visible='true' lat='40.6279901930796' lon='20.988605500147' />
  <node id='-349' visible='true' lat='40.6272078462091' lon='20.988620725246' />
  <way id='-350' visible='true'>
    <nd ref='-347' />
    <nd ref='-348' />
    <nd ref='-349' />
    <tag k="ID" v="20637.000"/>
    <tag k="CATEGORY" v="5"/>
    <tag k="SHAPE_LE_1" v="131.289"/>
    <tag k="ET_ID" v="19342"/>
    <tag k="WAY_TYPE" v="Dwelling Area Road"/>
    <tag k="SHAPE_LENG" v="0.000"/>
    <tag k="CAT2" v="50"/>
  </way>
  <node id='-351' visible='true' lat='40.6274408867563' lon='20.9898892279716' />
  <node id='-352' visible='true' lat='40.6272828243347' lon='20.9901316278474' />
  <way id='-353' visible='true'>
    <nd ref='-351' />
    <nd ref='-352' />
    <tag k="ID" v="20638.000"/>
    <tag k="CATEGORY" v="5"/>
    <tag k="SHAPE_LE_1" v="26.995"/>
    <tag k="ET_ID" v="19343"/>
    <tag k="WAY_TYPE" v="Dwelling Area Road"/>
    <tag k="SHAPE_LENG" v="0.000"/>
    <tag k="CAT2" v="50"/>
  </way>
  <node id='-354' visible='true' lat='40.6260404795111' lon='20.9904360201913' />
  <node id='-355' visible='true' lat='40.6256435711821' lon='20.9892728176639' />
  <way id='-356' visible='true'>
    <nd ref='-354' />
    <nd ref='-355' />
    <tag k="ID" v="20639.000"/>
    <tag k="CATEGORY" v="5"/>
    <tag k="SHAPE_LE_1" v="107.838"/>
    <tag k="ET_ID" v="19344"/>
    <tag k="WAY_TYPE" v="Dwelling Area Road"/>
    <tag k="SHAPE_LENG" v="0.000"/>
    <tag k="CAT2" v="50"/>
  </way>
  <node id='-357' visible='true' lat='40.6256435711821' lon='20.9892728176639' />
  <node id='-358' visible='true' lat='40.625864860249' lon='20.9892126146311' />
  <node id='-359' visible='true' lat='40.6265210752577' lon='20.9887612383489' />
  <way id='-360' visible='true'>
    <nd ref='-357' />
    <nd ref='-358' />
    <nd ref='-359' />
    <tag k="ID" v="20640.000"/>
    <tag k="CATEGORY" v="5"/>
    <tag k="SHAPE_LE_1" v="107.369"/>
    <tag k="ET_ID" v="19345"/>
    <tag k="WAY_TYPE" v="Dwelling Area Road"/>
    <tag k="SHAPE_LENG" v="0.000"/>
    <tag k="CAT2" v="50"/>
  </way>
  <node id='-361' visible='true' lat='40.6260991143792' lon='20.9883946804207' />
  <node id='-362' visible='true' lat='40.6258063988382' lon='20.9881404091694' />
  <way id='-363' visible='true'>
    <nd ref='-361' />
    <nd ref='-362' />
    <tag k="ID" v="20641.000"/>
    <tag k="CATEGORY" v="5"/>
    <tag k="SHAPE_LE_1" v="38.980"/>
    <tag k="ET_ID" v="19346"/>
    <tag k="WAY_TYPE" v="Dwelling Area Road"/>
    <tag k="SHAPE_LENG" v="0.000"/>
    <tag k="CAT2" v="50"/>
  </way>
  <node id='-364' visible='true' lat='40.6243330466' lon='20.9871086276282' />
  <node id='-365' visible='true' lat='40.6239597643546' lon='20.9868293208969' />
  <way id='-366' visible='true'>
    <nd ref='-364' />
    <nd ref='-365' />
    <tag k="ID" v="20642.000"/>
    <tag k="CATEGORY" v="5"/>
    <tag k="SHAPE_LE_1" v="47.716"/>
    <tag k="ET_ID" v="19347"/>
    <tag k="WAY_TYPE" v="Dwelling Area Road"/>
    <tag k="SHAPE_LENG" v="0.000"/>
    <tag k="CAT2" v="10"/>
  </way>
  <node id='-367' visible='true' lat='40.6244581998538' lon='20.9899235640768' />
  <node id='-368' visible='true' lat='40.6240067960174' lon='20.99070626138' />
  <way id='-369' visible='true'>
    <nd ref='-367' />
    <nd ref='-368' />
    <tag k="ID" v="20643.000"/>
    <tag k="CATEGORY" v="5"/>
    <tag k="SHAPE_LE_1" v="83.058"/>
    <tag k="ET_ID" v="19348"/>
    <tag k="WAY_TYPE" v="Dwelling Area Road"/>
    <tag k="SHAPE_LENG" v="0.000"/>
    <tag k="CAT2" v="50"/>
  </way>
  <node id='-370' visible='true' lat='40.626373329903' lon='20.9849967973131' />
  <node id='-371' visible='true' lat='40.6262620364129' lon='20.984451352821' />
  <way id='-372' visible='true'>
    <nd ref='-370' />
    <nd ref='-371' />
    <tag k="ID" v="20644.000"/>
    <tag k="CATEGORY" v="5"/>
    <tag k="SHAPE_LE_1" v="47.776"/>
    <tag k="ET_ID" v="19349"/>
    <tag k="WAY_TYPE" v="Dwelling Area Road"/>
    <tag k="SHAPE_LENG" v="0.000"/>
    <tag k="CAT2" v="50"/>
  </way>
  <node id='-373' visible='true' lat='40.6293551204605' lon='20.9812758366303' />
  <node id='-374' visible='true' lat='40.6324498451192' lon='20.9805505597753' />
  <way id='-375' visible='true'>
    <nd ref='-373' />
    <nd ref='-374' />
    <tag k="ID" v="43453.000"/>
    <tag k="CATEGORY" v="4"/>
    <tag k="SHAPE_LE_1" v="349.100"/>
    <tag k="ET_ID" v="41440"/>
    <tag k="WAY_TYPE" v="Village Road"/>
    <tag k="SHAPE_LENG" v="0.000"/>
    <tag k="CAT2" v="40"/>
  </way>
  <node id='-376' visible='true' lat='40.6228237478602' lon='20.9943061959787' />
  <node id='-377' visible='true' lat='40.6228637382695' lon='20.9950665531889' />
  <node id='-378' visible='true' lat='40.6229760465702' lon='20.9957304902638' />
  <way id='-379' visible='true'>
    <nd ref='-376' />
    <nd ref='-377' />
    <nd ref='-378' />
    <tag k="ID" v="43457.000"/>
    <tag k="CATEGORY" v="4"/>
    <tag k="SHAPE_LE_1" v="122.036"/>
    <tag k="ET_ID" v="41444"/>
    <tag k="WAY_TYPE" v="Village Road"/>
    <tag k="SHAPE_LENG" v="0.000"/>
    <tag k="CAT2" v="40"/>
  </way>
  <node id='-380' visible='true' lat='40.6266820118943' lon='20.9963133300431' />
  <node id='-381' visible='true' lat='40.6256707227006' lon='20.995988524972' />
  <node id='-382' visible='true' lat='40.6246601876358' lon='20.9950664210094' />
  <node id='-383' visible='true' lat='40.6237900148769' lon='20.9946238494381' />
  <node id='-384' visible='true' lat='40.6233408872545' lon='20.9943287950091' />
  <node id='-385' visible='true' lat='40.6228237478602' lon='20.9943061959787' />
  <way id='-386' visible='true'>
    <nd ref='-380' />
    <nd ref='-381' />
    <nd ref='-382' />
    <nd ref='-383' />
    <nd ref='-384' />
    <nd ref='-385' />
    <tag k="ID" v="43458.000"/>
    <tag k="CATEGORY" v="4"/>
    <tag k="SHAPE_LE_1" v="469.159"/>
    <tag k="ET_ID" v="41445"/>
    <tag k="WAY_TYPE" v="Village Road"/>
    <tag k="SHAPE_LENG" v="0.000"/>
    <tag k="CAT2" v="40"/>
  </way>
  <node id='-387' visible='true' lat='40.6269338634828' lon='20.9963942227622' />
  <node id='-388' visible='true' lat='40.6266820118943' lon='20.9963133300431' />
  <way id='-389' visible='true'>
    <nd ref='-387' />
    <nd ref='-388' />
    <tag k="ID" v="43459.000"/>
    <tag k="CATEGORY" v="4"/>
    <tag k="SHAPE_LE_1" v="28.793"/>
    <tag k="ET_ID" v="41446"/>
    <tag k="WAY_TYPE" v="Village Road"/>
    <tag k="SHAPE_LENG" v="0.000"/>
    <tag k="CAT2" v="40"/>
  </way>
  <node id='-390' visible='true' lat='40.6268771480616' lon='20.9981194767377' />
  <node id='-391' visible='true' lat='40.6264847901137' lon='20.9980541940987' />
  <way id='-392' visible='true'>
    <nd ref='-390' />
    <nd ref='-391' />
    <tag k="ID" v="43460.000"/>
    <tag k="CATEGORY" v="4"/>
    <tag k="SHAPE_LE_1" v="43.920"/>
    <tag k="ET_ID" v="41447"/>
    <tag k="WAY_TYPE" v="Village Road"/>
    <tag k="SHAPE_LENG" v="0.000"/>
    <tag k="CAT2" v="40"/>
  </way>
  <node id='-393' visible='true' lat='40.6229760465702' lon='20.9957304902638' />
  <node id='-394' visible='true' lat='40.6223023902968' lon='20.9960624994655' />
  <node id='-395' visible='true' lat='40.6218358562566' lon='20.9962934772798' />
  <node id='-396' visible='true' lat='40.6209831538339' lon='20.9970953480773' />
  <node id='-397' visible='true' lat='40.6200849388218' lon='20.9974273483651' />
  <node id='-398' visible='true' lat='40.6197200413224' lon='20.9978330860279' />
  <node id='-399' visible='true' lat='40.6194393560662' lon='20.998312586894' />
  <way id='-400' visible='true'>
    <nd ref='-393' />
    <nd ref='-394' />
    <nd ref='-395' />
    <nd ref='-396' />
    <nd ref='-397' />
    <nd ref='-398' />
    <nd ref='-399' />
    <tag k="ID" v="43461.000"/>
    <tag k="CATEGORY" v="4"/>
    <tag k="SHAPE_LE_1" v="459.674"/>
    <tag k="ET_ID" v="41448"/>
    <tag k="WAY_TYPE" v="Village Road"/>
    <tag k="SHAPE_LENG" v="0.000"/>
    <tag k="CAT2" v="40"/>
  </way>
  <node id='-401' visible='true' lat='40.6264847901137' lon='20.9980541940987' />
  <node id='-402' visible='true' lat='40.6245760556228' lon='20.9973902883103' />
  <node id='-403' visible='true' lat='40.623762030366' lon='20.9969476845793' />
  <node id='-404' visible='true' lat='40.623228688282' lon='20.9962468740184' />
  <node id='-405' visible='true' lat='40.6229760465702' lon='20.9957304902638' />
  <way id='-406' visible='true'>
    <nd ref='-401' />
    <nd ref='-402' />
    <nd ref='-403' />
    <nd ref='-404' />
    <nd ref='-405' />
    <tag k="ID" v="43462.000"/>
    <tag k="CATEGORY" v="4"/>
    <tag k="SHAPE_LE_1" v="452.861"/>
    <tag k="ET_ID" v="41449"/>
    <tag k="WAY_TYPE" v="Village Road"/>
    <tag k="SHAPE_LENG" v="0.000"/>
    <tag k="CAT2" v="40"/>
  </way>
  <node id='-407' visible='true' lat='40.6249658906463' lon='21.0015954758391' />
  <node id='-408' visible='true' lat='40.6252187495151' lon='21.0018977754332' />
  <node id='-409' visible='true' lat='40.6253173037867' lon='21.0022539703314' />
  <node id='-410' visible='true' lat='40.6251448132168' lon='21.0026425295911' />
  <node id='-411' visible='true' lat='40.6250462395237' lon='21.003160615723' />
  <node id='-412' visible='true' lat='40.6251447838242' lon='21.0037110910639' />
  <node id='-413' visible='true' lat='40.6253665224661' lon='21.0044558620504' />
  <node id='-414' visible='true' lat='40.6255882658129' lon='21.004876830598' />
  <node id='-415' visible='true' lat='40.6264013592938' lon='21.005654040474' />
  <node id='-416' visible='true' lat='40.6271405185098' lon='21.0065607856344' />
  <node id='-417' visible='true' lat='40.6276086779887' lon='21.006722743036' />
  <node id='-418' visible='true' lat='40.628692883639' lon='21.0061075886693' />
  <node id='-419' visible='true' lat='40.6293089293924' lon='21.0053304603568' />
  <node id='-420' visible='true' lat='40.6301386229584' lon='21.0047095614291' />
  <node id='-421' visible='true' lat='40.6304835899422' lon='21.0046448206728' />
  <node id='-422' visible='true' lat='40.6308531755753' lon='21.0050658331522' />
  <way id='-423' visible='true'>
    <nd ref='-407' />
    <nd ref='-408' />
    <nd ref='-409' />
    <nd ref='-410' />
    <nd ref='-411' />
    <nd ref='-412' />
    <nd ref='-413' />
    <nd ref='-414' />
    <nd ref='-415' />
    <nd ref='-416' />
    <nd ref='-417' />
    <nd ref='-418' />
    <nd ref='-419' />
    <nd ref='-420' />
    <nd ref='-421' />
    <nd ref='-422' />
    <tag k="ID" v="118600.000"/>
    <tag k="CATEGORY" v="4"/>
    <tag k="SHAPE_LE_1" v="1015.054"/>
    <tag k="ET_ID" v="111561"/>
    <tag k="WAY_TYPE" v="Village Road"/>
    <tag k="SHAPE_LENG" v="0.000"/>
    <tag k="CAT2" v="40"/>
  </way>
  <node id='-424' visible='true' lat='40.6257082256465' lon='21.0001753217561' />
  <node id='-425' visible='true' lat='40.6254379334797' lon='20.9995608139751' />
  <node id='-426' visible='true' lat='40.625019045879' lon='20.9993017778666' />
  <node id='-427' visible='true' lat='40.6246740811895' lon='20.999301781459' />
  <node id='-428' visible='true' lat='40.6242305577036' lon='20.999787484265' />
  <node id='-429' visible='true' lat='40.623860953059' lon='21.0004998481296' />
  <node id='-430' visible='true' lat='40.6236638317951' lon='21.000467467458' />
  <node id='-431' visible='true' lat='40.6230971028899' lon='21.0000789103151' />
  <node id='-432' visible='true' lat='40.6227274990847' lon='21.0000141463293' />
  <node id='-433' visible='true' lat='40.6215201221001' lon='20.9999817679076' />
  <node id='-434' visible='true' lat='40.62087947463' lon='20.9997227391701' />
  <node id='-435' visible='true' lat='40.6205837917454' lon='20.9995284741036' />
  <node id='-436' visible='true' lat='40.6203941225419' lon='20.9990397796569' />
  <node id='-437' visible='true' lat='40.6197288264977' lon='20.9985484359425' />
  <node id='-438' visible='true' lat='40.6194393560662' lon='20.998312586894' />
  <way id='-439' visible='true'>
    <nd ref='-424' />
    <nd ref='-425' />
    <nd ref='-426' />
    <nd ref='-427' />
    <nd ref='-428' />
    <nd ref='-429' />
    <nd ref='-430' />
    <nd ref='-431' />
    <nd ref='-432' />
    <nd ref='-433' />
    <nd ref='-434' />
    <nd ref='-435' />
    <nd ref='-436' />
    <nd ref='-437' />
    <nd ref='-438' />
    <tag k="ID" v="118951.000"/>
    <tag k="CATEGORY" v="4"/>
    <tag k="SHAPE_LE_1" v="835.595"/>
    <tag k="ET_ID" v="111876"/>
    <tag k="WAY_TYPE" v="Village Road"/>
    <tag k="SHAPE_LENG" v="0.000"/>
    <tag k="CAT2" v="40"/>
  </way>
  <node id='-440' visible='true' lat='40.6222790897084' lon='20.9856906600167' />
  <node id='-441' visible='true' lat='40.6229444409397' lon='20.9872302653832' />
  <way id='-442' visible='true'>
    <nd ref='-440' />
    <nd ref='-441' />
    <tag k="ID" v="119082.000"/>
    <tag k="CATEGORY" v="4"/>
    <tag k="SHAPE_LE_1" v="149.767"/>
    <tag k="ET_ID" v="112007"/>
    <tag k="WAY_TYPE" v="Village Road"/>
    <tag k="SHAPE_LENG" v="0.000"/>
    <tag k="CAT2" v="40"/>
  </way>
  <node id='-443' visible='true' lat='40.6251079423911' lon='20.9856434198087' />
  <node id='-444' visible='true' lat='40.6239910219906' lon='20.9806834992542' />
  <way id='-445' visible='true'>
    <nd ref='-443' />
    <nd ref='-444' />
    <tag k="ID" v="119083.000"/>
    <tag k="CATEGORY" v="4"/>
    <tag k="SHAPE_LE_1" v="437.615"/>
    <tag k="ET_ID" v="112008"/>
    <tag k="WAY_TYPE" v="Village Road"/>
    <tag k="SHAPE_LENG" v="0.000"/>
    <tag k="CAT2" v="40"/>
  </way>
  <node id='-446' visible='true' lat='40.6302777268648' lon='20.9927536224919' />
  <node id='-447' visible='true' lat='40.6308802219891' lon='20.9925622023681' />
  <node id='-448' visible='true' lat='40.6317781877634' lon='20.9920500911504' />
  <way id='-449' visible='true'>
    <nd ref='-446' />
    <nd ref='-447' />
    <nd ref='-448' />
    <tag k="ID" v="119084.000"/>
    <tag k="CATEGORY" v="4"/>
    <tag k="SHAPE_LE_1" v="177.562"/>
    <tag k="ET_ID" v="112009"/>
    <tag k="WAY_TYPE" v="Village Road"/>
    <tag k="SHAPE_LENG" v="0.000"/>
    <tag k="CAT2" v="40"/>
  </way>
  <node id='-450' visible='true' lat='40.6292300550338' lon='20.9951714665556' />
  <node id='-451' visible='true' lat='40.6295179096005' lon='20.9958006653869' />
  <node id='-452' visible='true' lat='40.6301556912564' lon='20.9966006888456' />
  <node id='-453' visible='true' lat='40.630561545423' lon='20.9970197530775' />
  <node id='-454' visible='true' lat='40.6312514893145' lon='20.9974648582232' />
  <way id='-455' visible='true'>
    <nd ref='-450' />
    <nd ref='-451' />
    <nd ref='-452' />
    <nd ref='-453' />
    <nd ref='-454' />
    <tag k="ID" v="119085.000"/>
    <tag k="CATEGORY" v="4"/>
    <tag k="SHAPE_LE_1" v="302.777"/>
    <tag k="ET_ID" v="112010"/>
    <tag k="WAY_TYPE" v="Village Road"/>
    <tag k="SHAPE_LENG" v="0.000"/>
    <tag k="CAT2" v="40"/>
  </way>
  <node id='-456' visible='true' lat='40.6264847901137' lon='20.9980541940987' />
  <node id='-457' visible='true' lat='40.6264567097831' lon='20.9972795548323' />
  <node id='-458' visible='true' lat='40.6265409093616' lon='20.9969475580702' />
  <node id='-459' visible='true' lat='40.6266820118943' lon='20.9963133300431' />
  <way id='-460' visible='true'>
    <nd ref='-456' />
    <nd ref='-457' />
    <nd ref='-458' />
    <nd ref='-459' />
    <tag k="ID" v="119087.000"/>
    <tag k="CATEGORY" v="4"/>
    <tag k="SHAPE_LE_1" v="151.124"/>
    <tag k="ET_ID" v="112012"/>
    <tag k="WAY_TYPE" v="Village Road"/>
    <tag k="SHAPE_LENG" v="0.000"/>
    <tag k="CAT2" v="40"/>
  </way>
  <node id='-461' visible='true' lat='40.6229760465702' lon='20.9957304902638' />
  <node id='-462' visible='true' lat='40.6234812769001' lon='20.9952878245331' />
  <node id='-463' visible='true' lat='40.6242952835382' lon='20.9949926726866' />
  <way id='-464' visible='true'>
    <nd ref='-461' />
    <nd ref='-462' />
    <nd ref='-463' />
    <tag k="ID" v="119088.000"/>
    <tag k="CATEGORY" v="4"/>
    <tag k="SHAPE_LE_1" v="161.240"/>
    <tag k="ET_ID" v="112013"/>
    <tag k="WAY_TYPE" v="Village Road"/>
    <tag k="SHAPE_LENG" v="0.000"/>
    <tag k="CAT2" v="40"/>
  </way>
  <node id='-465' visible='true' lat='40.6230169999815' lon='20.9928754574242' />
  <node id='-466' visible='true' lat='40.6228135050771' lon='20.9930760448132' />
  <node id='-467' visible='true' lat='40.6228033558514' lon='20.993530667986' />
  <way id='-468' visible='true'>
    <nd ref='-465' />
    <nd ref='-466' />
    <nd ref='-467' />
    <tag k="ID" v="153681.000"/>
    <tag k="CATEGORY" v="3"/>
    <tag k="SHAPE_LE_1" v="66.746"/>
    <tag k="ET_ID" v="145986"/>
    <tag k="WAY_TYPE" v="Seasonal Road"/>
    <tag k="SHAPE_LENG" v="0.000"/>
    <tag k="CAT2" v="30"/>
  </way>
  <node id='-469' visible='true' lat='40.6234545379551' lon='20.9929021504685' />
  <node id='-470' visible='true' lat='40.6230169999815' lon='20.9928754574242' />
  <way id='-471' visible='true'>
    <nd ref='-469' />
    <nd ref='-470' />
    <tag k="ID" v="153682.000"/>
    <tag k="CATEGORY" v="3"/>
    <tag k="SHAPE_LE_1" v="48.640"/>
    <tag k="ET_ID" v="145987"/>
    <tag k="WAY_TYPE" v="Seasonal Road"/>
    <tag k="SHAPE_LENG" v="0.000"/>
    <tag k="CAT2" v="30"/>
  </way>
  <node id='-472' visible='true' lat='40.6241362765649' lon='20.9928619655667' />
  <node id='-473' visible='true' lat='40.623658038778' lon='20.9928753893113' />
  <node id='-474' visible='true' lat='40.6234545379551' lon='20.9929021504685' />
  <way id='-475' visible='true'>
    <nd ref='-472' />
    <nd ref='-473' />
    <nd ref='-474' />
    <tag k="ID" v="153683.000"/>
    <tag k="CATEGORY" v="3"/>
    <tag k="SHAPE_LE_1" v="75.831"/>
    <tag k="ET_ID" v="145988"/>
    <tag k="WAY_TYPE" v="Seasonal Road"/>
    <tag k="SHAPE_LENG" v="0.000"/>
    <tag k="CAT2" v="30"/>
  </way>
  <node id='-476' visible='true' lat='40.6271843260299' lon='20.9974882674538' />
  <node id='-477' visible='true' lat='40.6271533515597' lon='20.9974650131947' />
  <node id='-478' visible='true' lat='40.6269338784517' lon='20.9969106511406' />
  <node id='-479' visible='true' lat='40.6269338634828' lon='20.9963942227622' />
  <way id='-480' visible='true'>
    <nd ref='-476' />
    <nd ref='-477' />
    <nd ref='-478' />
    <nd ref='-479' />
    <tag k="ID" v="153690.000"/>
    <tag k="CATEGORY" v="3"/>
    <tag k="SHAPE_LE_1" v="100.515"/>
    <tag k="ET_ID" v="145995"/>
    <tag k="WAY_TYPE" v="Seasonal Road"/>
    <tag k="SHAPE_LENG" v="0.000"/>
    <tag k="CAT2" v="30"/>
  </way>
  <node id='-481' visible='true' lat='40.6312514893145' lon='20.9974648582232' />
  <node id='-482' visible='true' lat='40.6302409948403' lon='20.9976493446759' />
  <node id='-483' visible='true' lat='40.629511195347' lon='20.9979813722698' />
  <node id='-484' visible='true' lat='40.6275463276895' lon='20.9977601012335' />
  <node id='-485' visible='true' lat='40.6271843260299' lon='20.9974882674538' />
  <way id='-486' visible='true'>
    <nd ref='-481' />
    <nd ref='-482' />
    <nd ref='-483' />
    <nd ref='-484' />
    <nd ref='-485' />
    <tag k="ID" v="153691.000"/>
    <tag k="CATEGORY" v="3"/>
    <tag k="SHAPE_LE_1" v="464.380"/>
    <tag k="ET_ID" v="145996"/>
    <tag k="WAY_TYPE" v="Seasonal Road"/>
    <tag k="SHAPE_LENG" v="0.000"/>
    <tag k="CAT2" v="30"/>
  </way>
  <node id='-487' visible='true' lat='40.6249658906463' lon='21.0015954758391' />
  <node id='-488' visible='true' lat='40.6250054760763' lon='21.0022220580417' />
  <node id='-489' visible='true' lat='40.6247344047662' lon='21.0032258445538' />
  <node id='-490' visible='true' lat='40.6247343901785' lon='21.0037115524412' />
  <node id='-491' visible='true' lat='40.624956131314' lon='21.0043915592184' />
  <node id='-492' visible='true' lat='40.625473547593' lon='21.0051363469594' />
  <node id='-493' visible='true' lat='40.6260156171676' lon='21.0054925782538' />
  <node id='-494' visible='true' lat='40.6262373664949' lon='21.0057192655858' />
  <node id='-495' visible='true' lat='40.6264837365499' lon='21.0063669160338' />
  <node id='-496' visible='true' lat='40.6270257946196' lon='21.0068526919989' />
  <node id='-497' visible='true' lat='40.6275185621813' lon='21.0075003757427' />
  <way id='-498' visible='true'>
    <nd ref='-487' />
    <nd ref='-488' />
    <nd ref='-489' />
    <nd ref='-490' />
    <nd ref='-491' />
    <nd ref='-492' />
    <nd ref='-493' />
    <nd ref='-494' />
    <nd ref='-495' />
    <nd ref='-496' />
    <nd ref='-497' />
    <tag k="ID" v="153958.000"/>
    <tag k="CATEGORY" v="3"/>
    <tag k="SHAPE_LE_1" v="642.381"/>
    <tag k="ET_ID" v="146584"/>
    <tag k="WAY_TYPE" v="Seasonal Road"/>
    <tag k="SHAPE_LENG" v="0.000"/>
    <tag k="CAT2" v="30"/>
  </way>
  <node id='-499' visible='true' lat='40.6317781877634' lon='20.9920500911504' />
  <node id='-500' visible='true' lat='40.6312924410616' lon='20.9918137191913' />
  <node id='-501' visible='true' lat='40.6306036637707' lon='20.9907578330963' />
  <way id='-502' visible='true'>
    <nd ref='-499' />
    <nd ref='-500' />
    <nd ref='-501' />
    <tag k="ID" v="168592.000"/>
    <tag k="CATEGORY" v="3"/>
    <tag k="SHAPE_LE_1" v="175.133"/>
    <tag k="ET_ID" v="160622"/>
    <tag k="WAY_TYPE" v="Seasonal Road"/>
    <tag k="SHAPE_LENG" v="0.000"/>
    <tag k="CAT2" v="30"/>
  </way>
  <node id='-503' visible='true' lat='40.6269338634828' lon='20.9963942227622' />
  <node id='-504' visible='true' lat='40.6270323572593' lon='20.9957813114902' />
  <way id='-505' visible='true'>
    <nd ref='-503' />
    <nd ref='-504' />
    <tag k="ID" v="168716.000"/>
    <tag k="CATEGORY" v="3"/>
    <tag k="SHAPE_LE_1" v="52.999"/>
    <tag k="ET_ID" v="160699"/>
    <tag k="WAY_TYPE" v="Seasonal Road"/>
    <tag k="SHAPE_LENG" v="0.000"/>
    <tag k="CAT2" v="30"/>
  </way>
  <node id='-506' visible='true' lat='40.6306036637707' lon='20.9907578330963' />
  <node id='-507' visible='true' lat='40.6298582046254' lon='20.99098529506' />
  <way id='-508' visible='true'>
    <nd ref='-506' />
    <nd ref='-507' />
    <tag k="ID" v="168718.000"/>
    <tag k="CATEGORY" v="3"/>
    <tag k="SHAPE_LE_1" v="84.990"/>
    <tag k="ET_ID" v="160701"/>
    <tag k="WAY_TYPE" v="Seasonal Road"/>
    <tag k="SHAPE_LENG" v="0.000"/>
    <tag k="CAT2" v="30"/>
  </way>
  <node id='-509' visible='true' lat='40.6230169999815' lon='20.9928754574242' />
  <node id='-510' visible='true' lat='40.6228316656371' lon='20.9923367945695' />
  <node id='-511' visible='true' lat='40.6225652461718' lon='20.9917889229519' />
  <node id='-512' visible='true' lat='40.6216733715384' lon='20.9907997803931' />
  <way id='-513' visible='true'>
    <nd ref='-509' />
    <nd ref='-510' />
    <nd ref='-511' />
    <nd ref='-512' />
    <tag k="ID" v="168722.000"/>
    <tag k="CATEGORY" v="3"/>
    <tag k="SHAPE_LE_1" v="234.674"/>
    <tag k="ET_ID" v="160705"/>
    <tag k="WAY_TYPE" v="Seasonal Road"/>
    <tag k="SHAPE_LENG" v="0.000"/>
    <tag k="CAT2" v="30"/>
  </way>
  <node id='-514' visible='true' lat='40.6228033558514' lon='20.993530667986' />
  <node id='-515' visible='true' lat='40.6229254605102' lon='20.9935707742665' />
  <node id='-516' visible='true' lat='40.6233629722329' lon='20.993142845895' />
  <node id='-517' visible='true' lat='40.6234545379551' lon='20.9929021504685' />
  <way id='-518' visible='true'>
    <nd ref='-514' />
    <nd ref='-515' />
    <nd ref='-516' />
    <nd ref='-517' />
    <tag k="ID" v="168723.000"/>
    <tag k="CATEGORY" v="3"/>
    <tag k="SHAPE_LE_1" v="97.335"/>
    <tag k="ET_ID" v="160706"/>
    <tag k="WAY_TYPE" v="Seasonal Road"/>
    <tag k="SHAPE_LENG" v="0.000"/>
    <tag k="CAT2" v="30"/>
  </way>
  <node id='-519' visible='true' lat='40.6228033558514' lon='20.993530667986' />
  <node id='-520' visible='true' lat='40.6228237478602' lon='20.9943061959787' />
  <way id='-521' visible='true'>
    <nd ref='-519' />
    <nd ref='-520' />
    <tag k="ID" v="168724.000"/>
    <tag k="CATEGORY" v="3"/>
    <tag k="SHAPE_LE_1" v="65.660"/>
    <tag k="ET_ID" v="160707"/>
    <tag k="WAY_TYPE" v="Seasonal Road"/>
    <tag k="SHAPE_LENG" v="0.000"/>
    <tag k="CAT2" v="30"/>
  </way>
  <node id='-522' visible='true' lat='40.6260562479397' lon='20.9866700813264' />
  <node id='-523' visible='true' lat='40.6266950750521' lon='20.9862910502978' />
  <way id='-524' visible='true'>
    <nd ref='-522' />
    <nd ref='-523' />
    <tag k="ID" v="177472.000"/>
    <tag k="CATEGORY" v="2"/>
    <tag k="SHAPE_LE_1" v="77.853"/>
    <tag k="ET_ID" v="169208"/>
    <tag k="WAY_TYPE" v="Well-Kept Gravel Road"/>
    <tag k="SHAPE_LENG" v="0.000"/>
    <tag k="CAT2" v="20"/>
  </way>
  <node id='-525' visible='true' lat='40.6258443683741' lon='20.9862012905204' />
  <node id='-526' visible='true' lat='40.6260562479397' lon='20.9866700813264' />
  <way id='-527' visible='true'>
    <nd ref='-525' />
    <nd ref='-526' />
    <tag k="ID" v="177473.000"/>
    <tag k="CATEGORY" v="2"/>
    <tag k="SHAPE_LE_1" v="46.118"/>
    <tag k="ET_ID" v="169209"/>
    <tag k="WAY_TYPE" v="Well-Kept Gravel Road"/>
    <tag k="SHAPE_LENG" v="0.000"/>
    <tag k="CAT2" v="20"/>
  </way>
  <node id='-528' visible='true' lat='40.6265201747509' lon='20.9856664573241' />
  <node id='-529' visible='true' lat='40.6258443683741' lon='20.9862012905204' />
  <way id='-530' visible='true'>
    <nd ref='-528' />
    <nd ref='-529' />
    <tag k="ID" v="177474.000"/>
    <tag k="CATEGORY" v="2"/>
    <tag k="SHAPE_LE_1" v="87.635"/>
    <tag k="ET_ID" v="169210"/>
    <tag k="WAY_TYPE" v="Well-Kept Gravel Road"/>
    <tag k="SHAPE_LENG" v="0.000"/>
    <tag k="CAT2" v="20"/>
  </way>
  <node id='-531' visible='true' lat='40.6252423089961' lon='20.9859816530445' />
  <node id='-532' visible='true' lat='40.6257509710694' lon='20.9869098681267' />
  <way id='-533' visible='true'>
    <nd ref='-531' />
    <nd ref='-532' />
    <tag k="ID" v="177475.000"/>
    <tag k="CATEGORY" v="2"/>
    <tag k="SHAPE_LE_1" v="96.741"/>
    <tag k="ET_ID" v="169211"/>
    <tag k="WAY_TYPE" v="Well-Kept Gravel Road"/>
    <tag k="SHAPE_LENG" v="0.000"/>
    <tag k="CAT2" v="20"/>
  </way>
  <node id='-534' visible='true' lat='40.6249658906463' lon='21.0015954758391' />
  <node id='-535' visible='true' lat='40.6245768224171' lon='21.0020854333294' />
  <node id='-536' visible='true' lat='40.6241229013185' lon='21.0030653400229' />
  <node id='-537' visible='true' lat='40.6237500253914' lon='21.004066550186' />
  <node id='-538' visible='true' lat='40.623652736864' lon='21.0046843207216' />
  <node id='-539' visible='true' lat='40.6236851289116' lon='21.0053660049443' />
  <way id='-540' visible='true'>
    <nd ref='-534' />
    <nd ref='-535' />
    <nd ref='-536' />
    <nd ref='-537' />
    <nd ref='-538' />
    <nd ref='-539' />
    <tag k="ID" v="177510.000"/>
    <tag k="CATEGORY" v="2"/>
    <tag k="SHAPE_LE_1" v="362.372"/>
    <tag k="ET_ID" v="169246"/>
    <tag k="WAY_TYPE" v="Well-Kept Gravel Road"/>
    <tag k="SHAPE_LENG" v="0.000"/>
    <tag k="CAT2" v="20"/>
  </way>
  <node id='-541' visible='true' lat='40.6257082256465' lon='21.0001753217561' />
  <node id='-542' visible='true' lat='40.6254134868461' lon='21.0006962095011' />
  <node id='-543' visible='true' lat='40.6249658906463' lon='21.0015954758391' />
  <way id='-544' visible='true'>
    <nd ref='-541' />
    <nd ref='-542' />
    <nd ref='-543' />
    <tag k="ID" v="177511.000"/>
    <tag k="CATEGORY" v="2"/>
    <tag k="SHAPE_LE_1" v="145.782"/>
    <tag k="ET_ID" v="169247"/>
    <tag k="WAY_TYPE" v="Well-Kept Gravel Road"/>
    <tag k="SHAPE_LENG" v="0.000"/>
    <tag k="CAT2" v="20"/>
  </way>
  <node id='-545' visible='true' lat='40.6268771480616' lon='20.9981194767377' />
  <node id='-546' visible='true' lat='40.6267265492256' lon='20.9985482844469' />
  <node id='-547' visible='true' lat='40.6264996024743' lon='20.999034548604' />
  <node id='-548' visible='true' lat='40.6258835988598' lon='20.9998653889542' />
  <node id='-549' visible='true' lat='40.6257082256465' lon='21.0001753217561' />
  <way id='-550' visible='true'>
    <nd ref='-545' />
    <nd ref='-546' />
    <nd ref='-547' />
    <nd ref='-548' />
    <nd ref='-549' />
    <tag k="ID" v="177512.000"/>
    <tag k="CATEGORY" v="2"/>
    <tag k="SHAPE_LE_1" v="218.950"/>
    <tag k="ET_ID" v="169248"/>
    <tag k="WAY_TYPE" v="Well-Kept Gravel Road"/>
    <tag k="SHAPE_LENG" v="0.000"/>
    <tag k="CAT2" v="20"/>
  </way>
  <node id='-551' visible='true' lat='40.6271843260299' lon='20.9974882674538' />
  <node id='-552' visible='true' lat='40.6269659759606' lon='20.9978665397394' />
  <node id='-553' visible='true' lat='40.6268771480616' lon='20.9981194767377' />
  <way id='-554' visible='true'>
    <nd ref='-551' />
    <nd ref='-552' />
    <nd ref='-553' />
    <tag k="ID" v="177513.000"/>
    <tag k="CATEGORY" v="2"/>
    <tag k="SHAPE_LE_1" v="63.718"/>
    <tag k="ET_ID" v="169249"/>
    <tag k="WAY_TYPE" v="Well-Kept Gravel Road"/>
    <tag k="SHAPE_LENG" v="0.000"/>
    <tag k="CAT2" v="20"/>
  </way>
  <node id='-555' visible='true' lat='40.6279455569687' lon='20.9964065980128' />
  <node id='-556' visible='true' lat='40.6272899782466' lon='20.9973052333491' />
  <node id='-557' visible='true' lat='40.6271843260299' lon='20.9974882674538' />
  <way id='-558' visible='true'>
    <nd ref='-555' />
    <nd ref='-556' />
    <nd ref='-557' />
    <tag k="ID" v="177514.000"/>
    <tag k="CATEGORY" v="2"/>
    <tag k="SHAPE_LE_1" v="124.695"/>
    <tag k="ET_ID" v="169250"/>
    <tag k="WAY_TYPE" v="Well-Kept Gravel Road"/>
    <tag k="SHAPE_LENG" v="0.000"/>
    <tag k="CAT2" v="20"/>
  </way>
  <node id='-559' visible='true' lat='40.6263900206809' lon='20.9795088675567' />
  <node id='-560' visible='true' lat='40.6263024967736' lon='20.9798437124231' />
  <node id='-561' visible='true' lat='40.6262181961272' lon='20.9807872362421' />
  <node id='-562' visible='true' lat='40.6262606406031' lon='20.9821330976684' />
  <node id='-563' visible='true' lat='40.62622706366' lon='20.983738125923' />
  <node id='-564' visible='true' lat='40.6262620364129' lon='20.984451352821' />
  <way id='-565' visible='true'>
    <nd ref='-559' />
    <nd ref='-560' />
    <nd ref='-561' />
    <nd ref='-562' />
    <nd ref='-563' />
    <nd ref='-564' />
    <tag k="ID" v="184528.000"/>
    <tag k="CATEGORY" v="2"/>
    <tag k="SHAPE_LE_1" v="420.625"/>
    <tag k="ET_ID" v="175930"/>
    <tag k="WAY_TYPE" v="Well-Kept Gravel Road"/>
    <tag k="SHAPE_LENG" v="0.000"/>
    <tag k="CAT2" v="20"/>
  </way>
  <node id='-566' visible='true' lat='40.6257509710694' lon='20.9869098681267' />
  <node id='-567' visible='true' lat='40.6260562479397' lon='20.9866700813264' />
  <way id='-568' visible='true'>
    <nd ref='-566' />
    <nd ref='-567' />
    <tag k="ID" v="184535.000"/>
    <tag k="CATEGORY" v="2"/>
    <tag k="SHAPE_LE_1" v="39.508"/>
    <tag k="ET_ID" v="175937"/>
    <tag k="WAY_TYPE" v="Well-Kept Gravel Road"/>
    <tag k="SHAPE_LENG" v="0.000"/>
    <tag k="CAT2" v="20"/>
  </way>
  <node id='-569' visible='true' lat='40.6266950750521' lon='20.9862910502978' />
  <node id='-570' visible='true' lat='40.6267389601944' lon='20.9862650145378' />
  <way id='-571' visible='true'>
    <nd ref='-569' />
    <nd ref='-570' />
    <tag k="ID" v="184536.000"/>
    <tag k="CATEGORY" v="2"/>
    <tag k="SHAPE_LE_1" v="5.348"/>
    <tag k="ET_ID" v="175938"/>
    <tag k="WAY_TYPE" v="Well-Kept Gravel Road"/>
    <tag k="SHAPE_LENG" v="0.000"/>
    <tag k="CAT2" v="20"/>
  </way>
  <node id='-572' visible='true' lat='40.6266988939548' lon='20.9840066965891' />
  <node id='-573' visible='true' lat='40.6280586389908' lon='20.9826226530497' />
  <node id='-574' visible='true' lat='40.6293551204605' lon='20.9812758366303' />
  <way id='-575' visible='true'>
    <nd ref='-572' />
    <nd ref='-573' />
    <nd ref='-574' />
    <tag k="ID" v="188383.000"/>
    <tag k="CATEGORY" v="1"/>
    <tag k="SHAPE_LE_1" v="374.695"/>
    <tag k="ET_ID" v="179394"/>
    <tag k="WAY_TYPE" v="National Asphalted Road"/>
    <tag k="SHAPE_LENG" v="0.000"/>
    <tag k="CAT2" v="10"/>
  </way>
  <node id='-576' visible='true' lat='40.6262620364129' lon='20.984451352821' />
  <node id='-577' visible='true' lat='40.6266988939548' lon='20.9840066965891' />
  <way id='-578' visible='true'>
    <nd ref='-576' />
    <nd ref='-577' />
    <tag k="ID" v="188384.000"/>
    <tag k="CATEGORY" v="1"/>
    <tag k="SHAPE_LE_1" v="61.391"/>
    <tag k="ET_ID" v="179395"/>
    <tag k="WAY_TYPE" v="National Asphalted Road"/>
    <tag k="SHAPE_LENG" v="0.000"/>
    <tag k="CAT2" v="11"/>
  </way>
  <node id='-579' visible='true' lat='40.6253554531363' lon='20.9853877697977' />
  <node id='-580' visible='true' lat='40.6262620364129' lon='20.984451352821' />
  <way id='-581' visible='true'>
    <nd ref='-579' />
    <nd ref='-580' />
    <tag k="ID" v="188385.000"/>
    <tag k="CATEGORY" v="1"/>
    <tag k="SHAPE_LE_1" v="128.113"/>
    <tag k="ET_ID" v="179396"/>
    <tag k="WAY_TYPE" v="National Asphalted Road"/>
    <tag k="SHAPE_LENG" v="0.000"/>
    <tag k="CAT2" v="10"/>
  </way>
  <node id='-582' visible='true' lat='40.6251079423911' lon='20.9856434198087' />
  <node id='-583' visible='true' lat='40.6253554531363' lon='20.9853877697977' />
  <way id='-584' visible='true'>
    <nd ref='-582' />
    <nd ref='-583' />
    <tag k="ID" v="188386.000"/>
    <tag k="CATEGORY" v="1"/>
    <tag k="SHAPE_LE_1" v="34.977"/>
    <tag k="ET_ID" v="179397"/>
    <tag k="WAY_TYPE" v="National Asphalted Road"/>
    <tag k="SHAPE_LENG" v="0.000"/>
    <tag k="CAT2" v="10"/>
  </way>
  <node id='-585' visible='true' lat='40.62504625132' lon='20.9857071398518' />
  <node id='-586' visible='true' lat='40.6251079423911' lon='20.9856434198087' />
  <way id='-587' visible='true'>
    <nd ref='-585' />
    <nd ref='-586' />
    <tag k="ID" v="188387.000"/>
    <tag k="CATEGORY" v="1"/>
    <tag k="SHAPE_LE_1" v="8.718"/>
    <tag k="ET_ID" v="179398"/>
    <tag k="WAY_TYPE" v="National Asphalted Road"/>
    <tag k="SHAPE_LENG" v="0.000"/>
    <tag k="CAT2" v="11"/>
  </way>
  <node id='-588' visible='true' lat='40.6245801050138' lon='20.9861886012709' />
  <node id='-589' visible='true' lat='40.62504625132' lon='20.9857071398518' />
  <way id='-590' visible='true'>
    <nd ref='-588' />
    <nd ref='-589' />
    <tag k="ID" v="188388.000"/>
    <tag k="CATEGORY" v="1"/>
    <tag k="SHAPE_LE_1" v="65.872"/>
    <tag k="ET_ID" v="179399"/>
    <tag k="WAY_TYPE" v="National Asphalted Road"/>
    <tag k="SHAPE_LENG" v="0.000"/>
    <tag k="CAT2" v="11"/>
  </way>
  <node id='-591' visible='true' lat='40.6239597643546' lon='20.9868293208969' />
  <node id='-592' visible='true' lat='40.6245801050138' lon='20.9861886012709' />
  <way id='-593' visible='true'>
    <nd ref='-591' />
    <nd ref='-592' />
    <tag k="ID" v="188389.000"/>
    <tag k="CATEGORY" v="1"/>
    <tag k="SHAPE_LE_1" v="87.662"/>
    <tag k="ET_ID" v="179400"/>
    <tag k="WAY_TYPE" v="National Asphalted Road"/>
    <tag k="SHAPE_LENG" v="0.000"/>
    <tag k="CAT2" v="10"/>
  </way>
  <node id='-594' visible='true' lat='40.6229444409397' lon='20.9872302653832' />
  <node id='-595' visible='true' lat='40.6238730446249' lon='20.9869188877918' />
  <node id='-596' visible='true' lat='40.6239597643546' lon='20.9868293208969' />
  <way id='-597' visible='true'>
    <nd ref='-594' />
    <nd ref='-595' />
    <nd ref='-596' />
    <tag k="ID" v="188390.000"/>
    <tag k="CATEGORY" v="1"/>
    <tag k="SHAPE_LE_1" v="118.687"/>
    <tag k="ET_ID" v="179401"/>
    <tag k="WAY_TYPE" v="National Asphalted Road"/>
    <tag k="SHAPE_LENG" v="0.000"/>
    <tag k="CAT2" v="10"/>
  </way>
  <node id='-598' visible='true' lat='40.6225350304753' lon='20.9873675426907' />
  <node id='-599' visible='true' lat='40.6229444409397' lon='20.9872302653832' />
  <way id='-600' visible='true'>
    <nd ref='-598' />
    <nd ref='-599' />
    <tag k="ID" v="188391.000"/>
    <tag k="CATEGORY" v="1"/>
    <tag k="SHAPE_LE_1" v="46.925"/>
    <tag k="ET_ID" v="179402"/>
    <tag k="WAY_TYPE" v="National Asphalted Road"/>
    <tag k="SHAPE_LENG" v="0.000"/>
    <tag k="CAT2" v="10"/>
  </way>
  <node id='-601' visible='true' lat='40.6222173968208' lon='20.9874057778201' />
  <node id='-602' visible='true' lat='40.6225350304753' lon='20.9873675426907' />
  <way id='-603' visible='true'>
    <nd ref='-601' />
    <nd ref='-602' />
    <tag k="ID" v="188392.000"/>
    <tag k="CATEGORY" v="1"/>
    <tag k="SHAPE_LE_1" v="35.421"/>
    <tag k="ET_ID" v="179403"/>
    <tag k="WAY_TYPE" v="National Asphalted Road"/>
    <tag k="SHAPE_LENG" v="0.000"/>
    <tag k="CAT2" v="10"/>
  </way>
  <node id='-604' visible='true' lat='40.6208161154131' lon='20.988547469824' />
  <node id='-605' visible='true' lat='40.6211519529878' lon='20.9881973719766' />
  <node id='-606' visible='true' lat='40.6222173968208' lon='20.9874057778201' />
  <way id='-607' visible='true'>
    <nd ref='-604' />
    <nd ref='-605' />
    <nd ref='-606' />
    <tag k="ID" v="188393.000"/>
    <tag k="CATEGORY" v="1"/>
    <tag k="SHAPE_LE_1" v="183.588"/>
    <tag k="ET_ID" v="179404"/>
    <tag k="WAY_TYPE" v="National Asphalted Road"/>
    <tag k="SHAPE_LENG" v="0.000"/>
    <tag k="CAT2" v="10"/>
  </way>
</osm>
