<?xml version='1.0'?>
<osm version='0.5' generator='shp2osm.pl'>
  <node id='-1' visible='true' lat='40.410881' lon='20.698962' />
  <node id='-2' visible='true' lat='40.4113579' lon='20.6984379' />
  <node id='-3' visible='true' lat='40.4116519' lon='20.6977769' />
  <node id='-4' visible='true' lat='40.4128439' lon='20.69631' />
  <node id='-5' visible='true' lat='40.415795' lon='20.693788' />
  <node id='-6' visible='true' lat='40.416913' lon='20.692726' />
  <node id='-7' visible='true' lat='40.4193339' lon='20.689513' />
  <node id='-8' visible='true' lat='40.4204719' lon='20.6875269' />
  <node id='-9' visible='true' lat='40.4213459' lon='20.685276' />
  <node id='-10' visible='true' lat='40.4222019' lon='20.6833789' />
  <node id='-11' visible='true' lat='40.423268' lon='20.680755' />
  <node id='-12' visible='true' lat='40.4241609' lon='20.6787409' />
  <node id='-13' visible='true' lat='40.424925' lon='20.67716' />
  <node id='-14' visible='true' lat='40.4258049' lon='20.676231' />
  <node id='-15' visible='true' lat='40.426799' lon='20.6758969' />
  <node id='-16' visible='true' lat='40.4282559' lon='20.675526' />
  <node id='-17' visible='true' lat='40.4298209' lon='20.6748079' />
  <node id='-18' visible='true' lat='40.4311099' lon='20.6740859' />
  <node id='-19' visible='true' lat='40.4323229' lon='20.6731739' />
  <node id='-20' visible='true' lat='40.4338649' lon='20.67192' />
  <node id='-21' visible='true' lat='40.4344689' lon='20.671828' />
  <node id='-22' visible='true' lat='40.4345629' lon='20.6719119' />
  <node id='-23' visible='true' lat='40.4350669' lon='20.6720399' />
  <node id='-24' visible='true' lat='40.435664' lon='20.67143' />
  <node id='-25' visible='true' lat='40.4370029' lon='20.670739' />
  <node id='-26' visible='true' lat='40.43789' lon='20.670546' />
  <node id='-27' visible='true' lat='40.438873' lon='20.6700389' />
  <node id='-28' visible='true' lat='40.440666' lon='20.668323' />
  <node id='-29' visible='true' lat='40.4410939' lon='20.6683309' />
  <node id='-30' visible='true' lat='40.4417299' lon='20.668641' />
  <node id='-31' visible='true' lat='40.442359' lon='20.668748' />
  <node id='-32' visible='true' lat='40.442936' lon='20.66899' />
  <node id='-33' visible='true' lat='40.443207' lon='20.66919' />
  <node id='-34' visible='true' lat='40.4440749' lon='20.670151' />
  <node id='-35' visible='true' lat='40.444496' lon='20.6700529' />
  <node id='-36' visible='true' lat='40.4447949' lon='20.669356' />
  <node id='-37' visible='true' lat='40.4453639' lon='20.669062' />
  <node id='-38' visible='true' lat='40.4458449' lon='20.669259' />
  <node id='-39' visible='true' lat='40.44608' lon='20.669426' />
  <node id='-40' visible='true' lat='40.446406' lon='20.669214' />
  <node id='-41' visible='true' lat='40.4469319' lon='20.6685739' />
  <node id='-42' visible='true' lat='40.4472659' lon='20.668887' />
  <node id='-43' visible='true' lat='40.447589' lon='20.669076' />
  <node id='-44' visible='true' lat='40.44751' lon='20.6685699' />
  <node id='-45' visible='true' lat='40.447968' lon='20.6679409' />
  <node id='-46' visible='true' lat='40.4482539' lon='20.667311' />
  <node id='-47' visible='true' lat='40.448574' lon='20.6661479' />
  <node id='-48' visible='true' lat='40.449556' lon='20.665426' />
  <node id='-49' visible='true' lat='40.450037' lon='20.664079' />
  <node id='-50' visible='true' lat='40.4504549' lon='20.663543' />
  <node id='-51' visible='true' lat='40.450867' lon='20.663692' />
  <node id='-52' visible='true' lat='40.4508769' lon='20.6647069' />
  <node id='-53' visible='true' lat='40.451129' lon='20.665711' />
  <node id='-54' visible='true' lat='40.4516059' lon='20.666539' />
  <node id='-55' visible='true' lat='40.452162' lon='20.6682789' />
  <node id='-56' visible='true' lat='40.4526919' lon='20.668666' />
  <node id='-57' visible='true' lat='40.453184' lon='20.668222' />
  <node id='-58' visible='true' lat='40.453305' lon='20.66777' />
  <node id='-59' visible='true' lat='40.4535059' lon='20.667363' />
  <node id='-60' visible='true' lat='40.4536749' lon='20.667159' />
  <node id='-61' visible='true' lat='40.453664' lon='20.6664039' />
  <node id='-62' visible='true' lat='40.4538' lon='20.665368' />
  <node id='-63' visible='true' lat='40.453651' lon='20.6647409' />
  <node id='-64' visible='true' lat='40.453879' lon='20.6643259' />
  <node id='-65' visible='true' lat='40.455767' lon='20.6635249' />
  <node id='-66' visible='true' lat='40.455835' lon='20.6634449' />
  <node id='-67' visible='true' lat='40.455733' lon='20.6631919' />
  <node id='-68' visible='true' lat='40.455598' lon='20.663007' />
  <node id='-69' visible='true' lat='40.4555739' lon='20.663094' />
  <node id='-70' visible='true' lat='40.4559089' lon='20.663512' />
  <node id='-71' visible='true' lat='40.455883' lon='20.6639' />
  <node id='-72' visible='true' lat='40.455775' lon='20.664332' />
  <node id='-73' visible='true' lat='40.4559479' lon='20.6644989' />
  <node id='-74' visible='true' lat='40.456198' lon='20.6638179' />
  <node id='-75' visible='true' lat='40.456324' lon='20.662963' />
  <node id='-76' visible='true' lat='40.4559769' lon='20.6621139' />
  <node id='-77' visible='true' lat='40.4557969' lon='20.66195' />
  <node id='-78' visible='true' lat='40.455781' lon='20.6616919' />
  <node id='-79' visible='true' lat='40.456848' lon='20.6623249' />
  <node id='-80' visible='true' lat='40.4569929' lon='20.662955' />
  <node id='-81' visible='true' lat='40.4570319' lon='20.6633989' />
  <node id='-82' visible='true' lat='40.457571' lon='20.66328' />
  <node id='-83' visible='true' lat='40.4580709' lon='20.663325' />
  <node id='-84' visible='true' lat='40.4584199' lon='20.6638309' />
  <node id='-85' visible='true' lat='40.458964' lon='20.6644749' />
  <node id='-86' visible='true' lat='40.4599789' lon='20.6648509' />
  <node id='-87' visible='true' lat='40.460346' lon='20.6652729' />
  <node id='-88' visible='true' lat='40.4604429' lon='20.6655869' />
  <node id='-89' visible='true' lat='40.460819' lon='20.665948' />
  <node id='-90' visible='true' lat='40.4613739' lon='20.6661929' />
  <node id='-91' visible='true' lat='40.461717' lon='20.6668559' />
  <node id='-92' visible='true' lat='40.461778' lon='20.6671849' />
  <node id='-93' visible='true' lat='40.462156' lon='20.6674579' />
  <node id='-94' visible='true' lat='40.4627529' lon='20.667593' />
  <node id='-95' visible='true' lat='40.463292' lon='20.6678089' />
  <node id='-96' visible='true' lat='40.464004' lon='20.6684909' />
  <node id='-97' visible='true' lat='40.464238' lon='20.6690339' />
  <node id='-98' visible='true' lat='40.464868' lon='20.669492' />
  <node id='-99' visible='true' lat='40.46531' lon='20.6695689' />
  <node id='-100' visible='true' lat='40.465848' lon='20.6694309' />
  <node id='-101' visible='true' lat='40.466303' lon='20.6689469' />
  <node id='-102' visible='true' lat='40.466928' lon='20.668571' />
  <node id='-103' visible='true' lat='40.467167' lon='20.668886' />
  <node id='-104' visible='true' lat='40.4667099' lon='20.66938' />
  <node id='-105' visible='true' lat='40.4665419' lon='20.669753' />
  <node id='-106' visible='true' lat='40.46654' lon='20.670593' />
  <node id='-107' visible='true' lat='40.467159' lon='20.6717359' />
  <node id='-108' visible='true' lat='40.46746' lon='20.6720849' />
  <node id='-109' visible='true' lat='40.467511' lon='20.67245' />
  <node id='-110' visible='true' lat='40.467022' lon='20.6723989' />
  <node id='-111' visible='true' lat='40.466689' lon='20.672291' />
  <node id='-112' visible='true' lat='40.4658179' lon='20.6717769' />
  <node id='-113' visible='true' lat='40.465257' lon='20.6716389' />
  <node id='-114' visible='true' lat='40.4650299' lon='20.6717009' />
  <node id='-115' visible='true' lat='40.4649829' lon='20.6719509' />
  <node id='-116' visible='true' lat='40.465515' lon='20.671889' />
  <node id='-117' visible='true' lat='40.4670869' lon='20.6734259' />
  <node id='-118' visible='true' lat='40.4681179' lon='20.674337' />
  <node id='-119' visible='true' lat='40.46853' lon='20.6749389' />
  <node id='-120' visible='true' lat='40.469073' lon='20.675232' />
  <node id='-121' visible='true' lat='40.4692429' lon='20.6750439' />
  <node id='-122' visible='true' lat='40.469289' lon='20.674557' />
  <node id='-123' visible='true' lat='40.469607' lon='20.6741559' />
  <node id='-124' visible='true' lat='40.4702119' lon='20.6739229' />
  <node id='-125' visible='true' lat='40.470531' lon='20.6742489' />
  <node id='-126' visible='true' lat='40.4708899' lon='20.6739859' />
  <node id='-127' visible='true' lat='40.471353' lon='20.673963' />
  <node id='-128' visible='true' lat='40.47162' lon='20.6740989' />
  <node id='-129' visible='true' lat='40.4725159' lon='20.6741379' />
  <node id='-130' visible='true' lat='40.472929' lon='20.6739789' />
  <node id='-131' visible='true' lat='40.473581' lon='20.6740759' />
  <way id='-132' visible='true'>
    <nd ref='-1' />
    <nd ref='-2' />
    <nd ref='-3' />
    <nd ref='-4' />
    <nd ref='-5' />
    <nd ref='-6' />
    <nd ref='-7' />
    <nd ref='-8' />
    <nd ref='-9' />
    <nd ref='-10' />
    <nd ref='-11' />
    <nd ref='-12' />
    <nd ref='-13' />
    <nd ref='-14' />
    <nd ref='-15' />
    <nd ref='-16' />
    <nd ref='-17' />
    <nd ref='-18' />
    <nd ref='-19' />
    <nd ref='-20' />
    <nd ref='-21' />
    <nd ref='-22' />
    <nd ref='-23' />
    <nd ref='-24' />
    <nd ref='-25' />
    <nd ref='-26' />
    <nd ref='-27' />
    <nd ref='-28' />
    <nd ref='-29' />
    <nd ref='-30' />
    <nd ref='-31' />
    <nd ref='-32' />
    <nd ref='-33' />
    <nd ref='-34' />
    <nd ref='-35' />
    <nd ref='-36' />
    <nd ref='-37' />
    <nd ref='-38' />
    <nd ref='-39' />
    <nd ref='-40' />
    <nd ref='-41' />
    <nd ref='-42' />
    <nd ref='-43' />
    <nd ref='-44' />
    <nd ref='-45' />
    <nd ref='-46' />
    <nd ref='-47' />
    <nd ref='-48' />
    <nd ref='-49' />
    <nd ref='-50' />
    <nd ref='-51' />
    <nd ref='-52' />
    <nd ref='-53' />
    <nd ref='-54' />
    <nd ref='-55' />
    <nd ref='-56' />
    <nd ref='-57' />
    <nd ref='-58' />
    <nd ref='-59' />
    <nd ref='-60' />
    <nd ref='-61' />
    <nd ref='-62' />
    <nd ref='-63' />
    <nd ref='-64' />
    <nd ref='-65' />
    <nd ref='-66' />
    <nd ref='-67' />
    <nd ref='-68' />
    <nd ref='-69' />
    <nd ref='-70' />
    <nd ref='-71' />
    <nd ref='-72' />
    <nd ref='-73' />
    <nd ref='-74' />
    <nd ref='-75' />
    <nd ref='-76' />
    <nd ref='-77' />
    <nd ref='-78' />
    <nd ref='-79' />
    <nd ref='-80' />
    <nd ref='-81' />
    <nd ref='-82' />
    <nd ref='-83' />
    <nd ref='-84' />
    <nd ref='-85' />
    <nd ref='-86' />
    <nd ref='-87' />
    <nd ref='-88' />
    <nd ref='-89' />
    <nd ref='-90' />
    <nd ref='-91' />
    <nd ref='-92' />
    <nd ref='-93' />
    <nd ref='-94' />
    <nd ref='-95' />
    <nd ref='-96' />
    <nd ref='-97' />
    <nd ref='-98' />
    <nd ref='-99' />
    <nd ref='-100' />
    <nd ref='-101' />
    <nd ref='-102' />
    <nd ref='-103' />
    <nd ref='-104' />
    <nd ref='-105' />
    <nd ref='-106' />
    <nd ref='-107' />
    <nd ref='-108' />
    <nd ref='-109' />
    <nd ref='-110' />
    <nd ref='-111' />
    <nd ref='-112' />
    <nd ref='-113' />
    <nd ref='-114' />
    <nd ref='-115' />
    <nd ref='-116' />
    <nd ref='-117' />
    <nd ref='-118' />
    <nd ref='-119' />
    <nd ref='-120' />
    <nd ref='-121' />
    <nd ref='-122' />
    <nd ref='-123' />
    <nd ref='-124' />
    <nd ref='-125' />
    <nd ref='-126' />
    <nd ref='-127' />
    <nd ref='-128' />
    <nd ref='-129' />
    <nd ref='-130' />
    <nd ref='-131' />
    <tag k="OSM_ID" v="30458778"/>
  </way>
</osm>
