<?xml version='1.0'?>
<osm version='0.5' generator='shp2osm.pl'>
  <node id='-1' visible='true' lat='40.798056' lon='19.4163126' />
  <node id='-2' visible='true' lat='40.7818102' lon='19.399833' />
  <node id='-3' visible='true' lat='40.7672505' lon='19.3903917' />
  <node id='-4' visible='true' lat='40.7560687' lon='19.3835252' />
  <node id='-5' visible='true' lat='40.7558086' lon='19.3787188' />
  <node id='-6' visible='true' lat='40.7550284' lon='19.3770021' />
  <node id='-7' visible='true' lat='40.7548231' lon='19.3701812' />
  <way id='-8' visible='true'>
    <nd ref='-1' />
    <nd ref='-2' />
    <nd ref='-3' />
    <nd ref='-4' />
    <nd ref='-5' />
    <nd ref='-6' />
    <nd ref='-7' />
    <tag k="OSM_ID" v="45590846"/>
  </way>
</osm>
