<?xml version='1.0'?>
<osm version='0.5' generator='shp2osm.pl'>
  <node id='-1' visible='true' lat='41.2641071' lon='19.6980205' />
  <node id='-2' visible='true' lat='41.2638517' lon='19.6973972' />
  <node id='-3' visible='true' lat='41.2637388' lon='19.6971075' />
  <node id='-4' visible='true' lat='41.2637712' lon='19.6968715' />
  <node id='-5' visible='true' lat='41.2636502' lon='19.6963994' />
  <node id='-6' visible='true' lat='41.263755' lon='19.6961419' />
  <node id='-7' visible='true' lat='41.2639647' lon='19.6957985' />
  <node id='-8' visible='true' lat='41.2639743' lon='19.6957458' />
  <node id='-9' visible='true' lat='41.2640212' lon='19.6954874' />
  <node id='-10' visible='true' lat='41.2641582' lon='19.6952728' />
  <node id='-11' visible='true' lat='41.2643436' lon='19.6949509' />
  <node id='-12' visible='true' lat='41.2645131' lon='19.6946398' />
  <node id='-13' visible='true' lat='41.2646583' lon='19.6945647' />
  <node id='-14' visible='true' lat='41.2644566' lon='19.6944252' />
  <node id='-15' visible='true' lat='41.2643679' lon='19.6942428' />
  <node id='-16' visible='true' lat='41.2640049' lon='19.6940604' />
  <node id='-17' visible='true' lat='41.2639082' lon='19.6939211' />
  <node id='-18' visible='true' lat='41.2637388' lon='19.6936956' />
  <node id='-19' visible='true' lat='41.2637065' lon='19.6934596' />
  <node id='-20' visible='true' lat='41.2638275' lon='19.6931699' />
  <node id='-21' visible='true' lat='41.2639324' lon='19.6930091' />
  <node id='-22' visible='true' lat='41.2641259' lon='19.6929018' />
  <way id='-23' visible='true'>
    <nd ref='-1' />
    <nd ref='-2' />
    <nd ref='-3' />
    <nd ref='-4' />
    <nd ref='-5' />
    <nd ref='-6' />
    <nd ref='-7' />
    <nd ref='-8' />
    <nd ref='-9' />
    <nd ref='-10' />
    <nd ref='-11' />
    <nd ref='-12' />
    <nd ref='-13' />
    <nd ref='-14' />
    <nd ref='-15' />
    <nd ref='-16' />
    <nd ref='-17' />
    <nd ref='-18' />
    <nd ref='-19' />
    <nd ref='-20' />
    <nd ref='-21' />
    <nd ref='-22' />
    <tag k="OSM_ID" v="46580433"/>
  </way>
  <node id='-24' visible='true' lat='41.2643679' lon='19.6942428' />
  <node id='-25' visible='true' lat='41.2643921' lon='19.6939962' />
  <node id='-26' visible='true' lat='41.2644486' lon='19.6937387' />
  <node id='-27' visible='true' lat='41.2646986' lon='19.6932881' />
  <way id='-28' visible='true'>
    <nd ref='-24' />
    <nd ref='-25' />
    <nd ref='-26' />
    <nd ref='-27' />
    <tag k="OSM_ID" v="46580436"/>
  </way>
  <node id='-29' visible='true' lat='41.2639082' lon='19.6939211' />
  <node id='-30' visible='true' lat='41.2640776' lon='19.6936314' />
  <way id='-31' visible='true'>
    <nd ref='-29' />
    <nd ref='-30' />
    <tag k="OSM_ID" v="46580434"/>
  </way>
  <node id='-32' visible='true' lat='41.2646583' lon='19.6945647' />
  <node id='-33' visible='true' lat='41.2648437' lon='19.6943823' />
  <node id='-34' visible='true' lat='41.2649722' lon='19.6942328' />
  <node id='-35' visible='true' lat='41.2650373' lon='19.6941571' />
  <node id='-36' visible='true' lat='41.2652388' lon='19.6938138' />
  <node id='-37' visible='true' lat='41.2651017' lon='19.6936849' />
  <way id='-38' visible='true'>
    <nd ref='-32' />
    <nd ref='-33' />
    <nd ref='-34' />
    <nd ref='-35' />
    <nd ref='-36' />
    <nd ref='-37' />
    <tag k="OSM_ID" v="46580428"/>
  </way>
  <node id='-39' visible='true' lat='41.2640049' lon='19.6940604' />
  <node id='-40' visible='true' lat='41.2641259' lon='19.6938889' />
  <way id='-41' visible='true'>
    <nd ref='-39' />
    <nd ref='-40' />
    <tag k="OSM_ID" v="46580435"/>
  </way>
  <node id='-42' visible='true' lat='41.2643679' lon='19.6942428' />
  <node id='-43' visible='true' lat='41.2646341' lon='19.6940069' />
  <way id='-44' visible='true'>
    <nd ref='-42' />
    <nd ref='-43' />
    <tag k="OSM_ID" v="46580427"/>
  </way>
  <node id='-45' visible='true' lat='41.2649722' lon='19.6942328' />
  <node id='-46' visible='true' lat='41.2651017' lon='19.6943179' />
  <way id='-47' visible='true'>
    <nd ref='-45' />
    <nd ref='-46' />
    <tag k="OSM_ID" v="46580431"/>
  </way>
  <node id='-48' visible='true' lat='41.2648437' lon='19.6943823' />
  <node id='-49' visible='true' lat='41.2649888' lon='19.6945325' />
  <way id='-50' visible='true'>
    <nd ref='-48' />
    <nd ref='-49' />
    <tag k="OSM_ID" v="46580430"/>
  </way>
  <node id='-51' visible='true' lat='41.2646583' lon='19.6945647' />
  <node id='-52' visible='true' lat='41.2646583' lon='19.6947149' />
  <node id='-53' visible='true' lat='41.264876' lon='19.6950582' />
  <node id='-54' visible='true' lat='41.2649647' lon='19.6952192' />
  <node id='-55' visible='true' lat='41.2648678' lon='19.6955625' />
  <way id='-56' visible='true'>
    <nd ref='-51' />
    <nd ref='-52' />
    <nd ref='-53' />
    <nd ref='-54' />
    <nd ref='-55' />
    <tag k="OSM_ID" v="46580429"/>
  </way>
  <node id='-57' visible='true' lat='41.2639743' lon='19.6957458' />
  <node id='-58' visible='true' lat='41.2641582' lon='19.6960668' />
  <way id='-59' visible='true'>
    <nd ref='-57' />
    <nd ref='-58' />
    <tag k="OSM_ID" v="46580421"/>
  </way>
  <node id='-60' visible='true' lat='41.2623075' lon='19.6961252' />
  <node id='-61' visible='true' lat='41.262513' lon='19.6959488' />
  <way id='-62' visible='true'>
    <nd ref='-60' />
    <nd ref='-61' />
    <tag k="OSM_ID" v="46580422"/>
  </way>
  <node id='-63' visible='true' lat='41.2624386' lon='19.6964235' />
  <node id='-64' visible='true' lat='41.2621742' lon='19.6966676' />
  <node id='-65' visible='true' lat='41.2618355' lon='19.6974187' />
  <node id='-66' visible='true' lat='41.2611823' lon='19.6977511' />
  <node id='-67' visible='true' lat='41.2608677' lon='19.6980517' />
  <node id='-68' visible='true' lat='41.2608759' lon='19.6983841' />
  <node id='-69' visible='true' lat='41.2611339' lon='19.6989851' />
  <node id='-70' visible='true' lat='41.2610451' lon='19.699221' />
  <node id='-71' visible='true' lat='41.2608436' lon='19.6995643' />
  <node id='-72' visible='true' lat='41.2607951' lon='19.6998111' />
  <node id='-73' visible='true' lat='41.2607951' lon='19.7000793' />
  <node id='-74' visible='true' lat='41.2607226' lon='19.7003154' />
  <node id='-75' visible='true' lat='41.2605774' lon='19.7005192' />
  <node id='-76' visible='true' lat='41.260271' lon='19.7007124' />
  <way id='-77' visible='true'>
    <nd ref='-63' />
    <nd ref='-64' />
    <nd ref='-65' />
    <nd ref='-66' />
    <nd ref='-67' />
    <nd ref='-68' />
    <nd ref='-69' />
    <nd ref='-70' />
    <nd ref='-71' />
    <nd ref='-72' />
    <nd ref='-73' />
    <nd ref='-74' />
    <nd ref='-75' />
    <nd ref='-76' />
    <tag k="OSM_ID" v="46580424"/>
  </way>
  <node id='-78' visible='true' lat='41.273448' lon='19.6973756' />
  <node id='-79' visible='true' lat='41.2740769' lon='19.6968929' />
  <node id='-80' visible='true' lat='41.2746172' lon='19.6965174' />
  <way id='-81' visible='true'>
    <nd ref='-78' />
    <nd ref='-79' />
    <nd ref='-80' />
    <tag k="OSM_ID" v="46581293"/>
  </way>
  <node id='-82' visible='true' lat='41.2629216' lon='19.6971005' />
  <node id='-83' visible='true' lat='41.2630856' lon='19.6968285' />
  <node id='-84' visible='true' lat='41.2631986' lon='19.6967534' />
  <way id='-85' visible='true'>
    <nd ref='-82' />
    <nd ref='-83' />
    <nd ref='-84' />
    <tag k="OSM_ID" v="46580487"/>
  </way>
  <node id='-86' visible='true' lat='41.2618355' lon='19.6974187' />
  <node id='-87' visible='true' lat='41.2616662' lon='19.697247' />
  <node id='-88' visible='true' lat='41.2611016' lon='19.6970753' />
  <way id='-89' visible='true'>
    <nd ref='-86' />
    <nd ref='-87' />
    <nd ref='-88' />
    <tag k="OSM_ID" v="46580426"/>
  </way>
  <node id='-90' visible='true' lat='41.2611339' lon='19.6989851' />
  <node id='-91' visible='true' lat='41.2612306' lon='19.6990815' />
  <node id='-92' visible='true' lat='41.2613356' lon='19.6993283' />
  <node id='-93' visible='true' lat='41.2614806' lon='19.6996931' />
  <node id='-94' visible='true' lat='41.261634' lon='19.6997253' />
  <node id='-95' visible='true' lat='41.2617388' lon='19.6995751' />
  <node id='-96' visible='true' lat='41.2617791' lon='19.6993712' />
  <node id='-97' visible='true' lat='41.2616903' lon='19.6991137' />
  <node id='-98' visible='true' lat='41.2618195' lon='19.6989421' />
  <node id='-99' visible='true' lat='41.2619727' lon='19.6988133' />
  <node id='-100' visible='true' lat='41.2621178' lon='19.6986631' />
  <node id='-101' visible='true' lat='41.2622147' lon='19.6985987' />
  <node id='-102' visible='true' lat='41.2623517' lon='19.698395' />
  <node id='-103' visible='true' lat='41.2624324' lon='19.6982661' />
  <node id='-104' visible='true' lat='41.2623517' lon='19.6981159' />
  <node id='-105' visible='true' lat='41.2623194' lon='19.6980517' />
  <node id='-106' visible='true' lat='41.2624647' lon='19.6977942' />
  <node id='-107' visible='true' lat='41.2629216' lon='19.6971005' />
  <way id='-108' visible='true'>
    <nd ref='-90' />
    <nd ref='-91' />
    <nd ref='-92' />
    <nd ref='-93' />
    <nd ref='-94' />
    <nd ref='-95' />
    <nd ref='-96' />
    <nd ref='-97' />
    <nd ref='-98' />
    <nd ref='-99' />
    <nd ref='-100' />
    <nd ref='-101' />
    <nd ref='-102' />
    <nd ref='-103' />
    <nd ref='-104' />
    <nd ref='-105' />
    <nd ref='-106' />
    <nd ref='-107' />
    <tag k="OSM_ID" v="46580485"/>
  </way>
  <node id='-109' visible='true' lat='41.273817' lon='19.6977946' />
  <node id='-110' visible='true' lat='41.273448' lon='19.6973756' />
  <way id='-111' visible='true'>
    <nd ref='-109' />
    <nd ref='-110' />
    <tag k="OSM_ID" v="46581292"/>
  </way>
  <node id='-112' visible='true' lat='41.2647292' lon='19.698273' />
  <node id='-113' visible='true' lat='41.2649647' lon='19.6978584' />
  <way id='-114' visible='true'>
    <nd ref='-112' />
    <nd ref='-113' />
    <tag k="OSM_ID" v="46580541"/>
  </way>
  <node id='-115' visible='true' lat='41.2608677' lon='19.6980517' />
  <node id='-116' visible='true' lat='41.2605452' lon='19.6979013' />
  <way id='-117' visible='true'>
    <nd ref='-115' />
    <nd ref='-116' />
    <tag k="OSM_ID" v="46580425"/>
  </way>
  <node id='-118' visible='true' lat='41.2641071' lon='19.6980205' />
  <node id='-119' visible='true' lat='41.2639566' lon='19.6981375' />
  <node id='-120' visible='true' lat='41.2637399' lon='19.6985607' />
  <node id='-121' visible='true' lat='41.2636394' lon='19.6987573' />
  <node id='-122' visible='true' lat='41.2635123' lon='19.6990057' />
  <node id='-123' visible='true' lat='41.2634405' lon='19.6991459' />
  <node id='-124' visible='true' lat='41.2633033' lon='19.6995' />
  <node id='-125' visible='true' lat='41.263505' lon='19.7006051' />
  <node id='-126' visible='true' lat='41.263513' lon='19.7010235' />
  <node id='-127' visible='true' lat='41.2635292' lon='19.7013561' />
  <node id='-128' visible='true' lat='41.263497' lon='19.7015385' />
  <node id='-129' visible='true' lat='41.2635373' lon='19.701796' />
  <node id='-130' visible='true' lat='41.2635937' lon='19.7018711' />
  <node id='-131' visible='true' lat='41.263505' lon='19.7021072' />
  <node id='-132' visible='true' lat='41.2632953' lon='19.7022252' />
  <node id='-133' visible='true' lat='41.2628759' lon='19.7021608' />
  <node id='-134' visible='true' lat='41.262513' lon='19.7021823' />
  <node id='-135' visible='true' lat='41.2623597' lon='19.7022574' />
  <node id='-136' visible='true' lat='41.2618678' lon='19.7022574' />
  <node id='-137' visible='true' lat='41.261642' lon='19.7024289' />
  <node id='-138' visible='true' lat='41.2614001' lon='19.7025469' />
  <node id='-139' visible='true' lat='41.2612146' lon='19.702708' />
  <node id='-140' visible='true' lat='41.2612146' lon='19.7028366' />
  <node id='-141' visible='true' lat='41.2613435' lon='19.702901' />
  <node id='-142' visible='true' lat='41.2614726' lon='19.7029975' />
  <node id='-143' visible='true' lat='41.2614726' lon='19.7031048' />
  <node id='-144' visible='true' lat='41.2613275' lon='19.7032014' />
  <node id='-145' visible='true' lat='41.2612388' lon='19.7033516' />
  <node id='-146' visible='true' lat='41.2611823' lon='19.7035662' />
  <node id='-147' visible='true' lat='41.2610693' lon='19.7038237' />
  <node id='-148' visible='true' lat='41.2605694' lon='19.7041134' />
  <node id='-149' visible='true' lat='41.2603999' lon='19.704328' />
  <node id='-150' visible='true' lat='41.2601984' lon='19.7043387' />
  <node id='-151' visible='true' lat='41.2599968' lon='19.704446' />
  <node id='-152' visible='true' lat='41.2598596' lon='19.7046498' />
  <node id='-153' visible='true' lat='41.2592629' lon='19.7048644' />
  <node id='-154' visible='true' lat='41.2590853' lon='19.705197' />
  <node id='-155' visible='true' lat='41.2589321' lon='19.705358' />
  <node id='-156' visible='true' lat='41.2588111' lon='19.7055082' />
  <node id='-157' visible='true' lat='41.2588354' lon='19.7056798' />
  <way id='-158' visible='true'>
    <nd ref='-118' />
    <nd ref='-119' />
    <nd ref='-120' />
    <nd ref='-121' />
    <nd ref='-122' />
    <nd ref='-123' />
    <nd ref='-124' />
    <nd ref='-125' />
    <nd ref='-126' />
    <nd ref='-127' />
    <nd ref='-128' />
    <nd ref='-129' />
    <nd ref='-130' />
    <nd ref='-131' />
    <nd ref='-132' />
    <nd ref='-133' />
    <nd ref='-134' />
    <nd ref='-135' />
    <nd ref='-136' />
    <nd ref='-137' />
    <nd ref='-138' />
    <nd ref='-139' />
    <nd ref='-140' />
    <nd ref='-141' />
    <nd ref='-142' />
    <nd ref='-143' />
    <nd ref='-144' />
    <nd ref='-145' />
    <nd ref='-146' />
    <nd ref='-147' />
    <nd ref='-148' />
    <nd ref='-149' />
    <nd ref='-150' />
    <nd ref='-151' />
    <nd ref='-152' />
    <nd ref='-153' />
    <nd ref='-154' />
    <nd ref='-155' />
    <nd ref='-156' />
    <nd ref='-157' />
    <tag k="OSM_ID" v="46580538"/>
  </way>
  <node id='-159' visible='true' lat='41.2637399' lon='19.6985607' />
  <node id='-160' visible='true' lat='41.2632146' lon='19.6980624' />
  <way id='-161' visible='true'>
    <nd ref='-159' />
    <nd ref='-160' />
    <tag k="OSM_ID" v="46580533"/>
  </way>
  <node id='-162' visible='true' lat='41.2636394' lon='19.6987573' />
  <node id='-163' visible='true' lat='41.2630776' lon='19.6982448' />
  <way id='-164' visible='true'>
    <nd ref='-162' />
    <nd ref='-163' />
    <tag k="OSM_ID" v="46580532"/>
  </way>
  <node id='-165' visible='true' lat='41.2668095' lon='19.6991854' />
  <node id='-166' visible='true' lat='41.2671017' lon='19.6986309' />
  <way id='-167' visible='true'>
    <nd ref='-165' />
    <nd ref='-166' />
    <tag k="OSM_ID" v="46580933"/>
  </way>
  <node id='-168' visible='true' lat='41.2675922' lon='19.7029333' />
  <node id='-169' visible='true' lat='41.2678597' lon='19.7025791' />
  <node id='-170' visible='true' lat='41.2682872' lon='19.7020641' />
  <node id='-171' visible='true' lat='41.2684566' lon='19.7017531' />
  <node id='-172' visible='true' lat='41.2685533' lon='19.7014098' />
  <node id='-173' visible='true' lat='41.2687468' lon='19.7011845' />
  <node id='-174' visible='true' lat='41.2689485' lon='19.7008411' />
  <node id='-175' visible='true' lat='41.2690693' lon='19.7006158' />
  <node id='-176' visible='true' lat='41.2692387' lon='19.7002617' />
  <node id='-177' visible='true' lat='41.2693194' lon='19.7000901' />
  <node id='-178' visible='true' lat='41.269392' lon='19.6998648' />
  <node id='-179' visible='true' lat='41.2695371' lon='19.6995858' />
  <node id='-180' visible='true' lat='41.2696419' lon='19.6994892' />
  <node id='-181' visible='true' lat='41.2695936' lon='19.6988778' />
  <node id='-182' visible='true' lat='41.2694484' lon='19.6986416' />
  <way id='-183' visible='true'>
    <nd ref='-168' />
    <nd ref='-169' />
    <nd ref='-170' />
    <nd ref='-171' />
    <nd ref='-172' />
    <nd ref='-173' />
    <nd ref='-174' />
    <nd ref='-175' />
    <nd ref='-176' />
    <nd ref='-177' />
    <nd ref='-178' />
    <nd ref='-179' />
    <nd ref='-180' />
    <nd ref='-181' />
    <nd ref='-182' />
    <tag k="OSM_ID" v="46580977"/>
  </way>
  <node id='-184' visible='true' lat='41.2634405' lon='19.6991459' />
  <node id='-185' visible='true' lat='41.2628517' lon='19.6988133' />
  <way id='-186' visible='true'>
    <nd ref='-184' />
    <nd ref='-185' />
    <tag k="OSM_ID" v="46580540"/>
  </way>
  <node id='-187' visible='true' lat='41.275611' lon='19.6994357' />
  <node id='-188' visible='true' lat='41.2758267' lon='19.6991888' />
  <node id='-189' visible='true' lat='41.2761896' lon='19.6990064' />
  <node id='-190' visible='true' lat='41.2765362' lon='19.6989528' />
  <node id='-191' visible='true' lat='41.2769878' lon='19.6989421' />
  <node id='-192' visible='true' lat='41.2772538' lon='19.6988884' />
  <node id='-193' visible='true' lat='41.277536' lon='19.6991137' />
  <node id='-194' visible='true' lat='41.2777214' lon='19.6990815' />
  <node id='-195' visible='true' lat='41.2779714' lon='19.6991781' />
  <node id='-196' visible='true' lat='41.2782133' lon='19.6992426' />
  <node id='-197' visible='true' lat='41.2785117' lon='19.6989957' />
  <node id='-198' visible='true' lat='41.27906' lon='19.6993927' />
  <node id='-199' visible='true' lat='41.2793099' lon='19.6991675' />
  <node id='-200' visible='true' lat='41.2795194' lon='19.6988669' />
  <node id='-201' visible='true' lat='41.2796163' lon='19.6988669' />
  <node id='-202' visible='true' lat='41.2796968' lon='19.6989635' />
  <node id='-203' visible='true' lat='41.2797855' lon='19.6992532' />
  <node id='-204' visible='true' lat='41.2798258' lon='19.6995214' />
  <node id='-205' visible='true' lat='41.2795599' lon='19.6996824' />
  <way id='-206' visible='true'>
    <nd ref='-187' />
    <nd ref='-188' />
    <nd ref='-189' />
    <nd ref='-190' />
    <nd ref='-191' />
    <nd ref='-192' />
    <nd ref='-193' />
    <nd ref='-194' />
    <nd ref='-195' />
    <nd ref='-196' />
    <nd ref='-197' />
    <nd ref='-198' />
    <nd ref='-199' />
    <nd ref='-200' />
    <nd ref='-201' />
    <nd ref='-202' />
    <nd ref='-203' />
    <nd ref='-204' />
    <nd ref='-205' />
    <tag k="OSM_ID" v="46581297"/>
  </way>
  <node id='-207' visible='true' lat='41.2635123' lon='19.6990057' />
  <node id='-208' visible='true' lat='41.2635857' lon='19.6991566' />
  <node id='-209' visible='true' lat='41.264013' lon='19.6994571' />
  <node id='-210' visible='true' lat='41.2641017' lon='19.6992747' />
  <way id='-211' visible='true'>
    <nd ref='-207' />
    <nd ref='-208' />
    <nd ref='-209' />
    <nd ref='-210' />
    <tag k="OSM_ID" v="46580534"/>
  </way>
  <node id='-212' visible='true' lat='41.275611' lon='19.6994357' />
  <node id='-213' visible='true' lat='41.2755271' lon='19.6994958' />
  <node id='-214' visible='true' lat='41.2754046' lon='19.6995472' />
  <node id='-215' visible='true' lat='41.2751208' lon='19.6996332' />
  <node id='-216' visible='true' lat='41.2749273' lon='19.6997362' />
  <node id='-217' visible='true' lat='41.2748885' lon='19.6998305' />
  <node id='-218' visible='true' lat='41.2747401' lon='19.6998305' />
  <node id='-219' visible='true' lat='41.2742177' lon='19.6998734' />
  <node id='-220' visible='true' lat='41.2740306' lon='19.6999592' />
  <node id='-221' visible='true' lat='41.2738757' lon='19.6999764' />
  <node id='-222' visible='true' lat='41.2735984' lon='19.6995988' />
  <way id='-223' visible='true'>
    <nd ref='-212' />
    <nd ref='-213' />
    <nd ref='-214' />
    <nd ref='-215' />
    <nd ref='-216' />
    <nd ref='-217' />
    <nd ref='-218' />
    <nd ref='-219' />
    <nd ref='-220' />
    <nd ref='-221' />
    <nd ref='-222' />
    <tag k="OSM_ID" v="27531131"/>
  </way>
  <node id='-224' visible='true' lat='41.2633033' lon='19.6995' />
  <node id='-225' visible='true' lat='41.2624807' lon='19.6997789' />
  <way id='-226' visible='true'>
    <nd ref='-224' />
    <nd ref='-225' />
    <tag k="OSM_ID" v="46580539"/>
  </way>
  <node id='-227' visible='true' lat='41.2671952' lon='19.6996909' />
  <node id='-228' visible='true' lat='41.2671339' lon='19.6998755' />
  <way id='-229' visible='true'>
    <nd ref='-227' />
    <nd ref='-228' />
    <tag k="OSM_ID" v="46580560"/>
  </way>
  <node id='-230' visible='true' lat='41.2748885' lon='19.6998305' />
  <node id='-231' visible='true' lat='41.2751981' lon='19.7020106' />
  <way id='-232' visible='true'>
    <nd ref='-230' />
    <nd ref='-231' />
    <tag k="OSM_ID" v="27531128"/>
  </way>
  <node id='-233' visible='true' lat='41.2672066' lon='19.7012596' />
  <node id='-234' visible='true' lat='41.267013' lon='19.7013132' />
  <node id='-235' visible='true' lat='41.2666824' lon='19.7009377' />
  <node id='-236' visible='true' lat='41.266892' lon='19.7003905' />
  <node id='-237' visible='true' lat='41.2670534' lon='19.7000364' />
  <node id='-238' visible='true' lat='41.2671339' lon='19.6998755' />
  <node id='-239' visible='true' lat='41.267247' lon='19.6998783' />
  <way id='-240' visible='true'>
    <nd ref='-233' />
    <nd ref='-234' />
    <nd ref='-235' />
    <nd ref='-236' />
    <nd ref='-237' />
    <nd ref='-238' />
    <nd ref='-239' />
    <tag k="OSM_ID" v="46580558"/>
  </way>
  <node id='-241' visible='true' lat='41.263505' lon='19.7006051' />
  <node id='-242' visible='true' lat='41.2637712' lon='19.7007446' />
  <node id='-243' visible='true' lat='41.263997' lon='19.7009484' />
  <node id='-244' visible='true' lat='41.2640776' lon='19.7010664' />
  <node id='-245' visible='true' lat='41.2640776' lon='19.7013669' />
  <node id='-246' visible='true' lat='41.2640776' lon='19.7015171' />
  <way id='-247' visible='true'>
    <nd ref='-241' />
    <nd ref='-242' />
    <nd ref='-243' />
    <nd ref='-244' />
    <nd ref='-245' />
    <nd ref='-246' />
    <tag k="OSM_ID" v="46580535"/>
  </way>
  <node id='-248' visible='true' lat='41.2640776' lon='19.7010664' />
  <node id='-249' visible='true' lat='41.2642791' lon='19.700884' />
  <way id='-250' visible='true'>
    <nd ref='-248' />
    <nd ref='-249' />
    <tag k="OSM_ID" v="46580536"/>
  </way>
  <node id='-251' visible='true' lat='41.2730585' lon='19.7048191' />
  <node id='-252' visible='true' lat='41.272978' lon='19.7042828' />
  <node id='-253' visible='true' lat='41.272986' lon='19.7041326' />
  <node id='-254' visible='true' lat='41.2732199' lon='19.7038857' />
  <node id='-255' visible='true' lat='41.2733489' lon='19.7037571' />
  <node id='-256' visible='true' lat='41.2736713' lon='19.7033386' />
  <node id='-257' visible='true' lat='41.27401' lon='19.7027915' />
  <node id='-258' visible='true' lat='41.2742359' lon='19.7024374' />
  <node id='-259' visible='true' lat='41.2744132' lon='19.7022335' />
  <node id='-260' visible='true' lat='41.2747518' lon='19.7021584' />
  <node id='-261' visible='true' lat='41.275018' lon='19.7021584' />
  <node id='-262' visible='true' lat='41.2751981' lon='19.7020106' />
  <way id='-263' visible='true'>
    <nd ref='-251' />
    <nd ref='-252' />
    <nd ref='-253' />
    <nd ref='-254' />
    <nd ref='-255' />
    <nd ref='-256' />
    <nd ref='-257' />
    <nd ref='-258' />
    <nd ref='-259' />
    <nd ref='-260' />
    <nd ref='-261' />
    <nd ref='-262' />
    <tag k="OSM_ID" v="46579950"/>
  </way>
  <node id='-264' visible='true' lat='41.2675922' lon='19.7029333' />
  <node id='-265' visible='true' lat='41.2675049' lon='19.7029546' />
  <node id='-266' visible='true' lat='41.2672872' lon='19.7027831' />
  <node id='-267' visible='true' lat='41.2670936' lon='19.7027831' />
  <node id='-268' visible='true' lat='41.267013' lon='19.7028795' />
  <node id='-269' visible='true' lat='41.2667065' lon='19.7038666' />
  <node id='-270' visible='true' lat='41.2665452' lon='19.7041026' />
  <node id='-271' visible='true' lat='41.2662388' lon='19.7043172' />
  <node id='-272' visible='true' lat='41.2659969' lon='19.7041134' />
  <node id='-273' visible='true' lat='41.2658921' lon='19.7038773' />
  <node id='-274' visible='true' lat='41.2658841' lon='19.7034374' />
  <node id='-275' visible='true' lat='41.2659486' lon='19.7032659' />
  <node id='-276' visible='true' lat='41.2658276' lon='19.7028795' />
  <node id='-277' visible='true' lat='41.2655614' lon='19.7025256' />
  <way id='-278' visible='true'>
    <nd ref='-264' />
    <nd ref='-265' />
    <nd ref='-266' />
    <nd ref='-267' />
    <nd ref='-268' />
    <nd ref='-269' />
    <nd ref='-270' />
    <nd ref='-271' />
    <nd ref='-272' />
    <nd ref='-273' />
    <nd ref='-274' />
    <nd ref='-275' />
    <nd ref='-276' />
    <nd ref='-277' />
    <tag k="OSM_ID" v="46580437"/>
  </way>
  <node id='-279' visible='true' lat='41.2724611' lon='19.707066' />
  <node id='-280' visible='true' lat='41.2725989' lon='19.7063427' />
  <node id='-281' visible='true' lat='41.2727361' lon='19.7059242' />
  <node id='-282' visible='true' lat='41.272873' lon='19.7055916' />
  <node id='-283' visible='true' lat='41.272986' lon='19.7054521' />
  <node id='-284' visible='true' lat='41.2730908' lon='19.7051946' />
  <node id='-285' visible='true' lat='41.2730585' lon='19.7048191' />
  <node id='-286' visible='true' lat='41.2727683' lon='19.7046476' />
  <node id='-287' visible='true' lat='41.2723167' lon='19.704315' />
  <node id='-288' visible='true' lat='41.2720102' lon='19.704111' />
  <node id='-289' visible='true' lat='41.2718248' lon='19.7039824' />
  <node id='-290' visible='true' lat='41.2718248' lon='19.7037463' />
  <node id='-291' visible='true' lat='41.2718812' lon='19.7034352' />
  <node id='-292' visible='true' lat='41.2720425' lon='19.7033386' />
  <node id='-293' visible='true' lat='41.2721394' lon='19.7031133' />
  <way id='-294' visible='true'>
    <nd ref='-279' />
    <nd ref='-280' />
    <nd ref='-281' />
    <nd ref='-282' />
    <nd ref='-283' />
    <nd ref='-284' />
    <nd ref='-285' />
    <nd ref='-286' />
    <nd ref='-287' />
    <nd ref='-288' />
    <nd ref='-289' />
    <nd ref='-290' />
    <nd ref='-291' />
    <nd ref='-292' />
    <nd ref='-293' />
    <tag k="OSM_ID" v="46579630"/>
  </way>
  <node id='-295' visible='true' lat='41.2718812' lon='19.7034352' />
  <node id='-296' visible='true' lat='41.2718812' lon='19.7032421' />
  <way id='-297' visible='true'>
    <nd ref='-295' />
    <nd ref='-296' />
    <tag k="OSM_ID" v="46579631"/>
  </way>
  <node id='-298' visible='true' lat='41.2667065' lon='19.7038666' />
  <node id='-299' visible='true' lat='41.2665775' lon='19.7035018' />
  <way id='-300' visible='true'>
    <nd ref='-298' />
    <nd ref='-299' />
    <tag k="OSM_ID" v="46580439"/>
  </way>
  <node id='-301' visible='true' lat='41.2667065' lon='19.7038666' />
  <node id='-302' visible='true' lat='41.2664888' lon='19.7039524' />
  <node id='-303' visible='true' lat='41.2663195' lon='19.7039095' />
  <way id='-304' visible='true'>
    <nd ref='-301' />
    <nd ref='-302' />
    <nd ref='-303' />
    <tag k="OSM_ID" v="46580432"/>
  </way>
  <node id='-305' visible='true' lat='41.2720102' lon='19.704111' />
  <node id='-306' visible='true' lat='41.2720667' lon='19.7038857' />
  <way id='-307' visible='true'>
    <nd ref='-305' />
    <nd ref='-306' />
    <tag k="OSM_ID" v="46579632"/>
  </way>
  <node id='-308' visible='true' lat='41.2734011' lon='19.7083669' />
  <node id='-309' visible='true' lat='41.2735666' lon='19.7082847' />
  <node id='-310' visible='true' lat='41.2740182' lon='19.7077375' />
  <node id='-311' visible='true' lat='41.2744132' lon='19.7073083' />
  <node id='-312' visible='true' lat='41.274776' lon='19.7065787' />
  <node id='-313' visible='true' lat='41.2749615' lon='19.7061388' />
  <node id='-314' visible='true' lat='41.2753082' lon='19.7058169' />
  <node id='-315' visible='true' lat='41.2754856' lon='19.7053663' />
  <node id='-316' visible='true' lat='41.2751792' lon='19.7048729' />
  <node id='-317' visible='true' lat='41.2749213' lon='19.7044974' />
  <node id='-318' visible='true' lat='41.2746713' lon='19.7043472' />
  <node id='-319' visible='true' lat='41.2743649' lon='19.7042399' />
  <node id='-320' visible='true' lat='41.2739777' lon='19.7041004' />
  <node id='-321' visible='true' lat='41.2736713' lon='19.7040037' />
  <way id='-322' visible='true'>
    <nd ref='-308' />
    <nd ref='-309' />
    <nd ref='-310' />
    <nd ref='-311' />
    <nd ref='-312' />
    <nd ref='-313' />
    <nd ref='-314' />
    <nd ref='-315' />
    <nd ref='-316' />
    <nd ref='-317' />
    <nd ref='-318' />
    <nd ref='-319' />
    <nd ref='-320' />
    <nd ref='-321' />
    <tag k="OSM_ID" v="46579951"/>
  </way>
  <node id='-323' visible='true' lat='41.2662388' lon='19.7043172' />
  <node id='-324' visible='true' lat='41.2661583' lon='19.7044996' />
  <node id='-325' visible='true' lat='41.2658436' lon='19.7047571' />
  <node id='-326' visible='true' lat='41.2655212' lon='19.7049824' />
  <node id='-327' visible='true' lat='41.265255' lon='19.7051756' />
  <node id='-328' visible='true' lat='41.265142' lon='19.7053365' />
  <node id='-329' visible='true' lat='41.2648115' lon='19.7052936' />
  <way id='-330' visible='true'>
    <nd ref='-323' />
    <nd ref='-324' />
    <nd ref='-325' />
    <nd ref='-326' />
    <nd ref='-327' />
    <nd ref='-328' />
    <nd ref='-329' />
    <tag k="OSM_ID" v="46580438"/>
  </way>
  <node id='-331' visible='true' lat='41.2751792' lon='19.7048729' />
  <node id='-332' visible='true' lat='41.2753244' lon='19.7047227' />
  <way id='-333' visible='true'>
    <nd ref='-331' />
    <nd ref='-332' />
    <tag k="OSM_ID" v="46579952"/>
  </way>
  <node id='-334' visible='true' lat='41.2756066' lon='19.705259' />
  <node id='-335' visible='true' lat='41.275921' lon='19.7049264' />
  <node id='-336' visible='true' lat='41.2763484' lon='19.7050553' />
  <node id='-337' visible='true' lat='41.2764371' lon='19.7050553' />
  <node id='-338' visible='true' lat='41.2767273' lon='19.704948' />
  <node id='-339' visible='true' lat='41.2769369' lon='19.7048729' />
  <node id='-340' visible='true' lat='41.2772031' lon='19.704948' />
  <node id='-341' visible='true' lat='41.2773159' lon='19.7050444' />
  <node id='-342' visible='true' lat='41.2774128' lon='19.7051304' />
  <way id='-343' visible='true'>
    <nd ref='-334' />
    <nd ref='-335' />
    <nd ref='-336' />
    <nd ref='-337' />
    <nd ref='-338' />
    <nd ref='-339' />
    <nd ref='-340' />
    <nd ref='-341' />
    <nd ref='-342' />
    <tag k="OSM_ID" v="46579944"/>
  </way>
  <node id='-344' visible='true' lat='41.2754856' lon='19.7053663' />
  <node id='-345' visible='true' lat='41.2756066' lon='19.705259' />
  <node id='-346' visible='true' lat='41.2756228' lon='19.7049157' />
  <way id='-347' visible='true'>
    <nd ref='-344' />
    <nd ref='-345' />
    <nd ref='-346' />
    <tag k="OSM_ID" v="46579943"/>
  </way>
  <node id='-348' visible='true' lat='41.2767273' lon='19.704948' />
  <node id='-349' visible='true' lat='41.2767515' lon='19.7052912' />
  <way id='-350' visible='true'>
    <nd ref='-348' />
    <nd ref='-349' />
    <tag k="OSM_ID" v="46579946"/>
  </way>
  <node id='-351' visible='true' lat='41.2773159' lon='19.7050444' />
  <node id='-352' visible='true' lat='41.2770499' lon='19.705538' />
  <way id='-353' visible='true'>
    <nd ref='-351' />
    <nd ref='-352' />
    <tag k="OSM_ID" v="46579945"/>
  </way>
  <node id='-354' visible='true' lat='41.2764371' lon='19.7050553' />
  <node id='-355' visible='true' lat='41.2764613' lon='19.7052699' />
  <way id='-356' visible='true'>
    <nd ref='-354' />
    <nd ref='-355' />
    <tag k="OSM_ID" v="46579947"/>
  </way>
  <node id='-357' visible='true' lat='41.272986' lon='19.7054521' />
  <node id='-358' visible='true' lat='41.2730182' lon='19.7055487' />
  <node id='-359' visible='true' lat='41.2732602' lon='19.7057205' />
  <node id='-360' visible='true' lat='41.2733891' lon='19.7056667' />
  <node id='-361' visible='true' lat='41.2735908' lon='19.7055272' />
  <way id='-362' visible='true'>
    <nd ref='-357' />
    <nd ref='-358' />
    <nd ref='-359' />
    <nd ref='-360' />
    <nd ref='-361' />
    <tag k="OSM_ID" v="46579949"/>
  </way>
  <node id='-363' visible='true' lat='41.2753082' lon='19.7058169' />
  <node id='-364' visible='true' lat='41.2755421' lon='19.7057096' />
  <node id='-365' visible='true' lat='41.275784' lon='19.705656' />
  <node id='-366' visible='true' lat='41.2760662' lon='19.705774' />
  <node id='-367' visible='true' lat='41.2761791' lon='19.7058278' />
  <node id='-368' visible='true' lat='41.276566' lon='19.706053' />
  <node id='-369' visible='true' lat='41.2767273' lon='19.7062246' />
  <node id='-370' visible='true' lat='41.2771305' lon='19.7066324' />
  <node id='-371' visible='true' lat='41.2776708' lon='19.7071366' />
  <node id='-372' visible='true' lat='41.2780014' lon='19.7074478' />
  <node id='-373' visible='true' lat='41.2783803' lon='19.7078769' />
  <node id='-374' visible='true' lat='41.27834' lon='19.7080272' />
  <node id='-375' visible='true' lat='41.27784' lon='19.7089068' />
  <node id='-376' visible='true' lat='41.27784' lon='19.7089928' />
  <node id='-377' visible='true' lat='41.2779609' lon='19.7091965' />
  <node id='-378' visible='true' lat='41.2781222' lon='19.7093038' />
  <node id='-379' visible='true' lat='41.2781868' lon='19.7093574' />
  <way id='-380' visible='true'>
    <nd ref='-363' />
    <nd ref='-364' />
    <nd ref='-365' />
    <nd ref='-366' />
    <nd ref='-367' />
    <nd ref='-368' />
    <nd ref='-369' />
    <nd ref='-370' />
    <nd ref='-371' />
    <nd ref='-372' />
    <nd ref='-373' />
    <nd ref='-374' />
    <nd ref='-375' />
    <nd ref='-376' />
    <nd ref='-377' />
    <nd ref='-378' />
    <nd ref='-379' />
    <tag k="OSM_ID" v="46579932"/>
  </way>
  <node id='-381' visible='true' lat='41.2718964' lon='19.7064838' />
  <node id='-382' visible='true' lat='41.2716716' lon='19.7070079' />
  <way id='-383' visible='true'>
    <nd ref='-381' />
    <nd ref='-382' />
    <tag k="OSM_ID" v="46579629"/>
  </way>
  <node id='-384' visible='true' lat='41.2720199' lon='19.7066112' />
  <node id='-385' visible='true' lat='41.2718328' lon='19.7070508' />
  <way id='-386' visible='true'>
    <nd ref='-384' />
    <nd ref='-385' />
    <tag k="OSM_ID" v="46579637"/>
  </way>
  <node id='-387' visible='true' lat='41.2722535' lon='19.7068522' />
  <node id='-388' visible='true' lat='41.2720587' lon='19.7072547' />
  <way id='-389' visible='true'>
    <nd ref='-387' />
    <nd ref='-388' />
    <tag k="OSM_ID" v="46579636"/>
  </way>
  <node id='-390' visible='true' lat='41.2727008' lon='19.7073134' />
  <node id='-391' visible='true' lat='41.2724457' lon='19.7077911' />
  <way id='-392' visible='true'>
    <nd ref='-390' />
    <nd ref='-391' />
    <tag k="OSM_ID" v="46579635"/>
  </way>
  <node id='-393' visible='true' lat='41.2637525' lon='19.7155588' />
  <node id='-394' visible='true' lat='41.2636801' lon='19.7152047' />
  <node id='-395' visible='true' lat='41.2637929' lon='19.7150116' />
  <node id='-396' visible='true' lat='41.2640993' lon='19.7147863' />
  <node id='-397' visible='true' lat='41.2643735' lon='19.7144644' />
  <node id='-398' visible='true' lat='41.2645027' lon='19.7143785' />
  <node id='-399' visible='true' lat='41.2646477' lon='19.7143785' />
  <node id='-400' visible='true' lat='41.2648332' lon='19.7143571' />
  <node id='-401' visible='true' lat='41.2650591' lon='19.7143678' />
  <node id='-402' visible='true' lat='41.2652365' lon='19.7141854' />
  <node id='-403' visible='true' lat='41.2653333' lon='19.7140459' />
  <node id='-404' visible='true' lat='41.265688' lon='19.7138957' />
  <node id='-405' visible='true' lat='41.2660349' lon='19.7137777' />
  <node id='-406' visible='true' lat='41.2664301' lon='19.7137026' />
  <node id='-407' visible='true' lat='41.2668251' lon='19.7135524' />
  <node id='-408' visible='true' lat='41.2669945' lon='19.7131663' />
  <node id='-409' visible='true' lat='41.2672042' lon='19.7129088' />
  <node id='-410' visible='true' lat='41.2674784' lon='19.7127048' />
  <node id='-411' visible='true' lat='41.2678171' lon='19.7125224' />
  <node id='-412' visible='true' lat='41.2679864' lon='19.7123722' />
  <node id='-413' visible='true' lat='41.2680348' lon='19.7123294' />
  <node id='-414' visible='true' lat='41.2681558' lon='19.7120396' />
  <node id='-415' visible='true' lat='41.2682928' lon='19.7116213' />
  <node id='-416' visible='true' lat='41.26843' lon='19.7111492' />
  <node id='-417' visible='true' lat='41.268575' lon='19.7109132' />
  <node id='-418' visible='true' lat='41.2689944' lon='19.7104196' />
  <node id='-419' visible='true' lat='41.269446' lon='19.7097866' />
  <node id='-420' visible='true' lat='41.2696315' lon='19.7097866' />
  <node id='-421' visible='true' lat='41.2700186' lon='19.7095076' />
  <node id='-422' visible='true' lat='41.2703331' lon='19.7093145' />
  <node id='-423' visible='true' lat='41.270591' lon='19.709175' />
  <node id='-424' visible='true' lat='41.2707442' lon='19.7093467' />
  <node id='-425' visible='true' lat='41.2710184' lon='19.7100548' />
  <node id='-426' visible='true' lat='41.2711072' lon='19.7100763' />
  <node id='-427' visible='true' lat='41.2715829' lon='19.7098939' />
  <node id='-428' visible='true' lat='41.2717765' lon='19.7098081' />
  <node id='-429' visible='true' lat='41.271962' lon='19.7097866' />
  <node id='-430' visible='true' lat='41.2722119' lon='19.7096258' />
  <node id='-431' visible='true' lat='41.2725344' lon='19.7094756' />
  <node id='-432' visible='true' lat='41.272978' lon='19.7090892' />
  <node id='-433' visible='true' lat='41.2730908' lon='19.7087353' />
  <node id='-434' visible='true' lat='41.2731634' lon='19.7084991' />
  <node id='-435' visible='true' lat='41.2734011' lon='19.7083669' />
  <way id='-436' visible='true'>
    <nd ref='-393' />
    <nd ref='-394' />
    <nd ref='-395' />
    <nd ref='-396' />
    <nd ref='-397' />
    <nd ref='-398' />
    <nd ref='-399' />
    <nd ref='-400' />
    <nd ref='-401' />
    <nd ref='-402' />
    <nd ref='-403' />
    <nd ref='-404' />
    <nd ref='-405' />
    <nd ref='-406' />
    <nd ref='-407' />
    <nd ref='-408' />
    <nd ref='-409' />
    <nd ref='-410' />
    <nd ref='-411' />
    <nd ref='-412' />
    <nd ref='-413' />
    <nd ref='-414' />
    <nd ref='-415' />
    <nd ref='-416' />
    <nd ref='-417' />
    <nd ref='-418' />
    <nd ref='-419' />
    <nd ref='-420' />
    <nd ref='-421' />
    <nd ref='-422' />
    <nd ref='-423' />
    <nd ref='-424' />
    <nd ref='-425' />
    <nd ref='-426' />
    <nd ref='-427' />
    <nd ref='-428' />
    <nd ref='-429' />
    <nd ref='-430' />
    <nd ref='-431' />
    <nd ref='-432' />
    <nd ref='-433' />
    <nd ref='-434' />
    <nd ref='-435' />
    <tag k="OSM_ID" v="46579633"/>
  </way>
  <node id='-437' visible='true' lat='41.27784' lon='19.7089068' />
  <node id='-438' visible='true' lat='41.2776465' lon='19.7089284' />
  <node id='-439' visible='true' lat='41.2775578' lon='19.7090463' />
  <way id='-440' visible='true'>
    <nd ref='-437' />
    <nd ref='-438' />
    <nd ref='-439' />
    <tag k="OSM_ID" v="46579935"/>
  </way>
  <node id='-441' visible='true' lat='41.2758262' lon='19.7129699' />
  <node id='-442' visible='true' lat='41.2760419' lon='19.7128121' />
  <node id='-443' visible='true' lat='41.2761791' lon='19.7127157' />
  <node id='-444' visible='true' lat='41.2765258' lon='19.7127477' />
  <node id='-445' visible='true' lat='41.2768242' lon='19.7126942' />
  <node id='-446' visible='true' lat='41.2770579' lon='19.7125011' />
  <node id='-447' visible='true' lat='41.2772031' lon='19.7124689' />
  <node id='-448' visible='true' lat='41.2774368' lon='19.7122221' />
  <node id='-449' visible='true' lat='41.277695' lon='19.7119968' />
  <node id='-450' visible='true' lat='41.2779207' lon='19.7117393' />
  <node id='-451' visible='true' lat='41.2780417' lon='19.711514' />
  <node id='-452' visible='true' lat='41.2781464' lon='19.7107415' />
  <node id='-453' visible='true' lat='41.2782109' lon='19.7103982' />
  <node id='-454' visible='true' lat='41.2782754' lon='19.7100119' />
  <node id='-455' visible='true' lat='41.2783561' lon='19.7097544' />
  <node id='-456' visible='true' lat='41.2783963' lon='19.7095291' />
  <node id='-457' visible='true' lat='41.2781868' lon='19.7093574' />
  <way id='-458' visible='true'>
    <nd ref='-441' />
    <nd ref='-442' />
    <nd ref='-443' />
    <nd ref='-444' />
    <nd ref='-445' />
    <nd ref='-446' />
    <nd ref='-447' />
    <nd ref='-448' />
    <nd ref='-449' />
    <nd ref='-450' />
    <nd ref='-451' />
    <nd ref='-452' />
    <nd ref='-453' />
    <nd ref='-454' />
    <nd ref='-455' />
    <nd ref='-456' />
    <nd ref='-457' />
    <tag k="OSM_ID" v="46579940"/>
  </way>
  <node id='-459' visible='true' lat='41.2781868' lon='19.7093574' />
  <node id='-460' visible='true' lat='41.2779045' lon='19.7097437' />
  <way id='-461' visible='true'>
    <nd ref='-459' />
    <nd ref='-460' />
    <tag k="OSM_ID" v="46579941"/>
  </way>
  <node id='-462' visible='true' lat='41.2741426' lon='19.7097744' />
  <node id='-463' visible='true' lat='41.2740677' lon='19.7100149' />
  <node id='-464' visible='true' lat='41.2740483' lon='19.7103326' />
  <node id='-465' visible='true' lat='41.2741516' lon='19.7105385' />
  <node id='-466' visible='true' lat='41.2741516' lon='19.7107531' />
  <node id='-467' visible='true' lat='41.2740677' lon='19.7109677' />
  <node id='-468' visible='true' lat='41.2738613' lon='19.7113368' />
  <way id='-469' visible='true'>
    <nd ref='-462' />
    <nd ref='-463' />
    <nd ref='-464' />
    <nd ref='-465' />
    <nd ref='-466' />
    <nd ref='-467' />
    <nd ref='-468' />
    <tag k="OSM_ID" v="41572243"/>
  </way>
  <node id='-470' visible='true' lat='41.271962' lon='19.7097866' />
  <node id='-471' visible='true' lat='41.2718248' lon='19.7099584' />
  <node id='-472' visible='true' lat='41.2704781' lon='19.7104947' />
  <node id='-473' visible='true' lat='41.2702523' lon='19.7106557' />
  <node id='-474' visible='true' lat='41.2704459' lon='19.7114603' />
  <node id='-475' visible='true' lat='41.2704701' lon='19.7116642' />
  <node id='-476' visible='true' lat='41.2703814' lon='19.7118144' />
  <node id='-477' visible='true' lat='41.2702281' lon='19.7120396' />
  <node id='-478' visible='true' lat='41.2701476' lon='19.7122865' />
  <node id='-479' visible='true' lat='41.2701476' lon='19.712426' />
  <way id='-480' visible='true'>
    <nd ref='-470' />
    <nd ref='-471' />
    <nd ref='-472' />
    <nd ref='-473' />
    <nd ref='-474' />
    <nd ref='-475' />
    <nd ref='-476' />
    <nd ref='-477' />
    <nd ref='-478' />
    <nd ref='-479' />
    <tag k="OSM_ID" v="46579948"/>
  </way>
  <node id='-481' visible='true' lat='41.2764828' lon='19.7142161' />
  <node id='-482' visible='true' lat='41.2768967' lon='19.7137777' />
  <node id='-483' visible='true' lat='41.277711' lon='19.7128015' />
  <way id='-484' visible='true'>
    <nd ref='-481' />
    <nd ref='-482' />
    <nd ref='-483' />
    <tag k="OSM_ID" v="46579942"/>
  </way>
  <node id='-485' visible='true' lat='41.2777134' lon='19.7166651' />
  <node id='-486' visible='true' lat='41.2770221' lon='19.7171818' />
  <node id='-487' visible='true' lat='41.2766543' lon='19.7173277' />
  <node id='-488' visible='true' lat='41.2762351' lon='19.717611' />
  <node id='-489' visible='true' lat='41.275848' lon='19.7178427' />
  <node id='-490' visible='true' lat='41.2753901' lon='19.7181688' />
  <node id='-491' visible='true' lat='41.2750934' lon='19.7184778' />
  <node id='-492' visible='true' lat='41.2747901' lon='19.7187869' />
  <node id='-493' visible='true' lat='41.2746611' lon='19.7190444' />
  <node id='-494' visible='true' lat='41.2743838' lon='19.7196537' />
  <node id='-495' visible='true' lat='41.2742289' lon='19.7200744' />
  <node id='-496' visible='true' lat='41.2739838' lon='19.720306' />
  <node id='-497' visible='true' lat='41.2736226' lon='19.7200229' />
  <node id='-498' visible='true' lat='41.2734485' lon='19.7199026' />
  <node id='-499' visible='true' lat='41.2734677' lon='19.7196795' />
  <node id='-500' visible='true' lat='41.2736097' lon='19.7193706' />
  <node id='-501' visible='true' lat='41.2737322' lon='19.7188383' />
  <node id='-502' visible='true' lat='41.2738779' lon='19.7183077' />
  <node id='-503' visible='true' lat='41.2739065' lon='19.7182032' />
  <node id='-504' visible='true' lat='41.2740548' lon='19.7176368' />
  <node id='-505' visible='true' lat='41.2740871' lon='19.7169072' />
  <node id='-506' visible='true' lat='41.2740742' lon='19.7164694' />
  <node id='-507' visible='true' lat='41.2741838' lon='19.7161003' />
  <node id='-508' visible='true' lat='41.2743193' lon='19.7154567' />
  <node id='-509' visible='true' lat='41.2744548' lon='19.7151649' />
  <node id='-510' visible='true' lat='41.2746354' lon='19.7149244' />
  <node id='-511' visible='true' lat='41.2748417' lon='19.7146928' />
  <node id='-512' visible='true' lat='41.2750868' lon='19.7143066' />
  <node id='-513' visible='true' lat='41.2753384' lon='19.7138601' />
  <node id='-514' visible='true' lat='41.2755256' lon='19.7135427' />
  <node id='-515' visible='true' lat='41.2756546' lon='19.7133108' />
  <node id='-516' visible='true' lat='41.2757707' lon='19.7131134' />
  <node id='-517' visible='true' lat='41.2758262' lon='19.7129699' />
  <way id='-518' visible='true'>
    <nd ref='-485' />
    <nd ref='-486' />
    <nd ref='-487' />
    <nd ref='-488' />
    <nd ref='-489' />
    <nd ref='-490' />
    <nd ref='-491' />
    <nd ref='-492' />
    <nd ref='-493' />
    <nd ref='-494' />
    <nd ref='-495' />
    <nd ref='-496' />
    <nd ref='-497' />
    <nd ref='-498' />
    <nd ref='-499' />
    <nd ref='-500' />
    <nd ref='-501' />
    <nd ref='-502' />
    <nd ref='-503' />
    <nd ref='-504' />
    <nd ref='-505' />
    <nd ref='-506' />
    <nd ref='-507' />
    <nd ref='-508' />
    <nd ref='-509' />
    <nd ref='-510' />
    <nd ref='-511' />
    <nd ref='-512' />
    <nd ref='-513' />
    <nd ref='-514' />
    <nd ref='-515' />
    <nd ref='-516' />
    <nd ref='-517' />
    <tag k="OSM_ID" v="41572242"/>
  </way>
  <node id='-519' visible='true' lat='41.2748417' lon='19.7146928' />
  <node id='-520' visible='true' lat='41.2746676' lon='19.7141863' />
  <way id='-521' visible='true'>
    <nd ref='-519' />
    <nd ref='-520' />
    <tag k="OSM_ID" v="41572244"/>
  </way>
  <node id='-522' visible='true' lat='41.2750868' lon='19.7143066' />
  <node id='-523' visible='true' lat='41.2753001' lon='19.7146469' />
  <way id='-524' visible='true'>
    <nd ref='-522' />
    <nd ref='-523' />
    <tag k="OSM_ID" v="46580052"/>
  </way>
  <node id='-525' visible='true' lat='41.2797875' lon='19.719204' />
  <node id='-526' visible='true' lat='41.2797746' lon='19.7189808' />
  <node id='-527' visible='true' lat='41.2796714' lon='19.7188091' />
  <node id='-528' visible='true' lat='41.2795812' lon='19.7187148' />
  <node id='-529' visible='true' lat='41.2795683' lon='19.7185774' />
  <node id='-530' visible='true' lat='41.2795683' lon='19.7183972' />
  <node id='-531' visible='true' lat='41.2796328' lon='19.7181826' />
  <node id='-532' visible='true' lat='41.2797101' lon='19.7180281' />
  <node id='-533' visible='true' lat='41.279794' lon='19.7178822' />
  <node id='-534' visible='true' lat='41.279852' lon='19.7177706' />
  <node id='-535' visible='true' lat='41.279865' lon='19.7176934' />
  <way id='-536' visible='true'>
    <nd ref='-525' />
    <nd ref='-526' />
    <nd ref='-527' />
    <nd ref='-528' />
    <nd ref='-529' />
    <nd ref='-530' />
    <nd ref='-531' />
    <nd ref='-532' />
    <nd ref='-533' />
    <nd ref='-534' />
    <nd ref='-535' />
    <tag k="OSM_ID" v="41482433"/>
  </way>
  <node id='-537' visible='true' lat='41.2738779' lon='19.7183077' />
  <node id='-538' visible='true' lat='41.2736311' lon='19.7183698' />
  <way id='-539' visible='true'>
    <nd ref='-537' />
    <nd ref='-538' />
    <tag k="OSM_ID" v="46580117"/>
  </way>
  <node id='-540' visible='true' lat='41.2734485' lon='19.7199026' />
  <node id='-541' visible='true' lat='41.2733166' lon='19.7200005' />
  <node id='-542' visible='true' lat='41.272978' lon='19.7199683' />
  <node id='-543' visible='true' lat='41.2725263' lon='19.7200005' />
  <node id='-544' visible='true' lat='41.272228' lon='19.7200541' />
  <node id='-545' visible='true' lat='41.2718652' lon='19.7199469' />
  <node id='-546' visible='true' lat='41.2714943' lon='19.7198825' />
  <node id='-547' visible='true' lat='41.271091' lon='19.7200756' />
  <node id='-548' visible='true' lat='41.2706072' lon='19.7206872' />
  <node id='-549' visible='true' lat='41.2704701' lon='19.7207945' />
  <node id='-550' visible='true' lat='41.2703249' lon='19.7209769' />
  <node id='-551' visible='true' lat='41.2703491' lon='19.7211162' />
  <node id='-552' visible='true' lat='41.2705023' lon='19.7212235' />
  <node id='-553' visible='true' lat='41.2706072' lon='19.7212344' />
  <node id='-554' visible='true' lat='41.2707765' lon='19.7210627' />
  <node id='-555' visible='true' lat='41.2709378' lon='19.7209232' />
  <node id='-556' visible='true' lat='41.2711152' lon='19.7207408' />
  <node id='-557' visible='true' lat='41.2712926' lon='19.7205155' />
  <node id='-558' visible='true' lat='41.2714216' lon='19.7204082' />
  <node id='-559' visible='true' lat='41.2715991' lon='19.7204082' />
  <node id='-560' visible='true' lat='41.2719538' lon='19.7206335' />
  <node id='-561' visible='true' lat='41.2723329' lon='19.720773' />
  <node id='-562' visible='true' lat='41.2727683' lon='19.7209554' />
  <node id='-563' visible='true' lat='41.2728328' lon='19.7211378' />
  <node id='-564' visible='true' lat='41.272865' lon='19.7213631' />
  <node id='-565' visible='true' lat='41.2728166' lon='19.7215455' />
  <node id='-566' visible='true' lat='41.272728' lon='19.7217385' />
  <node id='-567' visible='true' lat='41.2726716' lon='19.7217923' />
  <node id='-568' visible='true' lat='41.2726553' lon='19.7220067' />
  <node id='-569' visible='true' lat='41.2727038' lon='19.7221891' />
  <node id='-570' visible='true' lat='41.2727198' lon='19.7224895' />
  <node id='-571' visible='true' lat='41.2727925' lon='19.7225539' />
  <node id='-572' visible='true' lat='41.2741955' lon='19.7223502' />
  <node id='-573' visible='true' lat='41.274002' lon='19.7220605' />
  <node id='-574' visible='true' lat='41.2740827' lon='19.7218565' />
  <node id='-575' visible='true' lat='41.2742762' lon='19.7216312' />
  <node id='-576' visible='true' lat='41.2743971' lon='19.7215348' />
  <node id='-577' visible='true' lat='41.2745019' lon='19.7215348' />
  <way id='-578' visible='true'>
    <nd ref='-540' />
    <nd ref='-541' />
    <nd ref='-542' />
    <nd ref='-543' />
    <nd ref='-544' />
    <nd ref='-545' />
    <nd ref='-546' />
    <nd ref='-547' />
    <nd ref='-548' />
    <nd ref='-549' />
    <nd ref='-550' />
    <nd ref='-551' />
    <nd ref='-552' />
    <nd ref='-553' />
    <nd ref='-554' />
    <nd ref='-555' />
    <nd ref='-556' />
    <nd ref='-557' />
    <nd ref='-558' />
    <nd ref='-559' />
    <nd ref='-560' />
    <nd ref='-561' />
    <nd ref='-562' />
    <nd ref='-563' />
    <nd ref='-564' />
    <nd ref='-565' />
    <nd ref='-566' />
    <nd ref='-567' />
    <nd ref='-568' />
    <nd ref='-569' />
    <nd ref='-570' />
    <nd ref='-571' />
    <nd ref='-572' />
    <nd ref='-573' />
    <nd ref='-574' />
    <nd ref='-575' />
    <nd ref='-576' />
    <nd ref='-577' />
    <tag k="OSM_ID" v="46580115"/>
  </way>
  <node id='-579' visible='true' lat='41.2736226' lon='19.7200229' />
  <node id='-580' visible='true' lat='41.2736391' lon='19.7203867' />
  <node id='-581' visible='true' lat='41.2735344' lon='19.7207945' />
  <node id='-582' visible='true' lat='41.2735344' lon='19.7211593' />
  <node id='-583' visible='true' lat='41.2735585' lon='19.721406' />
  <node id='-584' visible='true' lat='41.2735181' lon='19.721599' />
  <node id='-585' visible='true' lat='41.2737198' lon='19.7216741' />
  <node id='-586' visible='true' lat='41.273881' lon='19.721481' />
  <node id='-587' visible='true' lat='41.2739375' lon='19.7213846' />
  <way id='-588' visible='true'>
    <nd ref='-579' />
    <nd ref='-580' />
    <nd ref='-581' />
    <nd ref='-582' />
    <nd ref='-583' />
    <nd ref='-584' />
    <nd ref='-585' />
    <nd ref='-586' />
    <nd ref='-587' />
    <tag k="OSM_ID" v="46580116"/>
  </way>
</osm>
