<?xml version='1.0'?>
<osm version='0.5' generator='shp2osm.pl'>
  <node id='-1' visible='true' lat='41.4387684' lon='19.5812014' />
  <node id='-2' visible='true' lat='41.4374846' lon='19.5826999' />
  <way id='-3' visible='true'>
    <nd ref='-1' />
    <nd ref='-2' />
    <tag k="OSM_ID" v="45571828"/>
  </way>
  <node id='-4' visible='true' lat='41.4390828' lon='19.5817218' />
  <node id='-5' visible='true' lat='41.4378789' lon='19.5832577' />
  <way id='-6' visible='true'>
    <nd ref='-4' />
    <nd ref='-5' />
    <tag k="OSM_ID" v="45571826"/>
  </way>
  <node id='-7' visible='true' lat='41.4393838' lon='19.5822292' />
  <node id='-8' visible='true' lat='41.4381522' lon='19.5837083' />
  <way id='-9' visible='true'>
    <nd ref='-7' />
    <nd ref='-8' />
    <tag k="OSM_ID" v="45571839"/>
  </way>
  <node id='-10' visible='true' lat='41.4396448' lon='19.5826692' />
  <node id='-11' visible='true' lat='41.4392944' lon='19.5831076' />
  <way id='-12' visible='true'>
    <nd ref='-10' />
    <nd ref='-11' />
    <tag k="OSM_ID" v="45571838"/>
  </way>
  <node id='-13' visible='true' lat='41.4402698' lon='19.5837231' />
  <node id='-14' visible='true' lat='41.4391093' lon='19.5848885' />
  <way id='-15' visible='true'>
    <nd ref='-13' />
    <nd ref='-14' />
    <tag k="OSM_ID" v="45571837"/>
  </way>
  <node id='-16' visible='true' lat='41.4404919' lon='19.5840977' />
  <node id='-17' visible='true' lat='41.4395517' lon='19.5854143' />
  <way id='-18' visible='true'>
    <nd ref='-16' />
    <nd ref='-17' />
    <tag k="OSM_ID" v="45571836"/>
  </way>
  <node id='-19' visible='true' lat='41.4408096' lon='19.5846257' />
  <node id='-20' visible='true' lat='41.4399056' lon='19.5857361' />
  <way id='-21' visible='true'>
    <nd ref='-19' />
    <nd ref='-20' />
    <tag k="OSM_ID" v="45571834"/>
  </way>
  <node id='-22' visible='true' lat='41.4410827' lon='19.5850785' />
  <node id='-23' visible='true' lat='41.4399538' lon='19.5864013' />
  <way id='-24' visible='true'>
    <nd ref='-22' />
    <nd ref='-23' />
    <tag k="OSM_ID" v="45571861"/>
  </way>
  <node id='-25' visible='true' lat='41.4413695' lon='19.5855537' />
  <node id='-26' visible='true' lat='41.4403721' lon='19.5866481' />
  <way id='-27' visible='true'>
    <nd ref='-25' />
    <nd ref='-26' />
    <tag k="OSM_ID" v="45571860"/>
  </way>
  <node id='-28' visible='true' lat='41.4396448' lon='19.5826692' />
  <node id='-29' visible='true' lat='41.4414579' lon='19.5808867' />
  <node id='-30' visible='true' lat='41.4430745' lon='19.579374' />
  <node id='-31' visible='true' lat='41.4444336' lon='19.5781616' />
  <node id='-32' visible='true' lat='41.444884' lon='19.5769492' />
  <node id='-33' visible='true' lat='41.4450367' lon='19.5764986' />
  <node id='-34' visible='true' lat='41.4446267' lon='19.5759943' />
  <node id='-35' visible='true' lat='41.4438048' lon='19.5750421' />
  <way id='-36' visible='true'>
    <nd ref='-28' />
    <nd ref='-29' />
    <nd ref='-30' />
    <nd ref='-31' />
    <nd ref='-32' />
    <nd ref='-33' />
    <nd ref='-34' />
    <nd ref='-35' />
    <tag k="OSM_ID" v="45571829"/>
  </way>
  <node id='-37' visible='true' lat='41.4428347' lon='19.5756644' />
  <node id='-38' visible='true' lat='41.442801' lon='19.5753291' />
  <way id='-39' visible='true'>
    <nd ref='-37' />
    <nd ref='-38' />
    <tag k="OSM_ID" v="45571830"/>
  </way>
  <node id='-40' visible='true' lat='41.4433124' lon='19.575472' />
  <node id='-41' visible='true' lat='41.4434605' lon='19.5768956' />
  <way id='-42' visible='true'>
    <nd ref='-40' />
    <nd ref='-41' />
    <tag k="OSM_ID" v="45571831"/>
  </way>
  <node id='-43' visible='true' lat='41.4383892' lon='19.5805813' />
  <node id='-44' visible='true' lat='41.4387684' lon='19.5812014' />
  <node id='-45' visible='true' lat='41.4389565' lon='19.581509' />
  <node id='-46' visible='true' lat='41.4390828' lon='19.5817218' />
  <node id='-47' visible='true' lat='41.4393838' lon='19.5822292' />
  <node id='-48' visible='true' lat='41.4396448' lon='19.5826692' />
  <node id='-49' visible='true' lat='41.4402698' lon='19.5837231' />
  <node id='-50' visible='true' lat='41.4404919' lon='19.5840977' />
  <node id='-51' visible='true' lat='41.440541' lon='19.5841804' />
  <node id='-52' visible='true' lat='41.4408096' lon='19.5846257' />
  <node id='-53' visible='true' lat='41.4410827' lon='19.5850785' />
  <node id='-54' visible='true' lat='41.4413695' lon='19.5855537' />
  <node id='-55' visible='true' lat='41.4420933' lon='19.5867447' />
  <node id='-56' visible='true' lat='41.4422702' lon='19.5870451' />
  <node id='-57' visible='true' lat='41.4419967' lon='19.5888582' />
  <node id='-58' visible='true' lat='41.4417796' lon='19.5894805' />
  <node id='-59' visible='true' lat='41.4413453' lon='19.5904568' />
  <node id='-60' visible='true' lat='41.4410075' lon='19.5906285' />
  <node id='-61' visible='true' lat='41.4408065' lon='19.5908324' />
  <node id='-62' visible='true' lat='41.4407903' lon='19.5910469' />
  <node id='-63' visible='true' lat='41.4409994' lon='19.5915727' />
  <node id='-64' visible='true' lat='41.4411522' lon='19.5918302' />
  <node id='-65' visible='true' lat='41.4414659' lon='19.5919373' />
  <node id='-66' visible='true' lat='41.4416188' lon='19.592034' />
  <node id='-67' visible='true' lat='41.4416107' lon='19.5923021' />
  <node id='-68' visible='true' lat='41.4415223' lon='19.5925918' />
  <node id='-69' visible='true' lat='41.4414739' lon='19.5928064' />
  <node id='-70' visible='true' lat='41.4415464' lon='19.5934609' />
  <node id='-71' visible='true' lat='41.4414821' lon='19.5937184' />
  <node id='-72' visible='true' lat='41.4417234' lon='19.5940832' />
  <node id='-73' visible='true' lat='41.4421334' lon='19.5944694' />
  <node id='-74' visible='true' lat='41.442407' lon='19.5945338' />
  <node id='-75' visible='true' lat='41.4426642' lon='19.5946089' />
  <node id='-76' visible='true' lat='41.442785' lon='19.595081' />
  <way id='-77' visible='true'>
    <nd ref='-43' />
    <nd ref='-44' />
    <nd ref='-45' />
    <nd ref='-46' />
    <nd ref='-47' />
    <nd ref='-48' />
    <nd ref='-49' />
    <nd ref='-50' />
    <nd ref='-51' />
    <nd ref='-52' />
    <nd ref='-53' />
    <nd ref='-54' />
    <nd ref='-55' />
    <nd ref='-56' />
    <nd ref='-57' />
    <nd ref='-58' />
    <nd ref='-59' />
    <nd ref='-60' />
    <nd ref='-61' />
    <nd ref='-62' />
    <nd ref='-63' />
    <nd ref='-64' />
    <nd ref='-65' />
    <nd ref='-66' />
    <nd ref='-67' />
    <nd ref='-68' />
    <nd ref='-69' />
    <nd ref='-70' />
    <nd ref='-71' />
    <nd ref='-72' />
    <nd ref='-73' />
    <nd ref='-74' />
    <nd ref='-75' />
    <nd ref='-76' />
    <tag k="OSM_ID" v="45571858"/>
  </way>
  <node id='-78' visible='true' lat='41.4676386' lon='19.5669503' />
  <node id='-79' visible='true' lat='41.4679406' lon='19.5668411' />
  <node id='-80' visible='true' lat='41.4681015' lon='19.5672917' />
  <node id='-81' visible='true' lat='41.4683667' lon='19.5677745' />
  <node id='-82' visible='true' lat='41.4689777' lon='19.5681179' />
  <node id='-83' visible='true' lat='41.4693637' lon='19.5680642' />
  <node id='-84' visible='true' lat='41.4695727' lon='19.5678926' />
  <node id='-85' visible='true' lat='41.4699425' lon='19.568193' />
  <node id='-86' visible='true' lat='41.4703445' lon='19.5683861' />
  <node id='-87' visible='true' lat='41.47106' lon='19.5679891' />
  <node id='-88' visible='true' lat='41.4711725' lon='19.5677745' />
  <node id='-89' visible='true' lat='41.4712047' lon='19.5674098' />
  <node id='-90' visible='true' lat='41.471301' lon='19.5670986' />
  <node id='-91' visible='true' lat='41.4715502' lon='19.567002' />
  <node id='-92' visible='true' lat='41.4724667' lon='19.5669699' />
  <node id='-93' visible='true' lat='41.4730938' lon='19.5667445' />
  <node id='-94' visible='true' lat='41.4732867' lon='19.5664012' />
  <node id='-95' visible='true' lat='41.4734072' lon='19.5663048' />
  <node id='-96' visible='true' lat='41.4735117' lon='19.5662726' />
  <node id='-97' visible='true' lat='41.4736966' lon='19.566058' />
  <node id='-98' visible='true' lat='41.4740022' lon='19.565822' />
  <node id='-99' visible='true' lat='41.4742513' lon='19.5634079' />
  <node id='-100' visible='true' lat='41.4744365' lon='19.5614598' />
  <way id='-101' visible='true'>
    <nd ref='-78' />
    <nd ref='-79' />
    <nd ref='-80' />
    <nd ref='-81' />
    <nd ref='-82' />
    <nd ref='-83' />
    <nd ref='-84' />
    <nd ref='-85' />
    <nd ref='-86' />
    <nd ref='-87' />
    <nd ref='-88' />
    <nd ref='-89' />
    <nd ref='-90' />
    <nd ref='-91' />
    <nd ref='-92' />
    <nd ref='-93' />
    <nd ref='-94' />
    <nd ref='-95' />
    <nd ref='-96' />
    <nd ref='-97' />
    <nd ref='-98' />
    <nd ref='-99' />
    <nd ref='-100' />
    <tag k="OSM_ID" v="51209572"/>
  </way>
  <node id='-102' visible='true' lat='41.4657934' lon='19.5624803' />
  <node id='-103' visible='true' lat='41.4658921' lon='19.5631926' />
  <node id='-104' visible='true' lat='41.4659811' lon='19.5638936' />
  <node id='-105' visible='true' lat='41.4657638' lon='19.5640417' />
  <node id='-106' visible='true' lat='41.4653295' lon='19.5644661' />
  <node id='-107' visible='true' lat='41.4649049' lon='19.5645254' />
  <node id='-108' visible='true' lat='41.4643519' lon='19.5644069' />
  <node id='-109' visible='true' lat='41.4640261' lon='19.5643674' />
  <node id='-110' visible='true' lat='41.4637299' lon='19.564634' />
  <node id='-111' visible='true' lat='41.4634929' lon='19.565187' />
  <node id='-112' visible='true' lat='41.4629005' lon='19.5660163' />
  <node id='-113' visible='true' lat='41.4623872' lon='19.5664803' />
  <node id='-114' visible='true' lat='41.4619527' lon='19.5671911' />
  <node id='-115' visible='true' lat='41.4615974' lon='19.5672801' />
  <way id='-116' visible='true'>
    <nd ref='-102' />
    <nd ref='-103' />
    <nd ref='-104' />
    <nd ref='-105' />
    <nd ref='-106' />
    <nd ref='-107' />
    <nd ref='-108' />
    <nd ref='-109' />
    <nd ref='-110' />
    <nd ref='-111' />
    <nd ref='-112' />
    <nd ref='-113' />
    <nd ref='-114' />
    <nd ref='-115' />
    <tag k="OSM_ID" v="48411095"/>
  </way>
  <node id='-117' visible='true' lat='41.4669103' lon='19.5626077' />
  <node id='-118' visible='true' lat='41.4667978' lon='19.5628494' />
  <node id='-119' visible='true' lat='41.4668921' lon='19.5634912' />
  <node id='-120' visible='true' lat='41.4670808' lon='19.5642649' />
  <node id='-121' visible='true' lat='41.4670619' lon='19.564699' />
  <node id='-122' visible='true' lat='41.4672885' lon='19.5655484' />
  <node id='-123' visible='true' lat='41.4675149' lon='19.5664166' />
  <node id='-124' visible='true' lat='41.4676386' lon='19.5669503' />
  <node id='-125' visible='true' lat='41.4679867' lon='19.5684548' />
  <node id='-126' visible='true' lat='41.4681189' lon='19.5691531' />
  <node id='-127' visible='true' lat='41.468534' lon='19.570833' />
  <node id='-128' visible='true' lat='41.4687983' lon='19.572022' />
  <node id='-129' visible='true' lat='41.4689681' lon='19.5724182' />
  <node id='-130' visible='true' lat='41.4691381' lon='19.5725316' />
  <way id='-131' visible='true'>
    <nd ref='-117' />
    <nd ref='-118' />
    <nd ref='-119' />
    <nd ref='-120' />
    <nd ref='-121' />
    <nd ref='-122' />
    <nd ref='-123' />
    <nd ref='-124' />
    <nd ref='-125' />
    <nd ref='-126' />
    <nd ref='-127' />
    <nd ref='-128' />
    <nd ref='-129' />
    <nd ref='-130' />
    <tag k="OSM_ID" v="48411093"/>
  </way>
  <node id='-132' visible='true' lat='41.4659811' lon='19.5638936' />
  <node id='-133' visible='true' lat='41.4659066' lon='19.5644379' />
  <node id='-134' visible='true' lat='41.4657058' lon='19.5657576' />
  <node id='-135' visible='true' lat='41.4650947' lon='19.5665407' />
  <node id='-136' visible='true' lat='41.4641621' lon='19.567399' />
  <node id='-137' visible='true' lat='41.4636635' lon='19.5679355' />
  <node id='-138' visible='true' lat='41.4633098' lon='19.5680857' />
  <node id='-139' visible='true' lat='41.4629158' lon='19.567796' />
  <way id='-140' visible='true'>
    <nd ref='-132' />
    <nd ref='-133' />
    <nd ref='-134' />
    <nd ref='-135' />
    <nd ref='-136' />
    <nd ref='-137' />
    <nd ref='-138' />
    <nd ref='-139' />
    <tag k="OSM_ID" v="51209162"/>
  </way>
  <node id='-141' visible='true' lat='41.4608656' lon='19.5663048' />
  <node id='-142' visible='true' lat='41.4610989' lon='19.56594' />
  <node id='-143' visible='true' lat='41.4607372' lon='19.5644817' />
  <way id='-144' visible='true'>
    <nd ref='-141' />
    <nd ref='-142' />
    <nd ref='-143' />
    <tag k="OSM_ID" v="51209165"/>
  </way>
  <node id='-145' visible='true' lat='41.4615974' lon='19.5672801' />
  <node id='-146' visible='true' lat='41.4612596' lon='19.5672917' />
  <node id='-147' visible='true' lat='41.4609701' lon='19.5670986' />
  <node id='-148' visible='true' lat='41.4608656' lon='19.5663048' />
  <node id='-149' visible='true' lat='41.4607852' lon='19.5661437' />
  <node id='-150' visible='true' lat='41.4600215' lon='19.5658327' />
  <node id='-151' visible='true' lat='41.4590967' lon='19.5657576' />
  <node id='-152' visible='true' lat='41.4587831' lon='19.566058' />
  <node id='-153' visible='true' lat='41.4583008' lon='19.5672595' />
  <node id='-154' visible='true' lat='41.4582204' lon='19.5676243' />
  <node id='-155' visible='true' lat='41.4579147' lon='19.567678' />
  <node id='-156' visible='true' lat='41.4574484' lon='19.5674527' />
  <node id='-157' visible='true' lat='41.4570142' lon='19.5674634' />
  <node id='-158' visible='true' lat='41.4564675' lon='19.5677316' />
  <node id='-159' visible='true' lat='41.4561538' lon='19.5683432' />
  <node id='-160' visible='true' lat='41.4560253' lon='19.5687938' />
  <node id='-161' visible='true' lat='41.4561459' lon='19.5692765' />
  <node id='-162' visible='true' lat='41.4560895' lon='19.5699311' />
  <node id='-163' visible='true' lat='41.4559288' lon='19.5709824' />
  <node id='-164' visible='true' lat='41.4558484' lon='19.5717227' />
  <node id='-165' visible='true' lat='41.4559769' lon='19.572109' />
  <node id='-166' visible='true' lat='41.4559769' lon='19.5722485' />
  <way id='-167' visible='true'>
    <nd ref='-145' />
    <nd ref='-146' />
    <nd ref='-147' />
    <nd ref='-148' />
    <nd ref='-149' />
    <nd ref='-150' />
    <nd ref='-151' />
    <nd ref='-152' />
    <nd ref='-153' />
    <nd ref='-154' />
    <nd ref='-155' />
    <nd ref='-156' />
    <nd ref='-157' />
    <nd ref='-158' />
    <nd ref='-159' />
    <nd ref='-160' />
    <nd ref='-161' />
    <nd ref='-162' />
    <nd ref='-163' />
    <nd ref='-164' />
    <nd ref='-165' />
    <nd ref='-166' />
    <tag k="OSM_ID" v="51209163"/>
  </way>
  <node id='-168' visible='true' lat='41.4816325' lon='19.5438127' />
  <node id='-169' visible='true' lat='41.4808908' lon='19.544021' />
  <node id='-170' visible='true' lat='41.4801434' lon='19.5441819' />
  <node id='-171' visible='true' lat='41.480055' lon='19.5443536' />
  <node id='-172' visible='true' lat='41.4788895' lon='19.5447719' />
  <node id='-173' visible='true' lat='41.4774506' lon='19.5453405' />
  <way id='-174' visible='true'>
    <nd ref='-168' />
    <nd ref='-169' />
    <nd ref='-170' />
    <nd ref='-171' />
    <nd ref='-172' />
    <nd ref='-173' />
    <tag k="OSM_ID" v="51209742"/>
  </way>
  <node id='-175' visible='true' lat='41.4790744' lon='19.5467997' />
  <node id='-176' visible='true' lat='41.4792271' lon='19.5458233' />
  <way id='-177' visible='true'>
    <nd ref='-175' />
    <nd ref='-176' />
    <tag k="OSM_ID" v="51209741"/>
  </way>
  <node id='-178' visible='true' lat='41.4810729' lon='19.5525619' />
  <node id='-179' visible='true' lat='41.4808588' lon='19.5498359' />
  <node id='-180' visible='true' lat='41.4807783' lon='19.5483018' />
  <node id='-181' visible='true' lat='41.4812365' lon='19.5481516' />
  <node id='-182' visible='true' lat='41.4814616' lon='19.5464027' />
  <node id='-183' visible='true' lat='41.4817589' lon='19.5463705' />
  <node id='-184' visible='true' lat='41.4833102' lon='19.5463813' />
  <node id='-185' visible='true' lat='41.483487' lon='19.5462632' />
  <node id='-186' visible='true' lat='41.4837764' lon='19.546274' />
  <way id='-187' visible='true'>
    <nd ref='-178' />
    <nd ref='-179' />
    <nd ref='-180' />
    <nd ref='-181' />
    <nd ref='-182' />
    <nd ref='-183' />
    <nd ref='-184' />
    <nd ref='-185' />
    <nd ref='-186' />
    <tag k="OSM_ID" v="51209764"/>
  </way>
  <node id='-188' visible='true' lat='41.4814616' lon='19.5464027' />
  <node id='-189' visible='true' lat='41.4811874' lon='19.5463188' />
  <node id='-190' visible='true' lat='41.4808347' lon='19.5464349' />
  <node id='-191' visible='true' lat='41.4803524' lon='19.5464242' />
  <node id='-192' visible='true' lat='41.4793637' lon='19.5466924' />
  <node id='-193' visible='true' lat='41.4790744' lon='19.5467997' />
  <node id='-194' visible='true' lat='41.4775551' lon='19.5477652' />
  <node id='-195' visible='true' lat='41.476261' lon='19.5485377' />
  <node id='-196' visible='true' lat='41.4754973' lon='19.5486879' />
  <node id='-197' visible='true' lat='41.4747577' lon='19.5488703' />
  <node id='-198' visible='true' lat='41.4742594' lon='19.5490099' />
  <node id='-199' visible='true' lat='41.4740424' lon='19.5492458' />
  <way id='-200' visible='true'>
    <nd ref='-188' />
    <nd ref='-189' />
    <nd ref='-190' />
    <nd ref='-191' />
    <nd ref='-192' />
    <nd ref='-193' />
    <nd ref='-194' />
    <nd ref='-195' />
    <nd ref='-196' />
    <nd ref='-197' />
    <nd ref='-198' />
    <nd ref='-199' />
    <tag k="OSM_ID" v="51209740"/>
  </way>
  <node id='-201' visible='true' lat='41.473487' lon='19.5469104' />
  <node id='-202' visible='true' lat='41.4723703' lon='19.5474005' />
  <node id='-203' visible='true' lat='41.472298' lon='19.5468533' />
  <node id='-204' visible='true' lat='41.4721773' lon='19.5464242' />
  <node id='-205' visible='true' lat='41.4722256' lon='19.5463491' />
  <way id='-206' visible='true'>
    <nd ref='-201' />
    <nd ref='-202' />
    <nd ref='-203' />
    <nd ref='-204' />
    <nd ref='-205' />
    <tag k="OSM_ID" v="51209744"/>
  </way>
  <node id='-207' visible='true' lat='41.4646284' lon='19.5581722' />
  <node id='-208' visible='true' lat='41.4646766' lon='19.558022' />
  <node id='-209' visible='true' lat='41.4656656' lon='19.557314' />
  <node id='-210' visible='true' lat='41.4671529' lon='19.5564019' />
  <node id='-211' visible='true' lat='41.4674021' lon='19.556048' />
  <node id='-212' visible='true' lat='41.4681015' lon='19.5544171' />
  <node id='-213' visible='true' lat='41.4687205' lon='19.5531511' />
  <node id='-214' visible='true' lat='41.4697093' lon='19.5524109' />
  <node id='-215' visible='true' lat='41.4710198' lon='19.5515419' />
  <node id='-216' visible='true' lat='41.4720166' lon='19.5511878' />
  <node id='-217' visible='true' lat='41.4727964' lon='19.5508552' />
  <node id='-218' visible='true' lat='41.4733108' lon='19.5502544' />
  <node id='-219' visible='true' lat='41.4737128' lon='19.5496857' />
  <node id='-220' visible='true' lat='41.4740424' lon='19.5492458' />
  <way id='-221' visible='true'>
    <nd ref='-207' />
    <nd ref='-208' />
    <nd ref='-209' />
    <nd ref='-210' />
    <nd ref='-211' />
    <nd ref='-212' />
    <nd ref='-213' />
    <nd ref='-214' />
    <nd ref='-215' />
    <nd ref='-216' />
    <nd ref='-217' />
    <nd ref='-218' />
    <nd ref='-219' />
    <nd ref='-220' />
    <tag k="OSM_ID" v="51209245"/>
  </way>
  <node id='-222' visible='true' lat='41.4740424' lon='19.5492458' />
  <node id='-223' visible='true' lat='41.4741871' lon='19.5494926' />
  <way id='-224' visible='true'>
    <nd ref='-222' />
    <nd ref='-223' />
    <tag k="OSM_ID" v="51209173"/>
  </way>
  <node id='-225' visible='true' lat='41.4741871' lon='19.5494926' />
  <node id='-226' visible='true' lat='41.4743236' lon='19.5498788' />
  <node id='-227' visible='true' lat='41.4743664' lon='19.5506756' />
  <node id='-228' visible='true' lat='41.4743799' lon='19.5509303' />
  <node id='-229' visible='true' lat='41.4744602' lon='19.5559086' />
  <node id='-230' visible='true' lat='41.4744764' lon='19.5569063' />
  <node id='-231' visible='true' lat='41.4745568' lon='19.5605648' />
  <node id='-232' visible='true' lat='41.4745165' lon='19.5614528' />
  <way id='-233' visible='true'>
    <nd ref='-225' />
    <nd ref='-226' />
    <nd ref='-227' />
    <nd ref='-228' />
    <nd ref='-229' />
    <nd ref='-230' />
    <nd ref='-231' />
    <nd ref='-232' />
    <tag k="OSM_ID" v="51209168"/>
  </way>
  <node id='-234' visible='true' lat='41.4600776' lon='19.554857' />
  <node id='-235' visible='true' lat='41.4618706' lon='19.5600498' />
  <node id='-236' visible='true' lat='41.4624898' lon='19.5619596' />
  <node id='-237' visible='true' lat='41.4626426' lon='19.5619918' />
  <node id='-238' visible='true' lat='41.4627069' lon='19.5617449' />
  <node id='-239' visible='true' lat='41.4634223' lon='19.5604146' />
  <node id='-240' visible='true' lat='41.464339' lon='19.5584513' />
  <node id='-241' visible='true' lat='41.4645318' lon='19.5582044' />
  <node id='-242' visible='true' lat='41.4646284' lon='19.5581722' />
  <node id='-243' visible='true' lat='41.4650384' lon='19.5606399' />
  <node id='-244' visible='true' lat='41.4654085' lon='19.5625207' />
  <way id='-245' visible='true'>
    <nd ref='-234' />
    <nd ref='-235' />
    <nd ref='-236' />
    <nd ref='-237' />
    <nd ref='-238' />
    <nd ref='-239' />
    <nd ref='-240' />
    <nd ref='-241' />
    <nd ref='-242' />
    <nd ref='-243' />
    <nd ref='-244' />
    <tag k="OSM_ID" v="51209167"/>
  </way>
  <node id='-246' visible='true' lat='41.4781857' lon='19.5562928' />
  <node id='-247' visible='true' lat='41.4781699' lon='19.5560386' />
  <node id='-248' visible='true' lat='41.4781499' lon='19.5557154' />
  <node id='-249' visible='true' lat='41.478182' lon='19.5555008' />
  <way id='-250' visible='true'>
    <nd ref='-246' />
    <nd ref='-247' />
    <nd ref='-248' />
    <nd ref='-249' />
    <tag k="OSM_ID" v="51209422"/>
  </way>
  <node id='-251' visible='true' lat='41.4781499' lon='19.5557154' />
  <node id='-252' visible='true' lat='41.4778686' lon='19.555651' />
  <way id='-253' visible='true'>
    <nd ref='-251' />
    <nd ref='-252' />
    <tag k="OSM_ID" v="51209423"/>
  </way>
  <node id='-254' visible='true' lat='41.4744602' lon='19.5559086' />
  <node id='-255' visible='true' lat='41.4747417' lon='19.5558441' />
  <node id='-256' visible='true' lat='41.4769523' lon='19.5564879' />
  <node id='-257' visible='true' lat='41.4777077' lon='19.5566929' />
  <node id='-258' visible='true' lat='41.4783749' lon='19.5568741' />
  <node id='-259' visible='true' lat='41.4783991' lon='19.5570887' />
  <way id='-260' visible='true'>
    <nd ref='-254' />
    <nd ref='-255' />
    <nd ref='-256' />
    <nd ref='-257' />
    <nd ref='-258' />
    <nd ref='-259' />
    <tag k="OSM_ID" v="51209420"/>
  </way>
  <node id='-261' visible='true' lat='41.4781699' lon='19.5560386' />
  <node id='-262' visible='true' lat='41.4782786' lon='19.5559729' />
  <way id='-263' visible='true'>
    <nd ref='-261' />
    <nd ref='-262' />
    <tag k="OSM_ID" v="51209424"/>
  </way>
  <node id='-264' visible='true' lat='41.4777077' lon='19.5566929' />
  <node id='-265' visible='true' lat='41.477973' lon='19.5564235' />
  <node id='-266' visible='true' lat='41.4781857' lon='19.5562928' />
  <node id='-267' visible='true' lat='41.4785839' lon='19.556048' />
  <way id='-268' visible='true'>
    <nd ref='-264' />
    <nd ref='-265' />
    <nd ref='-266' />
    <nd ref='-267' />
    <tag k="OSM_ID" v="51209421"/>
  </way>
  <node id='-269' visible='true' lat='41.4655529' lon='19.5586872' />
  <node id='-270' visible='true' lat='41.4657701' lon='19.5611548' />
  <node id='-271' visible='true' lat='41.4660032' lon='19.5612086' />
  <node id='-272' visible='true' lat='41.4662363' lon='19.5618629' />
  <node id='-273' visible='true' lat='41.4677557' lon='19.5620669' />
  <node id='-274' visible='true' lat='41.4676882' lon='19.5628451' />
  <way id='-275' visible='true'>
    <nd ref='-269' />
    <nd ref='-270' />
    <nd ref='-271' />
    <nd ref='-272' />
    <nd ref='-273' />
    <nd ref='-274' />
    <tag k="OSM_ID" v="51209244"/>
  </way>
  <node id='-276' visible='true' lat='41.473127' lon='19.5616215' />
  <node id='-277' visible='true' lat='41.4725986' lon='19.5592256' />
  <node id='-278' visible='true' lat='41.4724988' lon='19.558773' />
  <way id='-279' visible='true'>
    <nd ref='-276' />
    <nd ref='-277' />
    <nd ref='-278' />
    <tag k="OSM_ID" v="51209169"/>
  </way>
  <node id='-280' visible='true' lat='41.4725986' lon='19.5592256' />
  <node id='-281' visible='true' lat='41.4727882' lon='19.5592237' />
  <way id='-282' visible='true'>
    <nd ref='-280' />
    <nd ref='-281' />
    <tag k="OSM_ID" v="51209170"/>
  </way>
  <node id='-283' visible='true' lat='41.4650312' lon='19.5625719' />
  <node id='-284' visible='true' lat='41.4651107' lon='19.5632899' />
  <way id='-285' visible='true'>
    <nd ref='-283' />
    <nd ref='-284' />
    <tag k="OSM_ID" v="51209171"/>
  </way>
  <node id='-286' visible='true' lat='41.4646255' lon='19.5626719' />
  <node id='-287' visible='true' lat='41.4647087' lon='19.5633006' />
  <way id='-288' visible='true'>
    <nd ref='-286' />
    <nd ref='-287' />
    <tag k="OSM_ID" v="51209172"/>
  </way>
  <node id='-289' visible='true' lat='41.4630233' lon='19.5635632' />
  <node id='-290' visible='true' lat='41.462932' lon='19.5631289' />
  <way id='-291' visible='true'>
    <nd ref='-289' />
    <nd ref='-290' />
    <tag k="OSM_ID" v="51209166"/>
  </way>
</osm>
