<?xml version='1.0'?>
<osm version='0.5' generator='shp2osm.pl'>
  <node id='-1' visible='true' lat='41.6746162' lon='19.6737557' />
  <node id='-2' visible='true' lat='41.6738788' lon='19.6737387' />
  <node id='-3' visible='true' lat='41.6710836' lon='19.6737557' />
  <node id='-4' visible='true' lat='41.6703972' lon='19.6738989' />
  <way id='-5' visible='true'>
    <nd ref='-1' />
    <nd ref='-2' />
    <nd ref='-3' />
    <nd ref='-4' />
    <tag k="OSM_ID" v="35324656"/>
  </way>
  <node id='-6' visible='true' lat='41.657353' lon='19.70494' />
  <node id='-7' visible='true' lat='41.6573684' lon='19.7044144' />
  <node id='-8' visible='true' lat='41.657766' lon='19.7038308' />
  <node id='-9' visible='true' lat='41.6582148' lon='19.70317' />
  <node id='-10' visible='true' lat='41.658779' lon='19.7029725' />
  <node id='-11' visible='true' lat='41.6593433' lon='19.7027837' />
  <node id='-12' visible='true' lat='41.659818' lon='19.7023718' />
  <node id='-13' visible='true' lat='41.6600103' lon='19.7019082' />
  <node id='-14' visible='true' lat='41.6607669' lon='19.7009812' />
  <node id='-15' visible='true' lat='41.6614724' lon='19.7002947' />
  <node id='-16' visible='true' lat='41.6619981' lon='19.6995222' />
  <node id='-17' visible='true' lat='41.662915' lon='19.6980201' />
  <node id='-18' visible='true' lat='41.6637038' lon='19.6969643' />
  <node id='-19' visible='true' lat='41.6648195' lon='19.6960717' />
  <node id='-20' visible='true' lat='41.6663135' lon='19.6950417' />
  <node id='-21' visible='true' lat='41.6674995' lon='19.6942264' />
  <node id='-22' visible='true' lat='41.6684613' lon='19.6931364' />
  <node id='-23' visible='true' lat='41.6693141' lon='19.6917116' />
  <node id='-24' visible='true' lat='41.6698398' lon='19.6904755' />
  <node id='-25' visible='true' lat='41.670545' lon='19.6895658' />
  <node id='-26' visible='true' lat='41.6710901' lon='19.688819' />
  <node id='-27' visible='true' lat='41.6717312' lon='19.6879607' />
  <node id='-28' visible='true' lat='41.6720966' lon='19.6866476' />
  <node id='-29' visible='true' lat='41.6724557' lon='19.6854544' />
  <node id='-30' visible='true' lat='41.6728659' lon='19.6848537' />
  <node id='-31' visible='true' lat='41.6735455' lon='19.6839095' />
  <node id='-32' visible='true' lat='41.674443' lon='19.682725' />
  <node id='-33' visible='true' lat='41.6749688' lon='19.6819355' />
  <node id='-34' visible='true' lat='41.6754304' lon='19.6814205' />
  <node id='-35' visible='true' lat='41.6756226' lon='19.6807939' />
  <node id='-36' visible='true' lat='41.675533' lon='19.6800472' />
  <node id='-37' visible='true' lat='41.6751482' lon='19.6788197' />
  <node id='-38' visible='true' lat='41.6749688' lon='19.6776611' />
  <node id='-39' visible='true' lat='41.6747123' lon='19.6757899' />
  <node id='-40' visible='true' lat='41.6746353' lon='19.6743309' />
  <node id='-41' visible='true' lat='41.6746162' lon='19.6737557' />
  <way id='-42' visible='true'>
    <nd ref='-6' />
    <nd ref='-7' />
    <nd ref='-8' />
    <nd ref='-9' />
    <nd ref='-10' />
    <nd ref='-11' />
    <nd ref='-12' />
    <nd ref='-13' />
    <nd ref='-14' />
    <nd ref='-15' />
    <nd ref='-16' />
    <nd ref='-17' />
    <nd ref='-18' />
    <nd ref='-19' />
    <nd ref='-20' />
    <nd ref='-21' />
    <nd ref='-22' />
    <nd ref='-23' />
    <nd ref='-24' />
    <nd ref='-25' />
    <nd ref='-26' />
    <nd ref='-27' />
    <nd ref='-28' />
    <nd ref='-29' />
    <nd ref='-30' />
    <nd ref='-31' />
    <nd ref='-32' />
    <nd ref='-33' />
    <nd ref='-34' />
    <nd ref='-35' />
    <nd ref='-36' />
    <nd ref='-37' />
    <nd ref='-38' />
    <nd ref='-39' />
    <nd ref='-40' />
    <nd ref='-41' />
    <tag k="OSM_ID" v="35324654"/>
  </way>
  <node id='-43' visible='true' lat='41.6703972' lon='19.6738989' />
  <node id='-44' visible='true' lat='41.6710194' lon='19.6742106' />
  <node id='-45' visible='true' lat='41.673943' lon='19.6743823' />
  <node id='-46' visible='true' lat='41.6746353' lon='19.6743309' />
  <way id='-47' visible='true'>
    <nd ref='-43' />
    <nd ref='-44' />
    <nd ref='-45' />
    <nd ref='-46' />
    <tag k="OSM_ID" v="35324659"/>
  </way>
  <node id='-48' visible='true' lat='41.7043882' lon='19.7761947' />
  <node id='-49' visible='true' lat='41.704273' lon='19.7751647' />
  <node id='-50' visible='true' lat='41.7038116' lon='19.7741347' />
  <node id='-51' visible='true' lat='41.7032347' lon='19.7733795' />
  <node id='-52' visible='true' lat='41.7027221' lon='19.7727615' />
  <node id='-53' visible='true' lat='41.7024787' lon='19.7722036' />
  <node id='-54' visible='true' lat='41.7021134' lon='19.7716628' />
  <node id='-55' visible='true' lat='41.7013893' lon='19.7709161' />
  <node id='-56' visible='true' lat='41.7005241' lon='19.7703839' />
  <node id='-57' visible='true' lat='41.6998833' lon='19.7699548' />
  <node id='-58' visible='true' lat='41.6993064' lon='19.7693283' />
  <node id='-59' visible='true' lat='41.6989604' lon='19.76853' />
  <node id='-60' visible='true' lat='41.69864' lon='19.76744' />
  <node id='-61' visible='true' lat='41.6983644' lon='19.7667962' />
  <node id='-62' visible='true' lat='41.6981529' lon='19.7660666' />
  <node id='-63' visible='true' lat='41.6979479' lon='19.7658692' />
  <node id='-64' visible='true' lat='41.6974672' lon='19.7656376' />
  <node id='-65' visible='true' lat='41.6970187' lon='19.7655087' />
  <node id='-66' visible='true' lat='41.6968072' lon='19.7654229' />
  <node id='-67' visible='true' lat='41.6966149' lon='19.7651226' />
  <node id='-68' visible='true' lat='41.6967944' lon='19.7649079' />
  <node id='-69' visible='true' lat='41.6972749' lon='19.7647535' />
  <node id='-70' visible='true' lat='41.6977876' lon='19.7645218' />
  <node id='-71' visible='true' lat='41.6981915' lon='19.7639467' />
  <node id='-72' visible='true' lat='41.6985888' lon='19.7630368' />
  <node id='-73' visible='true' lat='41.6991526' lon='19.7622901' />
  <node id='-74' visible='true' lat='41.6993898' lon='19.761715' />
  <node id='-75' visible='true' lat='41.699409' lon='19.760685' />
  <node id='-76' visible='true' lat='41.6992168' lon='19.7589427' />
  <node id='-77' visible='true' lat='41.698922' lon='19.7574407' />
  <node id='-78' visible='true' lat='41.698608' lon='19.756385' />
  <node id='-79' visible='true' lat='41.6985118' lon='19.7557842' />
  <node id='-80' visible='true' lat='41.698531' lon='19.7546341' />
  <node id='-81' visible='true' lat='41.6985438' lon='19.7537929' />
  <node id='-82' visible='true' lat='41.6983644' lon='19.7530633' />
  <node id='-83' visible='true' lat='41.698108' lon='19.7522908' />
  <node id='-84' visible='true' lat='41.6980312' lon='19.7511493' />
  <node id='-85' visible='true' lat='41.6979542' lon='19.7496043' />
  <node id='-86' visible='true' lat='41.6977429' lon='19.7479736' />
  <node id='-87' visible='true' lat='41.6976787' lon='19.7469436' />
  <node id='-88' visible='true' lat='41.6975185' lon='19.7464115' />
  <node id='-89' visible='true' lat='41.6973391' lon='19.7457677' />
  <node id='-90' visible='true' lat='41.6973263' lon='19.7445661' />
  <node id='-91' visible='true' lat='41.6975185' lon='19.7433644' />
  <node id='-92' visible='true' lat='41.6976724' lon='19.7424804' />
  <node id='-93' visible='true' lat='41.6978004' lon='19.7418538' />
  <node id='-94' visible='true' lat='41.6977557' lon='19.7413646' />
  <node id='-95' visible='true' lat='41.6976275' lon='19.7410212' />
  <node id='-96' visible='true' lat='41.6974352' lon='19.7408238' />
  <node id='-97' visible='true' lat='41.6973519' lon='19.740532' />
  <node id='-98' visible='true' lat='41.6975314' lon='19.7400772' />
  <node id='-99' visible='true' lat='41.6975954' lon='19.7392189' />
  <node id='-100' visible='true' lat='41.6977876' lon='19.737528' />
  <node id='-101' visible='true' lat='41.698044' lon='19.7361547' />
  <node id='-102' visible='true' lat='41.6982684' lon='19.7348157' />
  <node id='-103' visible='true' lat='41.6984285' lon='19.7333567' />
  <node id='-104' visible='true' lat='41.6984157' lon='19.7326699' />
  <node id='-105' visible='true' lat='41.6984285' lon='19.7321379' />
  <node id='-106' visible='true' lat='41.6983132' lon='19.7318631' />
  <node id='-107' visible='true' lat='41.698108' lon='19.7316399' />
  <node id='-108' visible='true' lat='41.6979286' lon='19.7312794' />
  <node id='-109' visible='true' lat='41.6978646' lon='19.7308075' />
  <node id='-110' visible='true' lat='41.6977108' lon='19.7302925' />
  <node id='-111' visible='true' lat='41.6973519' lon='19.7297775' />
  <node id='-112' visible='true' lat='41.6970057' lon='19.7294942' />
  <node id='-113' visible='true' lat='41.6965187' lon='19.7291509' />
  <node id='-114' visible='true' lat='41.6961726' lon='19.7290308' />
  <node id='-115' visible='true' lat='41.695833' lon='19.7286874' />
  <node id='-116' visible='true' lat='41.6955317' lon='19.7281037' />
  <node id='-117' visible='true' lat='41.695192' lon='19.7270308' />
  <node id='-118' visible='true' lat='41.695064' lon='19.7266274' />
  <node id='-119' visible='true' lat='41.6947435' lon='19.7261726' />
  <node id='-120' visible='true' lat='41.6945513' lon='19.7258549' />
  <node id='-121' visible='true' lat='41.6944103' lon='19.7251855' />
  <node id='-122' visible='true' lat='41.6943012' lon='19.7245847' />
  <node id='-123' visible='true' lat='41.6940898' lon='19.7240526' />
  <node id='-124' visible='true' lat='41.6936091' lon='19.7236405' />
  <node id='-125' visible='true' lat='41.692981' lon='19.7231428' />
  <node id='-126' visible='true' lat='41.6924555' lon='19.7226965' />
  <node id='-127' visible='true' lat='41.6920389' lon='19.7222672' />
  <node id='-128' visible='true' lat='41.6917183' lon='19.7216492' />
  <node id='-129' visible='true' lat='41.6914427' lon='19.7212803' />
  <node id='-130' visible='true' lat='41.6910774' lon='19.7211344' />
  <node id='-131' visible='true' lat='41.6906096' lon='19.720997' />
  <node id='-132' visible='true' lat='41.6900839' lon='19.7207653' />
  <node id='-133' visible='true' lat='41.6894944' lon='19.720379' />
  <node id='-134' visible='true' lat='41.6891225' lon='19.7195894' />
  <node id='-135' visible='true' lat='41.68877' lon='19.7187911' />
  <node id='-136' visible='true' lat='41.6881739' lon='19.7180788' />
  <node id='-137' visible='true' lat='41.687251' lon='19.7169887' />
  <node id='-138' visible='true' lat='41.6866868' lon='19.7164308' />
  <node id='-139' visible='true' lat='41.6859048' lon='19.7160016' />
  <node id='-140' visible='true' lat='41.6853728' lon='19.7157441' />
  <node id='-141' visible='true' lat='41.6846036' lon='19.7148429' />
  <node id='-142' visible='true' lat='41.6839434' lon='19.714182' />
  <node id='-143' visible='true' lat='41.6833025' lon='19.713049' />
  <node id='-144' visible='true' lat='41.6829948' lon='19.7125513' />
  <node id='-145' visible='true' lat='41.6824691' lon='19.7122765' />
  <node id='-146' visible='true' lat='41.6816998' lon='19.7118645' />
  <node id='-147' visible='true' lat='41.6810749' lon='19.7115989' />
  <way id='-148' visible='true'>
    <nd ref='-48' />
    <nd ref='-49' />
    <nd ref='-50' />
    <nd ref='-51' />
    <nd ref='-52' />
    <nd ref='-53' />
    <nd ref='-54' />
    <nd ref='-55' />
    <nd ref='-56' />
    <nd ref='-57' />
    <nd ref='-58' />
    <nd ref='-59' />
    <nd ref='-60' />
    <nd ref='-61' />
    <nd ref='-62' />
    <nd ref='-63' />
    <nd ref='-64' />
    <nd ref='-65' />
    <nd ref='-66' />
    <nd ref='-67' />
    <nd ref='-68' />
    <nd ref='-69' />
    <nd ref='-70' />
    <nd ref='-71' />
    <nd ref='-72' />
    <nd ref='-73' />
    <nd ref='-74' />
    <nd ref='-75' />
    <nd ref='-76' />
    <nd ref='-77' />
    <nd ref='-78' />
    <nd ref='-79' />
    <nd ref='-80' />
    <nd ref='-81' />
    <nd ref='-82' />
    <nd ref='-83' />
    <nd ref='-84' />
    <nd ref='-85' />
    <nd ref='-86' />
    <nd ref='-87' />
    <nd ref='-88' />
    <nd ref='-89' />
    <nd ref='-90' />
    <nd ref='-91' />
    <nd ref='-92' />
    <nd ref='-93' />
    <nd ref='-94' />
    <nd ref='-95' />
    <nd ref='-96' />
    <nd ref='-97' />
    <nd ref='-98' />
    <nd ref='-99' />
    <nd ref='-100' />
    <nd ref='-101' />
    <nd ref='-102' />
    <nd ref='-103' />
    <nd ref='-104' />
    <nd ref='-105' />
    <nd ref='-106' />
    <nd ref='-107' />
    <nd ref='-108' />
    <nd ref='-109' />
    <nd ref='-110' />
    <nd ref='-111' />
    <nd ref='-112' />
    <nd ref='-113' />
    <nd ref='-114' />
    <nd ref='-115' />
    <nd ref='-116' />
    <nd ref='-117' />
    <nd ref='-118' />
    <nd ref='-119' />
    <nd ref='-120' />
    <nd ref='-121' />
    <nd ref='-122' />
    <nd ref='-123' />
    <nd ref='-124' />
    <nd ref='-125' />
    <nd ref='-126' />
    <nd ref='-127' />
    <nd ref='-128' />
    <nd ref='-129' />
    <nd ref='-130' />
    <nd ref='-131' />
    <nd ref='-132' />
    <nd ref='-133' />
    <nd ref='-134' />
    <nd ref='-135' />
    <nd ref='-136' />
    <nd ref='-137' />
    <nd ref='-138' />
    <nd ref='-139' />
    <nd ref='-140' />
    <nd ref='-141' />
    <nd ref='-142' />
    <nd ref='-143' />
    <nd ref='-144' />
    <nd ref='-145' />
    <nd ref='-146' />
    <nd ref='-147' />
    <tag k="OSM_ID" v="41222129"/>
  </way>
  <node id='-149' visible='true' lat='41.6925579' lon='19.8309719' />
  <node id='-150' visible='true' lat='41.6936859' lon='19.8286286' />
  <way id='-151' visible='true'>
    <nd ref='-149' />
    <nd ref='-150' />
    <tag k="OSM_ID" v="35324651"/>
  </way>
</osm>
