<?xml version='1.0'?>
<osm version='0.5' generator='shp2osm.pl'>
  <node id='-1' visible='true' lat='41.2098621' lon='19.9547573' />
  <node id='-2' visible='true' lat='41.2097653' lon='19.9547316' />
  <node id='-3' visible='true' lat='41.2096554' lon='19.9546458' />
  <node id='-4' visible='true' lat='41.2095909' lon='19.9544828' />
  <node id='-5' visible='true' lat='41.2094747' lon='19.9543196' />
  <node id='-6' visible='true' lat='41.2093391' lon='19.9538733' />
  <node id='-7' visible='true' lat='41.2091648' lon='19.9533239' />
  <node id='-8' visible='true' lat='41.2091002' lon='19.9531095' />
  <node id='-9' visible='true' lat='41.2090292' lon='19.9528949' />
  <node id='-10' visible='true' lat='41.208958' lon='19.9528004' />
  <node id='-11' visible='true' lat='41.2088547' lon='19.9526888' />
  <node id='-12' visible='true' lat='41.2087514' lon='19.9525773' />
  <node id='-13' visible='true' lat='41.2087063' lon='19.9524571' />
  <node id='-14' visible='true' lat='41.2087708' lon='19.9523456' />
  <node id='-15' visible='true' lat='41.2088806' lon='19.9523283' />
  <node id='-16' visible='true' lat='41.208984' lon='19.9523456' />
  <node id='-17' visible='true' lat='41.2090743' lon='19.9524657' />
  <node id='-18' visible='true' lat='41.2091259' lon='19.9526803' />
  <node id='-19' visible='true' lat='41.2092035' lon='19.9529205' />
  <node id='-20' visible='true' lat='41.2092809' lon='19.9530321' />
  <node id='-21' visible='true' lat='41.2093843' lon='19.9530408' />
  <node id='-22' visible='true' lat='41.2095133' lon='19.9529378' />
  <node id='-23' visible='true' lat='41.2095973' lon='19.9528004' />
  <node id='-24' visible='true' lat='41.2096103' lon='19.9526031' />
  <node id='-25' visible='true' lat='41.2095521' lon='19.9521481' />
  <node id='-26' visible='true' lat='41.2095133' lon='19.9516847' />
  <node id='-27' visible='true' lat='41.2095133' lon='19.9514442' />
  <node id='-28' visible='true' lat='41.2095264' lon='19.9509122' />
  <node id='-29' visible='true' lat='41.2094876' lon='19.9504573' />
  <node id='-30' visible='true' lat='41.2094876' lon='19.9502684' />
  <node id='-31' visible='true' lat='41.2095327' lon='19.9500881' />
  <node id='-32' visible='true' lat='41.2096037' lon='19.9498993' />
  <node id='-33' visible='true' lat='41.2096297' lon='19.9497791' />
  <node id='-34' visible='true' lat='41.2096037' lon='19.9496676' />
  <node id='-35' visible='true' lat='41.2095393' lon='19.9496247' />
  <node id='-36' visible='true' lat='41.2094488' lon='19.9496676' />
  <node id='-37' visible='true' lat='41.209423' lon='19.9498306' />
  <node id='-38' visible='true' lat='41.2093132' lon='19.9502769' />
  <node id='-39' visible='true' lat='41.2089646' lon='19.951204' />
  <node id='-40' visible='true' lat='41.208887' lon='19.9513585' />
  <node id='-41' visible='true' lat='41.208758' lon='19.9514099' />
  <node id='-42' visible='true' lat='41.2086224' lon='19.9513928' />
  <node id='-43' visible='true' lat='41.2085641' lon='19.9513241' />
  <node id='-44' visible='true' lat='41.2085772' lon='19.9511524' />
  <node id='-45' visible='true' lat='41.2086224' lon='19.9509122' />
  <node id='-46' visible='true' lat='41.2086481' lon='19.9506374' />
  <node id='-47' visible='true' lat='41.2086868' lon='19.9503543' />
  <node id='-48' visible='true' lat='41.2086868' lon='19.9500881' />
  <node id='-49' visible='true' lat='41.2086868' lon='19.9498135' />
  <node id='-50' visible='true' lat='41.2086611' lon='19.9496247' />
  <node id='-51' visible='true' lat='41.2086094' lon='19.9494359' />
  <node id='-52' visible='true' lat='41.2085384' lon='19.94929' />
  <node id='-53' visible='true' lat='41.2084028' lon='19.9490668' />
  <node id='-54' visible='true' lat='41.2080477' lon='19.9483372' />
  <node id='-55' visible='true' lat='41.2077571' lon='19.9477708' />
  <node id='-56' visible='true' lat='41.2076989' lon='19.9476076' />
  <node id='-57' visible='true' lat='41.2076215' lon='19.9475476' />
  <node id='-58' visible='true' lat='41.2075375' lon='19.9475389' />
  <node id='-59' visible='true' lat='41.20746' lon='19.9475733' />
  <node id='-60' visible='true' lat='41.2073632' lon='19.9476678' />
  <node id='-61' visible='true' lat='41.207318' lon='19.9477708' />
  <node id='-62' visible='true' lat='41.207305' lon='19.9479167' />
  <node id='-63' visible='true' lat='41.207305' lon='19.9480539' />
  <node id='-64' visible='true' lat='41.207247' lon='19.9481998' />
  <node id='-65' visible='true' lat='41.2071177' lon='19.9482342' />
  <node id='-66' visible='true' lat='41.2070209' lon='19.9482171' />
  <node id='-67' visible='true' lat='41.2068853' lon='19.9480883' />
  <node id='-68' visible='true' lat='41.2064333' lon='19.9473072' />
  <node id='-69' visible='true' lat='41.2063041' lon='19.9470841' />
  <node id='-70' visible='true' lat='41.2061168' lon='19.9464317' />
  <node id='-71' visible='true' lat='41.2060071' lon='19.9461057' />
  <node id='-72' visible='true' lat='41.2059555' lon='19.9460027' />
  <node id='-73' visible='true' lat='41.2058845' lon='19.9459167' />
  <node id='-74' visible='true' lat='41.2057811' lon='19.9458996' />
  <node id='-75' visible='true' lat='41.2056196' lon='19.9459167' />
  <node id='-76' visible='true' lat='41.2054582' lon='19.9459683' />
  <node id='-77' visible='true' lat='41.2053614' lon='19.9459683' />
  <node id='-78' visible='true' lat='41.2052064' lon='19.9458911' />
  <node id='-79' visible='true' lat='41.2050772' lon='19.9457194' />
  <node id='-80' visible='true' lat='41.2049803' lon='19.9455133' />
  <node id='-81' visible='true' lat='41.2049287' lon='19.9453503' />
  <node id='-82' visible='true' lat='41.2048705' lon='19.9452044' />
  <node id='-83' visible='true' lat='41.2047608' lon='19.9450843' />
  <node id='-84' visible='true' lat='41.2046897' lon='19.9449469' />
  <node id='-85' visible='true' lat='41.204651' lon='19.944741' />
  <node id='-86' visible='true' lat='41.2046252' lon='19.9445435' />
  <node id='-87' visible='true' lat='41.2045607' lon='19.9443376' />
  <node id='-88' visible='true' lat='41.2044573' lon='19.9441144' />
  <node id='-89' visible='true' lat='41.2043281' lon='19.9439342' />
  <node id='-90' visible='true' lat='41.2042701' lon='19.9437539' />
  <node id='-91' visible='true' lat='41.2043024' lon='19.9435651' />
  <node id='-92' visible='true' lat='41.2043863' lon='19.943359' />
  <node id='-93' visible='true' lat='41.2044251' lon='19.9431444' />
  <node id='-94' visible='true' lat='41.204412' lon='19.9428869' />
  <node id='-95' visible='true' lat='41.2043087' lon='19.9427325' />
  <node id='-96' visible='true' lat='41.2041345' lon='19.9425609' />
  <node id='-97' visible='true' lat='41.2039666' lon='19.9423977' />
  <node id='-98' visible='true' lat='41.2038179' lon='19.9421746' />
  <node id='-99' visible='true' lat='41.2037083' lon='19.9419' />
  <node id='-100' visible='true' lat='41.2036566' lon='19.9415651' />
  <node id='-101' visible='true' lat='41.2036823' lon='19.9412304' />
  <node id='-102' visible='true' lat='41.203805' lon='19.9410416' />
  <node id='-103' visible='true' lat='41.2040699' lon='19.9407327' />
  <node id='-104' visible='true' lat='41.2042312' lon='19.9404493' />
  <node id='-105' visible='true' lat='41.2043863' lon='19.9401404' />
  <node id='-106' visible='true' lat='41.2045025' lon='19.9397884' />
  <node id='-107' visible='true' lat='41.204651' lon='19.939368' />
  <node id='-108' visible='true' lat='41.2047092' lon='19.9390245' />
  <node id='-109' visible='true' lat='41.2047156' lon='19.9387928' />
  <node id='-110' visible='true' lat='41.2046058' lon='19.9378144' />
  <node id='-111' visible='true' lat='41.204593' lon='19.9374797' />
  <node id='-112' visible='true' lat='41.2045864' lon='19.9372651' />
  <node id='-113' visible='true' lat='41.2046446' lon='19.9371019' />
  <node id='-114' visible='true' lat='41.204877' lon='19.9365956' />
  <node id='-115' visible='true' lat='41.2052515' lon='19.9357801' />
  <node id='-116' visible='true' lat='41.2056196' lon='19.9347932' />
  <node id='-117' visible='true' lat='41.2057811' lon='19.9343898' />
  <node id='-118' visible='true' lat='41.2058393' lon='19.9340207' />
  <node id='-119' visible='true' lat='41.205807' lon='19.9337546' />
  <node id='-120' visible='true' lat='41.20571' lon='19.933437' />
  <node id='-121' visible='true' lat='41.2056132' lon='19.9331795' />
  <node id='-122' visible='true' lat='41.2055227' lon='19.9330421' />
  <node id='-123' visible='true' lat='41.2053808' lon='19.9330078' />
  <node id='-124' visible='true' lat='41.2051871' lon='19.9330937' />
  <node id='-125' visible='true' lat='41.205032' lon='19.9332311' />
  <node id='-126' visible='true' lat='41.204819' lon='19.9332053' />
  <node id='-127' visible='true' lat='41.2046834' lon='19.9331195' />
  <node id='-128' visible='true' lat='41.2046252' lon='19.9327848' />
  <node id='-129' visible='true' lat='41.2046897' lon='19.9323899' />
  <node id='-130' visible='true' lat='41.2047737' lon='19.9320723' />
  <node id='-131' visible='true' lat='41.2048125' lon='19.9317205' />
  <node id='-132' visible='true' lat='41.204819' lon='19.9314801' />
  <node id='-133' visible='true' lat='41.2046897' lon='19.9312311' />
  <node id='-134' visible='true' lat='41.2045607' lon='19.9311453' />
  <node id='-135' visible='true' lat='41.2043734' lon='19.9312226' />
  <node id='-136' visible='true' lat='41.2042635' lon='19.9314286' />
  <node id='-137' visible='true' lat='41.2041151' lon='19.9316518' />
  <node id='-138' visible='true' lat='41.2039989' lon='19.9318577' />
  <node id='-139' visible='true' lat='41.2038116' lon='19.9320036' />
  <node id='-140' visible='true' lat='41.2035533' lon='19.9321838' />
  <node id='-141' visible='true' lat='41.2033401' lon='19.932244' />
  <node id='-142' visible='true' lat='41.2030366' lon='19.9321495' />
  <node id='-143' visible='true' lat='41.202746' lon='19.9320981' />
  <node id='-144' visible='true' lat='41.202591' lon='19.9321838' />
  <node id='-145' visible='true' lat='41.2024554' lon='19.932407' />
  <node id='-146' visible='true' lat='41.2022552' lon='19.932819' />
  <node id='-147' visible='true' lat='41.2020679' lon='19.9330421' />
  <node id='-148' visible='true' lat='41.2019452' lon='19.9333856' />
  <node id='-149' visible='true' lat='41.2018484' lon='19.9335315' />
  <node id='-150' visible='true' lat='41.2017128' lon='19.9335486' />
  <node id='-151' visible='true' lat='41.2013834' lon='19.9335915' />
  <node id='-152' visible='true' lat='41.2011672' lon='19.9336364' />
  <way id='-153' visible='true'>
    <nd ref='-1' />
    <nd ref='-2' />
    <nd ref='-3' />
    <nd ref='-4' />
    <nd ref='-5' />
    <nd ref='-6' />
    <nd ref='-7' />
    <nd ref='-8' />
    <nd ref='-9' />
    <nd ref='-10' />
    <nd ref='-11' />
    <nd ref='-12' />
    <nd ref='-13' />
    <nd ref='-14' />
    <nd ref='-15' />
    <nd ref='-16' />
    <nd ref='-17' />
    <nd ref='-18' />
    <nd ref='-19' />
    <nd ref='-20' />
    <nd ref='-21' />
    <nd ref='-22' />
    <nd ref='-23' />
    <nd ref='-24' />
    <nd ref='-25' />
    <nd ref='-26' />
    <nd ref='-27' />
    <nd ref='-28' />
    <nd ref='-29' />
    <nd ref='-30' />
    <nd ref='-31' />
    <nd ref='-32' />
    <nd ref='-33' />
    <nd ref='-34' />
    <nd ref='-35' />
    <nd ref='-36' />
    <nd ref='-37' />
    <nd ref='-38' />
    <nd ref='-39' />
    <nd ref='-40' />
    <nd ref='-41' />
    <nd ref='-42' />
    <nd ref='-43' />
    <nd ref='-44' />
    <nd ref='-45' />
    <nd ref='-46' />
    <nd ref='-47' />
    <nd ref='-48' />
    <nd ref='-49' />
    <nd ref='-50' />
    <nd ref='-51' />
    <nd ref='-52' />
    <nd ref='-53' />
    <nd ref='-54' />
    <nd ref='-55' />
    <nd ref='-56' />
    <nd ref='-57' />
    <nd ref='-58' />
    <nd ref='-59' />
    <nd ref='-60' />
    <nd ref='-61' />
    <nd ref='-62' />
    <nd ref='-63' />
    <nd ref='-64' />
    <nd ref='-65' />
    <nd ref='-66' />
    <nd ref='-67' />
    <nd ref='-68' />
    <nd ref='-69' />
    <nd ref='-70' />
    <nd ref='-71' />
    <nd ref='-72' />
    <nd ref='-73' />
    <nd ref='-74' />
    <nd ref='-75' />
    <nd ref='-76' />
    <nd ref='-77' />
    <nd ref='-78' />
    <nd ref='-79' />
    <nd ref='-80' />
    <nd ref='-81' />
    <nd ref='-82' />
    <nd ref='-83' />
    <nd ref='-84' />
    <nd ref='-85' />
    <nd ref='-86' />
    <nd ref='-87' />
    <nd ref='-88' />
    <nd ref='-89' />
    <nd ref='-90' />
    <nd ref='-91' />
    <nd ref='-92' />
    <nd ref='-93' />
    <nd ref='-94' />
    <nd ref='-95' />
    <nd ref='-96' />
    <nd ref='-97' />
    <nd ref='-98' />
    <nd ref='-99' />
    <nd ref='-100' />
    <nd ref='-101' />
    <nd ref='-102' />
    <nd ref='-103' />
    <nd ref='-104' />
    <nd ref='-105' />
    <nd ref='-106' />
    <nd ref='-107' />
    <nd ref='-108' />
    <nd ref='-109' />
    <nd ref='-110' />
    <nd ref='-111' />
    <nd ref='-112' />
    <nd ref='-113' />
    <nd ref='-114' />
    <nd ref='-115' />
    <nd ref='-116' />
    <nd ref='-117' />
    <nd ref='-118' />
    <nd ref='-119' />
    <nd ref='-120' />
    <nd ref='-121' />
    <nd ref='-122' />
    <nd ref='-123' />
    <nd ref='-124' />
    <nd ref='-125' />
    <nd ref='-126' />
    <nd ref='-127' />
    <nd ref='-128' />
    <nd ref='-129' />
    <nd ref='-130' />
    <nd ref='-131' />
    <nd ref='-132' />
    <nd ref='-133' />
    <nd ref='-134' />
    <nd ref='-135' />
    <nd ref='-136' />
    <nd ref='-137' />
    <nd ref='-138' />
    <nd ref='-139' />
    <nd ref='-140' />
    <nd ref='-141' />
    <nd ref='-142' />
    <nd ref='-143' />
    <nd ref='-144' />
    <nd ref='-145' />
    <nd ref='-146' />
    <nd ref='-147' />
    <nd ref='-148' />
    <nd ref='-149' />
    <nd ref='-150' />
    <nd ref='-151' />
    <nd ref='-152' />
    <tag k="OSM_ID" v="31251065"/>
  </way>
  <node id='-154' visible='true' lat='41.2153847' lon='19.9415289' />
  <node id='-155' visible='true' lat='41.2152878' lon='19.9414258' />
  <node id='-156' visible='true' lat='41.2152943' lon='19.9412628' />
  <node id='-157' visible='true' lat='41.2153588' lon='19.941074' />
  <node id='-158' visible='true' lat='41.2154234' lon='19.9409881' />
  <way id='-159' visible='true'>
    <nd ref='-154' />
    <nd ref='-155' />
    <nd ref='-156' />
    <nd ref='-157' />
    <nd ref='-158' />
    <tag k="OSM_ID" v="41520082"/>
  </way>
  <node id='-160' visible='true' lat='41.2157333' lon='19.945271' />
  <node id='-161' visible='true' lat='41.2155526' lon='19.9453913' />
  <node id='-162' visible='true' lat='41.2153976' lon='19.9455972' />
  <node id='-163' visible='true' lat='41.2152814' lon='19.9456573' />
  <node id='-164' visible='true' lat='41.2151264' lon='19.9458976' />
  <node id='-165' visible='true' lat='41.2149651' lon='19.9460177' />
  <node id='-166' visible='true' lat='41.2148487' lon='19.9461981' />
  <node id='-167' visible='true' lat='41.2147132' lon='19.9463182' />
  <node id='-168' visible='true' lat='41.2146229' lon='19.9467044' />
  <node id='-169' visible='true' lat='41.2147132' lon='19.9463182' />
  <node id='-170' visible='true' lat='41.2146745' lon='19.9460607' />
  <node id='-171' visible='true' lat='41.2146615' lon='19.9458547' />
  <node id='-172' visible='true' lat='41.2146615' lon='19.9456917' />
  <node id='-173' visible='true' lat='41.2146874' lon='19.9455458' />
  <node id='-174' visible='true' lat='41.2147197' lon='19.9454169' />
  <node id='-175' visible='true' lat='41.2147132' lon='19.9452624' />
  <node id='-176' visible='true' lat='41.2146745' lon='19.9450909' />
  <node id='-177' visible='true' lat='41.2149004' lon='19.9447389' />
  <node id='-178' visible='true' lat='41.2146745' lon='19.9450909' />
  <node id='-179' visible='true' lat='41.21461' lon='19.9450564' />
  <node id='-180' visible='true' lat='41.21461' lon='19.9449192' />
  <node id='-181' visible='true' lat='41.2145969' lon='19.9447989' />
  <node id='-182' visible='true' lat='41.2146358' lon='19.9446101' />
  <node id='-183' visible='true' lat='41.2146486' lon='19.9444729' />
  <node id='-184' visible='true' lat='41.2146486' lon='19.9443184' />
  <node id='-185' visible='true' lat='41.2146358' lon='19.9441725' />
  <node id='-186' visible='true' lat='41.2146486' lon='19.9440179' />
  <node id='-187' visible='true' lat='41.2146745' lon='19.9439321' />
  <node id='-188' visible='true' lat='41.2146874' lon='19.9438721' />
  <node id='-189' visible='true' lat='41.2145196' lon='19.9437947' />
  <node id='-190' visible='true' lat='41.2143646' lon='19.9437347' />
  <node id='-191' visible='true' lat='41.2142547' lon='19.9436575' />
  <node id='-192' visible='true' lat='41.2141902' lon='19.9436317' />
  <node id='-193' visible='true' lat='41.2142612' lon='19.9434514' />
  <node id='-194' visible='true' lat='41.214287' lon='19.9432797' />
  <node id='-195' visible='true' lat='41.2143194' lon='19.9430996' />
  <node id='-196' visible='true' lat='41.214358' lon='19.9430137' />
  <node id='-197' visible='true' lat='41.2143968' lon='19.9428507' />
  <node id='-198' visible='true' lat='41.2144291' lon='19.9427048' />
  <node id='-199' visible='true' lat='41.2144485' lon='19.9425589' />
  <node id='-200' visible='true' lat='41.2145259' lon='19.9424558' />
  <node id='-201' visible='true' lat='41.2145583' lon='19.9423957' />
  <node id='-202' visible='true' lat='41.2145906' lon='19.9423442' />
  <node id='-203' visible='true' lat='41.2146615' lon='19.9422154' />
  <node id='-204' visible='true' lat='41.2147132' lon='19.942104' />
  <node id='-205' visible='true' lat='41.2148165' lon='19.9419666' />
  <node id='-206' visible='true' lat='41.2149651' lon='19.9419065' />
  <node id='-207' visible='true' lat='41.2150942' lon='19.9418636' />
  <node id='-208' visible='true' lat='41.2151975' lon='19.9417864' />
  <node id='-209' visible='true' lat='41.2152878' lon='19.9416575' />
  <node id='-210' visible='true' lat='41.2153847' lon='19.9415289' />
  <node id='-211' visible='true' lat='41.215488' lon='19.9415545' />
  <node id='-212' visible='true' lat='41.2155654' lon='19.9414687' />
  <node id='-213' visible='true' lat='41.2156688' lon='19.9413571' />
  <node id='-214' visible='true' lat='41.2157786' lon='19.9413486' />
  <node id='-215' visible='true' lat='41.2158754' lon='19.9412714' />
  <node id='-216' visible='true' lat='41.2159334' lon='19.9411941' />
  <way id='-217' visible='true'>
    <nd ref='-160' />
    <nd ref='-161' />
    <nd ref='-162' />
    <nd ref='-163' />
    <nd ref='-164' />
    <nd ref='-165' />
    <nd ref='-166' />
    <nd ref='-167' />
    <nd ref='-168' />
    <nd ref='-169' />
    <nd ref='-170' />
    <nd ref='-171' />
    <nd ref='-172' />
    <nd ref='-173' />
    <nd ref='-174' />
    <nd ref='-175' />
    <nd ref='-176' />
    <nd ref='-177' />
    <nd ref='-178' />
    <nd ref='-179' />
    <nd ref='-180' />
    <nd ref='-181' />
    <nd ref='-182' />
    <nd ref='-183' />
    <nd ref='-184' />
    <nd ref='-185' />
    <nd ref='-186' />
    <nd ref='-187' />
    <nd ref='-188' />
    <nd ref='-189' />
    <nd ref='-190' />
    <nd ref='-191' />
    <nd ref='-192' />
    <nd ref='-193' />
    <nd ref='-194' />
    <nd ref='-195' />
    <nd ref='-196' />
    <nd ref='-197' />
    <nd ref='-198' />
    <nd ref='-199' />
    <nd ref='-200' />
    <nd ref='-201' />
    <nd ref='-202' />
    <nd ref='-203' />
    <nd ref='-204' />
    <nd ref='-205' />
    <nd ref='-206' />
    <nd ref='-207' />
    <nd ref='-208' />
    <nd ref='-209' />
    <nd ref='-210' />
    <nd ref='-211' />
    <nd ref='-212' />
    <nd ref='-213' />
    <nd ref='-214' />
    <nd ref='-215' />
    <nd ref='-216' />
    <tag k="OSM_ID" v="41520081"/>
  </way>
  <node id='-218' visible='true' lat='41.2170562' lon='19.9476081' />
  <node id='-219' visible='true' lat='41.21676' lon='19.9470306' />
  <node id='-220' visible='true' lat='41.2167147' lon='19.9469619' />
  <node id='-221' visible='true' lat='41.216734' lon='19.9468245' />
  <node id='-222' visible='true' lat='41.21676' lon='19.94667' />
  <node id='-223' visible='true' lat='41.2167986' lon='19.9465156' />
  <node id='-224' visible='true' lat='41.2167986' lon='19.9463869' />
  <node id='-225' visible='true' lat='41.2167663' lon='19.9462152' />
  <node id='-226' visible='true' lat='41.2166953' lon='19.9461122' />
  <node id='-227' visible='true' lat='41.2166179' lon='19.9460693' />
  <node id='-228' visible='true' lat='41.2165081' lon='19.9460435' />
  <node id='-229' visible='true' lat='41.2163855' lon='19.9460349' />
  <node id='-230' visible='true' lat='41.2162628' lon='19.9460349' />
  <node id='-231' visible='true' lat='41.2160884' lon='19.9459921' />
  <node id='-232' visible='true' lat='41.2159465' lon='19.9459492' />
  <node id='-233' visible='true' lat='41.2158689' lon='19.9458461' />
  <node id='-234' visible='true' lat='41.2157915' lon='19.9457346' />
  <node id='-235' visible='true' lat='41.2157656' lon='19.9455372' />
  <node id='-236' visible='true' lat='41.2157398' lon='19.9454256' />
  <node id='-237' visible='true' lat='41.2157333' lon='19.945271' />
  <node id='-238' visible='true' lat='41.2157333' lon='19.9451424' />
  <node id='-239' visible='true' lat='41.2157398' lon='19.9450222' />
  <node id='-240' visible='true' lat='41.2157656' lon='19.9448676' />
  <node id='-241' visible='true' lat='41.2157786' lon='19.9447647' />
  <node id='-242' visible='true' lat='41.2157786' lon='19.9446274' />
  <node id='-243' visible='true' lat='41.2157656' lon='19.9445072' />
  <node id='-244' visible='true' lat='41.2157462' lon='19.9443355' />
  <node id='-245' visible='true' lat='41.2157462' lon='19.9442325' />
  <node id='-246' visible='true' lat='41.2157462' lon='19.9440695' />
  <node id='-247' visible='true' lat='41.2157656' lon='19.9439063' />
  <node id='-248' visible='true' lat='41.2158172' lon='19.9438205' />
  <node id='-249' visible='true' lat='41.2159012' lon='19.9437262' />
  <way id='-250' visible='true'>
    <nd ref='-218' />
    <nd ref='-219' />
    <nd ref='-220' />
    <nd ref='-221' />
    <nd ref='-222' />
    <nd ref='-223' />
    <nd ref='-224' />
    <nd ref='-225' />
    <nd ref='-226' />
    <nd ref='-227' />
    <nd ref='-228' />
    <nd ref='-229' />
    <nd ref='-230' />
    <nd ref='-231' />
    <nd ref='-232' />
    <nd ref='-233' />
    <nd ref='-234' />
    <nd ref='-235' />
    <nd ref='-236' />
    <nd ref='-237' />
    <nd ref='-238' />
    <nd ref='-239' />
    <nd ref='-240' />
    <nd ref='-241' />
    <nd ref='-242' />
    <nd ref='-243' />
    <nd ref='-244' />
    <nd ref='-245' />
    <nd ref='-246' />
    <nd ref='-247' />
    <nd ref='-248' />
    <nd ref='-249' />
    <tag k="OSM_ID" v="41520005"/>
  </way>
  <node id='-251' visible='true' lat='41.2157656' lon='19.9455372' />
  <node id='-252' visible='true' lat='41.2156216' lon='19.9456321' />
  <node id='-253' visible='true' lat='41.2154925' lon='19.9458209' />
  <node id='-254' visible='true' lat='41.2153892' lon='19.9459067' />
  <node id='-255' visible='true' lat='41.2152407' lon='19.9460097' />
  <node id='-256' visible='true' lat='41.2151374' lon='19.9461556' />
  <node id='-257' visible='true' lat='41.2150212' lon='19.9463875' />
  <way id='-258' visible='true'>
    <nd ref='-251' />
    <nd ref='-252' />
    <nd ref='-253' />
    <nd ref='-254' />
    <nd ref='-255' />
    <nd ref='-256' />
    <nd ref='-257' />
    <tag k="OSM_ID" v="41570456"/>
  </way>
  <node id='-259' visible='true' lat='41.2157915' lon='19.9457346' />
  <node id='-260' visible='true' lat='41.2157379' lon='19.946027' />
  <node id='-261' visible='true' lat='41.2156926' lon='19.9462845' />
  <node id='-262' visible='true' lat='41.2156346' lon='19.946456' />
  <way id='-263' visible='true'>
    <nd ref='-259' />
    <nd ref='-260' />
    <nd ref='-261' />
    <nd ref='-262' />
    <tag k="OSM_ID" v="41570458"/>
  </way>
  <node id='-264' visible='true' lat='41.2158237' lon='19.9496658' />
  <node id='-265' visible='true' lat='41.2156604' lon='19.9494' />
  <node id='-266' visible='true' lat='41.2155054' lon='19.9491854' />
  <node id='-267' visible='true' lat='41.2154731' lon='19.9489023' />
  <node id='-268' visible='true' lat='41.2154731' lon='19.9487048' />
  <node id='-269' visible='true' lat='41.2155377' lon='19.9485075' />
  <node id='-270' visible='true' lat='41.2155764' lon='19.9483101' />
  <node id='-271' visible='true' lat='41.2155764' lon='19.9482071' />
  <node id='-272' visible='true' lat='41.215583' lon='19.9480181' />
  <node id='-273' visible='true' lat='41.2155119' lon='19.9477693' />
  <node id='-274' visible='true' lat='41.2153441' lon='19.947589' />
  <node id='-275' visible='true' lat='41.2152536' lon='19.9475118' />
  <way id='-276' visible='true'>
    <nd ref='-264' />
    <nd ref='-265' />
    <nd ref='-266' />
    <nd ref='-267' />
    <nd ref='-268' />
    <nd ref='-269' />
    <nd ref='-270' />
    <nd ref='-271' />
    <nd ref='-272' />
    <nd ref='-273' />
    <nd ref='-274' />
    <nd ref='-275' />
    <tag k="OSM_ID" v="41570459"/>
  </way>
  <node id='-277' visible='true' lat='41.2163704' lon='19.9490583' />
  <node id='-278' visible='true' lat='41.2163661' lon='19.9493137' />
  <node id='-279' visible='true' lat='41.2163145' lon='19.9495283' />
  <node id='-280' visible='true' lat='41.2161852' lon='19.949657' />
  <node id='-281' visible='true' lat='41.2160561' lon='19.9497429' />
  <node id='-282' visible='true' lat='41.2159594' lon='19.9498372' />
  <node id='-283' visible='true' lat='41.2159077' lon='19.9499917' />
  <node id='-284' visible='true' lat='41.2158495' lon='19.950215' />
  <node id='-285' visible='true' lat='41.2158432' lon='19.9504209' />
  <node id='-286' visible='true' lat='41.2157592' lon='19.9507384' />
  <node id='-287' visible='true' lat='41.2157462' lon='19.9510217' />
  <node id='-288' visible='true' lat='41.2157398' lon='19.9512448' />
  <node id='-289' visible='true' lat='41.2157333' lon='19.9514251' />
  <node id='-290' visible='true' lat='41.2157721' lon='19.9516911' />
  <node id='-291' visible='true' lat='41.2158754' lon='19.9518887' />
  <node id='-292' visible='true' lat='41.2159981' lon='19.9520516' />
  <node id='-293' visible='true' lat='41.2160304' lon='19.9522319' />
  <node id='-294' visible='true' lat='41.2160304' lon='19.9524551' />
  <node id='-295' visible='true' lat='41.216095' lon='19.9524122' />
  <node id='-296' visible='true' lat='41.2161272' lon='19.9522319' />
  <node id='-297' visible='true' lat='41.216153' lon='19.9521203' />
  <node id='-298' visible='true' lat='41.2162563' lon='19.9520002' />
  <node id='-299' visible='true' lat='41.2163208' lon='19.9519143' />
  <way id='-300' visible='true'>
    <nd ref='-277' />
    <nd ref='-278' />
    <nd ref='-279' />
    <nd ref='-280' />
    <nd ref='-281' />
    <nd ref='-282' />
    <nd ref='-283' />
    <nd ref='-284' />
    <nd ref='-285' />
    <nd ref='-286' />
    <nd ref='-287' />
    <nd ref='-288' />
    <nd ref='-289' />
    <nd ref='-290' />
    <nd ref='-291' />
    <nd ref='-292' />
    <nd ref='-293' />
    <nd ref='-294' />
    <nd ref='-295' />
    <nd ref='-296' />
    <nd ref='-297' />
    <nd ref='-298' />
    <nd ref='-299' />
    <tag k="OSM_ID" v="41520100"/>
  </way>
  <node id='-301' visible='true' lat='41.2160304' lon='19.9524551' />
  <node id='-302' visible='true' lat='41.2160304' lon='19.9526268' />
  <node id='-303' visible='true' lat='41.216069' lon='19.9527554' />
  <node id='-304' visible='true' lat='41.216153' lon='19.9528241' />
  <node id='-305' visible='true' lat='41.2162305' lon='19.9528928' />
  <node id='-306' visible='true' lat='41.2162822' lon='19.9529959' />
  <node id='-307' visible='true' lat='41.2163016' lon='19.9531674' />
  <node id='-308' visible='true' lat='41.2163402' lon='19.9533048' />
  <node id='-309' visible='true' lat='41.2164112' lon='19.953382' />
  <node id='-310' visible='true' lat='41.2164952' lon='19.9534678' />
  <node id='-311' visible='true' lat='41.2165985' lon='19.9535623' />
  <node id='-312' visible='true' lat='41.2167083' lon='19.9536568' />
  <node id='-313' visible='true' lat='41.2168309' lon='19.9538198' />
  <node id='-314' visible='true' lat='41.2169342' lon='19.9539228' />
  <node id='-315' visible='true' lat='41.2170891' lon='19.9540258' />
  <node id='-316' visible='true' lat='41.2172247' lon='19.9540858' />
  <node id='-317' visible='true' lat='41.2173538' lon='19.9540945' />
  <node id='-318' visible='true' lat='41.2174379' lon='19.9540086' />
  <node id='-319' visible='true' lat='41.2174765' lon='19.9539572' />
  <way id='-320' visible='true'>
    <nd ref='-301' />
    <nd ref='-302' />
    <nd ref='-303' />
    <nd ref='-304' />
    <nd ref='-305' />
    <nd ref='-306' />
    <nd ref='-307' />
    <nd ref='-308' />
    <nd ref='-309' />
    <nd ref='-310' />
    <nd ref='-311' />
    <nd ref='-312' />
    <nd ref='-313' />
    <nd ref='-314' />
    <nd ref='-315' />
    <nd ref='-316' />
    <nd ref='-317' />
    <nd ref='-318' />
    <nd ref='-319' />
    <tag k="OSM_ID" v="41520101"/>
  </way>
  <node id='-321' visible='true' lat='41.2160304' lon='19.9526268' />
  <node id='-322' visible='true' lat='41.2159657' lon='19.9528327' />
  <node id='-323' visible='true' lat='41.2159142' lon='19.9531418' />
  <node id='-324' visible='true' lat='41.2158948' lon='19.9535194' />
  <node id='-325' visible='true' lat='41.2158689' lon='19.9536481' />
  <node id='-326' visible='true' lat='41.2158689' lon='19.953897' />
  <node id='-327' visible='true' lat='41.2158495' lon='19.9541116' />
  <node id='-328' visible='true' lat='41.2157656' lon='19.954249' />
  <node id='-329' visible='true' lat='41.2156171' lon='19.9543691' />
  <node id='-330' visible='true' lat='41.2155267' lon='19.9543776' />
  <node id='-331' visible='true' lat='41.2155138' lon='19.9545579' />
  <node id='-332' visible='true' lat='41.215417' lon='19.9546953' />
  <node id='-333' visible='true' lat='41.2153459' lon='19.9548926' />
  <node id='-334' visible='true' lat='41.2153137' lon='19.9550215' />
  <node id='-335' visible='true' lat='41.2153072' lon='19.9552103' />
  <node id='-336' visible='true' lat='41.2152943' lon='19.9553733' />
  <node id='-337' visible='true' lat='41.2152426' lon='19.9555278' />
  <node id='-338' visible='true' lat='41.2150876' lon='19.9553562' />
  <node id='-339' visible='true' lat='41.2150554' lon='19.9550644' />
  <node id='-340' visible='true' lat='41.2150296' lon='19.9547725' />
  <node id='-341' visible='true' lat='41.2150747' lon='19.9545752' />
  <node id='-342' visible='true' lat='41.2151329' lon='19.9544549' />
  <node id='-343' visible='true' lat='41.2150876' lon='19.9543348' />
  <node id='-344' visible='true' lat='41.2150037' lon='19.9543348' />
  <way id='-345' visible='true'>
    <nd ref='-321' />
    <nd ref='-322' />
    <nd ref='-323' />
    <nd ref='-324' />
    <nd ref='-325' />
    <nd ref='-326' />
    <nd ref='-327' />
    <nd ref='-328' />
    <nd ref='-329' />
    <nd ref='-330' />
    <nd ref='-331' />
    <nd ref='-332' />
    <nd ref='-333' />
    <nd ref='-334' />
    <nd ref='-335' />
    <nd ref='-336' />
    <nd ref='-337' />
    <nd ref='-338' />
    <nd ref='-339' />
    <nd ref='-340' />
    <nd ref='-341' />
    <nd ref='-342' />
    <nd ref='-343' />
    <nd ref='-344' />
    <tag k="OSM_ID" v="41520102"/>
  </way>
  <node id='-346' visible='true' lat='41.2196975' lon='19.9604202' />
  <node id='-347' visible='true' lat='41.2196587' lon='19.960609' />
  <node id='-348' visible='true' lat='41.2196264' lon='19.9608065' />
  <node id='-349' visible='true' lat='41.2195231' lon='19.9610382' />
  <node id='-350' visible='true' lat='41.2193941' lon='19.9611668' />
  <node id='-351' visible='true' lat='41.2192263' lon='19.9612614' />
  <node id='-352' visible='true' lat='41.2191423' lon='19.9614243' />
  <node id='-353' visible='true' lat='41.2191423' lon='19.9616219' />
  <node id='-354' visible='true' lat='41.2191423' lon='19.9618363' />
  <node id='-355' visible='true' lat='41.2191423' lon='19.9619995' />
  <node id='-356' visible='true' lat='41.2190584' lon='19.9621968' />
  <node id='-357' visible='true' lat='41.2189422' lon='19.9624115' />
  <node id='-358' visible='true' lat='41.2188259' lon='19.9626088' />
  <node id='-359' visible='true' lat='41.2187613' lon='19.9627547' />
  <node id='-360' visible='true' lat='41.2188195' lon='19.9629951' />
  <node id='-361' visible='true' lat='41.2188969' lon='19.9631754' />
  <node id='-362' visible='true' lat='41.2189228' lon='19.9633555' />
  <node id='-363' visible='true' lat='41.2188389' lon='19.9634414' />
  <node id='-364' visible='true' lat='41.2187097' lon='19.9632612' />
  <node id='-365' visible='true' lat='41.2185934' lon='19.9631411' />
  <node id='-366' visible='true' lat='41.2184515' lon='19.9631411' />
  <node id='-367' visible='true' lat='41.2183417' lon='19.9632697' />
  <node id='-368' visible='true' lat='41.2183417' lon='19.9634242' />
  <node id='-369' visible='true' lat='41.2184515' lon='19.9635959' />
  <node id='-370' visible='true' lat='41.2185354' lon='19.9636989' />
  <node id='-371' visible='true' lat='41.2186451' lon='19.9638877' />
  <node id='-372' visible='true' lat='41.218729' lon='19.9640765' />
  <node id='-373' visible='true' lat='41.2187356' lon='19.9642568' />
  <node id='-374' visible='true' lat='41.2187356' lon='19.9646001' />
  <node id='-375' visible='true' lat='41.218729' lon='19.9648405' />
  <node id='-376' visible='true' lat='41.2187227' lon='19.9649777' />
  <node id='-377' visible='true' lat='41.2187227' lon='19.9651752' />
  <node id='-378' visible='true' lat='41.218813' lon='19.9654069' />
  <node id='-379' visible='true' lat='41.2188518' lon='19.9656044' />
  <node id='-380' visible='true' lat='41.2188518' lon='19.9658103' />
  <node id='-381' visible='true' lat='41.2188518' lon='19.9660507' />
  <node id='-382' visible='true' lat='41.2188389' lon='19.9661794' />
  <node id='-383' visible='true' lat='41.2186967' lon='19.9662052' />
  <node id='-384' visible='true' lat='41.2185677' lon='19.966231' />
  <node id='-385' visible='true' lat='41.2185547' lon='19.9664111' />
  <node id='-386' visible='true' lat='41.2185354' lon='19.96666' />
  <node id='-387' visible='true' lat='41.2185418' lon='19.9669261' />
  <node id='-388' visible='true' lat='41.2186386' lon='19.9671665' />
  <node id='-389' visible='true' lat='41.2187356' lon='19.9672952' />
  <node id='-390' visible='true' lat='41.2189422' lon='19.9673724' />
  <node id='-391' visible='true' lat='41.2190584' lon='19.9674583' />
  <node id='-392' visible='true' lat='41.2191811' lon='19.9675441' />
  <node id='-393' visible='true' lat='41.2192456' lon='19.9676815' />
  <node id='-394' visible='true' lat='41.219265' lon='19.9678961' />
  <node id='-395' visible='true' lat='41.219265' lon='19.9681278' />
  <node id='-396' visible='true' lat='41.2193812' lon='19.968368' />
  <node id='-397' visible='true' lat='41.2194845' lon='19.9685054' />
  <node id='-398' visible='true' lat='41.2195683' lon='19.9685912' />
  <way id='-399' visible='true'>
    <nd ref='-346' />
    <nd ref='-347' />
    <nd ref='-348' />
    <nd ref='-349' />
    <nd ref='-350' />
    <nd ref='-351' />
    <nd ref='-352' />
    <nd ref='-353' />
    <nd ref='-354' />
    <nd ref='-355' />
    <nd ref='-356' />
    <nd ref='-357' />
    <nd ref='-358' />
    <nd ref='-359' />
    <nd ref='-360' />
    <nd ref='-361' />
    <nd ref='-362' />
    <nd ref='-363' />
    <nd ref='-364' />
    <nd ref='-365' />
    <nd ref='-366' />
    <nd ref='-367' />
    <nd ref='-368' />
    <nd ref='-369' />
    <nd ref='-370' />
    <nd ref='-371' />
    <nd ref='-372' />
    <nd ref='-373' />
    <nd ref='-374' />
    <nd ref='-375' />
    <nd ref='-376' />
    <nd ref='-377' />
    <nd ref='-378' />
    <nd ref='-379' />
    <nd ref='-380' />
    <nd ref='-381' />
    <nd ref='-382' />
    <nd ref='-383' />
    <nd ref='-384' />
    <nd ref='-385' />
    <nd ref='-386' />
    <nd ref='-387' />
    <nd ref='-388' />
    <nd ref='-389' />
    <nd ref='-390' />
    <nd ref='-391' />
    <nd ref='-392' />
    <nd ref='-393' />
    <nd ref='-394' />
    <nd ref='-395' />
    <nd ref='-396' />
    <nd ref='-397' />
    <nd ref='-398' />
    <tag k="OSM_ID" v="41520920"/>
  </way>
  <node id='-400' visible='true' lat='41.2195683' lon='19.9685912' />
  <node id='-401' visible='true' lat='41.2196653' lon='19.9686942' />
  <node id='-402' visible='true' lat='41.2197686' lon='19.9688058' />
  <node id='-403' visible='true' lat='41.2198911' lon='19.9689775' />
  <node id='-404' visible='true' lat='41.2199299' lon='19.969235' />
  <node id='-405' visible='true' lat='41.2199235' lon='19.9694839' />
  <node id='-406' visible='true' lat='41.2199299' lon='19.9696898' />
  <node id='-407' visible='true' lat='41.2199299' lon='19.9699044' />
  <node id='-408' visible='true' lat='41.2199299' lon='19.9701191' />
  <node id='-409' visible='true' lat='41.2198848' lon='19.9702908' />
  <node id='-410' visible='true' lat='41.2198008' lon='19.9703507' />
  <node id='-411' visible='true' lat='41.2197363' lon='19.9701792' />
  <node id='-412' visible='true' lat='41.2197298' lon='19.9699902' />
  <node id='-413' visible='true' lat='41.219691' lon='19.9698272' />
  <node id='-414' visible='true' lat='41.2195877' lon='19.9696555' />
  <node id='-415' visible='true' lat='41.2194974' lon='19.9695269' />
  <node id='-416' visible='true' lat='41.2193941' lon='19.969398' />
  <node id='-417' visible='true' lat='41.2192843' lon='19.9693293' />
  <node id='-418' visible='true' lat='41.2191617' lon='19.9693293' />
  <node id='-419' visible='true' lat='41.2190196' lon='19.9694496' />
  <node id='-420' visible='true' lat='41.2189808' lon='19.9696213' />
  <node id='-421' visible='true' lat='41.2188905' lon='19.9698101' />
  <node id='-422' visible='true' lat='41.2187872' lon='19.9699559' />
  <node id='-423' visible='true' lat='41.2187356' lon='19.9700075' />
  <way id='-424' visible='true'>
    <nd ref='-400' />
    <nd ref='-401' />
    <nd ref='-402' />
    <nd ref='-403' />
    <nd ref='-404' />
    <nd ref='-405' />
    <nd ref='-406' />
    <nd ref='-407' />
    <nd ref='-408' />
    <nd ref='-409' />
    <nd ref='-410' />
    <nd ref='-411' />
    <nd ref='-412' />
    <nd ref='-413' />
    <nd ref='-414' />
    <nd ref='-415' />
    <nd ref='-416' />
    <nd ref='-417' />
    <nd ref='-418' />
    <nd ref='-419' />
    <nd ref='-420' />
    <nd ref='-421' />
    <nd ref='-422' />
    <nd ref='-423' />
    <tag k="OSM_ID" v="41520929"/>
  </way>
  <node id='-425' visible='true' lat='41.2169601' lon='19.9701878' />
  <node id='-426' visible='true' lat='41.2168309' lon='19.9701363' />
  <node id='-427' visible='true' lat='41.2167406' lon='19.9700504' />
  <node id='-428' visible='true' lat='41.2167792' lon='19.9699044' />
  <node id='-429' visible='true' lat='41.2169085' lon='19.9697071' />
  <node id='-430' visible='true' lat='41.2170375' lon='19.9695096' />
  <node id='-431' visible='true' lat='41.2171731' lon='19.9693551' />
  <node id='-432' visible='true' lat='41.2173216' lon='19.9693122' />
  <node id='-433' visible='true' lat='41.2174508' lon='19.9694754' />
  <node id='-434' visible='true' lat='41.2175218' lon='19.9696213' />
  <node id='-435' visible='true' lat='41.2175798' lon='19.9697242' />
  <way id='-436' visible='true'>
    <nd ref='-425' />
    <nd ref='-426' />
    <nd ref='-427' />
    <nd ref='-428' />
    <nd ref='-429' />
    <nd ref='-430' />
    <nd ref='-431' />
    <nd ref='-432' />
    <nd ref='-433' />
    <nd ref='-434' />
    <nd ref='-435' />
    <tag k="OSM_ID" v="41521350"/>
  </way>
  <node id='-437' visible='true' lat='41.2187227' lon='19.970016' />
  <node id='-438' visible='true' lat='41.2185741' lon='19.9700847' />
  <node id='-439' visible='true' lat='41.2183999' lon='19.9701619' />
  <node id='-440' visible='true' lat='41.2182772' lon='19.9702392' />
  <node id='-441' visible='true' lat='41.2181222' lon='19.9702993' />
  <node id='-442' visible='true' lat='41.2180188' lon='19.9704709' />
  <node id='-443' visible='true' lat='41.2179155' lon='19.9705654' />
  <node id='-444' visible='true' lat='41.217722' lon='19.9705139' />
  <node id='-445' visible='true' lat='41.2175154' lon='19.9704967' />
  <node id='-446' visible='true' lat='41.2173216' lon='19.970368' />
  <node id='-447' visible='true' lat='41.2170763' lon='19.9702908' />
  <node id='-448' visible='true' lat='41.2169601' lon='19.9701878' />
  <node id='-449' visible='true' lat='41.2170957' lon='19.9699559' />
  <node id='-450' visible='true' lat='41.2172184' lon='19.9697843' />
  <node id='-451' visible='true' lat='41.2174314' lon='19.9696984' />
  <node id='-452' visible='true' lat='41.2175798' lon='19.9697242' />
  <node id='-453' visible='true' lat='41.2177413' lon='19.9697242' />
  <node id='-454' visible='true' lat='41.2179027' lon='19.9696555' />
  <node id='-455' visible='true' lat='41.2181222' lon='19.9697414' />
  <node id='-456' visible='true' lat='41.2182772' lon='19.969853' />
  <node id='-457' visible='true' lat='41.2184515' lon='19.9698616' />
  <node id='-458' visible='true' lat='41.2186128' lon='19.9699044' />
  <node id='-459' visible='true' lat='41.2187227' lon='19.970016' />
  <way id='-460' visible='true'>
    <nd ref='-437' />
    <nd ref='-438' />
    <nd ref='-439' />
    <nd ref='-440' />
    <nd ref='-441' />
    <nd ref='-442' />
    <nd ref='-443' />
    <nd ref='-444' />
    <nd ref='-445' />
    <nd ref='-446' />
    <nd ref='-447' />
    <nd ref='-448' />
    <nd ref='-449' />
    <nd ref='-450' />
    <nd ref='-451' />
    <nd ref='-452' />
    <nd ref='-453' />
    <nd ref='-454' />
    <nd ref='-455' />
    <nd ref='-456' />
    <nd ref='-457' />
    <nd ref='-458' />
    <nd ref='-459' />
    <tag k="OSM_ID" v="41521340"/>
  </way>
  <node id='-461' visible='true' lat='41.2175154' lon='19.9704967' />
  <node id='-462' visible='true' lat='41.2173861' lon='19.9706255' />
  <node id='-463' visible='true' lat='41.2172247' lon='19.9707541' />
  <node id='-464' visible='true' lat='41.2170698' lon='19.9707627' />
  <node id='-465' visible='true' lat='41.2169407' lon='19.9706684' />
  <node id='-466' visible='true' lat='41.2167018' lon='19.9706341' />
  <node id='-467' visible='true' lat='41.2165403' lon='19.9706341' />
  <node id='-468' visible='true' lat='41.2163596' lon='19.9706684' />
  <node id='-469' visible='true' lat='41.2162111' lon='19.9707714' />
  <node id='-470' visible='true' lat='41.2161078' lon='19.970883' />
  <node id='-471' visible='true' lat='41.2159916' lon='19.9707627' />
  <node id='-472' visible='true' lat='41.2159334' lon='19.9705826' />
  <node id='-473' visible='true' lat='41.2159142' lon='19.9703851' />
  <node id='-474' visible='true' lat='41.2158109' lon='19.9702134' />
  <node id='-475' visible='true' lat='41.2157398' lon='19.9700676' />
  <node id='-476' visible='true' lat='41.2156365' lon='19.9699217' />
  <node id='-477' visible='true' lat='41.2155461' lon='19.9698187' />
  <node id='-478' visible='true' lat='41.2153847' lon='19.9698616' />
  <node id='-479' visible='true' lat='41.2154558' lon='19.9701705' />
  <node id='-480' visible='true' lat='41.2154428' lon='19.9703851' />
  <node id='-481' visible='true' lat='41.2153265' lon='19.9705912' />
  <node id='-482' visible='true' lat='41.215262' lon='19.9707456' />
  <node id='-483' visible='true' lat='41.2151199' lon='19.9709515' />
  <node id='-484' visible='true' lat='41.2149974' lon='19.9711576' />
  <node id='-485' visible='true' lat='41.2148747' lon='19.9712348' />
  <node id='-486' visible='true' lat='41.2147325' lon='19.9713636' />
  <node id='-487' visible='true' lat='41.2147002' lon='19.9715695' />
  <node id='-488' visible='true' lat='41.2146552' lon='19.9718872' />
  <node id='-489' visible='true' lat='41.2146472' lon='19.9719665' />
  <node id='-490' visible='true' lat='41.2146292' lon='19.9721447' />
  <node id='-491' visible='true' lat='41.2145776' lon='19.9723593' />
  <node id='-492' visible='true' lat='41.2145002' lon='19.9725824' />
  <node id='-493' visible='true' lat='41.2144291' lon='19.9727883' />
  <node id='-494' visible='true' lat='41.2143194' lon='19.9730373' />
  <node id='-495' visible='true' lat='41.2142418' lon='19.9732948' />
  <node id='-496' visible='true' lat='41.2142355' lon='19.9735694' />
  <node id='-497' visible='true' lat='41.2142484' lon='19.9738526' />
  <node id='-498' visible='true' lat='41.2142484' lon='19.9740845' />
  <node id='-499' visible='true' lat='41.2142484' lon='19.9743676' />
  <node id='-500' visible='true' lat='41.2142484' lon='19.9746337' />
  <node id='-501' visible='true' lat='41.2142741' lon='19.9748912' />
  <node id='-502' visible='true' lat='41.2143129' lon='19.9751058' />
  <node id='-503' visible='true' lat='41.2143711' lon='19.9753118' />
  <node id='-504' visible='true' lat='41.2144679' lon='19.9755263' />
  <node id='-505' visible='true' lat='41.2145969' lon='19.9757238' />
  <node id='-506' visible='true' lat='41.2146939' lon='19.975947' />
  <node id='-507' visible='true' lat='41.2148295' lon='19.9762045' />
  <node id='-508' visible='true' lat='41.2149134' lon='19.9763847' />
  <node id='-509' visible='true' lat='41.2149843' lon='19.9766164' />
  <node id='-510' visible='true' lat='41.2150425' lon='19.9768739' />
  <node id='-511' visible='true' lat='41.2151199' lon='19.9770971' />
  <node id='-512' visible='true' lat='41.2151846' lon='19.9773546' />
  <node id='-513' visible='true' lat='41.2151781' lon='19.9775519' />
  <way id='-514' visible='true'>
    <nd ref='-461' />
    <nd ref='-462' />
    <nd ref='-463' />
    <nd ref='-464' />
    <nd ref='-465' />
    <nd ref='-466' />
    <nd ref='-467' />
    <nd ref='-468' />
    <nd ref='-469' />
    <nd ref='-470' />
    <nd ref='-471' />
    <nd ref='-472' />
    <nd ref='-473' />
    <nd ref='-474' />
    <nd ref='-475' />
    <nd ref='-476' />
    <nd ref='-477' />
    <nd ref='-478' />
    <nd ref='-479' />
    <nd ref='-480' />
    <nd ref='-481' />
    <nd ref='-482' />
    <nd ref='-483' />
    <nd ref='-484' />
    <nd ref='-485' />
    <nd ref='-486' />
    <nd ref='-487' />
    <nd ref='-488' />
    <nd ref='-489' />
    <nd ref='-490' />
    <nd ref='-491' />
    <nd ref='-492' />
    <nd ref='-493' />
    <nd ref='-494' />
    <nd ref='-495' />
    <nd ref='-496' />
    <nd ref='-497' />
    <nd ref='-498' />
    <nd ref='-499' />
    <nd ref='-500' />
    <nd ref='-501' />
    <nd ref='-502' />
    <nd ref='-503' />
    <nd ref='-504' />
    <nd ref='-505' />
    <nd ref='-506' />
    <nd ref='-507' />
    <nd ref='-508' />
    <nd ref='-509' />
    <nd ref='-510' />
    <nd ref='-511' />
    <nd ref='-512' />
    <nd ref='-513' />
    <tag k="OSM_ID" v="41521369"/>
  </way>
  <node id='-515' visible='true' lat='41.2173861' lon='19.9706255' />
  <node id='-516' visible='true' lat='41.2176231' lon='19.9709007' />
  <node id='-517' visible='true' lat='41.217423' lon='19.9711066' />
  <node id='-518' visible='true' lat='41.2171841' lon='19.9712096' />
  <node id='-519' visible='true' lat='41.2169711' lon='19.9715014' />
  <node id='-520' visible='true' lat='41.2167967' lon='19.9717075' />
  <node id='-521' visible='true' lat='41.2167387' lon='19.9718362' />
  <way id='-522' visible='true'>
    <nd ref='-515' />
    <nd ref='-516' />
    <nd ref='-517' />
    <nd ref='-518' />
    <nd ref='-519' />
    <nd ref='-520' />
    <nd ref='-521' />
    <tag k="OSM_ID" v="41570463"/>
  </way>
  <node id='-523' visible='true' lat='41.2150037' lon='19.9723936' />
  <node id='-524' visible='true' lat='41.2150876' lon='19.9722304' />
  <node id='-525' visible='true' lat='41.2151716' lon='19.9720931' />
  <node id='-526' visible='true' lat='41.2152814' lon='19.9719301' />
  <node id='-527' visible='true' lat='41.2153976' lon='19.9717756' />
  <node id='-528' visible='true' lat='41.215701' lon='19.9714665' />
  <node id='-529' visible='true' lat='41.2158432' lon='19.9713035' />
  <node id='-530' visible='true' lat='41.2159142' lon='19.9712177' />
  <node id='-531' visible='true' lat='41.2159916' lon='19.9710804' />
  <node id='-532' visible='true' lat='41.2161078' lon='19.970883' />
  <way id='-533' visible='true'>
    <nd ref='-523' />
    <nd ref='-524' />
    <nd ref='-525' />
    <nd ref='-526' />
    <nd ref='-527' />
    <nd ref='-528' />
    <nd ref='-529' />
    <nd ref='-530' />
    <nd ref='-531' />
    <nd ref='-532' />
    <tag k="OSM_ID" v="41521332"/>
  </way>
  <node id='-534' visible='true' lat='41.2146472' lon='19.9719665' />
  <node id='-535' visible='true' lat='41.2147585' lon='19.9721018' />
  <node id='-536' visible='true' lat='41.2148618' lon='19.9722563' />
  <node id='-537' visible='true' lat='41.2150037' lon='19.9723936' />
  <node id='-538' visible='true' lat='41.2149586' lon='19.9726253' />
  <node id='-539' visible='true' lat='41.2149004' lon='19.9728914' />
  <node id='-540' visible='true' lat='41.2148295' lon='19.9731403' />
  <node id='-541' visible='true' lat='41.2147262' lon='19.9734578' />
  <node id='-542' visible='true' lat='41.2146615' lon='19.9735951' />
  <node id='-543' visible='true' lat='41.2146422' lon='19.9737669' />
  <node id='-544' visible='true' lat='41.214668' lon='19.9739557' />
  <way id='-545' visible='true'>
    <nd ref='-534' />
    <nd ref='-535' />
    <nd ref='-536' />
    <nd ref='-537' />
    <nd ref='-538' />
    <nd ref='-539' />
    <nd ref='-540' />
    <nd ref='-541' />
    <nd ref='-542' />
    <nd ref='-543' />
    <nd ref='-544' />
    <tag k="OSM_ID" v="41521329"/>
  </way>
  <node id='-546' visible='true' lat='41.214668' lon='19.9739557' />
  <node id='-547' visible='true' lat='41.2149824' lon='19.973939' />
  <node id='-548' visible='true' lat='41.2151891' lon='19.9738876' />
  <node id='-549' visible='true' lat='41.2153828' lon='19.9737931' />
  <node id='-550' visible='true' lat='41.2155119' lon='19.9738189' />
  <node id='-551' visible='true' lat='41.2156087' lon='19.9739906' />
  <node id='-552' visible='true' lat='41.2157314' lon='19.9741365' />
  <node id='-553' visible='true' lat='41.215867' lon='19.9741965' />
  <node id='-554' visible='true' lat='41.2160865' lon='19.9740849' />
  <way id='-555' visible='true'>
    <nd ref='-546' />
    <nd ref='-547' />
    <nd ref='-548' />
    <nd ref='-549' />
    <nd ref='-550' />
    <nd ref='-551' />
    <nd ref='-552' />
    <nd ref='-553' />
    <nd ref='-554' />
    <tag k="OSM_ID" v="41570464"/>
  </way>
  <node id='-556' visible='true' lat='41.2212227' lon='19.9778346' />
  <node id='-557' visible='true' lat='41.2210449' lon='19.9775868' />
  <node id='-558' visible='true' lat='41.2209351' lon='19.9775354' />
  <node id='-559' visible='true' lat='41.2208705' lon='19.9776813' />
  <node id='-560' visible='true' lat='41.2208125' lon='19.9777929' />
  <node id='-561' visible='true' lat='41.2207027' lon='19.9778529' />
  <node id='-562' visible='true' lat='41.2205737' lon='19.9779388' />
  <node id='-563' visible='true' lat='41.2204444' lon='19.9778443' />
  <node id='-564' visible='true' lat='41.2203412' lon='19.9777242' />
  <node id='-565' visible='true' lat='41.2202057' lon='19.9777586' />
  <node id='-566' visible='true' lat='41.220083' lon='19.97775' />
  <node id='-567' visible='true' lat='41.2199797' lon='19.9776041' />
  <node id='-568' visible='true' lat='41.2198829' lon='19.9774153' />
  <node id='-569' visible='true' lat='41.2198118' lon='19.9772607' />
  <node id='-570' visible='true' lat='41.2196826' lon='19.9771578' />
  <node id='-571' visible='true' lat='41.2195664' lon='19.977029' />
  <node id='-572' visible='true' lat='41.2194955' lon='19.9769003' />
  <node id='-573' visible='true' lat='41.219489' lon='19.9767457' />
  <node id='-574' visible='true' lat='41.2195664' lon='19.9764711' />
  <node id='-575' visible='true' lat='41.2196503' lon='19.976265' />
  <node id='-576' visible='true' lat='41.2197279' lon='19.9761191' />
  <node id='-577' visible='true' lat='41.2198247' lon='19.9759732' />
  <node id='-578' visible='true' lat='41.2199151' lon='19.9758616' />
  <node id='-579' visible='true' lat='41.2199925' lon='19.975733' />
  <node id='-580' visible='true' lat='41.2200784' lon='19.9756208' />
  <node id='-581' visible='true' lat='41.2202379' lon='19.9755269' />
  <node id='-582' visible='true' lat='41.2204252' lon='19.9756299' />
  <node id='-583' visible='true' lat='41.2205994' lon='19.9757931' />
  <node id='-584' visible='true' lat='41.220593' lon='19.9758616' />
  <way id='-585' visible='true'>
    <nd ref='-556' />
    <nd ref='-557' />
    <nd ref='-558' />
    <nd ref='-559' />
    <nd ref='-560' />
    <nd ref='-561' />
    <nd ref='-562' />
    <nd ref='-563' />
    <nd ref='-564' />
    <nd ref='-565' />
    <nd ref='-566' />
    <nd ref='-567' />
    <nd ref='-568' />
    <nd ref='-569' />
    <nd ref='-570' />
    <nd ref='-571' />
    <nd ref='-572' />
    <nd ref='-573' />
    <nd ref='-574' />
    <nd ref='-575' />
    <nd ref='-576' />
    <nd ref='-577' />
    <nd ref='-578' />
    <nd ref='-579' />
    <nd ref='-580' />
    <nd ref='-581' />
    <nd ref='-582' />
    <nd ref='-583' />
    <nd ref='-584' />
    <tag k="OSM_ID" v="41570462"/>
  </way>
  <node id='-586' visible='true' lat='41.2157398' lon='19.9803758' />
  <node id='-587' visible='true' lat='41.2155958' lon='19.9804537' />
  <node id='-588' visible='true' lat='41.2156087' lon='19.980591' />
  <node id='-589' visible='true' lat='41.215641' lon='19.9807711' />
  <node id='-590' visible='true' lat='41.2156797' lon='19.9809343' />
  <node id='-591' visible='true' lat='41.215641' lon='19.9811489' />
  <node id='-592' visible='true' lat='41.2155764' lon='19.9813119' />
  <node id='-593' visible='true' lat='41.2155377' lon='19.9814493' />
  <node id='-594' visible='true' lat='41.2154668' lon='19.9815694' />
  <node id='-595' visible='true' lat='41.2153441' lon='19.981621' />
  <node id='-596' visible='true' lat='41.2151762' lon='19.9815865' />
  <node id='-597' visible='true' lat='41.215047' lon='19.981535' />
  <node id='-598' visible='true' lat='41.2148211' lon='19.9815265' />
  <node id='-599' visible='true' lat='41.214621' lon='19.9814149' />
  <node id='-600' visible='true' lat='41.2144531' lon='19.9813635' />
  <node id='-601' visible='true' lat='41.2143368' lon='19.9812432' />
  <node id='-602' visible='true' lat='41.2142465' lon='19.9810544' />
  <node id='-603' visible='true' lat='41.2141495' lon='19.9808056' />
  <node id='-604' visible='true' lat='41.2140269' lon='19.9806081' />
  <node id='-605' visible='true' lat='41.2139236' lon='19.9804707' />
  <node id='-606' visible='true' lat='41.2137428' lon='19.9804022' />
  <node id='-607' visible='true' lat='41.2136072' lon='19.9802476' />
  <node id='-608' visible='true' lat='41.2134975' lon='19.9801274' />
  <node id='-609' visible='true' lat='41.2134716' lon='19.9799815' />
  <node id='-610' visible='true' lat='41.2134716' lon='19.9797842' />
  <node id='-611' visible='true' lat='41.2135103' lon='19.9795954' />
  <node id='-612' visible='true' lat='41.2135749' lon='19.979458' />
  <node id='-613' visible='true' lat='41.2134652' lon='19.9793808' />
  <node id='-614' visible='true' lat='41.2133296' lon='19.9793808' />
  <node id='-615' visible='true' lat='41.2129809' lon='19.9794494' />
  <node id='-616' visible='true' lat='41.2127679' lon='19.9795352' />
  <node id='-617' visible='true' lat='41.2126194' lon='19.979561' />
  <node id='-618' visible='true' lat='41.2124515' lon='19.9795094' />
  <node id='-619' visible='true' lat='41.2123159' lon='19.9793893' />
  <node id='-620' visible='true' lat='41.2122578' lon='19.9792519' />
  <node id='-621' visible='true' lat='41.2122578' lon='19.9789774' />
  <node id='-622' visible='true' lat='41.2122255' lon='19.97884' />
  <node id='-623' visible='true' lat='41.212064' lon='19.9787026' />
  <node id='-624' visible='true' lat='41.2118832' lon='19.9787026' />
  <node id='-625' visible='true' lat='41.2117282' lon='19.9786684' />
  <node id='-626' visible='true' lat='41.2116766' lon='19.9785481' />
  <node id='-627' visible='true' lat='41.211696' lon='19.9783679' />
  <node id='-628' visible='true' lat='41.2117542' lon='19.9783079' />
  <node id='-629' visible='true' lat='41.2116315' lon='19.9781362' />
  <node id='-630' visible='true' lat='41.2114571' lon='19.9781191' />
  <node id='-631' visible='true' lat='41.2113926' lon='19.9781705' />
  <node id='-632' visible='true' lat='41.2110503' lon='19.9780675' />
  <node id='-633' visible='true' lat='41.2107597' lon='19.9778272' />
  <node id='-634' visible='true' lat='41.2102755' lon='19.9775267' />
  <node id='-635' visible='true' lat='41.2100494' lon='19.9773293' />
  <node id='-636' visible='true' lat='41.2098428' lon='19.977132' />
  <node id='-637' visible='true' lat='41.2096104' lon='19.9770462' />
  <node id='-638' visible='true' lat='41.2093521' lon='19.9770718' />
  <node id='-639' visible='true' lat='41.2091132' lon='19.9770375' />
  <node id='-640' visible='true' lat='41.2088226' lon='19.9768316' />
  <node id='-641' visible='true' lat='41.2086161' lon='19.97678' />
  <node id='-642' visible='true' lat='41.2084352' lon='19.9768058' />
  <node id='-643' visible='true' lat='41.2082996' lon='19.9769946' />
  <node id='-644' visible='true' lat='41.2082351' lon='19.977295' />
  <node id='-645' visible='true' lat='41.2081705' lon='19.9774238' />
  <node id='-646' visible='true' lat='41.2080413' lon='19.9776127' />
  <node id='-647' visible='true' lat='41.2079702' lon='19.9778872' />
  <node id='-648' visible='true' lat='41.2079122' lon='19.9781876' />
  <node id='-649' visible='true' lat='41.2078089' lon='19.9783851' />
  <node id='-650' visible='true' lat='41.2077572' lon='19.9785311' />
  <node id='-651' visible='true' lat='41.2075634' lon='19.9786684' />
  <node id='-652' visible='true' lat='41.2075054' lon='19.9788658' />
  <node id='-653' visible='true' lat='41.2073698' lon='19.979003' />
  <node id='-654' visible='true' lat='41.2072276' lon='19.9790889' />
  <node id='-655' visible='true' lat='41.2070276' lon='19.9789688' />
  <node id='-656' visible='true' lat='41.2068531' lon='19.9787455' />
  <node id='-657' visible='true' lat='41.2066724' lon='19.9784967' />
  <node id='-658' visible='true' lat='41.2065174' lon='19.978325' />
  <node id='-659' visible='true' lat='41.2061751' lon='19.9783766' />
  <node id='-660' visible='true' lat='41.2060395' lon='19.9786339' />
  <node id='-661' visible='true' lat='41.2058588' lon='19.9789001' />
  <node id='-662' visible='true' lat='41.2057618' lon='19.9790288' />
  <node id='-663' visible='true' lat='41.2055359' lon='19.9790117' />
  <node id='-664' visible='true' lat='41.2051484' lon='19.9789001' />
  <node id='-665' visible='true' lat='41.2048385' lon='19.9789601' />
  <node id='-666' visible='true' lat='41.2046512' lon='19.9788485' />
  <node id='-667' visible='true' lat='41.2044769' lon='19.9786168' />
  <node id='-668' visible='true' lat='41.2042961' lon='19.9783679' />
  <node id='-669' visible='true' lat='41.2040312' lon='19.9781362' />
  <node id='-670' visible='true' lat='41.2036309' lon='19.9777242' />
  <way id='-671' visible='true'>
    <nd ref='-586' />
    <nd ref='-587' />
    <nd ref='-588' />
    <nd ref='-589' />
    <nd ref='-590' />
    <nd ref='-591' />
    <nd ref='-592' />
    <nd ref='-593' />
    <nd ref='-594' />
    <nd ref='-595' />
    <nd ref='-596' />
    <nd ref='-597' />
    <nd ref='-598' />
    <nd ref='-599' />
    <nd ref='-600' />
    <nd ref='-601' />
    <nd ref='-602' />
    <nd ref='-603' />
    <nd ref='-604' />
    <nd ref='-605' />
    <nd ref='-606' />
    <nd ref='-607' />
    <nd ref='-608' />
    <nd ref='-609' />
    <nd ref='-610' />
    <nd ref='-611' />
    <nd ref='-612' />
    <nd ref='-613' />
    <nd ref='-614' />
    <nd ref='-615' />
    <nd ref='-616' />
    <nd ref='-617' />
    <nd ref='-618' />
    <nd ref='-619' />
    <nd ref='-620' />
    <nd ref='-621' />
    <nd ref='-622' />
    <nd ref='-623' />
    <nd ref='-624' />
    <nd ref='-625' />
    <nd ref='-626' />
    <nd ref='-627' />
    <nd ref='-628' />
    <nd ref='-629' />
    <nd ref='-630' />
    <nd ref='-631' />
    <nd ref='-632' />
    <nd ref='-633' />
    <nd ref='-634' />
    <nd ref='-635' />
    <nd ref='-636' />
    <nd ref='-637' />
    <nd ref='-638' />
    <nd ref='-639' />
    <nd ref='-640' />
    <nd ref='-641' />
    <nd ref='-642' />
    <nd ref='-643' />
    <nd ref='-644' />
    <nd ref='-645' />
    <nd ref='-646' />
    <nd ref='-647' />
    <nd ref='-648' />
    <nd ref='-649' />
    <nd ref='-650' />
    <nd ref='-651' />
    <nd ref='-652' />
    <nd ref='-653' />
    <nd ref='-654' />
    <nd ref='-655' />
    <nd ref='-656' />
    <nd ref='-657' />
    <nd ref='-658' />
    <nd ref='-659' />
    <nd ref='-660' />
    <nd ref='-661' />
    <nd ref='-662' />
    <nd ref='-663' />
    <nd ref='-664' />
    <nd ref='-665' />
    <nd ref='-666' />
    <nd ref='-667' />
    <nd ref='-668' />
    <nd ref='-669' />
    <nd ref='-670' />
    <tag k="OSM_ID" v="41570208"/>
  </way>
  <node id='-672' visible='true' lat='41.2151781' lon='19.9775519' />
  <node id='-673' visible='true' lat='41.2151652' lon='19.9776722' />
  <node id='-674' visible='true' lat='41.2152361' lon='19.977964' />
  <node id='-675' visible='true' lat='41.2152878' lon='19.9781699' />
  <node id='-676' visible='true' lat='41.2153525' lon='19.9783502' />
  <node id='-677' visible='true' lat='41.2154298' lon='19.9785992' />
  <node id='-678' visible='true' lat='41.2154687' lon='19.9788308' />
  <node id='-679' visible='true' lat='41.2155397' lon='19.9790282' />
  <node id='-680' visible='true' lat='41.2156494' lon='19.9793115' />
  <node id='-681' visible='true' lat='41.2156882' lon='19.9795432' />
  <node id='-682' visible='true' lat='41.2157139' lon='19.9798007' />
  <node id='-683' visible='true' lat='41.2157398' lon='19.980024' />
  <node id='-684' visible='true' lat='41.2157398' lon='19.98029' />
  <node id='-685' visible='true' lat='41.2157398' lon='19.9803758' />
  <way id='-686' visible='true'>
    <nd ref='-672' />
    <nd ref='-673' />
    <nd ref='-674' />
    <nd ref='-675' />
    <nd ref='-676' />
    <nd ref='-677' />
    <nd ref='-678' />
    <nd ref='-679' />
    <nd ref='-680' />
    <nd ref='-681' />
    <nd ref='-682' />
    <nd ref='-683' />
    <nd ref='-684' />
    <nd ref='-685' />
    <tag k="OSM_ID" v="41521334"/>
  </way>
  <node id='-687' visible='true' lat='41.2151781' lon='19.9775519' />
  <node id='-688' visible='true' lat='41.2153137' lon='19.9776722' />
  <node id='-689' visible='true' lat='41.2154428' lon='19.9778008' />
  <node id='-690' visible='true' lat='41.2155849' lon='19.9779726' />
  <node id='-691' visible='true' lat='41.2156882' lon='19.9780927' />
  <node id='-692' visible='true' lat='41.2158561' lon='19.9781356' />
  <way id='-693' visible='true'>
    <nd ref='-687' />
    <nd ref='-688' />
    <nd ref='-689' />
    <nd ref='-690' />
    <nd ref='-691' />
    <nd ref='-692' />
    <tag k="OSM_ID" v="41521333"/>
  </way>
  <node id='-694' visible='true' lat='41.2188792' lon='19.9824866' />
  <node id='-695' visible='true' lat='41.2190407' lon='19.9825553' />
  <node id='-696' visible='true' lat='41.2192666' lon='19.9825553' />
  <node id='-697' visible='true' lat='41.2194604' lon='19.9825553' />
  <node id='-698' visible='true' lat='41.2195959' lon='19.9825467' />
  <node id='-699' visible='true' lat='41.2197056' lon='19.9824008' />
  <node id='-700' visible='true' lat='41.2198154' lon='19.9822206' />
  <node id='-701' visible='true' lat='41.2199057' lon='19.9820832' />
  <node id='-702' visible='true' lat='41.2199833' lon='19.9819631' />
  <node id='-703' visible='true' lat='41.2200737' lon='19.9818771' />
  <node id='-704' visible='true' lat='41.2201899' lon='19.9818686' />
  <node id='-705' visible='true' lat='41.2203061' lon='19.9817999' />
  <node id='-706' visible='true' lat='41.2204157' lon='19.981757' />
  <node id='-707' visible='true' lat='41.2204997' lon='19.9816369' />
  <node id='-708' visible='true' lat='41.220603' lon='19.9815167' />
  <node id='-709' visible='true' lat='41.2206805' lon='19.9813536' />
  <node id='-710' visible='true' lat='41.2207192' lon='19.9811391' />
  <node id='-711' visible='true' lat='41.2207774' lon='19.9810532' />
  <node id='-712' visible='true' lat='41.2208484' lon='19.9809416' />
  <node id='-713' visible='true' lat='41.2209452' lon='19.9808558' />
  <node id='-714' visible='true' lat='41.2210936' lon='19.98083' />
  <node id='-715' visible='true' lat='41.2211969' lon='19.9807184' />
  <node id='-716' visible='true' lat='41.221268' lon='19.9806841' />
  <node id='-717' visible='true' lat='41.2214164' lon='19.9806154' />
  <node id='-718' visible='true' lat='41.2215133' lon='19.9803752' />
  <node id='-719' visible='true' lat='41.2215263' lon='19.9801949' />
  <node id='-720' visible='true' lat='41.2215263' lon='19.979946' />
  <node id='-721' visible='true' lat='41.2215326' lon='19.9796885' />
  <node id='-722' visible='true' lat='41.221552' lon='19.9794568' />
  <node id='-723' visible='true' lat='41.2215263' lon='19.9791907' />
  <node id='-724' visible='true' lat='41.2215263' lon='19.9789762' />
  <node id='-725' visible='true' lat='41.2215455' lon='19.9788044' />
  <node id='-726' visible='true' lat='41.2215778' lon='19.9785727' />
  <node id='-727' visible='true' lat='41.2215908' lon='19.9783839' />
  <way id='-728' visible='true'>
    <nd ref='-694' />
    <nd ref='-695' />
    <nd ref='-696' />
    <nd ref='-697' />
    <nd ref='-698' />
    <nd ref='-699' />
    <nd ref='-700' />
    <nd ref='-701' />
    <nd ref='-702' />
    <nd ref='-703' />
    <nd ref='-704' />
    <nd ref='-705' />
    <nd ref='-706' />
    <nd ref='-707' />
    <nd ref='-708' />
    <nd ref='-709' />
    <nd ref='-710' />
    <nd ref='-711' />
    <nd ref='-712' />
    <nd ref='-713' />
    <nd ref='-714' />
    <nd ref='-715' />
    <nd ref='-716' />
    <nd ref='-717' />
    <nd ref='-718' />
    <nd ref='-719' />
    <nd ref='-720' />
    <nd ref='-721' />
    <nd ref='-722' />
    <nd ref='-723' />
    <nd ref='-724' />
    <nd ref='-725' />
    <nd ref='-726' />
    <nd ref='-727' />
    <tag k="OSM_ID" v="41522544"/>
  </way>
  <node id='-729' visible='true' lat='41.2077572' lon='19.9785311' />
  <node id='-730' visible='true' lat='41.2077637' lon='19.9788229' />
  <node id='-731' visible='true' lat='41.2078346' lon='19.9790975' />
  <node id='-732' visible='true' lat='41.2079379' lon='19.9793035' />
  <node id='-733' visible='true' lat='41.2080284' lon='19.9795009' />
  <node id='-734' visible='true' lat='41.2080219' lon='19.9797498' />
  <node id='-735' visible='true' lat='41.2079057' lon='19.9801102' />
  <node id='-736' visible='true' lat='41.2078993' lon='19.9803248' />
  <node id='-737' visible='true' lat='41.2079573' lon='19.9806166' />
  <node id='-738' visible='true' lat='41.2080219' lon='19.9808914' />
  <node id='-739' visible='true' lat='41.2080929' lon='19.9811918' />
  <node id='-740' visible='true' lat='41.2081123' lon='19.9813806' />
  <node id='-741' visible='true' lat='41.2080284' lon='19.9816037' />
  <node id='-742' visible='true' lat='41.2079445' lon='19.9817068' />
  <node id='-743' visible='true' lat='41.2077894' lon='19.9818098' />
  <node id='-744' visible='true' lat='41.207699' lon='19.9818612' />
  <node id='-745' visible='true' lat='41.2075828' lon='19.9818785' />
  <node id='-746' visible='true' lat='41.2073762' lon='19.9818698' />
  <node id='-747' visible='true' lat='41.2072213' lon='19.9818269' />
  <node id='-748' visible='true' lat='41.2070792' lon='19.9817497' />
  <node id='-749' visible='true' lat='41.2070147' lon='19.9818354' />
  <node id='-750' visible='true' lat='41.2070276' lon='19.9819299' />
  <node id='-751' visible='true' lat='41.2071825' lon='19.9821358' />
  <node id='-752' visible='true' lat='41.2072987' lon='19.9822904' />
  <node id='-753' visible='true' lat='41.2074666' lon='19.9825823' />
  <node id='-754' visible='true' lat='41.2075442' lon='19.9827711' />
  <node id='-755' visible='true' lat='41.2075505' lon='19.9830371' />
  <node id='-756' visible='true' lat='41.2075311' lon='19.983329' />
  <node id='-757' visible='true' lat='41.2074731' lon='19.9836637' />
  <node id='-758' visible='true' lat='41.2074215' lon='19.9838869' />
  <node id='-759' visible='true' lat='41.2073762' lon='19.9840757' />
  <node id='-760' visible='true' lat='41.2074538' lon='19.9843074' />
  <node id='-761' visible='true' lat='41.2076022' lon='19.9846764' />
  <node id='-762' visible='true' lat='41.2076798' lon='19.9849254' />
  <node id='-763' visible='true' lat='41.2077637' lon='19.9852772' />
  <node id='-764' visible='true' lat='41.2078154' lon='19.9856206' />
  <node id='-765' visible='true' lat='41.2079702' lon='19.9858952' />
  <node id='-766' visible='true' lat='41.208164' lon='19.9861871' />
  <node id='-767' visible='true' lat='41.2082673' lon='19.9864102' />
  <node id='-768' visible='true' lat='41.2083449' lon='19.9865905' />
  <node id='-769' visible='true' lat='41.2085579' lon='19.9868909' />
  <node id='-770' visible='true' lat='41.2086935' lon='19.9869425' />
  <node id='-771' visible='true' lat='41.2088679' lon='19.9869768' />
  <node id='-772' visible='true' lat='41.2089969' lon='19.9869939' />
  <node id='-773' visible='true' lat='41.2091971' lon='19.9871656' />
  <node id='-774' visible='true' lat='41.2093586' lon='19.9873629' />
  <node id='-775' visible='true' lat='41.2095071' lon='19.9874918' />
  <node id='-776' visible='true' lat='41.2098557' lon='19.987981' />
  <node id='-777' visible='true' lat='41.2100172' lon='19.9882899' />
  <node id='-778' visible='true' lat='41.2101463' lon='19.9885474' />
  <node id='-779' visible='true' lat='41.2101787' lon='19.9887449' />
  <node id='-780' visible='true' lat='41.2104046' lon='19.9887706' />
  <node id='-781' visible='true' lat='41.2105725' lon='19.9888049' />
  <node id='-782' visible='true' lat='41.2107856' lon='19.9888565' />
  <node id='-783' visible='true' lat='41.2109082' lon='19.9889165' />
  <node id='-784' visible='true' lat='41.2109986' lon='19.989028' />
  <node id='-785' visible='true' lat='41.2111859' lon='19.9890967' />
  <node id='-786' visible='true' lat='41.211018' lon='19.9893801' />
  <node id='-787' visible='true' lat='41.2109986' lon='19.989526' />
  <node id='-788' visible='true' lat='41.2112118' lon='19.989792' />
  <node id='-789' visible='true' lat='41.211386' lon='19.9901009' />
  <node id='-790' visible='true' lat='41.2116249' lon='19.990307' />
  <node id='-791' visible='true' lat='41.2117993' lon='19.9904873' />
  <node id='-792' visible='true' lat='41.2122383' lon='19.9908821' />
  <node id='-793' visible='true' lat='41.2124321' lon='19.9910108' />
  <node id='-794' visible='true' lat='41.2127613' lon='19.9910193' />
  <node id='-795' visible='true' lat='41.2130131' lon='19.9909937' />
  <node id='-796' visible='true' lat='41.2132973' lon='19.990822' />
  <node id='-797' visible='true' lat='41.2134975' lon='19.9907618' />
  <node id='-798' visible='true' lat='41.2136911' lon='19.9907618' />
  <node id='-799' visible='true' lat='41.2139623' lon='19.9906502' />
  <node id='-800' visible='true' lat='41.2142594' lon='19.9907189' />
  <node id='-801' visible='true' lat='41.2144917' lon='19.9907275' />
  <node id='-802' visible='true' lat='41.2147501' lon='19.9907275' />
  <node id='-803' visible='true' lat='41.2149114' lon='19.9907275' />
  <node id='-804' visible='true' lat='41.2150986' lon='19.9906332' />
  <node id='-805' visible='true' lat='41.2153569' lon='19.9905816' />
  <node id='-806' visible='true' lat='41.2155313' lon='19.9905387' />
  <node id='-807' visible='true' lat='41.2158153' lon='19.9907275' />
  <node id='-808' visible='true' lat='41.216022' lon='19.9907618' />
  <node id='-809' visible='true' lat='41.2164416' lon='19.9908648' />
  <node id='-810' visible='true' lat='41.2165772' lon='19.9908648' />
  <node id='-811' visible='true' lat='41.216771' lon='19.9907791' />
  <node id='-812' visible='true' lat='41.2168678' lon='19.990925' />
  <node id='-813' visible='true' lat='41.2167839' lon='19.9911738' />
  <node id='-814' visible='true' lat='41.2168484' lon='19.9914057' />
  <node id='-815' visible='true' lat='41.2169517' lon='19.9917318' />
  <node id='-816' visible='true' lat='41.2170614' lon='19.9919635' />
  <node id='-817' visible='true' lat='41.2171195' lon='19.9920493' />
  <node id='-818' visible='true' lat='41.2171001' lon='19.9923584' />
  <node id='-819' visible='true' lat='41.2171001' lon='19.9925986' />
  <node id='-820' visible='true' lat='41.2172164' lon='19.9928561' />
  <node id='-821' visible='true' lat='41.2173456' lon='19.9930793' />
  <node id='-822' visible='true' lat='41.2173842' lon='19.9933711' />
  <node id='-823' visible='true' lat='41.2174295' lon='19.9937144' />
  <node id='-824' visible='true' lat='41.2175457' lon='19.9939377' />
  <node id='-825' visible='true' lat='41.2176037' lon='19.9942637' />
  <node id='-826' visible='true' lat='41.2176102' lon='19.9943668' />
  <way id='-827' visible='true'>
    <nd ref='-729' />
    <nd ref='-730' />
    <nd ref='-731' />
    <nd ref='-732' />
    <nd ref='-733' />
    <nd ref='-734' />
    <nd ref='-735' />
    <nd ref='-736' />
    <nd ref='-737' />
    <nd ref='-738' />
    <nd ref='-739' />
    <nd ref='-740' />
    <nd ref='-741' />
    <nd ref='-742' />
    <nd ref='-743' />
    <nd ref='-744' />
    <nd ref='-745' />
    <nd ref='-746' />
    <nd ref='-747' />
    <nd ref='-748' />
    <nd ref='-749' />
    <nd ref='-750' />
    <nd ref='-751' />
    <nd ref='-752' />
    <nd ref='-753' />
    <nd ref='-754' />
    <nd ref='-755' />
    <nd ref='-756' />
    <nd ref='-757' />
    <nd ref='-758' />
    <nd ref='-759' />
    <nd ref='-760' />
    <nd ref='-761' />
    <nd ref='-762' />
    <nd ref='-763' />
    <nd ref='-764' />
    <nd ref='-765' />
    <nd ref='-766' />
    <nd ref='-767' />
    <nd ref='-768' />
    <nd ref='-769' />
    <nd ref='-770' />
    <nd ref='-771' />
    <nd ref='-772' />
    <nd ref='-773' />
    <nd ref='-774' />
    <nd ref='-775' />
    <nd ref='-776' />
    <nd ref='-777' />
    <nd ref='-778' />
    <nd ref='-779' />
    <nd ref='-780' />
    <nd ref='-781' />
    <nd ref='-782' />
    <nd ref='-783' />
    <nd ref='-784' />
    <nd ref='-785' />
    <nd ref='-786' />
    <nd ref='-787' />
    <nd ref='-788' />
    <nd ref='-789' />
    <nd ref='-790' />
    <nd ref='-791' />
    <nd ref='-792' />
    <nd ref='-793' />
    <nd ref='-794' />
    <nd ref='-795' />
    <nd ref='-796' />
    <nd ref='-797' />
    <nd ref='-798' />
    <nd ref='-799' />
    <nd ref='-800' />
    <nd ref='-801' />
    <nd ref='-802' />
    <nd ref='-803' />
    <nd ref='-804' />
    <nd ref='-805' />
    <nd ref='-806' />
    <nd ref='-807' />
    <nd ref='-808' />
    <nd ref='-809' />
    <nd ref='-810' />
    <nd ref='-811' />
    <nd ref='-812' />
    <nd ref='-813' />
    <nd ref='-814' />
    <nd ref='-815' />
    <nd ref='-816' />
    <nd ref='-817' />
    <nd ref='-818' />
    <nd ref='-819' />
    <nd ref='-820' />
    <nd ref='-821' />
    <nd ref='-822' />
    <nd ref='-823' />
    <nd ref='-824' />
    <nd ref='-825' />
    <nd ref='-826' />
    <tag k="OSM_ID" v="41570222"/>
  </way>
  <node id='-828' visible='true' lat='41.2215326' lon='19.9796885' />
  <node id='-829' visible='true' lat='41.2216488' lon='19.9797143' />
  <node id='-830' visible='true' lat='41.2218297' lon='19.9796799' />
  <node id='-831' visible='true' lat='41.2219845' lon='19.9796541' />
  <node id='-832' visible='true' lat='41.2221783' lon='19.9795769' />
  <node id='-833' visible='true' lat='41.2223267' lon='19.9795769' />
  <node id='-834' visible='true' lat='41.2224623' lon='19.9794568' />
  <node id='-835' visible='true' lat='41.2226238' lon='19.979371' />
  <node id='-836' visible='true' lat='41.2227529' lon='19.979371' />
  <node id='-837' visible='true' lat='41.2229142' lon='19.9794568' />
  <node id='-838' visible='true' lat='41.2229981' lon='19.9794997' />
  <node id='-839' visible='true' lat='41.2231402' lon='19.9794997' />
  <node id='-840' visible='true' lat='41.2232629' lon='19.979431' />
  <way id='-841' visible='true'>
    <nd ref='-828' />
    <nd ref='-829' />
    <nd ref='-830' />
    <nd ref='-831' />
    <nd ref='-832' />
    <nd ref='-833' />
    <nd ref='-834' />
    <nd ref='-835' />
    <nd ref='-836' />
    <nd ref='-837' />
    <nd ref='-838' />
    <nd ref='-839' />
    <nd ref='-840' />
    <tag k="OSM_ID" v="41522546"/>
  </way>
  <node id='-842' visible='true' lat='41.2157398' lon='19.9803758' />
  <node id='-843' visible='true' lat='41.2158689' lon='19.9804703' />
  <node id='-844' visible='true' lat='41.216011' lon='19.9806075' />
  <node id='-845' visible='true' lat='41.2162046' lon='19.9808307' />
  <node id='-846' visible='true' lat='41.2163208' lon='19.9809337' />
  <node id='-847' visible='true' lat='41.2164629' lon='19.9810882' />
  <node id='-848' visible='true' lat='41.216592' lon='19.9811396' />
  <node id='-849' visible='true' lat='41.2167663' lon='19.9811827' />
  <node id='-850' visible='true' lat='41.2169342' lon='19.9811054' />
  <node id='-851' visible='true' lat='41.2170698' lon='19.9809853' />
  <node id='-852' visible='true' lat='41.2171925' lon='19.9811654' />
  <node id='-853' visible='true' lat='41.2172119' lon='19.9812426' />
  <way id='-854' visible='true'>
    <nd ref='-842' />
    <nd ref='-843' />
    <nd ref='-844' />
    <nd ref='-845' />
    <nd ref='-846' />
    <nd ref='-847' />
    <nd ref='-848' />
    <nd ref='-849' />
    <nd ref='-850' />
    <nd ref='-851' />
    <nd ref='-852' />
    <nd ref='-853' />
    <tag k="OSM_ID" v="41521335"/>
  </way>
  <node id='-855' visible='true' lat='41.2169342' lon='19.9811054' />
  <node id='-856' visible='true' lat='41.2169388' lon='19.9813891' />
  <node id='-857' visible='true' lat='41.2169646' lon='19.9815779' />
  <node id='-858' visible='true' lat='41.2169582' lon='19.9819214' />
  <node id='-859' visible='true' lat='41.2168613' lon='19.9821187' />
  <node id='-860' visible='true' lat='41.2168678' lon='19.9822904' />
  <node id='-861' visible='true' lat='41.2167902' lon='19.9824707' />
  <node id='-862' visible='true' lat='41.2167193' lon='19.9825823' />
  <node id='-863' visible='true' lat='41.2166805' lon='19.9826766' />
  <node id='-864' visible='true' lat='41.216674' lon='19.9828827' />
  <node id='-865' visible='true' lat='41.216745' lon='19.9830971' />
  <node id='-866' visible='true' lat='41.2167839' lon='19.983329' />
  <node id='-867' visible='true' lat='41.2167579' lon='19.9834662' />
  <node id='-868' visible='true' lat='41.2165384' lon='19.9835692' />
  <node id='-869' visible='true' lat='41.2163965' lon='19.9836895' />
  <node id='-870' visible='true' lat='41.2163577' lon='19.983758' />
  <node id='-871' visible='true' lat='41.2164675' lon='19.9839899' />
  <node id='-872' visible='true' lat='41.2165772' lon='19.9840929' />
  <node id='-873' visible='true' lat='41.2167063' lon='19.984213' />
  <node id='-874' visible='true' lat='41.2168743' lon='19.9843933' />
  <node id='-875' visible='true' lat='41.2170421' lon='19.9844276' />
  <node id='-876' visible='true' lat='41.2172357' lon='19.9844791' />
  <node id='-877' visible='true' lat='41.2173842' lon='19.9845219' />
  <node id='-878' visible='true' lat='41.2175585' lon='19.9846421' />
  <node id='-879' visible='true' lat='41.2177652' lon='19.9846764' />
  <node id='-880' visible='true' lat='41.217862' lon='19.9846937' />
  <node id='-881' visible='true' lat='41.218017' lon='19.9847193' />
  <node id='-882' visible='true' lat='41.2181461' lon='19.9847709' />
  <node id='-883' visible='true' lat='41.2183527' lon='19.9847794' />
  <node id='-884' visible='true' lat='41.2185142' lon='19.9848138' />
  <node id='-885' visible='true' lat='41.218682' lon='19.9848654' />
  <node id='-886' visible='true' lat='41.2188693' lon='19.9848996' />
  <node id='-887' visible='true' lat='41.219179' lon='19.9849426' />
  <node id='-888' visible='true' lat='41.2194631' lon='19.9846764' />
  <node id='-889' visible='true' lat='41.2196181' lon='19.9845219' />
  <node id='-890' visible='true' lat='41.2197473' lon='19.984376' />
  <node id='-891' visible='true' lat='41.2198763' lon='19.9842817' />
  <node id='-892' visible='true' lat='41.2203348' lon='19.9842644' />
  <node id='-893' visible='true' lat='41.2204509' lon='19.9843417' />
  <node id='-894' visible='true' lat='41.2206317' lon='19.9845563' />
  <node id='-895' visible='true' lat='41.2207995' lon='19.9846508' />
  <node id='-896' visible='true' lat='41.2209028' lon='19.9846421' />
  <node id='-897' visible='true' lat='41.2210061' lon='19.9843246' />
  <node id='-898' visible='true' lat='41.2211094' lon='19.9840328' />
  <node id='-899' visible='true' lat='41.2212515' lon='19.983844' />
  <node id='-900' visible='true' lat='41.2214257' lon='19.9836466' />
  <node id='-901' visible='true' lat='41.2216646' lon='19.9834662' />
  <way id='-902' visible='true'>
    <nd ref='-855' />
    <nd ref='-856' />
    <nd ref='-857' />
    <nd ref='-858' />
    <nd ref='-859' />
    <nd ref='-860' />
    <nd ref='-861' />
    <nd ref='-862' />
    <nd ref='-863' />
    <nd ref='-864' />
    <nd ref='-865' />
    <nd ref='-866' />
    <nd ref='-867' />
    <nd ref='-868' />
    <nd ref='-869' />
    <nd ref='-870' />
    <nd ref='-871' />
    <nd ref='-872' />
    <nd ref='-873' />
    <nd ref='-874' />
    <nd ref='-875' />
    <nd ref='-876' />
    <nd ref='-877' />
    <nd ref='-878' />
    <nd ref='-879' />
    <nd ref='-880' />
    <nd ref='-881' />
    <nd ref='-882' />
    <nd ref='-883' />
    <nd ref='-884' />
    <nd ref='-885' />
    <nd ref='-886' />
    <nd ref='-887' />
    <nd ref='-888' />
    <nd ref='-889' />
    <nd ref='-890' />
    <nd ref='-891' />
    <nd ref='-892' />
    <nd ref='-893' />
    <nd ref='-894' />
    <nd ref='-895' />
    <nd ref='-896' />
    <nd ref='-897' />
    <nd ref='-898' />
    <nd ref='-899' />
    <nd ref='-900' />
    <nd ref='-901' />
    <tag k="OSM_ID" v="41570461"/>
  </way>
  <node id='-903' visible='true' lat='41.2172119' lon='19.9812426' />
  <node id='-904' visible='true' lat='41.217291' lon='19.9813708' />
  <node id='-905' visible='true' lat='41.2173104' lon='19.9815854' />
  <node id='-906' visible='true' lat='41.2173878' lon='19.9817828' />
  <node id='-907' visible='true' lat='41.2174654' lon='19.9819029' />
  <node id='-908' visible='true' lat='41.2176139' lon='19.982023' />
  <node id='-909' visible='true' lat='41.2177752' lon='19.9821433' />
  <node id='-910' visible='true' lat='41.2179495' lon='19.982212' />
  <node id='-911' visible='true' lat='41.2180723' lon='19.9822892' />
  <node id='-912' visible='true' lat='41.2182142' lon='19.9823665' />
  <node id='-913' visible='true' lat='41.218324' lon='19.9824522' />
  <node id='-914' visible='true' lat='41.2184596' lon='19.9824695' />
  <node id='-915' visible='true' lat='41.2186146' lon='19.9824695' />
  <node id='-916' visible='true' lat='41.2187502' lon='19.9824608' />
  <node id='-917' visible='true' lat='41.2188792' lon='19.9824866' />
  <way id='-918' visible='true'>
    <nd ref='-903' />
    <nd ref='-904' />
    <nd ref='-905' />
    <nd ref='-906' />
    <nd ref='-907' />
    <nd ref='-908' />
    <nd ref='-909' />
    <nd ref='-910' />
    <nd ref='-911' />
    <nd ref='-912' />
    <nd ref='-913' />
    <nd ref='-914' />
    <nd ref='-915' />
    <nd ref='-916' />
    <nd ref='-917' />
    <tag k="OSM_ID" v="41522543"/>
  </way>
</osm>
