<?xml version='1.0'?>
<osm version='0.5' generator='shp2osm.pl'>
  <node id='-1' visible='true' lat='41.2927996' lon='19.7254596' />
  <node id='-2' visible='true' lat='41.2921934' lon='19.7242922' />
  <way id='-3' visible='true'>
    <nd ref='-1' />
    <nd ref='-2' />
    <tag k="NAME" v="Rruga Kavajes"/>
    <tag k="OSM_ID" v="27531206"/>
  </way>
</osm>
