<?xml version='1.0'?>
<osm version='0.5' generator='shp2osm.pl'>
  <node id='-1' visible='true' lat='40.2984751319007' lon='20.0187327533639' />
  <node id='-2' visible='true' lat='40.2986227516691' lon='20.0191706978626' />
  <node id='-3' visible='true' lat='40.2987847093124' lon='20.0194492559596' />
  <node id='-4' visible='true' lat='40.2988977038558' lon='20.019744571284' />
  <node id='-5' visible='true' lat='40.2989750996866' lon='20.0201848720945' />
  <node id='-6' visible='true' lat='40.2988487179949' lon='20.0204836466908' />
  <node id='-7' visible='true' lat='40.2984814079687' lon='20.0206013123452' />
  <way id='-8' visible='true'>
    <nd ref='-1' />
    <nd ref='-2' />
    <nd ref='-3' />
    <nd ref='-4' />
    <nd ref='-5' />
    <nd ref='-6' />
    <nd ref='-7' />
    <tag k="ID" v="16606.000"/>
    <tag k="CATEGORY" v="5"/>
    <tag k="SHAPE_LE_1" v="207.934"/>
    <tag k="WAY_TYPE" v="Dwelling Area Road"/>
    <tag k="ET_ID" v="15361"/>
    <tag k="CAT2" v="50"/>
    <tag k="SHAPE_LENG" v="0.000"/>
  </way>
  <node id='-9' visible='true' lat='40.3006582277469' lon='20.0212376613282' />
  <node id='-10' visible='true' lat='40.3000785782996' lon='20.0202963179523' />
  <node id='-11' visible='true' lat='40.2997817442324' lon='20.0200492811788' />
  <node id='-12' visible='true' lat='40.2991607426358' lon='20.0193545512211' />
  <node id='-13' visible='true' lat='40.2987213970354' lon='20.0189252850252' />
  <node id='-14' visible='true' lat='40.2984751319007' lon='20.0187327533639' />
  <way id='-15' visible='true'>
    <nd ref='-9' />
    <nd ref='-10' />
    <nd ref='-11' />
    <nd ref='-12' />
    <nd ref='-13' />
    <nd ref='-14' />
    <tag k="ID" v="16607.000"/>
    <tag k="CATEGORY" v="5"/>
    <tag k="SHAPE_LE_1" v="325.411"/>
    <tag k="ET_ID" v="15362"/>
    <tag k="WAY_TYPE" v="Dwelling Area Road"/>
    <tag k="SHAPE_LENG" v="0.000"/>
    <tag k="CAT2" v="50"/>
  </way>
  <node id='-16' visible='true' lat='40.3011830142236' lon='20.0220899388157' />
  <node id='-17' visible='true' lat='40.3006582277469' lon='20.0212376613282' />
  <way id='-18' visible='true'>
    <nd ref='-16' />
    <nd ref='-17' />
    <tag k="ID" v="16608.000"/>
    <tag k="CATEGORY" v="5"/>
    <tag k="SHAPE_LE_1" v="92.993"/>
    <tag k="ET_ID" v="15363"/>
    <tag k="WAY_TYPE" v="Dwelling Area Road"/>
    <tag k="SHAPE_LENG" v="0.000"/>
    <tag k="CAT2" v="50"/>
  </way>
  <node id='-19' visible='true' lat='40.2975146616992' lon='20.0225298414064' />
  <node id='-20' visible='true' lat='40.2984194524955' lon='20.0226156674735' />
  <node id='-21' visible='true' lat='40.299443380494' lon='20.0224668762184' />
  <node id='-22' visible='true' lat='40.2999953434383' lon='20.0225762036287' />
  <node id='-23' visible='true' lat='40.3003432867492' lon='20.0228057627157' />
  <node id='-24' visible='true' lat='40.3006008264613' lon='20.0229528485035' />
  <node id='-25' visible='true' lat='40.3009073534955' lon='20.0228311414668' />
  <node id='-26' visible='true' lat='40.3012737011494' lon='20.0222059165866' />
  <node id='-27' visible='true' lat='40.3011830142236' lon='20.0220899388157' />
  <way id='-28' visible='true'>
    <nd ref='-19' />
    <nd ref='-20' />
    <nd ref='-21' />
    <nd ref='-22' />
    <nd ref='-23' />
    <nd ref='-24' />
    <nd ref='-25' />
    <nd ref='-26' />
    <nd ref='-27' />
    <tag k="ID" v="16609.000"/>
    <tag k="CATEGORY" v="5"/>
    <tag k="SHAPE_LE_1" v="468.271"/>
    <tag k="ET_ID" v="15364"/>
    <tag k="WAY_TYPE" v="Dwelling Area Road"/>
    <tag k="SHAPE_LENG" v="0.000"/>
    <tag k="CAT2" v="10"/>
  </way>
  <node id='-29' visible='true' lat='40.2985404980713' lon='20.0210909112739' />
  <node id='-30' visible='true' lat='40.2981825750155' lon='20.021196604814' />
  <node id='-31' visible='true' lat='40.2980295248623' lon='20.0212825823214' />
  <node id='-32' visible='true' lat='40.2977756676653' lon='20.021571073877' />
  <node id='-33' visible='true' lat='40.2976250252763' lon='20.021941842991' />
  <node id='-34' visible='true' lat='40.2975763228043' lon='20.0222441252477' />
  <node id='-35' visible='true' lat='40.2975146616992' lon='20.0225298414064' />
  <way id='-36' visible='true'>
    <nd ref='-29' />
    <nd ref='-30' />
    <nd ref='-31' />
    <nd ref='-32' />
    <nd ref='-33' />
    <nd ref='-34' />
    <nd ref='-35' />
    <tag k="ID" v="16610.000"/>
    <tag k="CATEGORY" v="5"/>
    <tag k="SHAPE_LE_1" v="183.821"/>
    <tag k="ET_ID" v="15365"/>
    <tag k="WAY_TYPE" v="Dwelling Area Road"/>
    <tag k="SHAPE_LENG" v="0.000"/>
    <tag k="CAT2" v="50"/>
  </way>
  <node id='-37' visible='true' lat='40.3006582277469' lon='20.0212376613282' />
  <node id='-38' visible='true' lat='40.3003125267003' lon='20.021546001073' />
  <node id='-39' visible='true' lat='40.2998659655264' lon='20.0217290127091' />
  <node id='-40' visible='true' lat='40.2995409379617' lon='20.0217658038189' />
  <node id='-41' visible='true' lat='40.2991355791083' lon='20.0217395480894' />
  <node id='-42' visible='true' lat='40.2987957635788' lon='20.0214796034179' />
  <node id='-43' visible='true' lat='40.2985404980713' lon='20.0210909112739' />
  <way id='-44' visible='true'>
    <nd ref='-37' />
    <nd ref='-38' />
    <nd ref='-39' />
    <nd ref='-40' />
    <nd ref='-41' />
    <nd ref='-42' />
    <nd ref='-43' />
    <tag k="ID" v="16611.000"/>
    <tag k="CATEGORY" v="5"/>
    <tag k="SHAPE_LE_1" v="267.041"/>
    <tag k="ET_ID" v="15366"/>
    <tag k="WAY_TYPE" v="Dwelling Area Road"/>
    <tag k="SHAPE_LENG" v="0.000"/>
    <tag k="CAT2" v="50"/>
  </way>
  <node id='-45' visible='true' lat='40.2973241433028' lon='20.0199604898729' />
  <node id='-46' visible='true' lat='40.29735270691' lon='20.0204335817125' />
  <node id='-47' visible='true' lat='40.297368787945' lon='20.0208827793788' />
  <way id='-48' visible='true'>
    <nd ref='-45' />
    <nd ref='-46' />
    <nd ref='-47' />
    <tag k="ID" v="16612.000"/>
    <tag k="CATEGORY" v="5"/>
    <tag k="SHAPE_LE_1" v="78.590"/>
    <tag k="ET_ID" v="15367"/>
    <tag k="WAY_TYPE" v="Dwelling Area Road"/>
    <tag k="SHAPE_LENG" v="0.000"/>
    <tag k="CAT2" v="50"/>
  </way>
  <node id='-49' visible='true' lat='40.2983487833642' lon='20.020627862664' />
  <node id='-50' visible='true' lat='40.2983413563935' lon='20.0204754861224' />
  <node id='-51' visible='true' lat='40.298246844705' lon='20.020187925972' />
  <node id='-52' visible='true' lat='40.2981155061926' lon='20.0199008987992' />
  <node id='-53' visible='true' lat='40.2979489002141' lon='20.0197989734246' />
  <node id='-54' visible='true' lat='40.2978137366468' lon='20.0197848728516' />
  <node id='-55' visible='true' lat='40.2975747702242' lon='20.0198364821549' />
  <node id='-56' visible='true' lat='40.2973241433028' lon='20.0199604898729' />
  <way id='-57' visible='true'>
    <nd ref='-49' />
    <nd ref='-50' />
    <nd ref='-51' />
    <nd ref='-52' />
    <nd ref='-53' />
    <nd ref='-54' />
    <nd ref='-55' />
    <nd ref='-56' />
    <tag k="ID" v="16613.000"/>
    <tag k="CATEGORY" v="5"/>
    <tag k="SHAPE_LE_1" v="160.174"/>
    <tag k="ET_ID" v="15368"/>
    <tag k="WAY_TYPE" v="Dwelling Area Road"/>
    <tag k="SHAPE_LENG" v="0.000"/>
    <tag k="CAT2" v="50"/>
  </way>
  <node id='-58' visible='true' lat='40.2984814079687' lon='20.0206013123452' />
  <node id='-59' visible='true' lat='40.2983487833642' lon='20.020627862664' />
  <way id='-60' visible='true'>
    <nd ref='-58' />
    <nd ref='-59' />
    <tag k="ID" v="16614.000"/>
    <tag k="CATEGORY" v="5"/>
    <tag k="SHAPE_LE_1" v="14.900"/>
    <tag k="ET_ID" v="15369"/>
    <tag k="WAY_TYPE" v="Dwelling Area Road"/>
    <tag k="SHAPE_LENG" v="0.000"/>
    <tag k="CAT2" v="50"/>
  </way>
  <node id='-61' visible='true' lat='40.2968517131268' lon='20.0189471027159' />
  <node id='-62' visible='true' lat='40.2970329732731' lon='20.0193297054985' />
  <node id='-63' visible='true' lat='40.2970761231081' lon='20.0200754565865' />
  <way id='-64' visible='true'>
    <nd ref='-61' />
    <nd ref='-62' />
    <nd ref='-63' />
    <tag k="ID" v="16615.000"/>
    <tag k="CATEGORY" v="5"/>
    <tag k="SHAPE_LE_1" v="101.850"/>
    <tag k="ET_ID" v="15370"/>
    <tag k="WAY_TYPE" v="Dwelling Area Road"/>
    <tag k="SHAPE_LENG" v="0.000"/>
    <tag k="CAT2" v="50"/>
  </way>
  <node id='-65' visible='true' lat='40.2955771985534' lon='20.0177697604601' />
  <node id='-66' visible='true' lat='40.2961208599348' lon='20.018179214173' />
  <node id='-67' visible='true' lat='40.2968517131268' lon='20.0189471027159' />
  <way id='-68' visible='true'>
    <nd ref='-65' />
    <nd ref='-66' />
    <nd ref='-67' />
    <tag k="ID" v="16616.000"/>
    <tag k="CATEGORY" v="5"/>
    <tag k="SHAPE_LE_1" v="173.862"/>
    <tag k="ET_ID" v="15371"/>
    <tag k="WAY_TYPE" v="Dwelling Area Road"/>
    <tag k="SHAPE_LENG" v="0.000"/>
    <tag k="CAT2" v="50"/>
  </way>
  <node id='-69' visible='true' lat='40.2954620828318' lon='20.0191496603403' />
  <node id='-70' visible='true' lat='40.2954598129645' lon='20.0191277446702' />
  <node id='-71' visible='true' lat='40.2954942665478' lon='20.0181240763703' />
  <node id='-72' visible='true' lat='40.2955771985534' lon='20.0177697604601' />
  <way id='-73' visible='true'>
    <nd ref='-69' />
    <nd ref='-70' />
    <nd ref='-71' />
    <nd ref='-72' />
    <tag k="ID" v="16617.000"/>
    <tag k="CATEGORY" v="5"/>
    <tag k="SHAPE_LE_1" v="118.816"/>
    <tag k="ET_ID" v="15372"/>
    <tag k="WAY_TYPE" v="Dwelling Area Road"/>
    <tag k="SHAPE_LENG" v="0.000"/>
    <tag k="CAT2" v="50"/>
  </way>
  <node id='-74' visible='true' lat='40.2955907478562' lon='20.0203514225961' />
  <node id='-75' visible='true' lat='40.2955801504776' lon='20.0202896741631' />
  <node id='-76' visible='true' lat='40.2954620828318' lon='20.0191496603403' />
  <way id='-77' visible='true'>
    <nd ref='-74' />
    <nd ref='-75' />
    <nd ref='-76' />
    <tag k="ID" v="16618.000"/>
    <tag k="CATEGORY" v="5"/>
    <tag k="SHAPE_LE_1" v="103.203"/>
    <tag k="ET_ID" v="15373"/>
    <tag k="WAY_TYPE" v="Dwelling Area Road"/>
    <tag k="SHAPE_LENG" v="0.000"/>
    <tag k="CAT2" v="50"/>
  </way>
  <node id='-78' visible='true' lat='40.2956548666275' lon='20.0211392837687' />
  <node id='-79' visible='true' lat='40.2956447190543' lon='20.0206659315306' />
  <node id='-80' visible='true' lat='40.2955907478562' lon='20.0203514225961' />
  <way id='-81' visible='true'>
    <nd ref='-78' />
    <nd ref='-79' />
    <nd ref='-80' />
    <tag k="ID" v="16619.000"/>
    <tag k="CATEGORY" v="5"/>
    <tag k="SHAPE_LE_1" v="67.673"/>
    <tag k="ET_ID" v="15374"/>
    <tag k="WAY_TYPE" v="Dwelling Area Road"/>
    <tag k="SHAPE_LENG" v="0.000"/>
    <tag k="CAT2" v="50"/>
  </way>
  <node id='-82' visible='true' lat='40.297368787945' lon='20.0208827793788' />
  <node id='-83' visible='true' lat='40.2968174099868' lon='20.0210111238217' />
  <node id='-84' visible='true' lat='40.2956548666275' lon='20.0211392837687' />
  <way id='-85' visible='true'>
    <nd ref='-82' />
    <nd ref='-83' />
    <nd ref='-84' />
    <tag k="ID" v="16620.000"/>
    <tag k="CATEGORY" v="5"/>
    <tag k="SHAPE_LE_1" v="191.758"/>
    <tag k="ET_ID" v="15375"/>
    <tag k="WAY_TYPE" v="Dwelling Area Road"/>
    <tag k="SHAPE_LENG" v="0.000"/>
    <tag k="CAT2" v="50"/>
  </way>
  <node id='-86' visible='true' lat='40.2963456629547' lon='20.0163822120274' />
  <node id='-87' visible='true' lat='40.2963294989855' lon='20.0163585045072' />
  <node id='-88' visible='true' lat='40.2960314145419' lon='20.0166758172276' />
  <node id='-89' visible='true' lat='40.2954702874252' lon='20.0171012683374' />
  <way id='-90' visible='true'>
    <nd ref='-86' />
    <nd ref='-87' />
    <nd ref='-88' />
    <nd ref='-89' />
    <tag k="ID" v="16621.000"/>
    <tag k="CATEGORY" v="5"/>
    <tag k="SHAPE_LE_1" v="117.460"/>
    <tag k="ET_ID" v="15376"/>
    <tag k="WAY_TYPE" v="Dwelling Area Road"/>
    <tag k="SHAPE_LENG" v="0.000"/>
    <tag k="CAT2" v="50"/>
  </way>
  <node id='-91' visible='true' lat='40.2968517131268' lon='20.0189471027159' />
  <node id='-92' visible='true' lat='40.2971071865406' lon='20.0186705410491' />
  <node id='-93' visible='true' lat='40.2973016878262' lon='20.0184430092002' />
  <node id='-94' visible='true' lat='40.2972539536923' lon='20.0178819121181' />
  <node id='-95' visible='true' lat='40.2971533154764' lon='20.0175181481745' />
  <node id='-96' visible='true' lat='40.2968911020164' lon='20.0170002899074' />
  <node id='-97' visible='true' lat='40.2963456629547' lon='20.0163822120274' />
  <way id='-98' visible='true'>
    <nd ref='-91' />
    <nd ref='-92' />
    <nd ref='-93' />
    <nd ref='-94' />
    <nd ref='-95' />
    <nd ref='-96' />
    <nd ref='-97' />
    <tag k="ID" v="16622.000"/>
    <tag k="CATEGORY" v="5"/>
    <tag k="SHAPE_LE_1" v="279.726"/>
    <tag k="ET_ID" v="15377"/>
    <tag k="WAY_TYPE" v="Dwelling Area Road"/>
    <tag k="SHAPE_LENG" v="0.000"/>
    <tag k="CAT2" v="50"/>
  </way>
  <node id='-99' visible='true' lat='40.2959415894565' lon='20.0154973902514' />
  <node id='-100' visible='true' lat='40.2959722880718' lon='20.0155646091578' />
  <way id='-101' visible='true'>
    <nd ref='-99' />
    <nd ref='-100' />
    <tag k="ID" v="16623.000"/>
    <tag k="CATEGORY" v="5"/>
    <tag k="SHAPE_LE_1" v="6.655"/>
    <tag k="ET_ID" v="15378"/>
    <tag k="WAY_TYPE" v="Dwelling Area Road"/>
    <tag k="SHAPE_LENG" v="0.000"/>
    <tag k="CAT2" v="50"/>
  </way>
  <node id='-102' visible='true' lat='40.2951446457347' lon='20.0163435861384' />
  <node id='-103' visible='true' lat='40.2952661045392' lon='20.0161893479395' />
  <node id='-104' visible='true' lat='40.2959415894565' lon='20.0154973902514' />
  <way id='-105' visible='true'>
    <nd ref='-102' />
    <nd ref='-103' />
    <nd ref='-104' />
    <tag k="ID" v="16624.000"/>
    <tag k="CATEGORY" v="5"/>
    <tag k="SHAPE_LE_1" v="114.151"/>
    <tag k="ET_ID" v="15379"/>
    <tag k="WAY_TYPE" v="Dwelling Area Road"/>
    <tag k="SHAPE_LENG" v="0.000"/>
    <tag k="CAT2" v="50"/>
  </way>
  <node id='-106' visible='true' lat='40.2953959919' lon='20.0169799513423' />
  <node id='-107' visible='true' lat='40.2953582409869' lon='20.0169183141556' />
  <node id='-108' visible='true' lat='40.2951446457347' lon='20.0163435861384' />
  <way id='-109' visible='true'>
    <nd ref='-106' />
    <nd ref='-107' />
    <nd ref='-108' />
    <tag k="ID" v="16625.000"/>
    <tag k="CATEGORY" v="5"/>
    <tag k="SHAPE_LE_1" v="61.035"/>
    <tag k="ET_ID" v="15380"/>
    <tag k="WAY_TYPE" v="Dwelling Area Road"/>
    <tag k="SHAPE_LENG" v="0.000"/>
    <tag k="CAT2" v="50"/>
  </way>
  <node id='-110' visible='true' lat='40.2954702874252' lon='20.0171012683374' />
  <node id='-111' visible='true' lat='40.2953959919' lon='20.0169799513423' />
  <way id='-112' visible='true'>
    <nd ref='-110' />
    <nd ref='-111' />
    <tag k="ID" v="16626.000"/>
    <tag k="CATEGORY" v="5"/>
    <tag k="SHAPE_LE_1" v="13.210"/>
    <tag k="ET_ID" v="15381"/>
    <tag k="WAY_TYPE" v="Dwelling Area Road"/>
    <tag k="SHAPE_LENG" v="0.000"/>
    <tag k="CAT2" v="50"/>
  </way>
  <node id='-113' visible='true' lat='40.295431267421' lon='20.0147223474892' />
  <node id='-114' visible='true' lat='40.2952537622464' lon='20.0143796281163' />
  <node id='-115' visible='true' lat='40.2951201730454' lon='20.0139367849168' />
  <way id='-116' visible='true'>
    <nd ref='-113' />
    <nd ref='-114' />
    <nd ref='-115' />
    <tag k="ID" v="16627.000"/>
    <tag k="CATEGORY" v="5"/>
    <tag k="SHAPE_LE_1" v="75.657"/>
    <tag k="ET_ID" v="15382"/>
    <tag k="WAY_TYPE" v="Dwelling Area Road"/>
    <tag k="SHAPE_LENG" v="0.000"/>
    <tag k="CAT2" v="50"/>
  </way>
  <node id='-117' visible='true' lat='40.2949472122381' lon='20.015503796174' />
  <node id='-118' visible='true' lat='40.2951428743719' lon='20.0150250105372' />
  <node id='-119' visible='true' lat='40.2952848078444' lon='20.0148707857471' />
  <node id='-120' visible='true' lat='40.295431267421' lon='20.0147223474892' />
  <way id='-121' visible='true'>
    <nd ref='-117' />
    <nd ref='-118' />
    <nd ref='-119' />
    <nd ref='-120' />
    <tag k="ID" v="16628.000"/>
    <tag k="CATEGORY" v="5"/>
    <tag k="SHAPE_LE_1" v="87.241"/>
    <tag k="ET_ID" v="15383"/>
    <tag k="WAY_TYPE" v="Dwelling Area Road"/>
    <tag k="SHAPE_LENG" v="0.000"/>
    <tag k="CAT2" v="50"/>
  </way>
  <node id='-122' visible='true' lat='40.2951446457347' lon='20.0163435861384' />
  <node id='-123' visible='true' lat='40.2950225713574' lon='20.0157033325955' />
  <node id='-124' visible='true' lat='40.2949472122381' lon='20.015503796174' />
  <way id='-125' visible='true'>
    <nd ref='-122' />
    <nd ref='-123' />
    <nd ref='-124' />
    <tag k="ID" v="16629.000"/>
    <tag k="CATEGORY" v="5"/>
    <tag k="SHAPE_LE_1" v="75.025"/>
    <tag k="ET_ID" v="15384"/>
    <tag k="WAY_TYPE" v="Dwelling Area Road"/>
    <tag k="SHAPE_LENG" v="0.000"/>
    <tag k="CAT2" v="50"/>
  </way>
  <node id='-126' visible='true' lat='40.2943985870592' lon='20.0204988177249' />
  <node id='-127' visible='true' lat='40.2944433333686' lon='20.0202591142133' />
  <node id='-128' visible='true' lat='40.2943870240488' lon='20.0194092606972' />
  <way id='-129' visible='true'>
    <nd ref='-126' />
    <nd ref='-127' />
    <nd ref='-128' />
    <tag k="ID" v="16630.000"/>
    <tag k="CATEGORY" v="5"/>
    <tag k="SHAPE_LE_1" v="93.517"/>
    <tag k="ET_ID" v="15385"/>
    <tag k="WAY_TYPE" v="Dwelling Area Road"/>
    <tag k="SHAPE_LENG" v="0.000"/>
    <tag k="CAT2" v="50"/>
  </way>
  <node id='-130' visible='true' lat='40.2943284569925' lon='20.0211916992575' />
  <node id='-131' visible='true' lat='40.2943787388' lon='20.0206051358524' />
  <node id='-132' visible='true' lat='40.2943985870592' lon='20.0204988177249' />
  <way id='-133' visible='true'>
    <nd ref='-130' />
    <nd ref='-131' />
    <nd ref='-132' />
    <tag k="ID" v="16631.000"/>
    <tag k="CATEGORY" v="5"/>
    <tag k="SHAPE_LE_1" v="59.495"/>
    <tag k="ET_ID" v="15386"/>
    <tag k="WAY_TYPE" v="Dwelling Area Road"/>
    <tag k="SHAPE_LENG" v="0.000"/>
    <tag k="CAT2" v="50"/>
  </way>
  <node id='-134' visible='true' lat='40.2927178978967' lon='20.0216482906424' />
  <node id='-135' visible='true' lat='40.2933344176361' lon='20.0212381424312' />
  <node id='-136' visible='true' lat='40.2935363505296' lon='20.0211630025518' />
  <node id='-137' visible='true' lat='40.2943284569925' lon='20.0211916992575' />
  <way id='-138' visible='true'>
    <nd ref='-134' />
    <nd ref='-135' />
    <nd ref='-136' />
    <nd ref='-137' />
    <tag k="ID" v="16632.000"/>
    <tag k="CATEGORY" v="5"/>
    <tag k="SHAPE_LE_1" v="188.153"/>
    <tag k="ET_ID" v="15387"/>
    <tag k="WAY_TYPE" v="Dwelling Area Road"/>
    <tag k="SHAPE_LENG" v="0.000"/>
    <tag k="CAT2" v="50"/>
  </way>
  <node id='-139' visible='true' lat='40.2943985870592' lon='20.0204988177249' />
  <node id='-140' visible='true' lat='40.2947678418756' lon='20.0204757704619' />
  <node id='-141' visible='true' lat='40.2955907478562' lon='20.0203514225961' />
  <way id='-142' visible='true'>
    <nd ref='-139' />
    <nd ref='-140' />
    <nd ref='-141' />
    <tag k="ID" v="16633.000"/>
    <tag k="CATEGORY" v="5"/>
    <tag k="SHAPE_LE_1" v="133.048"/>
    <tag k="ET_ID" v="15388"/>
    <tag k="WAY_TYPE" v="Dwelling Area Road"/>
    <tag k="SHAPE_LENG" v="0.000"/>
    <tag k="CAT2" v="50"/>
  </way>
  <node id='-143' visible='true' lat='40.295431267421' lon='20.0147223474892' />
  <node id='-144' visible='true' lat='40.29555960028' lon='20.0147853835388' />
  <way id='-145' visible='true'>
    <nd ref='-143' />
    <nd ref='-144' />
    <tag k="ID" v="16634.000"/>
    <tag k="CATEGORY" v="5"/>
    <tag k="SHAPE_LE_1" v="15.226"/>
    <tag k="ET_ID" v="15389"/>
    <tag k="WAY_TYPE" v="Dwelling Area Road"/>
    <tag k="SHAPE_LENG" v="0.000"/>
    <tag k="CAT2" v="50"/>
  </way>
  <node id='-146' visible='true' lat='40.2975146616992' lon='20.0225298414064' />
  <node id='-147' visible='true' lat='40.2951715201732' lon='20.0220206182853' />
  <node id='-148' visible='true' lat='40.2942597914657' lon='20.0219644987504' />
  <way id='-149' visible='true'>
    <nd ref='-146' />
    <nd ref='-147' />
    <nd ref='-148' />
    <tag k="ID" v="18061.000"/>
    <tag k="CATEGORY" v="5"/>
    <tag k="SHAPE_LE_1" v="365.149"/>
    <tag k="ET_ID" v="16848"/>
    <tag k="WAY_TYPE" v="Dwelling Area Road"/>
    <tag k="SHAPE_LENG" v="0.000"/>
    <tag k="CAT2" v="10"/>
  </way>
  <node id='-150' visible='true' lat='40.2959722880718' lon='20.0155646091578' />
  <node id='-151' visible='true' lat='40.2962573528253' lon='20.0152434464024' />
  <node id='-152' visible='true' lat='40.2966335225927' lon='20.0147346663776' />
  <way id='-153' visible='true'>
    <nd ref='-150' />
    <nd ref='-151' />
    <nd ref='-152' />
    <tag k="ID" v="18062.000"/>
    <tag k="CATEGORY" v="5"/>
    <tag k="SHAPE_LE_1" v="101.948"/>
    <tag k="ET_ID" v="16849"/>
    <tag k="WAY_TYPE" v="Dwelling Area Road"/>
    <tag k="SHAPE_LENG" v="0.000"/>
    <tag k="CAT2" v="50"/>
  </way>
  <node id='-154' visible='true' lat='40.29555960028' lon='20.0147853835388' />
  <node id='-155' visible='true' lat='40.2957941886094' lon='20.0149985175864' />
  <node id='-156' visible='true' lat='40.2959045991506' lon='20.0153480622411' />
  <node id='-157' visible='true' lat='40.2959415894565' lon='20.0154973902514' />
  <way id='-158' visible='true'>
    <nd ref='-154' />
    <nd ref='-155' />
    <nd ref='-156' />
    <nd ref='-157' />
    <tag k="ID" v="18063.000"/>
    <tag k="CATEGORY" v="5"/>
    <tag k="SHAPE_LE_1" v="77.234"/>
    <tag k="ET_ID" v="16850"/>
    <tag k="WAY_TYPE" v="Dwelling Area Road"/>
    <tag k="SHAPE_LENG" v="0.000"/>
    <tag k="CAT2" v="50"/>
  </way>
  <node id='-159' visible='true' lat='40.29555960028' lon='20.0147853835388' />
  <node id='-160' visible='true' lat='40.2956079352596' lon='20.0146793345261' />
  <node id='-161' visible='true' lat='40.2958922044231' lon='20.0144176925726' />
  <node id='-162' visible='true' lat='40.2961675154393' lon='20.0141561846277' />
  <way id='-163' visible='true'>
    <nd ref='-159' />
    <nd ref='-160' />
    <nd ref='-161' />
    <nd ref='-162' />
    <tag k="ID" v="18064.000"/>
    <tag k="CATEGORY" v="5"/>
    <tag k="SHAPE_LE_1" v="86.920"/>
    <tag k="ET_ID" v="16851"/>
    <tag k="WAY_TYPE" v="Dwelling Area Road"/>
    <tag k="SHAPE_LENG" v="0.000"/>
    <tag k="CAT2" v="50"/>
  </way>
  <node id='-164' visible='true' lat='40.2951201730454' lon='20.0139367849168' />
  <node id='-165' visible='true' lat='40.2954988318962' lon='20.0137205927147' />
  <node id='-166' visible='true' lat='40.2957034749511' lon='20.0135713053527' />
  <node id='-167' visible='true' lat='40.2957691704063' lon='20.0134006262548' />
  <way id='-168' visible='true'>
    <nd ref='-164' />
    <nd ref='-165' />
    <nd ref='-166' />
    <nd ref='-167' />
    <tag k="ID" v="18065.000"/>
    <tag k="CATEGORY" v="5"/>
    <tag k="SHAPE_LE_1" v="88.169"/>
    <tag k="ET_ID" v="16852"/>
    <tag k="WAY_TYPE" v="Dwelling Area Road"/>
    <tag k="SHAPE_LENG" v="0.000"/>
    <tag k="CAT2" v="50"/>
  </way>
  <node id='-169' visible='true' lat='40.2956548666275' lon='20.0211392837687' />
  <node id='-170' visible='true' lat='40.2943284569925' lon='20.0211916992575' />
  <way id='-171' visible='true'>
    <nd ref='-169' />
    <nd ref='-170' />
    <tag k="ID" v="18066.000"/>
    <tag k="CATEGORY" v="5"/>
    <tag k="SHAPE_LE_1" v="147.367"/>
    <tag k="ET_ID" v="16853"/>
    <tag k="WAY_TYPE" v="Dwelling Area Road"/>
    <tag k="SHAPE_LENG" v="0.000"/>
    <tag k="CAT2" v="50"/>
  </way>
  <node id='-172' visible='true' lat='40.2955907478562' lon='20.0203514225961' />
  <node id='-173' visible='true' lat='40.2965797859732' lon='20.0201789313809' />
  <node id='-174' visible='true' lat='40.2970761231081' lon='20.0200754565865' />
  <way id='-175' visible='true'>
    <nd ref='-172' />
    <nd ref='-173' />
    <nd ref='-174' />
    <tag k="ID" v="18067.000"/>
    <tag k="CATEGORY" v="5"/>
    <tag k="SHAPE_LE_1" v="166.626"/>
    <tag k="ET_ID" v="16854"/>
    <tag k="WAY_TYPE" v="Dwelling Area Road"/>
    <tag k="SHAPE_LENG" v="0.000"/>
    <tag k="CAT2" v="50"/>
  </way>
  <node id='-176' visible='true' lat='40.2943870240488' lon='20.0194092606972' />
  <node id='-177' visible='true' lat='40.2947823298403' lon='20.01928781936' />
  <node id='-178' visible='true' lat='40.2950211555493' lon='20.0192201712204' />
  <node id='-179' visible='true' lat='40.2954620828318' lon='20.0191496603403' />
  <way id='-180' visible='true'>
    <nd ref='-176' />
    <nd ref='-177' />
    <nd ref='-178' />
    <nd ref='-179' />
    <tag k="ID" v="18068.000"/>
    <tag k="CATEGORY" v="5"/>
    <tag k="SHAPE_LE_1" v="121.568"/>
    <tag k="ET_ID" v="16855"/>
    <tag k="WAY_TYPE" v="Dwelling Area Road"/>
    <tag k="SHAPE_LENG" v="0.000"/>
    <tag k="CAT2" v="50"/>
  </way>
  <node id='-181' visible='true' lat='40.2943870240488' lon='20.0194092606972' />
  <node id='-182' visible='true' lat='40.2944767085687' lon='20.0191270817581' />
  <node id='-183' visible='true' lat='40.2945940442489' lon='20.0188010091264' />
  <node id='-184' visible='true' lat='40.2951725068637' lon='20.0175246441994' />
  <node id='-185' visible='true' lat='40.2953959919' lon='20.0169799513423' />
  <way id='-186' visible='true'>
    <nd ref='-181' />
    <nd ref='-182' />
    <nd ref='-183' />
    <nd ref='-184' />
    <nd ref='-185' />
    <tag k="ID" v="18069.000"/>
    <tag k="CATEGORY" v="5"/>
    <tag k="SHAPE_LE_1" v="235.285"/>
    <tag k="ET_ID" v="16856"/>
    <tag k="WAY_TYPE" v="Dwelling Area Road"/>
    <tag k="SHAPE_LENG" v="0.000"/>
    <tag k="CAT2" v="50"/>
  </way>
  <node id='-187' visible='true' lat='40.2951201730454' lon='20.0139367849168' />
  <node id='-188' visible='true' lat='40.2949132805045' lon='20.0138227469098' />
  <node id='-189' visible='true' lat='40.2947875584375' lon='20.0137777517637' />
  <node id='-190' visible='true' lat='40.2944068045298' lon='20.0137481765929' />
  <way id='-191' visible='true'>
    <nd ref='-187' />
    <nd ref='-188' />
    <nd ref='-189' />
    <nd ref='-190' />
    <tag k="ID" v="18070.000"/>
    <tag k="CATEGORY" v="5"/>
    <tag k="SHAPE_LE_1" v="81.773"/>
    <tag k="ET_ID" v="16857"/>
    <tag k="WAY_TYPE" v="Dwelling Area Road"/>
    <tag k="SHAPE_LENG" v="0.000"/>
    <tag k="CAT2" v="50"/>
  </way>
  <node id='-192' visible='true' lat='40.2959722880718' lon='20.0155646091578' />
  <node id='-193' visible='true' lat='40.2963456629547' lon='20.0163822120274' />
  <way id='-194' visible='true'>
    <nd ref='-192' />
    <nd ref='-193' />
    <tag k="ID" v="18071.000"/>
    <tag k="CATEGORY" v="5"/>
    <tag k="SHAPE_LE_1" v="80.949"/>
    <tag k="ET_ID" v="16858"/>
    <tag k="WAY_TYPE" v="Dwelling Area Road"/>
    <tag k="SHAPE_LENG" v="0.000"/>
    <tag k="CAT2" v="50"/>
  </way>
  <node id='-195' visible='true' lat='40.2954702874252' lon='20.0171012683374' />
  <node id='-196' visible='true' lat='40.295546393588' lon='20.017389079077' />
  <node id='-197' visible='true' lat='40.2955771985534' lon='20.0177697604601' />
  <way id='-198' visible='true'>
    <nd ref='-195' />
    <nd ref='-196' />
    <nd ref='-197' />
    <tag k="ID" v="18072.000"/>
    <tag k="CATEGORY" v="5"/>
    <tag k="SHAPE_LE_1" v="58.443"/>
    <tag k="ET_ID" v="16859"/>
    <tag k="WAY_TYPE" v="Dwelling Area Road"/>
    <tag k="SHAPE_LENG" v="0.000"/>
    <tag k="CAT2" v="50"/>
  </way>
  <node id='-199' visible='true' lat='40.2970761231081' lon='20.0200754565865' />
  <node id='-200' visible='true' lat='40.2973241433028' lon='20.0199604898729' />
  <way id='-201' visible='true'>
    <nd ref='-199' />
    <nd ref='-200' />
    <tag k="ID" v="18073.000"/>
    <tag k="CATEGORY" v="5"/>
    <tag k="SHAPE_LE_1" v="29.226"/>
    <tag k="ET_ID" v="16860"/>
    <tag k="WAY_TYPE" v="Dwelling Area Road"/>
    <tag k="SHAPE_LENG" v="0.000"/>
    <tag k="CAT2" v="50"/>
  </way>
  <node id='-202' visible='true' lat='40.297368787945' lon='20.0208827793788' />
  <node id='-203' visible='true' lat='40.2983487833642' lon='20.020627862664' />
  <way id='-204' visible='true'>
    <nd ref='-202' />
    <nd ref='-203' />
    <tag k="ID" v="18074.000"/>
    <tag k="CATEGORY" v="5"/>
    <tag k="SHAPE_LE_1" v="110.968"/>
    <tag k="ET_ID" v="16861"/>
    <tag k="WAY_TYPE" v="Dwelling Area Road"/>
    <tag k="SHAPE_LENG" v="0.000"/>
    <tag k="CAT2" v="50"/>
  </way>
  <node id='-205' visible='true' lat='40.2984814079687' lon='20.0206013123452' />
  <node id='-206' visible='true' lat='40.2985468890734' lon='20.0208256426391' />
  <node id='-207' visible='true' lat='40.2985404980713' lon='20.0210909112739' />
  <way id='-208' visible='true'>
    <nd ref='-205' />
    <nd ref='-206' />
    <nd ref='-207' />
    <tag k="ID" v="18075.000"/>
    <tag k="CATEGORY" v="5"/>
    <tag k="SHAPE_LE_1" v="42.981"/>
    <tag k="ET_ID" v="16862"/>
    <tag k="WAY_TYPE" v="Dwelling Area Road"/>
    <tag k="SHAPE_LENG" v="0.000"/>
    <tag k="CAT2" v="50"/>
  </way>
  <node id='-209' visible='true' lat='40.3019256969527' lon='20.0145307449211' />
  <node id='-210' visible='true' lat='40.3019243755722' lon='20.0148974683056' />
  <way id='-211' visible='true'>
    <nd ref='-209' />
    <nd ref='-210' />
    <tag k="ID" v="166342.000"/>
    <tag k="CATEGORY" v="3"/>
    <tag k="SHAPE_LE_1" v="31.181"/>
    <tag k="ET_ID" v="158391"/>
    <tag k="WAY_TYPE" v="Seasonal Road"/>
    <tag k="SHAPE_LENG" v="0.000"/>
    <tag k="CAT2" v="30"/>
  </way>
  <node id='-212' visible='true' lat='40.2999228606782' lon='20.0141157311342' />
  <node id='-213' visible='true' lat='40.2999771152572' lon='20.0143018632748' />
  <node id='-214' visible='true' lat='40.3004637568023' lon='20.0157803759866' />
  <way id='-215' visible='true'>
    <nd ref='-212' />
    <nd ref='-213' />
    <nd ref='-214' />
    <tag k="ID" v="166344.000"/>
    <tag k="CATEGORY" v="3"/>
    <tag k="SHAPE_LE_1" v="153.773"/>
    <tag k="ET_ID" v="158393"/>
    <tag k="WAY_TYPE" v="Seasonal Road"/>
    <tag k="SHAPE_LENG" v="0.000"/>
    <tag k="CAT2" v="30"/>
  </way>
  <node id='-216' visible='true' lat='40.3019256969527' lon='20.0145307449211' />
  <node id='-217' visible='true' lat='40.3017607351203' lon='20.0143349731113' />
  <node id='-218' visible='true' lat='40.3014973230248' lon='20.0143289616357' />
  <node id='-219' visible='true' lat='40.3012716137318' lon='20.0143322422191' />
  <node id='-220' visible='true' lat='40.3009564569477' lon='20.014435204581' />
  <node id='-221' visible='true' lat='40.3004289576335' lon='20.0143444895192' />
  <node id='-222' visible='true' lat='40.2999228606782' lon='20.0141157311342' />
  <way id='-223' visible='true'>
    <nd ref='-216' />
    <nd ref='-217' />
    <nd ref='-218' />
    <nd ref='-219' />
    <nd ref='-220' />
    <nd ref='-221' />
    <nd ref='-222' />
    <tag k="ID" v="166345.000"/>
    <tag k="CATEGORY" v="3"/>
    <tag k="SHAPE_LE_1" v="233.712"/>
    <tag k="ET_ID" v="158394"/>
    <tag k="WAY_TYPE" v="Seasonal Road"/>
    <tag k="SHAPE_LENG" v="0.000"/>
    <tag k="CAT2" v="30"/>
  </way>
  <node id='-224' visible='true' lat='40.2949472122381' lon='20.015503796174' />
  <node id='-225' visible='true' lat='40.2945353093045' lon='20.0161517936414' />
  <node id='-226' visible='true' lat='40.2941832775211' lon='20.0166223613397' />
  <node id='-227' visible='true' lat='40.294080435752' lon='20.0168004060396' />
  <node id='-228' visible='true' lat='40.2937070398056' lon='20.0172253937864' />
  <node id='-229' visible='true' lat='40.2934330248353' lon='20.0174861623704' />
  <node id='-230' visible='true' lat='40.2930807103254' lon='20.0179246198286' />
  <node id='-231' visible='true' lat='40.292851584898' lon='20.01822570238' />
  <node id='-232' visible='true' lat='40.2925761332504' lon='20.0183179608259' />
  <node id='-233' visible='true' lat='40.2923371037981' lon='20.0183615455093' />
  <way id='-234' visible='true'>
    <nd ref='-224' />
    <nd ref='-225' />
    <nd ref='-226' />
    <nd ref='-227' />
    <nd ref='-228' />
    <nd ref='-229' />
    <nd ref='-230' />
    <nd ref='-231' />
    <nd ref='-232' />
    <nd ref='-233' />
    <tag k="ID" v="167023.000"/>
    <tag k="CATEGORY" v="3"/>
    <tag k="SHAPE_LE_1" v="387.701"/>
    <tag k="ET_ID" v="159062"/>
    <tag k="WAY_TYPE" v="Seasonal Road"/>
    <tag k="SHAPE_LENG" v="0.000"/>
    <tag k="CAT2" v="30"/>
  </way>
  <node id='-235' visible='true' lat='40.2981819210306' lon='20.0141598921861' />
  <node id='-236' visible='true' lat='40.298781147989' lon='20.0139944579462' />
  <node id='-237' visible='true' lat='40.2992548073466' lon='20.0139482188053' />
  <node id='-238' visible='true' lat='40.2996314072316' lon='20.0139919302404' />
  <node id='-239' visible='true' lat='40.2999228606782' lon='20.0141157311342' />
  <way id='-240' visible='true'>
    <nd ref='-235' />
    <nd ref='-236' />
    <nd ref='-237' />
    <nd ref='-238' />
    <nd ref='-239' />
    <tag k="ID" v="167032.000"/>
    <tag k="CATEGORY" v="3"/>
    <tag k="SHAPE_LE_1" v="196.786"/>
    <tag k="ET_ID" v="159071"/>
    <tag k="WAY_TYPE" v="Seasonal Road"/>
    <tag k="SHAPE_LENG" v="0.000"/>
    <tag k="CAT2" v="30"/>
  </way>
  <node id='-241' visible='true' lat='40.3004637568023' lon='20.0157803759866' />
  <node id='-242' visible='true' lat='40.2996256227518' lon='20.0163237976693' />
  <node id='-243' visible='true' lat='40.2993905130715' lon='20.0157466199635' />
  <node id='-244' visible='true' lat='40.2987103852043' lon='20.0151417886673' />
  <way id='-245' visible='true'>
    <nd ref='-241' />
    <nd ref='-242' />
    <nd ref='-243' />
    <nd ref='-244' />
    <tag k="ID" v="167033.000"/>
    <tag k="CATEGORY" v="3"/>
    <tag k="SHAPE_LE_1" v="250.880"/>
    <tag k="ET_ID" v="159072"/>
    <tag k="WAY_TYPE" v="Seasonal Road"/>
    <tag k="SHAPE_LENG" v="0.000"/>
    <tag k="CAT2" v="30"/>
  </way>
  <node id='-246' visible='true' lat='40.3004637568023' lon='20.0157803759866' />
  <node id='-247' visible='true' lat='40.3008308281403' lon='20.0155881195151' />
  <node id='-248' visible='true' lat='40.3014598039915' lon='20.0152248015051' />
  <node id='-249' visible='true' lat='40.3019243755722' lon='20.0148974683056' />
  <way id='-250' visible='true'>
    <nd ref='-246' />
    <nd ref='-247' />
    <nd ref='-248' />
    <nd ref='-249' />
    <tag k="ID" v="167034.000"/>
    <tag k="CATEGORY" v="3"/>
    <tag k="SHAPE_LE_1" v="178.915"/>
    <tag k="ET_ID" v="159073"/>
    <tag k="WAY_TYPE" v="Seasonal Road"/>
    <tag k="SHAPE_LENG" v="0.000"/>
    <tag k="CAT2" v="30"/>
  </way>
  <node id='-251' visible='true' lat='40.3037396608878' lon='20.0187292461218' />
  <node id='-252' visible='true' lat='40.3035777756474' lon='20.0188485830915' />
  <way id='-253' visible='true'>
    <nd ref='-251' />
    <nd ref='-252' />
    <tag k="ID" v="195228.000"/>
    <tag k="CATEGORY" v="1"/>
    <tag k="SHAPE_LE_1" v="20.643"/>
    <tag k="ET_ID" v="186047"/>
    <tag k="WAY_TYPE" v="National Asphalted Road"/>
    <tag k="SHAPE_LENG" v="0.000"/>
    <tag k="CAT2" v="11"/>
  </way>
  <node id='-254' visible='true' lat='40.2975479998247' lon='20.0129233212221' />
  <node id='-255' visible='true' lat='40.297400787774' lon='20.0132048767769' />
  <node id='-256' visible='true' lat='40.2974279924843' lon='20.0138890588066' />
  <node id='-257' visible='true' lat='40.2976814922652' lon='20.0147934801968' />
  <way id='-258' visible='true'>
    <nd ref='-254' />
    <nd ref='-255' />
    <nd ref='-256' />
    <nd ref='-257' />
    <tag k="ID" v="195234.000"/>
    <tag k="CATEGORY" v="1"/>
    <tag k="SHAPE_LE_1" v="169.140"/>
    <tag k="ET_ID" v="186053"/>
    <tag k="WAY_TYPE" v="National Asphalted Road"/>
    <tag k="SHAPE_LENG" v="0.000"/>
    <tag k="CAT2" v="11"/>
  </way>
  <node id='-259' visible='true' lat='40.2935950572056' lon='20.0089798867682' />
  <node id='-260' visible='true' lat='40.2937077773705' lon='20.0096627740996' />
  <node id='-261' visible='true' lat='40.293948592091' lon='20.0103298252482' />
  <node id='-262' visible='true' lat='40.2944218527051' lon='20.0106861457236' />
  <node id='-263' visible='true' lat='40.2953118485634' lon='20.0110363951771' />
  <node id='-264' visible='true' lat='40.2960289650769' lon='20.0111656461737' />
  <node id='-265' visible='true' lat='40.2965536211448' lon='20.0112837350371' />
  <node id='-266' visible='true' lat='40.2968866615883' lon='20.0114884400217' />
  <node id='-267' visible='true' lat='40.2972846341536' lon='20.012116844708' />
  <node id='-268' visible='true' lat='40.2975479998247' lon='20.0129233212221' />
  <way id='-269' visible='true'>
    <nd ref='-259' />
    <nd ref='-260' />
    <nd ref='-261' />
    <nd ref='-262' />
    <nd ref='-263' />
    <nd ref='-264' />
    <nd ref='-265' />
    <nd ref='-266' />
    <nd ref='-267' />
    <nd ref='-268' />
    <tag k="ID" v="195235.000"/>
    <tag k="CATEGORY" v="1"/>
    <tag k="SHAPE_LE_1" v="610.292"/>
    <tag k="ET_ID" v="186054"/>
    <tag k="WAY_TYPE" v="National Asphalted Road"/>
    <tag k="SHAPE_LENG" v="0.000"/>
    <tag k="CAT2" v="11"/>
  </way>
  <node id='-270' visible='true' lat='40.2940528542167' lon='20.0087776112113' />
  <node id='-271' visible='true' lat='40.2937011983103' lon='20.0088945125371' />
  <node id='-272' visible='true' lat='40.2935950572056' lon='20.0089798867682' />
  <way id='-273' visible='true'>
    <nd ref='-270' />
    <nd ref='-271' />
    <nd ref='-272' />
    <tag k="ID" v="195236.000"/>
    <tag k="CATEGORY" v="1"/>
    <tag k="SHAPE_LE_1" v="54.141"/>
    <tag k="ET_ID" v="186055"/>
    <tag k="WAY_TYPE" v="National Asphalted Road"/>
    <tag k="SHAPE_LENG" v="0.000"/>
    <tag k="CAT2" v="11"/>
  </way>
  <node id='-274' visible='true' lat='40.2973485303547' lon='20.0094143748044' />
  <node id='-275' visible='true' lat='40.2959584468764' lon='20.009168883861' />
  <node id='-276' visible='true' lat='40.2944488159951' lon='20.0088416798484' />
  <node id='-277' visible='true' lat='40.2940528542167' lon='20.0087776112113' />
  <way id='-278' visible='true'>
    <nd ref='-274' />
    <nd ref='-275' />
    <nd ref='-276' />
    <nd ref='-277' />
    <tag k="ID" v="195237.000"/>
    <tag k="CATEGORY" v="1"/>
    <tag k="SHAPE_LE_1" v="370.026"/>
    <tag k="ET_ID" v="186056"/>
    <tag k="WAY_TYPE" v="National Asphalted Road"/>
    <tag k="SHAPE_LENG" v="0.000"/>
    <tag k="CAT2" v="11"/>
  </way>
  <node id='-279' visible='true' lat='40.2975479998247' lon='20.0129233212221' />
  <node id='-280' visible='true' lat='40.2979364856322' lon='20.0133647343693' />
  <node id='-281' visible='true' lat='40.2981819210306' lon='20.0141598921861' />
  <way id='-282' visible='true'>
    <nd ref='-279' />
    <nd ref='-280' />
    <nd ref='-281' />
    <tag k="ID" v="195239.000"/>
    <tag k="CATEGORY" v="1"/>
    <tag k="SHAPE_LE_1" v="130.083"/>
    <tag k="ET_ID" v="186058"/>
    <tag k="WAY_TYPE" v="National Asphalted Road"/>
    <tag k="SHAPE_LENG" v="0.000"/>
    <tag k="CAT2" v="11"/>
  </way>
  <node id='-283' visible='true' lat='40.2942597914657' lon='20.0219644987504' />
  <node id='-284' visible='true' lat='40.2935601855753' lon='20.0219330262378' />
  <node id='-285' visible='true' lat='40.2926404189902' lon='20.0218762358825' />
  <way id='-286' visible='true'>
    <nd ref='-283' />
    <nd ref='-284' />
    <nd ref='-285' />
    <tag k="ID" v="195240.000"/>
    <tag k="CATEGORY" v="1"/>
    <tag k="SHAPE_LE_1" v="179.994"/>
    <tag k="ET_ID" v="186059"/>
    <tag k="WAY_TYPE" v="National Asphalted Road"/>
    <tag k="SHAPE_LENG" v="0.000"/>
    <tag k="CAT2" v="10"/>
  </way>
  <node id='-287' visible='true' lat='40.2976814922652' lon='20.0147934801968' />
  <node id='-288' visible='true' lat='40.2980386424182' lon='20.0165765810892' />
  <node id='-289' visible='true' lat='40.2982201681751' lon='20.017817374128' />
  <node id='-290' visible='true' lat='40.2984751319007' lon='20.0187327533639' />
  <way id='-291' visible='true'>
    <nd ref='-287' />
    <nd ref='-288' />
    <nd ref='-289' />
    <nd ref='-290' />
    <tag k="ID" v="195686.000"/>
    <tag k="CATEGORY" v="1"/>
    <tag k="SHAPE_LE_1" v="346.957"/>
    <tag k="ET_ID" v="186444"/>
    <tag k="WAY_TYPE" v="National Asphalted Road"/>
    <tag k="SHAPE_LENG" v="0.000"/>
    <tag k="CAT2" v="11"/>
  </way>
  <node id='-292' visible='true' lat='40.2926404189902' lon='20.0218762358825' />
  <node id='-293' visible='true' lat='40.2927178978967' lon='20.0216482906424' />
  <way id='-294' visible='true'>
    <nd ref='-292' />
    <nd ref='-293' />
    <tag k="ID" v="195732.000"/>
    <tag k="CATEGORY" v="1"/>
    <tag k="SHAPE_LE_1" v="21.208"/>
    <tag k="ET_ID" v="186482"/>
    <tag k="WAY_TYPE" v="National Asphalted Road"/>
    <tag k="SHAPE_LENG" v="0.000"/>
    <tag k="CAT2" v="10"/>
  </way>
  <node id='-295' visible='true' lat='40.2981819210306' lon='20.0141598921861' />
  <node id='-296' visible='true' lat='40.2982112433328' lon='20.0142548870586' />
  <node id='-297' visible='true' lat='40.2987103852043' lon='20.0151417886673' />
  <way id='-298' visible='true'>
    <nd ref='-295' />
    <nd ref='-296' />
    <nd ref='-297' />
    <tag k="ID" v="195733.000"/>
    <tag k="CATEGORY" v="1"/>
    <tag k="SHAPE_LE_1" v="102.302"/>
    <tag k="ET_ID" v="186483"/>
    <tag k="WAY_TYPE" v="National Asphalted Road"/>
    <tag k="SHAPE_LENG" v="0.000"/>
    <tag k="CAT2" v="11"/>
  </way>
  <node id='-299' visible='true' lat='40.3035777756474' lon='20.0188485830915' />
  <node id='-300' visible='true' lat='40.3028385073502' lon='20.0198792396401' />
  <node id='-301' visible='true' lat='40.3020246848628' lon='20.020880670793' />
  <node id='-302' visible='true' lat='40.3011830142236' lon='20.0220899388157' />
  <way id='-303' visible='true'>
    <nd ref='-299' />
    <nd ref='-300' />
    <nd ref='-301' />
    <nd ref='-302' />
    <tag k="ID" v="195735.000"/>
    <tag k="CATEGORY" v="1"/>
    <tag k="SHAPE_LE_1" v="383.201"/>
    <tag k="ET_ID" v="186485"/>
    <tag k="WAY_TYPE" v="National Asphalted Road"/>
    <tag k="SHAPE_LENG" v="0.000"/>
    <tag k="CAT2" v="10"/>
  </way>
</osm>
