<?xml version='1.0'?>
<osm version='0.5' generator='shp2osm.pl'>
  <node id='-1' visible='true' lat='41.5077119' lon='19.7937863' />
  <node id='-2' visible='true' lat='41.5079416' lon='19.7940277' />
  <node id='-3' visible='true' lat='41.5080817' lon='19.7940316' />
  <node id='-4' visible='true' lat='41.508288' lon='19.7940393' />
  <node id='-5' visible='true' lat='41.5085021' lon='19.7941873' />
  <node id='-6' visible='true' lat='41.5086967' lon='19.7945063' />
  <node id='-7' visible='true' lat='41.5088367' lon='19.7947048' />
  <node id='-8' visible='true' lat='41.5090237' lon='19.7948957' />
  <node id='-9' visible='true' lat='41.5090975' lon='19.795059' />
  <node id='-10' visible='true' lat='41.5091834' lon='19.7951441' />
  <node id='-11' visible='true' lat='41.5092824' lon='19.7951441' />
  <node id='-12' visible='true' lat='41.5093898' lon='19.7950368' />
  <node id='-13' visible='true' lat='41.5095382' lon='19.7948388' />
  <node id='-14' visible='true' lat='41.5097609' lon='19.7945996' />
  <node id='-15' visible='true' lat='41.5100496' lon='19.7943852' />
  <node id='-16' visible='true' lat='41.5101486' lon='19.7941707' />
  <node id='-17' visible='true' lat='41.5101568' lon='19.7939316' />
  <node id='-18' visible='true' lat='41.5100448' lon='19.7935583' />
  <node id='-19' visible='true' lat='41.5100331' lon='19.7935191' />
  <node id='-20' visible='true' lat='41.5100909' lon='19.7933047' />
  <node id='-21' visible='true' lat='41.5103465' lon='19.7929253' />
  <node id='-22' visible='true' lat='41.5109404' lon='19.7922736' />
  <node id='-23' visible='true' lat='41.5110065' lon='19.7921498' />
  <node id='-24' visible='true' lat='41.5109156' lon='19.7920508' />
  <node id='-25' visible='true' lat='41.510759' lon='19.7920426' />
  <node id='-26' visible='true' lat='41.510759' lon='19.791919' />
  <node id='-27' visible='true' lat='41.5108497' lon='19.7917622' />
  <node id='-28' visible='true' lat='41.5116086' lon='19.7910363' />
  <node id='-29' visible='true' lat='41.51179' lon='19.7909785' />
  <node id='-30' visible='true' lat='41.5120209' lon='19.7910776' />
  <node id='-31' visible='true' lat='41.5122602' lon='19.79116' />
  <node id='-32' visible='true' lat='41.5123839' lon='19.7911354' />
  <node id='-33' visible='true' lat='41.5125323' lon='19.7909539' />
  <node id='-34' visible='true' lat='41.5127798' lon='19.7903352' />
  <node id='-35' visible='true' lat='41.512953' lon='19.790096' />
  <node id='-36' visible='true' lat='41.5132747' lon='19.7898485' />
  <node id='-37' visible='true' lat='41.5141409' lon='19.7892629' />
  <node id='-38' visible='true' lat='41.5145945' lon='19.7886772' />
  <node id='-39' visible='true' lat='41.51471' lon='19.7881907' />
  <node id='-40' visible='true' lat='41.5146192' lon='19.7879927' />
  <node id='-41' visible='true' lat='41.5144542' lon='19.7879432' />
  <node id='-42' visible='true' lat='41.5142893' lon='19.7880092' />
  <node id='-43' visible='true' lat='41.5138357' lon='19.7883968' />
  <node id='-44' visible='true' lat='41.5136376' lon='19.7885288' />
  <node id='-45' visible='true' lat='41.5133489' lon='19.7885701' />
  <node id='-46' visible='true' lat='41.5125407' lon='19.7884546' />
  <node id='-47' visible='true' lat='41.5121364' lon='19.7884875' />
  <node id='-48' visible='true' lat='41.5119715' lon='19.7884464' />
  <node id='-49' visible='true' lat='41.5119384' lon='19.7883226' />
  <node id='-50' visible='true' lat='41.5120045' lon='19.7882153' />
  <node id='-51' visible='true' lat='41.5122684' lon='19.7880916' />
  <node id='-52' visible='true' lat='41.5125736' lon='19.7877946' />
  <node id='-53' visible='true' lat='41.5130272' lon='19.7872586' />
  <node id='-54' visible='true' lat='41.5131676' lon='19.7869534' />
  <node id='-55' visible='true' lat='41.513283' lon='19.7865491' />
  <node id='-56' visible='true' lat='41.513283' lon='19.7862274' />
  <node id='-57' visible='true' lat='41.5131427' lon='19.7859553' />
  <node id='-58' visible='true' lat='41.5129282' lon='19.7857409' />
  <node id='-59' visible='true' lat='41.5126808' lon='19.7856665' />
  <node id='-60' visible='true' lat='41.5121447' lon='19.785683' />
  <node id='-61' visible='true' lat='41.5119962' lon='19.7855017' />
  <node id='-62' visible='true' lat='41.5117983' lon='19.7850974' />
  <node id='-63' visible='true' lat='41.5114848' lon='19.7846767' />
  <node id='-64' visible='true' lat='41.5114435' lon='19.7844376' />
  <node id='-65' visible='true' lat='41.5113693' lon='19.7841076' />
  <node id='-66' visible='true' lat='41.5112538' lon='19.7839345' />
  <node id='-67' visible='true' lat='41.5111218' lon='19.7839345' />
  <node id='-68' visible='true' lat='41.510924' lon='19.7840498' />
  <node id='-69' visible='true' lat='41.5106682' lon='19.7842066' />
  <node id='-70' visible='true' lat='41.5104207' lon='19.7842313' />
  <node id='-71' visible='true' lat='41.5102064' lon='19.7841158' />
  <node id='-72' visible='true' lat='41.5100248' lon='19.7839014' />
  <node id='-73' visible='true' lat='41.5098022' lon='19.7837446' />
  <node id='-74' visible='true' lat='41.5095051' lon='19.783687' />
  <node id='-75' visible='true' lat='41.5091753' lon='19.7835549' />
  <node id='-76' visible='true' lat='41.5090185' lon='19.7835549' />
  <node id='-77' visible='true' lat='41.5089526' lon='19.7837035' />
  <node id='-78' visible='true' lat='41.509002' lon='19.7838519' />
  <node id='-79' visible='true' lat='41.5093154' lon='19.7841571' />
  <node id='-80' visible='true' lat='41.5093237' lon='19.784289' />
  <node id='-81' visible='true' lat='41.5092495' lon='19.784355' />
  <node id='-82' visible='true' lat='41.5090944' lon='19.7843051' />
  <node id='-83' visible='true' lat='41.5080504' lon='19.78339' />
  <node id='-84' visible='true' lat='41.5076509' lon='19.7827199' />
  <node id='-85' visible='true' lat='41.5069677' lon='19.7819852' />
  <node id='-86' visible='true' lat='41.5063877' lon='19.7813665' />
  <node id='-87' visible='true' lat='41.5062331' lon='19.7809542' />
  <node id='-88' visible='true' lat='41.5062203' lon='19.7807479' />
  <node id='-89' visible='true' lat='41.5062976' lon='19.7804773' />
  <node id='-90' visible='true' lat='41.5063233' lon='19.7802968' />
  <node id='-91' visible='true' lat='41.5062074' lon='19.7801422' />
  <node id='-92' visible='true' lat='41.5060204' lon='19.7801052' />
  <node id='-93' visible='true' lat='41.5054968' lon='19.7801656' />
  <node id='-94' visible='true' lat='41.5051948' lon='19.7801656' />
  <node id='-95' visible='true' lat='41.5049129' lon='19.7799239' />
  <node id='-96' visible='true' lat='41.5041275' lon='19.779078' />
  <node id='-97' visible='true' lat='41.5036241' lon='19.7785948' />
  <node id='-98' visible='true' lat='41.5029394' lon='19.7780914' />
  <node id='-99' visible='true' lat='41.5024762' lon='19.7775677' />
  <node id='-100' visible='true' lat='41.5020936' lon='19.7774268' />
  <node id='-101' visible='true' lat='41.5014291' lon='19.7773663' />
  <node id='-102' visible='true' lat='41.5009457' lon='19.7771247' />
  <node id='-103' visible='true' lat='41.5004753' lon='19.7770323' />
  <node id='-104' visible='true' lat='41.4998839' lon='19.7769408' />
  <node id='-105' visible='true' lat='41.4988472' lon='19.7770079' />
  <node id='-106' visible='true' lat='41.498597' lon='19.7769347' />
  <node id='-107' visible='true' lat='41.4980361' lon='19.7764774' />
  <node id='-108' visible='true' lat='41.4972311' lon='19.7756663' />
  <node id='-109' visible='true' lat='41.4969018' lon='19.7754103' />
  <node id='-110' visible='true' lat='41.4960359' lon='19.7751541' />
  <node id='-111' visible='true' lat='41.4954992' lon='19.7748126' />
  <node id='-112' visible='true' lat='41.4949137' lon='19.7739711' />
  <node id='-113' visible='true' lat='41.4943589' lon='19.7734954' />
  <node id='-114' visible='true' lat='41.4940295' lon='19.7729283' />
  <node id='-115' visible='true' lat='41.4933831' lon='19.7723063' />
  <node id='-116' visible='true' lat='41.493079' lon='19.7719246' />
  <node id='-117' visible='true' lat='41.4930275' lon='19.7716414' />
  <node id='-118' visible='true' lat='41.4930805' lon='19.7713302' />
  <way id='-119' visible='true'>
    <nd ref='-1' />
    <nd ref='-2' />
    <nd ref='-3' />
    <nd ref='-4' />
    <nd ref='-5' />
    <nd ref='-6' />
    <nd ref='-7' />
    <nd ref='-8' />
    <nd ref='-9' />
    <nd ref='-10' />
    <nd ref='-11' />
    <nd ref='-12' />
    <nd ref='-13' />
    <nd ref='-14' />
    <nd ref='-15' />
    <nd ref='-16' />
    <nd ref='-17' />
    <nd ref='-18' />
    <nd ref='-19' />
    <nd ref='-20' />
    <nd ref='-21' />
    <nd ref='-22' />
    <nd ref='-23' />
    <nd ref='-24' />
    <nd ref='-25' />
    <nd ref='-26' />
    <nd ref='-27' />
    <nd ref='-28' />
    <nd ref='-29' />
    <nd ref='-30' />
    <nd ref='-31' />
    <nd ref='-32' />
    <nd ref='-33' />
    <nd ref='-34' />
    <nd ref='-35' />
    <nd ref='-36' />
    <nd ref='-37' />
    <nd ref='-38' />
    <nd ref='-39' />
    <nd ref='-40' />
    <nd ref='-41' />
    <nd ref='-42' />
    <nd ref='-43' />
    <nd ref='-44' />
    <nd ref='-45' />
    <nd ref='-46' />
    <nd ref='-47' />
    <nd ref='-48' />
    <nd ref='-49' />
    <nd ref='-50' />
    <nd ref='-51' />
    <nd ref='-52' />
    <nd ref='-53' />
    <nd ref='-54' />
    <nd ref='-55' />
    <nd ref='-56' />
    <nd ref='-57' />
    <nd ref='-58' />
    <nd ref='-59' />
    <nd ref='-60' />
    <nd ref='-61' />
    <nd ref='-62' />
    <nd ref='-63' />
    <nd ref='-64' />
    <nd ref='-65' />
    <nd ref='-66' />
    <nd ref='-67' />
    <nd ref='-68' />
    <nd ref='-69' />
    <nd ref='-70' />
    <nd ref='-71' />
    <nd ref='-72' />
    <nd ref='-73' />
    <nd ref='-74' />
    <nd ref='-75' />
    <nd ref='-76' />
    <nd ref='-77' />
    <nd ref='-78' />
    <nd ref='-79' />
    <nd ref='-80' />
    <nd ref='-81' />
    <nd ref='-82' />
    <nd ref='-83' />
    <nd ref='-84' />
    <nd ref='-85' />
    <nd ref='-86' />
    <nd ref='-87' />
    <nd ref='-88' />
    <nd ref='-89' />
    <nd ref='-90' />
    <nd ref='-91' />
    <nd ref='-92' />
    <nd ref='-93' />
    <nd ref='-94' />
    <nd ref='-95' />
    <nd ref='-96' />
    <nd ref='-97' />
    <nd ref='-98' />
    <nd ref='-99' />
    <nd ref='-100' />
    <nd ref='-101' />
    <nd ref='-102' />
    <nd ref='-103' />
    <nd ref='-104' />
    <nd ref='-105' />
    <nd ref='-106' />
    <nd ref='-107' />
    <nd ref='-108' />
    <nd ref='-109' />
    <nd ref='-110' />
    <nd ref='-111' />
    <nd ref='-112' />
    <nd ref='-113' />
    <nd ref='-114' />
    <nd ref='-115' />
    <nd ref='-116' />
    <nd ref='-117' />
    <nd ref='-118' />
    <tag k="OSM_ID" v="48763441"/>
  </way>
  <node id='-120' visible='true' lat='41.5100448' lon='19.7935583' />
  <node id='-121' visible='true' lat='41.5101915' lon='19.7935526' />
  <node id='-122' visible='true' lat='41.5103039' lon='19.7935155' />
  <node id='-123' visible='true' lat='41.5107799' lon='19.7934544' />
  <node id='-124' visible='true' lat='41.5111051' lon='19.7934255' />
  <node id='-125' visible='true' lat='41.5115412' lon='19.7935222' />
  <node id='-126' visible='true' lat='41.5116556' lon='19.7935504' />
  <node id='-127' visible='true' lat='41.5117224' lon='19.7937036' />
  <node id='-128' visible='true' lat='41.511652' lon='19.7937419' />
  <node id='-129' visible='true' lat='41.5113472' lon='19.7938249' />
  <node id='-130' visible='true' lat='41.5111875' lon='19.7941144' />
  <node id='-131' visible='true' lat='41.5112567' lon='19.7942351' />
  <node id='-132' visible='true' lat='41.5115361' lon='19.7946328' />
  <node id='-133' visible='true' lat='41.5115817' lon='19.7946811' />
  <node id='-134' visible='true' lat='41.5118944' lon='19.7947874' />
  <node id='-135' visible='true' lat='41.5120882' lon='19.7947763' />
  <node id='-136' visible='true' lat='41.5124715' lon='19.79466' />
  <node id='-137' visible='true' lat='41.5127223' lon='19.7946366' />
  <node id='-138' visible='true' lat='41.5129914' lon='19.7946863' />
  <way id='-139' visible='true'>
    <nd ref='-120' />
    <nd ref='-121' />
    <nd ref='-122' />
    <nd ref='-123' />
    <nd ref='-124' />
    <nd ref='-125' />
    <nd ref='-126' />
    <nd ref='-127' />
    <nd ref='-128' />
    <nd ref='-129' />
    <nd ref='-130' />
    <nd ref='-131' />
    <nd ref='-132' />
    <nd ref='-133' />
    <nd ref='-134' />
    <nd ref='-135' />
    <nd ref='-136' />
    <nd ref='-137' />
    <nd ref='-138' />
    <tag k="OSM_ID" v="48763688"/>
  </way>
</osm>
