<?xml version='1.0'?>
<osm version='0.5' generator='shp2osm.pl'>
  <node id='-1' visible='true' lat='39.9914707' lon='20.2187094' />
  <node id='-2' visible='true' lat='39.9930607' lon='20.2172635' />
  <node id='-3' visible='true' lat='39.9952188' lon='20.2164348' />
  <node id='-4' visible='true' lat='39.9970599' lon='20.215834' />
  <node id='-5' visible='true' lat='39.999164' lon='20.2149329' />
  <node id='-6' visible='true' lat='40.0002934' lon='20.2138303' />
  <node id='-7' visible='true' lat='40.0021227' lon='20.2119287' />
  <node id='-8' visible='true' lat='40.0053442' lon='20.209268' />
  <node id='-9' visible='true' lat='40.015304' lon='20.1978526' />
  <node id='-10' visible='true' lat='40.0168604' lon='20.1963207' />
  <node id='-11' visible='true' lat='40.0182949' lon='20.1951059' />
  <node id='-12' visible='true' lat='40.0192807' lon='20.1946767' />
  <node id='-13' visible='true' lat='40.0202011' lon='20.1941188' />
  <node id='-14' visible='true' lat='40.0212855' lon='20.1934752' />
  <node id='-15' visible='true' lat='40.0216898' lon='20.1931097' />
  <way id='-16' visible='true'>
    <nd ref='-1' />
    <nd ref='-2' />
    <nd ref='-3' />
    <nd ref='-4' />
    <nd ref='-5' />
    <nd ref='-6' />
    <nd ref='-7' />
    <nd ref='-8' />
    <nd ref='-9' />
    <nd ref='-10' />
    <nd ref='-11' />
    <nd ref='-12' />
    <nd ref='-13' />
    <nd ref='-14' />
    <nd ref='-15' />
    <tag k="OSM_ID" v="26159791"/>
  </way>
  <node id='-17' visible='true' lat='39.9524266' lon='20.2538674' />
  <node id='-18' visible='true' lat='39.9524085' lon='20.254059' />
  <node id='-19' visible='true' lat='39.9524809' lon='20.2542565' />
  <node id='-20' visible='true' lat='39.9525993' lon='20.2544195' />
  <node id='-21' visible='true' lat='39.9526521' lon='20.2545912' />
  <node id='-22' visible='true' lat='39.9525533' lon='20.254737' />
  <node id='-23' visible='true' lat='39.9524151' lon='20.2547971' />
  <node id='-24' visible='true' lat='39.9522177' lon='20.2548057' />
  <node id='-25' visible='true' lat='39.9520467' lon='20.2547715' />
  <node id='-26' visible='true' lat='39.9518757' lon='20.2548144' />
  <node id='-27' visible='true' lat='39.9517572' lon='20.2548916' />
  <node id='-28' visible='true' lat='39.9504609' lon='20.2563679' />
  <node id='-29' visible='true' lat='39.9501123' lon='20.2569687' />
  <node id='-30' visible='true' lat='39.949882' lon='20.2573292' />
  <node id='-31' visible='true' lat='39.9493819' lon='20.25787' />
  <node id='-32' visible='true' lat='39.9492371' lon='20.2579385' />
  <node id='-33' visible='true' lat='39.9491056' lon='20.2579643' />
  <node id='-34' visible='true' lat='39.9489608' lon='20.2580245' />
  <node id='-35' visible='true' lat='39.9489015' lon='20.258136' />
  <node id='-36' visible='true' lat='39.9489081' lon='20.2583666' />
  <node id='-37' visible='true' lat='39.9564535' lon='20.27222' />
  <node id='-38' visible='true' lat='39.9566877' lon='20.2739675' />
  <way id='-39' visible='true'>
    <nd ref='-17' />
    <nd ref='-18' />
    <nd ref='-19' />
    <nd ref='-20' />
    <nd ref='-21' />
    <nd ref='-22' />
    <nd ref='-23' />
    <nd ref='-24' />
    <nd ref='-25' />
    <nd ref='-26' />
    <nd ref='-27' />
    <nd ref='-28' />
    <nd ref='-29' />
    <nd ref='-30' />
    <nd ref='-31' />
    <nd ref='-32' />
    <nd ref='-33' />
    <nd ref='-34' />
    <nd ref='-35' />
    <nd ref='-36' />
    <nd ref='-37' />
    <nd ref='-38' />
    <tag k="OSM_ID" v="28137425"/>
  </way>
  <node id='-40' visible='true' lat='39.9566877' lon='20.2739675' />
  <node id='-41' visible='true' lat='39.9577303' lon='20.2746208' />
  <way id='-42' visible='true'>
    <nd ref='-40' />
    <nd ref='-41' />
    <tag k="OSM_ID" v="28137426"/>
  </way>
</osm>
