<?xml version='1.0'?>
<osm version='0.5' generator='shp2osm.pl'>
  <node id='-1' visible='true' lat='42.2619467' lon='19.4985238' />
  <node id='-2' visible='true' lat='42.2613814' lon='19.4981208' />
  <node id='-3' visible='true' lat='42.2607884' lon='19.4980122' />
  <node id='-4' visible='true' lat='42.2603196' lon='19.4981256' />
  <node id='-5' visible='true' lat='42.2599117' lon='19.4982579' />
  <node id='-6' visible='true' lat='42.2595199' lon='19.4981869' />
  <node id='-7' visible='true' lat='42.2588336' lon='19.4979168' />
  <node id='-8' visible='true' lat='42.2581503' lon='19.4978717' />
  <node id='-9' visible='true' lat='42.2577722' lon='19.4979626' />
  <node id='-10' visible='true' lat='42.2573341' lon='19.4980955' />
  <node id='-11' visible='true' lat='42.2567712' lon='19.4979863' />
  <node id='-12' visible='true' lat='42.2561503' lon='19.4980623' />
  <node id='-13' visible='true' lat='42.2554853' lon='19.4982621' />
  <node id='-14' visible='true' lat='42.2551749' lon='19.4985239' />
  <node id='-15' visible='true' lat='42.2547256' lon='19.4990129' />
  <node id='-16' visible='true' lat='42.2543997' lon='19.49931' />
  <way id='-17' visible='true'>
    <nd ref='-1' />
    <nd ref='-2' />
    <nd ref='-3' />
    <nd ref='-4' />
    <nd ref='-5' />
    <nd ref='-6' />
    <nd ref='-7' />
    <nd ref='-8' />
    <nd ref='-9' />
    <nd ref='-10' />
    <nd ref='-11' />
    <nd ref='-12' />
    <nd ref='-13' />
    <nd ref='-14' />
    <nd ref='-15' />
    <nd ref='-16' />
    <tag k="NAME" v="No Name"/>
    <tag k="OSM_ID" v="52434825"/>
  </way>
  <node id='-18' visible='true' lat='42.2236183' lon='19.3715299' />
  <node id='-19' visible='true' lat='42.2217912' lon='19.3683985' />
  <node id='-20' visible='true' lat='42.2202588' lon='19.3649222' />
  <node id='-21' visible='true' lat='42.2193399' lon='19.3628685' />
  <node id='-22' visible='true' lat='42.2180458' lon='19.3600755' />
  <way id='-23' visible='true'>
    <nd ref='-18' />
    <nd ref='-19' />
    <nd ref='-20' />
    <nd ref='-21' />
    <nd ref='-22' />
    <tag k="NAME" v="No Name"/>
    <tag k="OSM_ID" v="52434811"/>
  </way>
  <node id='-24' visible='true' lat='42.1962588' lon='19.448266' />
  <node id='-25' visible='true' lat='42.1962187' lon='19.4480894' />
  <node id='-26' visible='true' lat='42.1959555' lon='19.4474368' />
  <node id='-27' visible='true' lat='42.195606' lon='19.4466596' />
  <node id='-28' visible='true' lat='42.1951725' lon='19.445935' />
  <node id='-29' visible='true' lat='42.1946893' lon='19.4450217' />
  <node id='-30' visible='true' lat='42.1940859' lon='19.4443342' />
  <node id='-31' visible='true' lat='42.193684' lon='19.4438624' />
  <node id='-32' visible='true' lat='42.1931427' lon='19.4435208' />
  <node id='-33' visible='true' lat='42.1919077' lon='19.4427146' />
  <node id='-34' visible='true' lat='42.1914616' lon='19.4427093' />
  <way id='-35' visible='true'>
    <nd ref='-24' />
    <nd ref='-25' />
    <nd ref='-26' />
    <nd ref='-27' />
    <nd ref='-28' />
    <nd ref='-29' />
    <nd ref='-30' />
    <nd ref='-31' />
    <nd ref='-32' />
    <nd ref='-33' />
    <nd ref='-34' />
    <tag k="NAME" v="No Name"/>
    <tag k="OSM_ID" v="52434816"/>
  </way>
  <node id='-36' visible='true' lat='42.2548815' lon='19.5065178' />
  <node id='-37' visible='true' lat='42.2543622' lon='19.5060961' />
  <node id='-38' visible='true' lat='42.253857' lon='19.5055912' />
  <node id='-39' visible='true' lat='42.2535196' lon='19.5049998' />
  <node id='-40' visible='true' lat='42.2532368' lon='19.5044794' />
  <node id='-41' visible='true' lat='42.2530004' lon='19.5039993' />
  <node id='-42' visible='true' lat='42.2525715' lon='19.5028623' />
  <node id='-43' visible='true' lat='42.2523277' lon='19.5018138' />
  <node id='-44' visible='true' lat='42.2521253' lon='19.500992' />
  <node id='-45' visible='true' lat='42.2517864' lon='19.5006735' />
  <node id='-46' visible='true' lat='42.2516135' lon='19.5003573' />
  <node id='-47' visible='true' lat='42.2514292' lon='19.499752' />
  <way id='-48' visible='true'>
    <nd ref='-36' />
    <nd ref='-37' />
    <nd ref='-38' />
    <nd ref='-39' />
    <nd ref='-40' />
    <nd ref='-41' />
    <nd ref='-42' />
    <nd ref='-43' />
    <nd ref='-44' />
    <nd ref='-45' />
    <nd ref='-46' />
    <nd ref='-47' />
    <tag k="NAME" v="No Name"/>
    <tag k="OSM_ID" v="52434832"/>
  </way>
  <node id='-49' visible='true' lat='42.2660803' lon='19.5070705' />
  <node id='-50' visible='true' lat='42.265767' lon='19.5068069' />
  <node id='-51' visible='true' lat='42.2652258' lon='19.5061603' />
  <node id='-52' visible='true' lat='42.2648501' lon='19.5056048' />
  <node id='-53' visible='true' lat='42.2640823' lon='19.5045168' />
  <node id='-54' visible='true' lat='42.2638026' lon='19.5042638' />
  <node id='-55' visible='true' lat='42.2634313' lon='19.5040356' />
  <node id='-56' visible='true' lat='42.2630583' lon='19.5036945' />
  <node id='-57' visible='true' lat='42.2627817' lon='19.5036784' />
  <node id='-58' visible='true' lat='42.2624927' lon='19.5033467' />
  <node id='-59' visible='true' lat='42.2622458' lon='19.5029572' />
  <node id='-60' visible='true' lat='42.262044' lon='19.5028942' />
  <node id='-61' visible='true' lat='42.2616129' lon='19.5025884' />
  <node id='-62' visible='true' lat='42.2614037' lon='19.5026046' />
  <node id='-63' visible='true' lat='42.2607628' lon='19.5029019' />
  <node id='-64' visible='true' lat='42.2605955' lon='19.5029171' />
  <node id='-65' visible='true' lat='42.2603672' lon='19.5027532' />
  <node id='-66' visible='true' lat='42.2600994' lon='19.5021163' />
  <node id='-67' visible='true' lat='42.2597795' lon='19.5017716' />
  <node id='-68' visible='true' lat='42.2594841' lon='19.501598' />
  <node id='-69' visible='true' lat='42.2589468' lon='19.5014977' />
  <node id='-70' visible='true' lat='42.2586933' lon='19.5013232' />
  <node id='-71' visible='true' lat='42.2583946' lon='19.5008189' />
  <way id='-72' visible='true'>
    <nd ref='-49' />
    <nd ref='-50' />
    <nd ref='-51' />
    <nd ref='-52' />
    <nd ref='-53' />
    <nd ref='-54' />
    <nd ref='-55' />
    <nd ref='-56' />
    <nd ref='-57' />
    <nd ref='-58' />
    <nd ref='-59' />
    <nd ref='-60' />
    <nd ref='-61' />
    <nd ref='-62' />
    <nd ref='-63' />
    <nd ref='-64' />
    <nd ref='-65' />
    <nd ref='-66' />
    <nd ref='-67' />
    <nd ref='-68' />
    <nd ref='-69' />
    <nd ref='-70' />
    <nd ref='-71' />
    <tag k="NAME" v="No Name"/>
    <tag k="OSM_ID" v="52434826"/>
  </way>
  <node id='-73' visible='true' lat='42.234481' lon='19.4645435' />
  <node id='-74' visible='true' lat='42.2346938' lon='19.4642659' />
  <node id='-75' visible='true' lat='42.2352905' lon='19.4638458' />
  <node id='-76' visible='true' lat='42.235891' lon='19.4636864' />
  <node id='-77' visible='true' lat='42.2365326' lon='19.4634099' />
  <node id='-78' visible='true' lat='42.2371298' lon='19.4630188' />
  <node id='-79' visible='true' lat='42.237702' lon='19.4623674' />
  <node id='-80' visible='true' lat='42.2382332' lon='19.4618618' />
  <node id='-81' visible='true' lat='42.2386588' lon='19.4615037' />
  <node id='-82' visible='true' lat='42.2393428' lon='19.4611683' />
  <node id='-83' visible='true' lat='42.2400317' lon='19.4612094' />
  <node id='-84' visible='true' lat='42.2404423' lon='19.4613444' />
  <node id='-85' visible='true' lat='42.2410463' lon='19.4614456' />
  <node id='-86' visible='true' lat='42.2412143' lon='19.4614514' />
  <way id='-87' visible='true'>
    <nd ref='-73' />
    <nd ref='-74' />
    <nd ref='-75' />
    <nd ref='-76' />
    <nd ref='-77' />
    <nd ref='-78' />
    <nd ref='-79' />
    <nd ref='-80' />
    <nd ref='-81' />
    <nd ref='-82' />
    <nd ref='-83' />
    <nd ref='-84' />
    <nd ref='-85' />
    <nd ref='-86' />
    <tag k="OSM_ID" v="52170194"/>
  </way>
  <node id='-88' visible='true' lat='42.2342498' lon='19.4648451' />
  <node id='-89' visible='true' lat='42.234481' lon='19.4645435' />
  <way id='-90' visible='true'>
    <nd ref='-88' />
    <nd ref='-89' />
    <tag k="OSM_ID" v="52170193"/>
  </way>
  <node id='-91' visible='true' lat='42.2201647' lon='19.4685118' />
  <node id='-92' visible='true' lat='42.2213732' lon='19.4666029' />
  <way id='-93' visible='true'>
    <nd ref='-91' />
    <nd ref='-92' />
    <tag k="OSM_ID" v="52170189"/>
  </way>
  <node id='-94' visible='true' lat='42.2162866' lon='19.4682531' />
  <node id='-95' visible='true' lat='42.2169079' lon='19.4681038' />
  <node id='-96' visible='true' lat='42.2176656' lon='19.4679177' />
  <node id='-97' visible='true' lat='42.2183765' lon='19.4679509' />
  <node id='-98' visible='true' lat='42.2194232' lon='19.468043' />
  <node id='-99' visible='true' lat='42.2198379' lon='19.4683016' />
  <node id='-100' visible='true' lat='42.2201647' lon='19.4685118' />
  <way id='-101' visible='true'>
    <nd ref='-94' />
    <nd ref='-95' />
    <nd ref='-96' />
    <nd ref='-97' />
    <nd ref='-98' />
    <nd ref='-99' />
    <nd ref='-100' />
    <tag k="OSM_ID" v="52170185"/>
  </way>
  <node id='-102' visible='true' lat='42.2217219' lon='19.4705152' />
  <node id='-103' visible='true' lat='42.221249' lon='19.471305' />
  <node id='-104' visible='true' lat='42.2210311' lon='19.471797' />
  <node id='-105' visible='true' lat='42.2209986' lon='19.4721502' />
  <node id='-106' visible='true' lat='42.2210412' lon='19.4727497' />
  <node id='-107' visible='true' lat='42.2212261' lon='19.473534' />
  <node id='-108' visible='true' lat='42.2212347' lon='19.4736311' />
  <way id='-109' visible='true'>
    <nd ref='-102' />
    <nd ref='-103' />
    <nd ref='-104' />
    <nd ref='-105' />
    <nd ref='-106' />
    <nd ref='-107' />
    <nd ref='-108' />
    <tag k="OSM_ID" v="52170178"/>
  </way>
  <node id='-110' visible='true' lat='42.2398544' lon='19.4714576' />
  <node id='-111' visible='true' lat='42.2403138' lon='19.4720261' />
  <node id='-112' visible='true' lat='42.2410613' lon='19.4732252' />
  <node id='-113' visible='true' lat='42.2414125' lon='19.4737384' />
  <node id='-114' visible='true' lat='42.2421411' lon='19.475141' />
  <node id='-115' visible='true' lat='42.242581' lon='19.4758549' />
  <node id='-116' visible='true' lat='42.2433449' lon='19.476677' />
  <node id='-117' visible='true' lat='42.2439103' lon='19.4771272' />
  <node id='-118' visible='true' lat='42.2443051' lon='19.4774193' />
  <way id='-119' visible='true'>
    <nd ref='-110' />
    <nd ref='-111' />
    <nd ref='-112' />
    <nd ref='-113' />
    <nd ref='-114' />
    <nd ref='-115' />
    <nd ref='-116' />
    <nd ref='-117' />
    <nd ref='-118' />
    <tag k="OSM_ID" v="52161684"/>
  </way>
  <node id='-120' visible='true' lat='42.2377893' lon='19.4814572' />
  <node id='-121' visible='true' lat='42.2383055' lon='19.4787965' />
  <node id='-122' visible='true' lat='42.238553' lon='19.477603' />
  <node id='-123' visible='true' lat='42.2388939' lon='19.4759588' />
  <node id='-124' visible='true' lat='42.23974' lon='19.4716453' />
  <way id='-125' visible='true'>
    <nd ref='-120' />
    <nd ref='-121' />
    <nd ref='-122' />
    <nd ref='-123' />
    <nd ref='-124' />
    <tag k="NAME" v="No Name"/>
    <tag k="OSM_ID" v="52434819"/>
  </way>
  <node id='-126' visible='true' lat='42.2228715' lon='19.4716827' />
  <node id='-127' visible='true' lat='42.2229213' lon='19.4717747' />
  <way id='-128' visible='true'>
    <nd ref='-126' />
    <nd ref='-127' />
    <tag k="OSM_ID" v="52170179"/>
  </way>
  <node id='-129' visible='true' lat='42.2350745' lon='19.4898224' />
  <node id='-130' visible='true' lat='42.2358274' lon='19.486498' />
  <node id='-131' visible='true' lat='42.2369172' lon='19.4817278' />
  <node id='-132' visible='true' lat='42.2376495' lon='19.47819' />
  <node id='-133' visible='true' lat='42.2379177' lon='19.4768207' />
  <node id='-134' visible='true' lat='42.2387246' lon='19.4727001' />
  <way id='-135' visible='true'>
    <nd ref='-129' />
    <nd ref='-130' />
    <nd ref='-131' />
    <nd ref='-132' />
    <nd ref='-133' />
    <nd ref='-134' />
    <tag k="NAME" v="No Name"/>
    <tag k="OSM_ID" v="52434818"/>
  </way>
  <node id='-136' visible='true' lat='42.2317796' lon='19.4732081' />
  <node id='-137' visible='true' lat='42.2351346' lon='19.476587' />
  <node id='-138' visible='true' lat='42.2356763' lon='19.4771447' />
  <way id='-139' visible='true'>
    <nd ref='-136' />
    <nd ref='-137' />
    <nd ref='-138' />
    <tag k="NAME" v="No Name"/>
    <tag k="OSM_ID" v="52434817"/>
  </way>
  <node id='-140' visible='true' lat='42.2212347' lon='19.4736311' />
  <node id='-141' visible='true' lat='42.2212846' lon='19.4741871' />
  <node id='-142' visible='true' lat='42.2214177' lon='19.4748218' />
  <node id='-143' visible='true' lat='42.2215125' lon='19.47539' />
  <node id='-144' visible='true' lat='42.2215573' lon='19.4759428' />
  <node id='-145' visible='true' lat='42.2215541' lon='19.4766477' />
  <node id='-146' visible='true' lat='42.2214464' lon='19.4779258' />
  <node id='-147' visible='true' lat='42.2213202' lon='19.4787345' />
  <node id='-148' visible='true' lat='42.2212588' lon='19.4797429' />
  <node id='-149' visible='true' lat='42.2211088' lon='19.4806673' />
  <node id='-150' visible='true' lat='42.2208778' lon='19.4820489' />
  <node id='-151' visible='true' lat='42.2206053' lon='19.4831128' />
  <node id='-152' visible='true' lat='42.2204272' lon='19.4837884' />
  <node id='-153' visible='true' lat='42.2202655' lon='19.484256' />
  <way id='-154' visible='true'>
    <nd ref='-140' />
    <nd ref='-141' />
    <nd ref='-142' />
    <nd ref='-143' />
    <nd ref='-144' />
    <nd ref='-145' />
    <nd ref='-146' />
    <nd ref='-147' />
    <nd ref='-148' />
    <nd ref='-149' />
    <nd ref='-150' />
    <nd ref='-151' />
    <nd ref='-152' />
    <nd ref='-153' />
    <tag k="OSM_ID" v="52170187"/>
  </way>
  <node id='-155' visible='true' lat='42.2255777' lon='19.4770927' />
  <node id='-156' visible='true' lat='42.2266456' lon='19.4755491' />
  <node id='-157' visible='true' lat='42.2279622' lon='19.4737316' />
  <way id='-158' visible='true'>
    <nd ref='-155' />
    <nd ref='-156' />
    <nd ref='-157' />
    <tag k="NAME" v="No Name"/>
    <tag k="OSM_ID" v="52434814"/>
  </way>
  <node id='-159' visible='true' lat='42.2274527' lon='19.479437' />
  <node id='-160' visible='true' lat='42.2301215' lon='19.4757892' />
  <way id='-161' visible='true'>
    <nd ref='-159' />
    <nd ref='-160' />
    <tag k="NAME" v="No Name"/>
    <tag k="OSM_ID" v="52434815"/>
  </way>
  <node id='-162' visible='true' lat='42.2279632' lon='19.4824628' />
  <node id='-163' visible='true' lat='42.230679' lon='19.4784094' />
  <node id='-164' visible='true' lat='42.2315259' lon='19.4772442' />
  <way id='-165' visible='true'>
    <nd ref='-162' />
    <nd ref='-163' />
    <nd ref='-164' />
    <tag k="NAME" v="No Name"/>
    <tag k="OSM_ID" v="52434805"/>
  </way>
  <node id='-166' visible='true' lat='42.2443051' lon='19.4774193' />
  <node id='-167' visible='true' lat='42.2439575' lon='19.4776233' />
  <node id='-168' visible='true' lat='42.2435024' lon='19.4780157' />
  <node id='-169' visible='true' lat='42.2429083' lon='19.4785782' />
  <node id='-170' visible='true' lat='42.2422435' lon='19.4791664' />
  <node id='-171' visible='true' lat='42.2419824' lon='19.4795064' />
  <node id='-172' visible='true' lat='42.2416339' lon='19.4799201' />
  <node id='-173' visible='true' lat='42.2411279' lon='19.4804567' />
  <node id='-174' visible='true' lat='42.2407788' lon='19.4808227' />
  <node id='-175' visible='true' lat='42.2403876' lon='19.4814949' />
  <node id='-176' visible='true' lat='42.2400603' lon='19.4821702' />
  <node id='-177' visible='true' lat='42.239678' lon='19.4830289' />
  <way id='-178' visible='true'>
    <nd ref='-166' />
    <nd ref='-167' />
    <nd ref='-168' />
    <nd ref='-169' />
    <nd ref='-170' />
    <nd ref='-171' />
    <nd ref='-172' />
    <nd ref='-173' />
    <nd ref='-174' />
    <nd ref='-175' />
    <nd ref='-176' />
    <nd ref='-177' />
    <tag k="OSM_ID" v="52161685"/>
  </way>
  <node id='-179' visible='true' lat='42.2286473' lon='19.4865935' />
  <node id='-180' visible='true' lat='42.2295581' lon='19.484964' />
  <node id='-181' visible='true' lat='42.2323807' lon='19.4802107' />
  <node id='-182' visible='true' lat='42.2332637' lon='19.478564' />
  <way id='-183' visible='true'>
    <nd ref='-179' />
    <nd ref='-180' />
    <nd ref='-181' />
    <nd ref='-182' />
    <tag k="NAME" v="No Name"/>
    <tag k="OSM_ID" v="52434806"/>
  </way>
  <node id='-184' visible='true' lat='42.247067' lon='19.511623' />
  <node id='-185' visible='true' lat='42.2471099' lon='19.5116179' />
  <node id='-186' visible='true' lat='42.247514' lon='19.5108469' />
  <node id='-187' visible='true' lat='42.247396' lon='19.5106399' />
  <node id='-188' visible='true' lat='42.247117' lon='19.510318' />
  <node id='-189' visible='true' lat='42.2469359' lon='19.5096939' />
  <node id='-190' visible='true' lat='42.2481179' lon='19.4899759' />
  <node id='-191' visible='true' lat='42.24813' lon='19.4896996' />
  <way id='-192' visible='true'>
    <nd ref='-184' />
    <nd ref='-185' />
    <nd ref='-186' />
    <nd ref='-187' />
    <nd ref='-188' />
    <nd ref='-189' />
    <nd ref='-190' />
    <nd ref='-191' />
    <tag k="OSM_ID" v="30440153"/>
  </way>
  <node id='-193' visible='true' lat='42.2586978' lon='19.5138469' />
  <node id='-194' visible='true' lat='42.2585149' lon='19.5136521' />
  <node id='-195' visible='true' lat='42.2582404' lon='19.5131903' />
  <node id='-196' visible='true' lat='42.2579484' lon='19.5128105' />
  <node id='-197' visible='true' lat='42.2576177' lon='19.5126081' />
  <node id='-198' visible='true' lat='42.2572704' lon='19.5123843' />
  <node id='-199' visible='true' lat='42.2569774' lon='19.511927' />
  <node id='-200' visible='true' lat='42.2566502' lon='19.5117444' />
  <node id='-201' visible='true' lat='42.2562853' lon='19.5114324' />
  <node id='-202' visible='true' lat='42.2555639' lon='19.5108305' />
  <node id='-203' visible='true' lat='42.255165' lon='19.5104308' />
  <node id='-204' visible='true' lat='42.254847' lon='19.509941' />
  <node id='-205' visible='true' lat='42.254519' lon='19.5097136' />
  <node id='-206' visible='true' lat='42.2542937' lon='19.5094205' />
  <node id='-207' visible='true' lat='42.2540966' lon='19.5087732' />
  <node id='-208' visible='true' lat='42.2539148' lon='19.5086669' />
  <node id='-209' visible='true' lat='42.2530846' lon='19.5085097' />
  <node id='-210' visible='true' lat='42.2526897' lon='19.5084194' />
  <node id='-211' visible='true' lat='42.2522388' lon='19.5082275' />
  <node id='-212' visible='true' lat='42.2519094' lon='19.5081246' />
  <node id='-213' visible='true' lat='42.2517418' lon='19.5078524' />
  <node id='-214' visible='true' lat='42.2515703' lon='19.5072818' />
  <node id='-215' visible='true' lat='42.2514034' lon='19.5070535' />
  <node id='-216' visible='true' lat='42.2508689' lon='19.5069446' />
  <node id='-217' visible='true' lat='42.2506206' lon='19.5067737' />
  <node id='-218' visible='true' lat='42.2504763' lon='19.5063902' />
  <node id='-219' visible='true' lat='42.2502289' lon='19.5056556' />
  <node id='-220' visible='true' lat='42.2499412' lon='19.5049773' />
  <node id='-221' visible='true' lat='42.2497049' lon='19.5044746' />
  <node id='-222' visible='true' lat='42.2494842' lon='19.5043755' />
  <node id='-223' visible='true' lat='42.248981' lon='19.5039583' />
  <node id='-224' visible='true' lat='42.2484858' lon='19.5037875' />
  <node id='-225' visible='true' lat='42.2480259' lon='19.5033427' />
  <node id='-226' visible='true' lat='42.2475504' lon='19.5024553' />
  <node id='-227' visible='true' lat='42.2472562' lon='19.5021367' />
  <node id='-228' visible='true' lat='42.2467992' lon='19.501926' />
  <node id='-229' visible='true' lat='42.2465355' lon='19.5017108' />
  <node id='-230' visible='true' lat='42.2463819' lon='19.5010504' />
  <node id='-231' visible='true' lat='42.2461831' lon='19.5006383' />
  <node id='-232' visible='true' lat='42.2458158' lon='19.5003752' />
  <node id='-233' visible='true' lat='42.2455794' lon='19.5000421' />
  <node id='-234' visible='true' lat='42.2454376' lon='19.4995507' />
  <node id='-235' visible='true' lat='42.2453353' lon='19.4991103' />
  <node id='-236' visible='true' lat='42.2450229' lon='19.4985241' />
  <node id='-237' visible='true' lat='42.2448831' lon='19.4979498' />
  <node id='-238' visible='true' lat='42.2446416' lon='19.4974865' />
  <node id='-239' visible='true' lat='42.2442689' lon='19.4971645' />
  <node id='-240' visible='true' lat='42.2439887' lon='19.4968803' />
  <node id='-241' visible='true' lat='42.2438252' lon='19.4967672' />
  <node id='-242' visible='true' lat='42.2436994' lon='19.4966803' />
  <node id='-243' visible='true' lat='42.2433909' lon='19.4965635' />
  <node id='-244' visible='true' lat='42.2430224' lon='19.4965723' />
  <node id='-245' visible='true' lat='42.2427976' lon='19.4966052' />
  <node id='-246' visible='true' lat='42.2423682' lon='19.4966429' />
  <node id='-247' visible='true' lat='42.2420509' lon='19.4966505' />
  <node id='-248' visible='true' lat='42.2415098' lon='19.4959877' />
  <node id='-249' visible='true' lat='42.2412908' lon='19.4956756' />
  <node id='-250' visible='true' lat='42.2410838' lon='19.495515' />
  <node id='-251' visible='true' lat='42.2407145' lon='19.4954549' />
  <node id='-252' visible='true' lat='42.2403522' lon='19.4950718' />
  <node id='-253' visible='true' lat='42.2399422' lon='19.4950265' />
  <node id='-254' visible='true' lat='42.2394879' lon='19.494734' />
  <node id='-255' visible='true' lat='42.2392773' lon='19.4942977' />
  <node id='-256' visible='true' lat='42.238884' lon='19.4939761' />
  <node id='-257' visible='true' lat='42.2384515' lon='19.4937795' />
  <node id='-258' visible='true' lat='42.2380423' lon='19.4938031' />
  <node id='-259' visible='true' lat='42.2376014' lon='19.4938076' />
  <way id='-260' visible='true'>
    <nd ref='-193' />
    <nd ref='-194' />
    <nd ref='-195' />
    <nd ref='-196' />
    <nd ref='-197' />
    <nd ref='-198' />
    <nd ref='-199' />
    <nd ref='-200' />
    <nd ref='-201' />
    <nd ref='-202' />
    <nd ref='-203' />
    <nd ref='-204' />
    <nd ref='-205' />
    <nd ref='-206' />
    <nd ref='-207' />
    <nd ref='-208' />
    <nd ref='-209' />
    <nd ref='-210' />
    <nd ref='-211' />
    <nd ref='-212' />
    <nd ref='-213' />
    <nd ref='-214' />
    <nd ref='-215' />
    <nd ref='-216' />
    <nd ref='-217' />
    <nd ref='-218' />
    <nd ref='-219' />
    <nd ref='-220' />
    <nd ref='-221' />
    <nd ref='-222' />
    <nd ref='-223' />
    <nd ref='-224' />
    <nd ref='-225' />
    <nd ref='-226' />
    <nd ref='-227' />
    <nd ref='-228' />
    <nd ref='-229' />
    <nd ref='-230' />
    <nd ref='-231' />
    <nd ref='-232' />
    <nd ref='-233' />
    <nd ref='-234' />
    <nd ref='-235' />
    <nd ref='-236' />
    <nd ref='-237' />
    <nd ref='-238' />
    <nd ref='-239' />
    <nd ref='-240' />
    <nd ref='-241' />
    <nd ref='-242' />
    <nd ref='-243' />
    <nd ref='-244' />
    <nd ref='-245' />
    <nd ref='-246' />
    <nd ref='-247' />
    <nd ref='-248' />
    <nd ref='-249' />
    <nd ref='-250' />
    <nd ref='-251' />
    <nd ref='-252' />
    <nd ref='-253' />
    <nd ref='-254' />
    <nd ref='-255' />
    <nd ref='-256' />
    <nd ref='-257' />
    <nd ref='-258' />
    <nd ref='-259' />
    <tag k="NAME" v="No Name"/>
    <tag k="OSM_ID" v="52434804"/>
  </way>
  <node id='-261' visible='true' lat='42.2527102' lon='19.4960376' />
  <node id='-262' visible='true' lat='42.2513172' lon='19.4962547' />
  <node id='-263' visible='true' lat='42.2504563' lon='19.496541' />
  <node id='-264' visible='true' lat='42.2494817' lon='19.4973497' />
  <node id='-265' visible='true' lat='42.2490214' lon='19.4976267' />
  <node id='-266' visible='true' lat='42.2488331' lon='19.4976312' />
  <node id='-267' visible='true' lat='42.2483611' lon='19.4975409' />
  <node id='-268' visible='true' lat='42.2481162' lon='19.497534' />
  <way id='-269' visible='true'>
    <nd ref='-261' />
    <nd ref='-262' />
    <nd ref='-263' />
    <nd ref='-264' />
    <nd ref='-265' />
    <nd ref='-266' />
    <nd ref='-267' />
    <nd ref='-268' />
    <tag k="NAME" v="No Name"/>
    <tag k="OSM_ID" v="52434828"/>
  </way>
  <node id='-270' visible='true' lat='42.249483' lon='19.5020181' />
  <node id='-271' visible='true' lat='42.2490913' lon='19.5013117' />
  <node id='-272' visible='true' lat='42.2484236' lon='19.5004941' />
  <node id='-273' visible='true' lat='42.2482801' lon='19.4993623' />
  <node id='-274' visible='true' lat='42.2483281' lon='19.4985241' />
  <way id='-275' visible='true'>
    <nd ref='-270' />
    <nd ref='-271' />
    <nd ref='-272' />
    <nd ref='-273' />
    <nd ref='-274' />
    <tag k="NAME" v="No Name"/>
    <tag k="OSM_ID" v="52434829"/>
  </way>
  <node id='-276' visible='true' lat='42.2249254' lon='19.4570703' />
  <node id='-277' visible='true' lat='42.2255382' lon='19.4574314' />
  <way id='-278' visible='true'>
    <nd ref='-276' />
    <nd ref='-277' />
    <tag k="OSM_ID" v="52170191"/>
  </way>
  <node id='-279' visible='true' lat='42.2255382' lon='19.4574314' />
  <node id='-280' visible='true' lat='42.2267709' lon='19.4581574' />
  <node id='-281' visible='true' lat='42.2283558' lon='19.4592199' />
  <node id='-282' visible='true' lat='42.2294844' lon='19.4599459' />
  <node id='-283' visible='true' lat='42.230479' lon='19.4603897' />
  <node id='-284' visible='true' lat='42.2311085' lon='19.460809' />
  <node id='-285' visible='true' lat='42.2317396' lon='19.4613443' />
  <node id='-286' visible='true' lat='42.2325018' lon='19.4620211' />
  <node id='-287' visible='true' lat='42.2330692' lon='19.462616' />
  <node id='-288' visible='true' lat='42.2335045' lon='19.4629821' />
  <node id='-289' visible='true' lat='42.2338564' lon='19.463553' />
  <node id='-290' visible='true' lat='42.2342512' lon='19.464123' />
  <node id='-291' visible='true' lat='42.234481' lon='19.4645435' />
  <way id='-292' visible='true'>
    <nd ref='-279' />
    <nd ref='-280' />
    <nd ref='-281' />
    <nd ref='-282' />
    <nd ref='-283' />
    <nd ref='-284' />
    <nd ref='-285' />
    <nd ref='-286' />
    <nd ref='-287' />
    <nd ref='-288' />
    <nd ref='-289' />
    <nd ref='-290' />
    <nd ref='-291' />
    <tag k="OSM_ID" v="52170177"/>
  </way>
</osm>
