<?xml version='1.0'?>
<osm version='0.5' generator='shp2osm.pl'>
  <node id='-1' visible='true' lat='41.7774556' lon='19.8549635' />
  <node id='-2' visible='true' lat='41.7757914' lon='19.85771' />
  <node id='-3' visible='true' lat='41.7748952' lon='19.8664647' />
  <node id='-4' visible='true' lat='41.7771996' lon='19.8693831' />
  <node id='-5' visible='true' lat='41.7766876' lon='19.8781378' />
  <node id='-6' visible='true' lat='41.7774556' lon='19.880541' />
  <node id='-7' visible='true' lat='41.7793758' lon='19.8817427' />
  <node id='-8' visible='true' lat='41.7797599' lon='19.8839742' />
  <node id='-9' visible='true' lat='41.7818079' lon='19.8855192' />
  <node id='-10' visible='true' lat='41.7833441' lon='19.8901541' />
  <node id='-11' visible='true' lat='41.7876959' lon='19.8929006' />
  <node id='-12' visible='true' lat='41.7887198' lon='19.8970204' />
  <node id='-13' visible='true' lat='41.788336' lon='19.9001103' />
  <node id='-14' visible='true' lat='41.7902557' lon='19.904917' />
  <node id='-15' visible='true' lat='41.7901278' lon='19.9092084' />
  <node id='-16' visible='true' lat='41.7944792' lon='19.9145299' />
  <node id='-17' visible='true' lat='41.7949911' lon='19.9169333' />
  <node id='-18' visible='true' lat='41.7970388' lon='19.9193365' />
  <node id='-19' visible='true' lat='41.796399' lon='19.922083' />
  <node id='-20' visible='true' lat='41.7984465' lon='19.9248297' />
  <node id='-21' visible='true' lat='41.7969109' lon='19.9298079' />
  <node id='-22' visible='true' lat='41.8024136' lon='19.9380476' />
  <node id='-23' visible='true' lat='41.8030534' lon='19.9416525' />
  <node id='-24' visible='true' lat='41.8056126' lon='19.9418241' />
  <node id='-25' visible='true' lat='41.807532' lon='19.9430258' />
  <node id='-26' visible='true' lat='41.8094512' lon='19.9468023' />
  <way id='-27' visible='true'>
    <nd ref='-1' />
    <nd ref='-2' />
    <nd ref='-3' />
    <nd ref='-4' />
    <nd ref='-5' />
    <nd ref='-6' />
    <nd ref='-7' />
    <nd ref='-8' />
    <nd ref='-9' />
    <nd ref='-10' />
    <nd ref='-11' />
    <nd ref='-12' />
    <nd ref='-13' />
    <nd ref='-14' />
    <nd ref='-15' />
    <nd ref='-16' />
    <nd ref='-17' />
    <nd ref='-18' />
    <nd ref='-19' />
    <nd ref='-20' />
    <nd ref='-21' />
    <nd ref='-22' />
    <nd ref='-23' />
    <nd ref='-24' />
    <nd ref='-25' />
    <nd ref='-26' />
    <tag k="OSM_ID" v="30315070"/>
  </way>
  <node id='-28' visible='true' lat='41.7759465' lon='19.8594091' />
  <node id='-29' visible='true' lat='41.7754161' lon='19.8593758' />
  <way id='-30' visible='true'>
    <nd ref='-28' />
    <nd ref='-29' />
    <tag k="OSM_ID" v="41819481"/>
  </way>
</osm>
