<?xml version='1.0'?>
<osm version='0.5' generator='shp2osm.pl'>
  <node id='-1' visible='true' lat='42.2078965' lon='19.4467147' />
  <node id='-2' visible='true' lat='42.2077177' lon='19.4481198' />
  <node id='-3' visible='true' lat='42.2076757' lon='19.4489002' />
  <node id='-4' visible='true' lat='42.2073684' lon='19.449522' />
  <node id='-5' visible='true' lat='42.2068476' lon='19.4499361' />
  <node id='-6' visible='true' lat='42.2063451' lon='19.4503972' />
  <node id='-7' visible='true' lat='42.2060197' lon='19.4509957' />
  <node id='-8' visible='true' lat='42.2058652' lon='19.4512521' />
  <way id='-9' visible='true'>
    <nd ref='-1' />
    <nd ref='-2' />
    <nd ref='-3' />
    <nd ref='-4' />
    <nd ref='-5' />
    <nd ref='-6' />
    <nd ref='-7' />
    <nd ref='-8' />
    <tag k="OSM_ID" v="52170180"/>
  </way>
</osm>
