<?xml version='1.0'?>
<osm version='0.5' generator='shp2osm.pl'>
  <node id='-1' visible='true' lat='41.612802224378' lon='20.008359731099' />
  <node id='-2' visible='true' lat='41.6124701159329' lon='20.0092251041626' />
  <node id='-3' visible='true' lat='41.6118385628628' lon='20.0104599167272' />
  <way id='-4' visible='true'>
    <nd ref='-1' />
    <nd ref='-2' />
    <nd ref='-3' />
    <tag k="ID" v="7587.000"/>
    <tag k="CATEGORY" v="5"/>
    <tag k="SHAPE_LE_1" v="205.588"/>
    <tag k="WAY_TYPE" v="Dwelling Area Road"/>
    <tag k="ET_ID" v="6981"/>
    <tag k="CAT2" v="50"/>
    <tag k="SHAPE_LENG" v="0.000"/>
  </way>
  <node id='-5' visible='true' lat='41.6122729519938' lon='20.0121188516259' />
  <node id='-6' visible='true' lat='41.6130144019896' lon='20.011098571386' />
  <way id='-7' visible='true'>
    <nd ref='-5' />
    <nd ref='-6' />
    <tag k="ID" v="7588.000"/>
    <tag k="CATEGORY" v="5"/>
    <tag k="SHAPE_LE_1" v="118.391"/>
    <tag k="ET_ID" v="6982"/>
    <tag k="WAY_TYPE" v="Dwelling Area Road"/>
    <tag k="SHAPE_LENG" v="0.000"/>
    <tag k="CAT2" v="50"/>
  </way>
  <node id='-8' visible='true' lat='41.611319777365' lon='20.0115488477173' />
  <node id='-9' visible='true' lat='41.6116278923638' lon='20.0117843716176' />
  <node id='-10' visible='true' lat='41.6122729519938' lon='20.0121188516259' />
  <way id='-11' visible='true'>
    <nd ref='-8' />
    <nd ref='-9' />
    <nd ref='-10' />
    <tag k="ID" v="7589.000"/>
    <tag k="CATEGORY" v="5"/>
    <tag k="SHAPE_LE_1" v="116.341"/>
    <tag k="ET_ID" v="6983"/>
    <tag k="WAY_TYPE" v="Dwelling Area Road"/>
    <tag k="SHAPE_LENG" v="0.000"/>
    <tag k="CAT2" v="50"/>
  </way>
  <node id='-12' visible='true' lat='41.6118385628628' lon='20.0104599167272' />
  <node id='-13' visible='true' lat='41.6114776010359' lon='20.0110579862009' />
  <node id='-14' visible='true' lat='41.611319777365' lon='20.0115488477173' />
  <way id='-15' visible='true'>
    <nd ref='-12' />
    <nd ref='-13' />
    <nd ref='-14' />
    <tag k="ID" v="7590.000"/>
    <tag k="CATEGORY" v="5"/>
    <tag k="SHAPE_LE_1" v="108.494"/>
    <tag k="ET_ID" v="6984"/>
    <tag k="WAY_TYPE" v="Dwelling Area Road"/>
    <tag k="SHAPE_LENG" v="0.000"/>
    <tag k="CAT2" v="50"/>
  </way>
  <node id='-16' visible='true' lat='41.6080651544367' lon='20.0103066300016' />
  <node id='-17' visible='true' lat='41.6093911245032' lon='20.0122448495917' />
  <way id='-18' visible='true'>
    <nd ref='-16' />
    <nd ref='-17' />
    <tag k="ID" v="7591.000"/>
    <tag k="CATEGORY" v="5"/>
    <tag k="SHAPE_LE_1" v="218.633"/>
    <tag k="ET_ID" v="6985"/>
    <tag k="WAY_TYPE" v="Dwelling Area Road"/>
    <tag k="SHAPE_LENG" v="0.000"/>
    <tag k="CAT2" v="50"/>
  </way>
  <node id='-19' visible='true' lat='41.6055411872696' lon='20.0065954718073' />
  <node id='-20' visible='true' lat='41.6080651544367' lon='20.0103066300016' />
  <way id='-21' visible='true'>
    <nd ref='-19' />
    <nd ref='-20' />
    <tag k="ID" v="7592.000"/>
    <tag k="CATEGORY" v="5"/>
    <tag k="SHAPE_LE_1" v="417.517"/>
    <tag k="ET_ID" v="6986"/>
    <tag k="WAY_TYPE" v="Dwelling Area Road"/>
    <tag k="SHAPE_LENG" v="0.000"/>
    <tag k="CAT2" v="50"/>
  </way>
  <node id='-22' visible='true' lat='41.6093911245032' lon='20.0122448495917' />
  <node id='-23' visible='true' lat='41.6098974756459' lon='20.01304462181' />
  <way id='-24' visible='true'>
    <nd ref='-22' />
    <nd ref='-23' />
    <tag k="ID" v="7594.000"/>
    <tag k="CATEGORY" v="5"/>
    <tag k="SHAPE_LE_1" v="87.227"/>
    <tag k="ET_ID" v="6988"/>
    <tag k="WAY_TYPE" v="Dwelling Area Road"/>
    <tag k="SHAPE_LENG" v="0.000"/>
    <tag k="CAT2" v="50"/>
  </way>
  <node id='-25' visible='true' lat='41.6088702881127' lon='20.0157039449109' />
  <node id='-26' visible='true' lat='41.6083867533573' lon='20.014952388629' />
  <way id='-27' visible='true'>
    <nd ref='-25' />
    <nd ref='-26' />
    <tag k="ID" v="7595.000"/>
    <tag k="CATEGORY" v="5"/>
    <tag k="SHAPE_LE_1" v="82.524"/>
    <tag k="ET_ID" v="6989"/>
    <tag k="WAY_TYPE" v="Dwelling Area Road"/>
    <tag k="SHAPE_LENG" v="0.000"/>
    <tag k="CAT2" v="50"/>
  </way>
  <node id='-28' visible='true' lat='41.6104689142051' lon='20.0138190365273' />
  <node id='-29' visible='true' lat='41.6088702881127' lon='20.0157039449109' />
  <way id='-30' visible='true'>
    <nd ref='-28' />
    <nd ref='-29' />
    <tag k="ID" v="7596.000"/>
    <tag k="CATEGORY" v="5"/>
    <tag k="SHAPE_LE_1" v="237.111"/>
    <tag k="ET_ID" v="6990"/>
    <tag k="WAY_TYPE" v="Dwelling Area Road"/>
    <tag k="SHAPE_LENG" v="0.000"/>
    <tag k="CAT2" v="50"/>
  </way>
  <node id='-31' visible='true' lat='41.6099246200301' lon='20.0130814052334' />
  <node id='-32' visible='true' lat='41.6104689142051' lon='20.0138190365273' />
  <way id='-33' visible='true'>
    <nd ref='-31' />
    <nd ref='-32' />
    <tag k="ID" v="7597.000"/>
    <tag k="CATEGORY" v="5"/>
    <tag k="SHAPE_LE_1" v="86.234"/>
    <tag k="ET_ID" v="6991"/>
    <tag k="WAY_TYPE" v="Dwelling Area Road"/>
    <tag k="SHAPE_LENG" v="0.000"/>
    <tag k="CAT2" v="50"/>
  </way>
  <node id='-34' visible='true' lat='41.6098974756459' lon='20.01304462181' />
  <node id='-35' visible='true' lat='41.6099246200301' lon='20.0130814052334' />
  <way id='-36' visible='true'>
    <nd ref='-34' />
    <nd ref='-35' />
    <tag k="ID" v="7598.000"/>
    <tag k="CATEGORY" v="5"/>
    <tag k="SHAPE_LE_1" v="4.300"/>
    <tag k="ET_ID" v="6992"/>
    <tag k="WAY_TYPE" v="Dwelling Area Road"/>
    <tag k="SHAPE_LENG" v="0.000"/>
    <tag k="CAT2" v="50"/>
  </way>
  <node id='-37' visible='true' lat='41.609217988016' lon='20.0166656651837' />
  <node id='-38' visible='true' lat='41.6090483584752' lon='20.0161418921919' />
  <node id='-39' visible='true' lat='41.6088436007461' lon='20.0158022741273' />
  <way id='-40' visible='true'>
    <nd ref='-37' />
    <nd ref='-38' />
    <nd ref='-39' />
    <tag k="ID" v="7599.000"/>
    <tag k="CATEGORY" v="5"/>
    <tag k="SHAPE_LE_1" v="83.872"/>
    <tag k="ET_ID" v="6993"/>
    <tag k="WAY_TYPE" v="Dwelling Area Road"/>
    <tag k="SHAPE_LENG" v="0.000"/>
    <tag k="CAT2" v="50"/>
  </way>
  <node id='-41' visible='true' lat='41.6080651544367' lon='20.0103066300016' />
  <node id='-42' visible='true' lat='41.6075246270193' lon='20.0110028726191' />
  <node id='-43' visible='true' lat='41.607505522004' lon='20.0113579064054' />
  <node id='-44' visible='true' lat='41.6076272262444' lon='20.0126272365927' />
  <node id='-45' visible='true' lat='41.6076563612253' lon='20.0134397582396' />
  <node id='-46' visible='true' lat='41.6079847261377' lon='20.0142625030693' />
  <node id='-47' visible='true' lat='41.6080698900138' lon='20.0144086459863' />
  <way id='-48' visible='true'>
    <nd ref='-41' />
    <nd ref='-42' />
    <nd ref='-43' />
    <nd ref='-44' />
    <nd ref='-45' />
    <nd ref='-46' />
    <nd ref='-47' />
    <tag k="ID" v="7606.000"/>
    <tag k="CATEGORY" v="5"/>
    <tag k="SHAPE_LE_1" v="380.785"/>
    <tag k="ET_ID" v="7000"/>
    <tag k="WAY_TYPE" v="Dwelling Area Road"/>
    <tag k="SHAPE_LENG" v="0.000"/>
    <tag k="CAT2" v="50"/>
  </way>
  <node id='-49' visible='true' lat='41.6080698900138' lon='20.0144086459863' />
  <node id='-50' visible='true' lat='41.6083867533573' lon='20.014952388629' />
  <way id='-51' visible='true'>
    <nd ref='-49' />
    <nd ref='-50' />
    <tag k="ID" v="12553.000"/>
    <tag k="CATEGORY" v="5"/>
    <tag k="SHAPE_LE_1" v="57.389"/>
    <tag k="ET_ID" v="11860"/>
    <tag k="WAY_TYPE" v="Dwelling Area Road"/>
    <tag k="SHAPE_LENG" v="0.000"/>
    <tag k="CAT2" v="50"/>
  </way>
  <node id='-52' visible='true' lat='41.6088436007461' lon='20.0158022741273' />
  <node id='-53' visible='true' lat='41.6086620158926' lon='20.0160253630463' />
  <way id='-54' visible='true'>
    <nd ref='-52' />
    <nd ref='-53' />
    <tag k="ID" v="12599.000"/>
    <tag k="CATEGORY" v="5"/>
    <tag k="SHAPE_LE_1" v="27.435"/>
    <tag k="ET_ID" v="11906"/>
    <tag k="WAY_TYPE" v="Dwelling Area Road"/>
    <tag k="SHAPE_LENG" v="0.000"/>
    <tag k="CAT2" v="50"/>
  </way>
  <node id='-55' visible='true' lat='41.6088436007461' lon='20.0158022741273' />
  <node id='-56' visible='true' lat='41.6088702881127' lon='20.0157039449109' />
  <way id='-57' visible='true'>
    <nd ref='-55' />
    <nd ref='-56' />
    <tag k="ID" v="12600.000"/>
    <tag k="CATEGORY" v="5"/>
    <tag k="SHAPE_LE_1" v="8.717"/>
    <tag k="ET_ID" v="11907"/>
    <tag k="WAY_TYPE" v="Dwelling Area Road"/>
    <tag k="SHAPE_LENG" v="0.000"/>
    <tag k="CAT2" v="50"/>
  </way>
  <node id='-58' visible='true' lat='41.6104689142051' lon='20.0138190365273' />
  <node id='-59' visible='true' lat='41.6110071836919' lon='20.0145330502642' />
  <way id='-60' visible='true'>
    <nd ref='-58' />
    <nd ref='-59' />
    <tag k="ID" v="12601.000"/>
    <tag k="CATEGORY" v="5"/>
    <tag k="SHAPE_LE_1" v="84.366"/>
    <tag k="ET_ID" v="11908"/>
    <tag k="WAY_TYPE" v="Dwelling Area Road"/>
    <tag k="SHAPE_LENG" v="0.000"/>
    <tag k="CAT2" v="50"/>
  </way>
  <node id='-61' visible='true' lat='41.6083867533573' lon='20.014952388629' />
  <node id='-62' visible='true' lat='41.6099246200301' lon='20.0130814052334' />
  <way id='-63' visible='true'>
    <nd ref='-61' />
    <nd ref='-62' />
    <tag k="ID" v="12602.000"/>
    <tag k="CATEGORY" v="5"/>
    <tag k="SHAPE_LE_1" v="231.317"/>
    <tag k="ET_ID" v="11909"/>
    <tag k="WAY_TYPE" v="Dwelling Area Road"/>
    <tag k="SHAPE_LENG" v="0.000"/>
    <tag k="CAT2" v="50"/>
  </way>
  <node id='-64' visible='true' lat='41.6098974756459' lon='20.01304462181' />
  <node id='-65' visible='true' lat='41.6104295218994' lon='20.0123298824882' />
  <node id='-66' visible='true' lat='41.611104074589' lon='20.0116313951125' />
  <node id='-67' visible='true' lat='41.611319777365' lon='20.0115488477173' />
  <way id='-68' visible='true'>
    <nd ref='-64' />
    <nd ref='-65' />
    <nd ref='-66' />
    <nd ref='-67' />
    <tag k="ID" v="12603.000"/>
    <tag k="CATEGORY" v="5"/>
    <tag k="SHAPE_LE_1" v="203.741"/>
    <tag k="ET_ID" v="11910"/>
    <tag k="WAY_TYPE" v="Dwelling Area Road"/>
    <tag k="SHAPE_LENG" v="0.000"/>
    <tag k="CAT2" v="50"/>
  </way>
  <node id='-69' visible='true' lat='41.6093911245032' lon='20.0122448495917' />
  <node id='-70' visible='true' lat='41.608539838341' lon='20.0133324097913' />
  <way id='-71' visible='true'>
    <nd ref='-69' />
    <nd ref='-70' />
    <tag k="ID" v="12604.000"/>
    <tag k="CATEGORY" v="5"/>
    <tag k="SHAPE_LE_1" v="131.001"/>
    <tag k="ET_ID" v="11911"/>
    <tag k="WAY_TYPE" v="Dwelling Area Road"/>
    <tag k="SHAPE_LENG" v="0.000"/>
    <tag k="CAT2" v="50"/>
  </way>
  <node id='-72' visible='true' lat='41.6122729519938' lon='20.0121188516259' />
  <node id='-73' visible='true' lat='41.6125495477561' lon='20.0122769577252' />
  <node id='-74' visible='true' lat='41.6134733626612' lon='20.0126761273526' />
  <way id='-75' visible='true'>
    <nd ref='-72' />
    <nd ref='-73' />
    <nd ref='-74' />
    <tag k="ID" v="12605.000"/>
    <tag k="CATEGORY" v="5"/>
    <tag k="SHAPE_LE_1" v="141.306"/>
    <tag k="ET_ID" v="11912"/>
    <tag k="WAY_TYPE" v="Dwelling Area Road"/>
    <tag k="SHAPE_LENG" v="0.000"/>
    <tag k="CAT2" v="50"/>
  </way>
  <node id='-76' visible='true' lat='41.6130144019896' lon='20.011098571386' />
  <node id='-77' visible='true' lat='41.6126383893488' lon='20.010566867941' />
  <way id='-78' visible='true'>
    <nd ref='-76' />
    <nd ref='-77' />
    <tag k="ID" v="12607.000"/>
    <tag k="CATEGORY" v="5"/>
    <tag k="SHAPE_LE_1" v="60.901"/>
    <tag k="ET_ID" v="11914"/>
    <tag k="WAY_TYPE" v="Dwelling Area Road"/>
    <tag k="SHAPE_LENG" v="0.000"/>
    <tag k="CAT2" v="50"/>
  </way>
  <node id='-79' visible='true' lat='41.6118385628628' lon='20.0104599167272' />
  <node id='-80' visible='true' lat='41.6111176884657' lon='20.0096862104623' />
  <way id='-81' visible='true'>
    <nd ref='-79' />
    <nd ref='-80' />
    <tag k="ID" v="12608.000"/>
    <tag k="CATEGORY" v="5"/>
    <tag k="SHAPE_LE_1" v="102.818"/>
    <tag k="ET_ID" v="11915"/>
    <tag k="WAY_TYPE" v="Dwelling Area Road"/>
    <tag k="SHAPE_LENG" v="0.000"/>
    <tag k="CAT2" v="50"/>
  </way>
  <node id='-82' visible='true' lat='41.6151138995764' lon='20.0084739203303' />
  <node id='-83' visible='true' lat='41.614619715031' lon='20.0091010184978' />
  <node id='-84' visible='true' lat='41.6145787973818' lon='20.0091537528586' />
  <way id='-85' visible='true'>
    <nd ref='-82' />
    <nd ref='-83' />
    <nd ref='-84' />
    <tag k="ID" v="156030.000"/>
    <tag k="CATEGORY" v="3"/>
    <tag k="SHAPE_LE_1" v="82.123"/>
    <tag k="ET_ID" v="146202"/>
    <tag k="WAY_TYPE" v="Seasonal Road"/>
    <tag k="SHAPE_LENG" v="0.000"/>
    <tag k="CAT2" v="30"/>
  </way>
  <node id='-86' visible='true' lat='41.6157713999939' lon='20.0076339445914' />
  <node id='-87' visible='true' lat='41.615124341538' lon='20.0084606703104' />
  <node id='-88' visible='true' lat='41.6151138995764' lon='20.0084739203303' />
  <way id='-89' visible='true'>
    <nd ref='-86' />
    <nd ref='-87' />
    <nd ref='-88' />
    <tag k="ID" v="156031.000"/>
    <tag k="CATEGORY" v="3"/>
    <tag k="SHAPE_LE_1" v="101.174"/>
    <tag k="ET_ID" v="146203"/>
    <tag k="WAY_TYPE" v="Seasonal Road"/>
    <tag k="SHAPE_LENG" v="0.000"/>
    <tag k="CAT2" v="30"/>
  </way>
  <node id='-90' visible='true' lat='41.6110071836919' lon='20.0145330502642' />
  <node id='-91' visible='true' lat='41.6110321850504' lon='20.0148517626979' />
  <way id='-92' visible='true'>
    <nd ref='-90' />
    <nd ref='-91' />
    <tag k="ID" v="156035.000"/>
    <tag k="CATEGORY" v="3"/>
    <tag k="SHAPE_LE_1" v="26.713"/>
    <tag k="ET_ID" v="146207"/>
    <tag k="WAY_TYPE" v="Seasonal Road"/>
    <tag k="SHAPE_LENG" v="0.000"/>
    <tag k="CAT2" v="30"/>
  </way>
  <node id='-93' visible='true' lat='41.6182271590502' lon='20.0099570104907' />
  <node id='-94' visible='true' lat='41.6171322765835' lon='20.0087351661832' />
  <way id='-95' visible='true'>
    <nd ref='-93' />
    <nd ref='-94' />
    <tag k="ID" v="156131.000"/>
    <tag k="CATEGORY" v="3"/>
    <tag k="SHAPE_LE_1" v="158.628"/>
    <tag k="ET_ID" v="148511"/>
    <tag k="WAY_TYPE" v="Seasonal Road"/>
    <tag k="SHAPE_LENG" v="0.000"/>
    <tag k="CAT2" v="30"/>
  </way>
  <node id='-96' visible='true' lat='41.6187948459554' lon='20.0091043099421' />
  <node id='-97' visible='true' lat='41.6182271590502' lon='20.0099570104907' />
  <way id='-98' visible='true'>
    <nd ref='-96' />
    <nd ref='-97' />
    <tag k="ID" v="156132.000"/>
    <tag k="CATEGORY" v="3"/>
    <tag k="SHAPE_LE_1" v="95.015"/>
    <tag k="ET_ID" v="148512"/>
    <tag k="WAY_TYPE" v="Seasonal Road"/>
    <tag k="SHAPE_LENG" v="0.000"/>
    <tag k="CAT2" v="30"/>
  </way>
  <node id='-99' visible='true' lat='41.6176752197228' lon='20.0078718898147' />
  <node id='-100' visible='true' lat='41.6187948459554' lon='20.0091043099421' />
  <way id='-101' visible='true'>
    <nd ref='-99' />
    <nd ref='-100' />
    <tag k="ID" v="156133.000"/>
    <tag k="CATEGORY" v="3"/>
    <tag k="SHAPE_LE_1" v="161.304"/>
    <tag k="ET_ID" v="148513"/>
    <tag k="WAY_TYPE" v="Seasonal Road"/>
    <tag k="SHAPE_LENG" v="0.000"/>
    <tag k="CAT2" v="30"/>
  </way>
  <node id='-102' visible='true' lat='41.6157713999939' lon='20.0076339445914' />
  <node id='-103' visible='true' lat='41.6160099446535' lon='20.0076228549626' />
  <node id='-104' visible='true' lat='41.6161618219875' lon='20.007653943461' />
  <way id='-105' visible='true'>
    <nd ref='-102' />
    <nd ref='-103' />
    <nd ref='-104' />
    <tag k="ID" v="156135.000"/>
    <tag k="CATEGORY" v="3"/>
    <tag k="SHAPE_LE_1" v="43.581"/>
    <tag k="ET_ID" v="148515"/>
    <tag k="WAY_TYPE" v="Seasonal Road"/>
    <tag k="SHAPE_LENG" v="0.000"/>
    <tag k="CAT2" v="30"/>
  </way>
  <node id='-106' visible='true' lat='41.6163851194288' lon='20.0097330885647' />
  <node id='-107' visible='true' lat='41.6171322765835' lon='20.0087351661832' />
  <way id='-108' visible='true'>
    <nd ref='-106' />
    <nd ref='-107' />
    <tag k="ID" v="156136.000"/>
    <tag k="CATEGORY" v="3"/>
    <tag k="SHAPE_LE_1" v="117.502"/>
    <tag k="ET_ID" v="148516"/>
    <tag k="WAY_TYPE" v="Seasonal Road"/>
    <tag k="SHAPE_LENG" v="0.000"/>
    <tag k="CAT2" v="30"/>
  </way>
  <node id='-109' visible='true' lat='41.6183770818463' lon='20.0101958671986' />
  <node id='-110' visible='true' lat='41.6183050435949' lon='20.0104161939709' />
  <node id='-111' visible='true' lat='41.6181823092243' lon='20.0104728719376' />
  <node id='-112' visible='true' lat='41.617712714549' lon='20.010315634804' />
  <node id='-113' visible='true' lat='41.6168310185371' lon='20.0100002878938' />
  <node id='-114' visible='true' lat='41.6163851194288' lon='20.0097330885647' />
  <way id='-115' visible='true'>
    <nd ref='-109' />
    <nd ref='-110' />
    <nd ref='-111' />
    <nd ref='-112' />
    <nd ref='-113' />
    <nd ref='-114' />
    <tag k="ID" v="156137.000"/>
    <tag k="CATEGORY" v="3"/>
    <tag k="SHAPE_LE_1" v="243.952"/>
    <tag k="ET_ID" v="148517"/>
    <tag k="WAY_TYPE" v="Seasonal Road"/>
    <tag k="SHAPE_LENG" v="0.000"/>
    <tag k="CAT2" v="30"/>
  </way>
  <node id='-116' visible='true' lat='41.6182271590502' lon='20.0099570104907' />
  <node id='-117' visible='true' lat='41.6183770818463' lon='20.0101958671986' />
  <way id='-118' visible='true'>
    <nd ref='-116' />
    <nd ref='-117' />
    <tag k="ID" v="156138.000"/>
    <tag k="CATEGORY" v="3"/>
    <tag k="SHAPE_LE_1" v="25.956"/>
    <tag k="ET_ID" v="148518"/>
    <tag k="WAY_TYPE" v="Seasonal Road"/>
    <tag k="SHAPE_LENG" v="0.000"/>
    <tag k="CAT2" v="30"/>
  </way>
  <node id='-119' visible='true' lat='41.6163851194288' lon='20.0097330885647' />
  <node id='-120' visible='true' lat='41.61589423419' lon='20.0093108497234' />
  <node id='-121' visible='true' lat='41.6151138995764' lon='20.0084739203303' />
  <way id='-122' visible='true'>
    <nd ref='-119' />
    <nd ref='-120' />
    <nd ref='-121' />
    <tag k="ID" v="156139.000"/>
    <tag k="CATEGORY" v="3"/>
    <tag k="SHAPE_LE_1" v="176.163"/>
    <tag k="ET_ID" v="148519"/>
    <tag k="WAY_TYPE" v="Seasonal Road"/>
    <tag k="SHAPE_LENG" v="0.000"/>
    <tag k="CAT2" v="30"/>
  </way>
  <node id='-123' visible='true' lat='41.6151138995764' lon='20.0084739203303' />
  <node id='-124' visible='true' lat='41.6150123483889' lon='20.0083650056727' />
  <node id='-125' visible='true' lat='41.6141676916943' lon='20.0075157555485' />
  <node id='-126' visible='true' lat='41.6134740422136' lon='20.0068979586139' />
  <way id='-127' visible='true'>
    <nd ref='-123' />
    <nd ref='-124' />
    <nd ref='-125' />
    <nd ref='-126' />
    <tag k="ID" v="162722.000"/>
    <tag k="CATEGORY" v="3"/>
    <tag k="SHAPE_LE_1" v="224.687"/>
    <tag k="ET_ID" v="154640"/>
    <tag k="WAY_TYPE" v="Seasonal Road"/>
    <tag k="SHAPE_LENG" v="0.000"/>
    <tag k="CAT2" v="30"/>
  </way>
  <node id='-128' visible='true' lat='41.6171322765835' lon='20.0087351661832' />
  <node id='-129' visible='true' lat='41.6176752197228' lon='20.0078718898147' />
  <way id='-130' visible='true'>
    <nd ref='-128' />
    <nd ref='-129' />
    <tag k="ID" v="162724.000"/>
    <tag k="CATEGORY" v="3"/>
    <tag k="SHAPE_LE_1" v="93.888"/>
    <tag k="ET_ID" v="154642"/>
    <tag k="WAY_TYPE" v="Seasonal Road"/>
    <tag k="SHAPE_LENG" v="0.000"/>
    <tag k="CAT2" v="30"/>
  </way>
  <node id='-131' visible='true' lat='41.6171322765835' lon='20.0087351661832' />
  <node id='-132' visible='true' lat='41.6161618219875' lon='20.007653943461' />
  <way id='-133' visible='true'>
    <nd ref='-131' />
    <nd ref='-132' />
    <tag k="ID" v="162725.000"/>
    <tag k="CATEGORY" v="3"/>
    <tag k="SHAPE_LE_1" v="140.507"/>
    <tag k="ET_ID" v="154643"/>
    <tag k="WAY_TYPE" v="Seasonal Road"/>
    <tag k="SHAPE_LENG" v="0.000"/>
    <tag k="CAT2" v="30"/>
  </way>
  <node id='-134' visible='true' lat='41.6134394462329' lon='20.0069870646836' />
  <node id='-135' visible='true' lat='41.6134740422136' lon='20.0068979586139' />
  <way id='-136' visible='true'>
    <nd ref='-134' />
    <nd ref='-135' />
    <tag k="ID" v="189375.000"/>
    <tag k="CATEGORY" v="1"/>
    <tag k="SHAPE_LE_1" v="8.363"/>
    <tag k="ET_ID" v="180574"/>
    <tag k="WAY_TYPE" v="National Asphalted Road"/>
    <tag k="SHAPE_LENG" v="0.000"/>
    <tag k="CAT2" v="11"/>
  </way>
  <node id='-137' visible='true' lat='41.6134394462329' lon='20.0069870646836' />
  <node id='-138' visible='true' lat='41.6145787973818' lon='20.0091537528586' />
  <way id='-139' visible='true'>
    <nd ref='-137' />
    <nd ref='-138' />
    <tag k="ID" v="190058.000"/>
    <tag k="CATEGORY" v="1"/>
    <tag k="SHAPE_LE_1" v="220.537"/>
    <tag k="ET_ID" v="181155"/>
    <tag k="WAY_TYPE" v="National Asphalted Road"/>
    <tag k="SHAPE_LENG" v="0.000"/>
    <tag k="CAT2" v="11"/>
  </way>
</osm>
