<?xml version='1.0'?>
<osm version='0.5' generator='shp2osm.pl'>
  <node id='-1' visible='true' lat='41.9037689' lon='20.3470599' />
  <node id='-2' visible='true' lat='41.903655' lon='20.3475029' />
  <node id='-3' visible='true' lat='41.903421' lon='20.3478209' />
  <node id='-4' visible='true' lat='41.903005' lon='20.3480729' />
  <node id='-5' visible='true' lat='41.902836' lon='20.348109' />
  <node id='-6' visible='true' lat='41.9024709' lon='20.348627' />
  <node id='-7' visible='true' lat='41.9022549' lon='20.34928' />
  <node id='-8' visible='true' lat='41.9023309' lon='20.3493789' />
  <node id='-9' visible='true' lat='41.9028319' lon='20.349302' />
  <node id='-10' visible='true' lat='41.9038219' lon='20.350054' />
  <node id='-11' visible='true' lat='41.9051929' lon='20.3509799' />
  <node id='-12' visible='true' lat='41.905534' lon='20.3509589' />
  <node id='-13' visible='true' lat='41.9061459' lon='20.350387' />
  <node id='-14' visible='true' lat='41.90641' lon='20.350228' />
  <node id='-15' visible='true' lat='41.906956' lon='20.350044' />
  <node id='-16' visible='true' lat='41.907758' lon='20.3503569' />
  <node id='-17' visible='true' lat='41.9088179' lon='20.3502979' />
  <node id='-18' visible='true' lat='41.9093099' lon='20.350401' />
  <node id='-19' visible='true' lat='41.909781' lon='20.350757' />
  <node id='-20' visible='true' lat='41.910851' lon='20.3523759' />
  <node id='-21' visible='true' lat='41.910792' lon='20.3530209' />
  <node id='-22' visible='true' lat='41.910699' lon='20.35321' />
  <node id='-23' visible='true' lat='41.9104099' lon='20.353577' />
  <node id='-24' visible='true' lat='41.9102499' lon='20.3539509' />
  <node id='-25' visible='true' lat='41.910248' lon='20.354624' />
  <node id='-26' visible='true' lat='41.910355' lon='20.354814' />
  <node id='-27' visible='true' lat='41.9103449' lon='20.355378' />
  <node id='-28' visible='true' lat='41.909807' lon='20.355774' />
  <node id='-29' visible='true' lat='41.9092509' lon='20.3557379' />
  <node id='-30' visible='true' lat='41.9091209' lon='20.3557769' />
  <node id='-31' visible='true' lat='41.90903' lon='20.355961' />
  <node id='-32' visible='true' lat='41.909058' lon='20.3563019' />
  <node id='-33' visible='true' lat='41.9092109' lon='20.3568409' />
  <node id='-34' visible='true' lat='41.909198' lon='20.3570749' />
  <node id='-35' visible='true' lat='41.9093209' lon='20.357775' />
  <node id='-36' visible='true' lat='41.9090929' lon='20.358398' />
  <node id='-37' visible='true' lat='41.9090169' lon='20.358826' />
  <node id='-38' visible='true' lat='41.90934' lon='20.358837' />
  <node id='-39' visible='true' lat='41.9098419' lon='20.358971' />
  <node id='-40' visible='true' lat='41.9100439' lon='20.359206' />
  <node id='-41' visible='true' lat='41.9103789' lon='20.3598439' />
  <node id='-42' visible='true' lat='41.911129' lon='20.3607499' />
  <node id='-43' visible='true' lat='41.9112179' lon='20.360928' />
  <node id='-44' visible='true' lat='41.9114829' lon='20.3609569' />
  <node id='-45' visible='true' lat='41.9114629' lon='20.3607599' />
  <node id='-46' visible='true' lat='41.9112689' lon='20.3603419' />
  <node id='-47' visible='true' lat='41.9110689' lon='20.3597259' />
  <node id='-48' visible='true' lat='41.9110859' lon='20.358958' />
  <node id='-49' visible='true' lat='41.911385' lon='20.3586139' />
  <node id='-50' visible='true' lat='41.9115859' lon='20.3587869' />
  <node id='-51' visible='true' lat='41.911937' lon='20.3592179' />
  <node id='-52' visible='true' lat='41.912024' lon='20.3598999' />
  <node id='-53' visible='true' lat='41.912173' lon='20.360236' />
  <node id='-54' visible='true' lat='41.9124389' lon='20.360641' />
  <node id='-55' visible='true' lat='41.9129989' lon='20.361297' />
  <node id='-56' visible='true' lat='41.9141339' lon='20.361712' />
  <node id='-57' visible='true' lat='41.9144769' lon='20.36191' />
  <node id='-58' visible='true' lat='41.915708' lon='20.362376' />
  <node id='-59' visible='true' lat='41.9161629' lon='20.3621599' />
  <node id='-60' visible='true' lat='41.917296' lon='20.3606659' />
  <node id='-61' visible='true' lat='41.917448' lon='20.360102' />
  <node id='-62' visible='true' lat='41.9174399' lon='20.3594609' />
  <node id='-63' visible='true' lat='41.917594' lon='20.3587309' />
  <node id='-64' visible='true' lat='41.9177639' lon='20.3585299' />
  <node id='-65' visible='true' lat='41.9184119' lon='20.3584139' />
  <node id='-66' visible='true' lat='41.918922' lon='20.358595' />
  <node id='-67' visible='true' lat='41.919986' lon='20.3595709' />
  <node id='-68' visible='true' lat='41.9202439' lon='20.359846' />
  <node id='-69' visible='true' lat='41.920475' lon='20.360264' />
  <node id='-70' visible='true' lat='41.921131' lon='20.3609359' />
  <node id='-71' visible='true' lat='41.9216139' lon='20.361218' />
  <node id='-72' visible='true' lat='41.922283' lon='20.3611399' />
  <node id='-73' visible='true' lat='41.9224949' lon='20.360993' />
  <node id='-74' visible='true' lat='41.9229339' lon='20.360869' />
  <node id='-75' visible='true' lat='41.9234' lon='20.3604669' />
  <node id='-76' visible='true' lat='41.9232439' lon='20.360403' />
  <node id='-77' visible='true' lat='41.9222749' lon='20.36082' />
  <node id='-78' visible='true' lat='41.9217579' lon='20.360531' />
  <node id='-79' visible='true' lat='41.920988' lon='20.3597749' />
  <node id='-80' visible='true' lat='41.9206459' lon='20.3593399' />
  <node id='-81' visible='true' lat='41.9197649' lon='20.358039' />
  <node id='-82' visible='true' lat='41.919583' lon='20.357413' />
  <node id='-83' visible='true' lat='41.919265' lon='20.356808' />
  <node id='-84' visible='true' lat='41.9191569' lon='20.356697' />
  <node id='-85' visible='true' lat='41.9192049' lon='20.3565219' />
  <node id='-86' visible='true' lat='41.919691' lon='20.3571939' />
  <node id='-87' visible='true' lat='41.9200609' lon='20.3578319' />
  <node id='-88' visible='true' lat='41.9206429' lon='20.358405' />
  <node id='-89' visible='true' lat='41.9211949' lon='20.358501' />
  <node id='-90' visible='true' lat='41.921753' lon='20.358495' />
  <node id='-91' visible='true' lat='41.922248' lon='20.3579' />
  <node id='-92' visible='true' lat='41.922572' lon='20.357797' />
  <node id='-93' visible='true' lat='41.9227059' lon='20.357828' />
  <node id='-94' visible='true' lat='41.923146' lon='20.3576599' />
  <node id='-95' visible='true' lat='41.923535' lon='20.35735' />
  <node id='-96' visible='true' lat='41.924218' lon='20.3569899' />
  <node id='-97' visible='true' lat='41.9247179' lon='20.3568609' />
  <node id='-98' visible='true' lat='41.925356' lon='20.356873' />
  <node id='-99' visible='true' lat='41.9257199' lon='20.3569789' />
  <node id='-100' visible='true' lat='41.92649' lon='20.357614' />
  <node id='-101' visible='true' lat='41.9267499' lon='20.3577769' />
  <node id='-102' visible='true' lat='41.927118' lon='20.3579079' />
  <node id='-103' visible='true' lat='41.9280919' lon='20.358599' />
  <node id='-104' visible='true' lat='41.9291249' lon='20.3592149' />
  <way id='-105' visible='true'>
    <nd ref='-1' />
    <nd ref='-2' />
    <nd ref='-3' />
    <nd ref='-4' />
    <nd ref='-5' />
    <nd ref='-6' />
    <nd ref='-7' />
    <nd ref='-8' />
    <nd ref='-9' />
    <nd ref='-10' />
    <nd ref='-11' />
    <nd ref='-12' />
    <nd ref='-13' />
    <nd ref='-14' />
    <nd ref='-15' />
    <nd ref='-16' />
    <nd ref='-17' />
    <nd ref='-18' />
    <nd ref='-19' />
    <nd ref='-20' />
    <nd ref='-21' />
    <nd ref='-22' />
    <nd ref='-23' />
    <nd ref='-24' />
    <nd ref='-25' />
    <nd ref='-26' />
    <nd ref='-27' />
    <nd ref='-28' />
    <nd ref='-29' />
    <nd ref='-30' />
    <nd ref='-31' />
    <nd ref='-32' />
    <nd ref='-33' />
    <nd ref='-34' />
    <nd ref='-35' />
    <nd ref='-36' />
    <nd ref='-37' />
    <nd ref='-38' />
    <nd ref='-39' />
    <nd ref='-40' />
    <nd ref='-41' />
    <nd ref='-42' />
    <nd ref='-43' />
    <nd ref='-44' />
    <nd ref='-45' />
    <nd ref='-46' />
    <nd ref='-47' />
    <nd ref='-48' />
    <nd ref='-49' />
    <nd ref='-50' />
    <nd ref='-51' />
    <nd ref='-52' />
    <nd ref='-53' />
    <nd ref='-54' />
    <nd ref='-55' />
    <nd ref='-56' />
    <nd ref='-57' />
    <nd ref='-58' />
    <nd ref='-59' />
    <nd ref='-60' />
    <nd ref='-61' />
    <nd ref='-62' />
    <nd ref='-63' />
    <nd ref='-64' />
    <nd ref='-65' />
    <nd ref='-66' />
    <nd ref='-67' />
    <nd ref='-68' />
    <nd ref='-69' />
    <nd ref='-70' />
    <nd ref='-71' />
    <nd ref='-72' />
    <nd ref='-73' />
    <nd ref='-74' />
    <nd ref='-75' />
    <nd ref='-76' />
    <nd ref='-77' />
    <nd ref='-78' />
    <nd ref='-79' />
    <nd ref='-80' />
    <nd ref='-81' />
    <nd ref='-82' />
    <nd ref='-83' />
    <nd ref='-84' />
    <nd ref='-85' />
    <nd ref='-86' />
    <nd ref='-87' />
    <nd ref='-88' />
    <nd ref='-89' />
    <nd ref='-90' />
    <nd ref='-91' />
    <nd ref='-92' />
    <nd ref='-93' />
    <nd ref='-94' />
    <nd ref='-95' />
    <nd ref='-96' />
    <nd ref='-97' />
    <nd ref='-98' />
    <nd ref='-99' />
    <nd ref='-100' />
    <nd ref='-101' />
    <nd ref='-102' />
    <nd ref='-103' />
    <nd ref='-104' />
    <tag k="OSM_ID" v="30439144"/>
  </way>
</osm>
