<?xml version='1.0'?>
<osm version='0.5' generator='shp2osm.pl'>
  <node id='-1' visible='true' lat='41.8097642' lon='20.2181318' />
  <node id='-2' visible='true' lat='41.8097718' lon='20.2185793' />
  <node id='-3' visible='true' lat='41.8098565' lon='20.2191797' />
  <node id='-4' visible='true' lat='41.8099054' lon='20.2196105' />
  <node id='-5' visible='true' lat='41.8099107' lon='20.219685' />
  <node id='-6' visible='true' lat='41.8099429' lon='20.2200279' />
  <node id='-7' visible='true' lat='41.8099495' lon='20.2204243' />
  <node id='-8' visible='true' lat='41.809845' lon='20.2211394' />
  <node id='-9' visible='true' lat='41.8097964' lon='20.221602' />
  <node id='-10' visible='true' lat='41.8097491' lon='20.2219684' />
  <node id='-11' visible='true' lat='41.8097009' lon='20.2222858' />
  <node id='-12' visible='true' lat='41.8097045' lon='20.2224296' />
  <node id='-13' visible='true' lat='41.8096567' lon='20.2230236' />
  <node id='-14' visible='true' lat='41.8096187' lon='20.2236772' />
  <node id='-15' visible='true' lat='41.8095185' lon='20.2243874' />
  <node id='-16' visible='true' lat='41.8094843' lon='20.2245592' />
  <node id='-17' visible='true' lat='41.8095513' lon='20.2248999' />
  <way id='-18' visible='true'>
    <nd ref='-1' />
    <nd ref='-2' />
    <nd ref='-3' />
    <nd ref='-4' />
    <nd ref='-5' />
    <nd ref='-6' />
    <nd ref='-7' />
    <nd ref='-8' />
    <nd ref='-9' />
    <nd ref='-10' />
    <nd ref='-11' />
    <nd ref='-12' />
    <nd ref='-13' />
    <nd ref='-14' />
    <nd ref='-15' />
    <nd ref='-16' />
    <nd ref='-17' />
    <tag k="OSM_ID" v="43521422"/>
  </way>
</osm>
