<?xml version='1.0'?>
<osm version='0.5' generator='shp2osm.pl'>
  <node id='-1' visible='true' lat='40.0350288357772' lon='20.2680328734097' />
  <node id='-2' visible='true' lat='40.0346738221546' lon='20.2681162703367' />
  <way id='-3' visible='true'>
    <nd ref='-1' />
    <nd ref='-2' />
    <tag k="ID" v="16952.000"/>
    <tag k="CATEGORY" v="5"/>
    <tag k="SHAPE_LE_1" v="40.059"/>
    <tag k="WAY_TYPE" v="Dwelling Area Road"/>
    <tag k="ET_ID" v="15707"/>
    <tag k="CAT2" v="50"/>
    <tag k="SHAPE_LENG" v="0.000"/>
  </way>
  <node id='-4' visible='true' lat='40.0362020540139' lon='20.267686248424' />
  <node id='-5' visible='true' lat='40.0357244743713' lon='20.267861371812' />
  <node id='-6' visible='true' lat='40.0353275403585' lon='20.2679627048526' />
  <node id='-7' visible='true' lat='40.0350288357772' lon='20.2680328734097' />
  <way id='-8' visible='true'>
    <nd ref='-4' />
    <nd ref='-5' />
    <nd ref='-6' />
    <nd ref='-7' />
    <tag k="ID" v="16953.000"/>
    <tag k="CATEGORY" v="5"/>
    <tag k="SHAPE_LE_1" v="133.721"/>
    <tag k="ET_ID" v="15708"/>
    <tag k="WAY_TYPE" v="Dwelling Area Road"/>
    <tag k="SHAPE_LENG" v="0.000"/>
    <tag k="CAT2" v="50"/>
  </way>
  <node id='-9' visible='true' lat='40.036607190301' lon='20.2675213937038' />
  <node id='-10' visible='true' lat='40.0365425892727' lon='20.267561364781' />
  <node id='-11' visible='true' lat='40.0362020540139' lon='20.267686248424' />
  <way id='-12' visible='true'>
    <nd ref='-9' />
    <nd ref='-10' />
    <nd ref='-11' />
    <tag k="ID" v="16954.000"/>
    <tag k="CATEGORY" v="5"/>
    <tag k="SHAPE_LE_1" v="47.231"/>
    <tag k="ET_ID" v="15709"/>
    <tag k="WAY_TYPE" v="Dwelling Area Road"/>
    <tag k="SHAPE_LENG" v="0.000"/>
    <tag k="CAT2" v="50"/>
  </way>
  <node id='-13' visible='true' lat='40.0381780903681' lon='20.2668480652691' />
  <node id='-14' visible='true' lat='40.0379180183039' lon='20.26698030044' />
  <node id='-15' visible='true' lat='40.0374714844206' lon='20.2670983519311' />
  <node id='-16' visible='true' lat='40.0370747513082' lon='20.2672320535484' />
  <node id='-17' visible='true' lat='40.036607190301' lon='20.2675213937038' />
  <way id='-18' visible='true'>
    <nd ref='-13' />
    <nd ref='-14' />
    <nd ref='-15' />
    <nd ref='-16' />
    <nd ref='-17' />
    <tag k="ID" v="16955.000"/>
    <tag k="CATEGORY" v="5"/>
    <tag k="SHAPE_LE_1" v="184.606"/>
    <tag k="ET_ID" v="15710"/>
    <tag k="WAY_TYPE" v="Dwelling Area Road"/>
    <tag k="SHAPE_LENG" v="0.000"/>
    <tag k="CAT2" v="50"/>
  </way>
  <node id='-19' visible='true' lat='40.0331086473929' lon='20.2669837505534' />
  <node id='-20' visible='true' lat='40.0327449893405' lon='20.2664536998013' />
  <node id='-21' visible='true' lat='40.0324938509249' lon='20.2660357102056' />
  <way id='-22' visible='true'>
    <nd ref='-19' />
    <nd ref='-20' />
    <nd ref='-21' />
    <tag k="ID" v="16956.000"/>
    <tag k="CATEGORY" v="5"/>
    <tag k="SHAPE_LE_1" v="105.929"/>
    <tag k="ET_ID" v="15711"/>
    <tag k="WAY_TYPE" v="Dwelling Area Road"/>
    <tag k="SHAPE_LENG" v="0.000"/>
    <tag k="CAT2" v="50"/>
  </way>
  <node id='-23' visible='true' lat='40.0341032439648' lon='20.267086366732' />
  <node id='-24' visible='true' lat='40.0335813545784' lon='20.2670757754449' />
  <node id='-25' visible='true' lat='40.0331086473929' lon='20.2669837505534' />
  <way id='-26' visible='true'>
    <nd ref='-23' />
    <nd ref='-24' />
    <nd ref='-25' />
    <tag k="ID" v="16957.000"/>
    <tag k="CATEGORY" v="5"/>
    <tag k="SHAPE_LE_1" v="111.034"/>
    <tag k="ET_ID" v="15712"/>
    <tag k="WAY_TYPE" v="Dwelling Area Road"/>
    <tag k="SHAPE_LENG" v="0.000"/>
    <tag k="CAT2" v="50"/>
  </way>
  <node id='-27' visible='true' lat='40.0346738221546' lon='20.2681162703367' />
  <node id='-28' visible='true' lat='40.0343622780997' lon='20.2674395848909' />
  <node id='-29' visible='true' lat='40.0341032439648' lon='20.267086366732' />
  <way id='-30' visible='true'>
    <nd ref='-27' />
    <nd ref='-28' />
    <nd ref='-29' />
    <tag k="ID" v="16958.000"/>
    <tag k="CATEGORY" v="5"/>
    <tag k="SHAPE_LE_1" v="108.997"/>
    <tag k="ET_ID" v="15713"/>
    <tag k="WAY_TYPE" v="Dwelling Area Road"/>
    <tag k="SHAPE_LENG" v="0.000"/>
    <tag k="CAT2" v="50"/>
  </way>
  <node id='-31' visible='true' lat='40.0325578346239' lon='20.2675078621949' />
  <node id='-32' visible='true' lat='40.032808247572' lon='20.2678126029411' />
  <node id='-33' visible='true' lat='40.0331589674745' lon='20.2682619043958' />
  <node id='-34' visible='true' lat='40.0336063204503' lon='20.2682733013055' />
  <node id='-35' visible='true' lat='40.034239201597' lon='20.2681532726117' />
  <node id='-36' visible='true' lat='40.0346738221546' lon='20.2681162703367' />
  <way id='-37' visible='true'>
    <nd ref='-31' />
    <nd ref='-32' />
    <nd ref='-33' />
    <nd ref='-34' />
    <nd ref='-35' />
    <nd ref='-36' />
    <tag k="ID" v="16959.000"/>
    <tag k="CATEGORY" v="5"/>
    <tag k="SHAPE_LE_1" v="261.804"/>
    <tag k="ET_ID" v="15714"/>
    <tag k="WAY_TYPE" v="Dwelling Area Road"/>
    <tag k="SHAPE_LENG" v="0.000"/>
    <tag k="CAT2" v="50"/>
  </way>
  <node id='-38' visible='true' lat='40.0319231083654' lon='20.2673366752387' />
  <node id='-39' visible='true' lat='40.0321343102744' lon='20.2673344152913' />
  <node id='-40' visible='true' lat='40.0323330863648' lon='20.2673322882834' />
  <node id='-41' visible='true' lat='40.0325578346239' lon='20.2675078621949' />
  <way id='-42' visible='true'>
    <nd ref='-38' />
    <nd ref='-39' />
    <nd ref='-40' />
    <nd ref='-41' />
    <tag k="ID" v="16960.000"/>
    <tag k="CATEGORY" v="5"/>
    <tag k="SHAPE_LE_1" v="74.637"/>
    <tag k="ET_ID" v="15715"/>
    <tag k="WAY_TYPE" v="Dwelling Area Road"/>
    <tag k="SHAPE_LENG" v="0.000"/>
    <tag k="CAT2" v="50"/>
  </way>
  <node id='-43' visible='true' lat='40.0317645707769' lon='20.2678075859294' />
  <node id='-44' visible='true' lat='40.0319231083654' lon='20.2673366752387' />
  <way id='-45' visible='true'>
    <nd ref='-43' />
    <nd ref='-44' />
    <tag k="ID" v="16961.000"/>
    <tag k="CATEGORY" v="5"/>
    <tag k="SHAPE_LE_1" v="43.883"/>
    <tag k="ET_ID" v="15716"/>
    <tag k="WAY_TYPE" v="Dwelling Area Road"/>
    <tag k="SHAPE_LENG" v="0.000"/>
    <tag k="CAT2" v="50"/>
  </way>
  <node id='-46' visible='true' lat='40.0319231083654' lon='20.2673366752387' />
  <node id='-47' visible='true' lat='40.0318094573361' lon='20.2670466476673' />
  <node id='-48' visible='true' lat='40.0316669067856' lon='20.2669021081917' />
  <way id='-49' visible='true'>
    <nd ref='-46' />
    <nd ref='-47' />
    <nd ref='-48' />
    <tag k="ID" v="16962.000"/>
    <tag k="CATEGORY" v="5"/>
    <tag k="SHAPE_LE_1" v="47.857"/>
    <tag k="ET_ID" v="15717"/>
    <tag k="WAY_TYPE" v="Dwelling Area Road"/>
    <tag k="SHAPE_LENG" v="0.000"/>
    <tag k="CAT2" v="50"/>
  </way>
  <node id='-50' visible='true' lat='40.0373079110914' lon='20.2656443137284' />
  <node id='-51' visible='true' lat='40.0374919065585' lon='20.2652701717454' />
  <node id='-52' visible='true' lat='40.0378244647347' lon='20.2648135256576' />
  <node id='-53' visible='true' lat='40.0373604842335' lon='20.2641389008875' />
  <node id='-54' visible='true' lat='40.0377875553949' lon='20.2638558846951' />
  <node id='-55' visible='true' lat='40.0381961914745' lon='20.2636411328216' />
  <node id='-56' visible='true' lat='40.0384197113406' lon='20.2636225493666' />
  <node id='-57' visible='true' lat='40.0385954918162' lon='20.2636298128536' />
  <way id='-58' visible='true'>
    <nd ref='-50' />
    <nd ref='-51' />
    <nd ref='-52' />
    <nd ref='-53' />
    <nd ref='-54' />
    <nd ref='-55' />
    <nd ref='-56' />
    <nd ref='-57' />
    <tag k="ID" v="16963.000"/>
    <tag k="CATEGORY" v="5"/>
    <tag k="SHAPE_LE_1" v="315.428"/>
    <tag k="ET_ID" v="15718"/>
    <tag k="WAY_TYPE" v="Dwelling Area Road"/>
    <tag k="SHAPE_LENG" v="0.000"/>
    <tag k="CAT2" v="50"/>
  </way>
  <node id='-59' visible='true' lat='40.0225014125457' lon='20.2669213074601' />
  <node id='-60' visible='true' lat='40.0226235064865' lon='20.2669408301643' />
  <node id='-61' visible='true' lat='40.0230705336214' lon='20.2670405296019' />
  <way id='-62' visible='true'>
    <nd ref='-59' />
    <nd ref='-60' />
    <nd ref='-61' />
    <tag k="ID" v="16966.000"/>
    <tag k="CATEGORY" v="5"/>
    <tag k="SHAPE_LE_1" v="64.023"/>
    <tag k="ET_ID" v="15721"/>
    <tag k="WAY_TYPE" v="Dwelling Area Road"/>
    <tag k="SHAPE_LENG" v="0.000"/>
    <tag k="CAT2" v="50"/>
  </way>
  <node id='-63' visible='true' lat='40.0217596220639' lon='20.2668027000575' />
  <node id='-64' visible='true' lat='40.0225014125457' lon='20.2669213074601' />
  <way id='-65' visible='true'>
    <nd ref='-63' />
    <nd ref='-64' />
    <tag k="ID" v="16967.000"/>
    <tag k="CATEGORY" v="5"/>
    <tag k="SHAPE_LE_1" v="82.990"/>
    <tag k="ET_ID" v="15722"/>
    <tag k="WAY_TYPE" v="Dwelling Area Road"/>
    <tag k="SHAPE_LENG" v="0.000"/>
    <tag k="CAT2" v="50"/>
  </way>
  <node id='-66' visible='true' lat='40.0225664062258' lon='20.2641824669491' />
  <node id='-67' visible='true' lat='40.0224552247265' lon='20.2644968281481' />
  <node id='-68' visible='true' lat='40.0222177650715' lon='20.2649783387667' />
  <node id='-69' visible='true' lat='40.0219516664344' lon='20.265404886372' />
  <way id='-70' visible='true'>
    <nd ref='-66' />
    <nd ref='-67' />
    <nd ref='-68' />
    <nd ref='-69' />
    <tag k="ID" v="16968.000"/>
    <tag k="CATEGORY" v="5"/>
    <tag k="SHAPE_LE_1" v="125.274"/>
    <tag k="ET_ID" v="15723"/>
    <tag k="WAY_TYPE" v="Dwelling Area Road"/>
    <tag k="SHAPE_LENG" v="0.000"/>
    <tag k="CAT2" v="50"/>
  </way>
  <node id='-71' visible='true' lat='40.0230705336214' lon='20.2670405296019' />
  <node id='-72' visible='true' lat='40.0231653101334' lon='20.2670830998414' />
  <node id='-73' visible='true' lat='40.0235530731534' lon='20.2671203100589' />
  <way id='-74' visible='true'>
    <nd ref='-71' />
    <nd ref='-72' />
    <nd ref='-73' />
    <tag k="ID" v="16969.000"/>
    <tag k="CATEGORY" v="5"/>
    <tag k="SHAPE_LE_1" v="54.309"/>
    <tag k="ET_ID" v="15724"/>
    <tag k="WAY_TYPE" v="Dwelling Area Road"/>
    <tag k="SHAPE_LENG" v="0.000"/>
    <tag k="CAT2" v="50"/>
  </way>
  <node id='-75' visible='true' lat='40.0247228201832' lon='20.2672484216662' />
  <node id='-76' visible='true' lat='40.0243955764855' lon='20.2677399913175' />
  <node id='-77' visible='true' lat='40.0241882981093' lon='20.2681144593396' />
  <way id='-78' visible='true'>
    <nd ref='-75' />
    <nd ref='-76' />
    <nd ref='-77' />
    <tag k="ID" v="16970.000"/>
    <tag k="CATEGORY" v="5"/>
    <tag k="SHAPE_LE_1" v="94.903"/>
    <tag k="ET_ID" v="15725"/>
    <tag k="WAY_TYPE" v="Dwelling Area Road"/>
    <tag k="SHAPE_LENG" v="0.000"/>
    <tag k="CAT2" v="50"/>
  </way>
  <node id='-79' visible='true' lat='40.0240934026975' lon='20.2671724357769' />
  <node id='-80' visible='true' lat='40.0244809563942' lon='20.2671765598325' />
  <node id='-81' visible='true' lat='40.0247228201832' lon='20.2672484216662' />
  <way id='-82' visible='true'>
    <nd ref='-79' />
    <nd ref='-80' />
    <nd ref='-81' />
    <tag k="ID" v="16971.000"/>
    <tag k="CATEGORY" v="5"/>
    <tag k="SHAPE_LE_1" v="70.585"/>
    <tag k="ET_ID" v="15726"/>
    <tag k="WAY_TYPE" v="Dwelling Area Road"/>
    <tag k="SHAPE_LENG" v="0.000"/>
    <tag k="CAT2" v="50"/>
  </way>
  <node id='-83' visible='true' lat='40.0235530731534' lon='20.2671203100589' />
  <node id='-84' visible='true' lat='40.0240934026975' lon='20.2671724357769' />
  <way id='-85' visible='true'>
    <nd ref='-83' />
    <nd ref='-84' />
    <tag k="ID" v="16972.000"/>
    <tag k="CATEGORY" v="5"/>
    <tag k="SHAPE_LE_1" v="60.164"/>
    <tag k="ET_ID" v="15727"/>
    <tag k="WAY_TYPE" v="Dwelling Area Road"/>
    <tag k="SHAPE_LENG" v="0.000"/>
    <tag k="CAT2" v="50"/>
  </way>
  <node id='-86' visible='true' lat='40.0247228201832' lon='20.2672484216662' />
  <node id='-87' visible='true' lat='40.024901792045' lon='20.2673097050468' />
  <way id='-88' visible='true'>
    <nd ref='-86' />
    <nd ref='-87' />
    <tag k="ID" v="16973.000"/>
    <tag k="CATEGORY" v="5"/>
    <tag k="SHAPE_LE_1" v="20.551"/>
    <tag k="ET_ID" v="15728"/>
    <tag k="WAY_TYPE" v="Dwelling Area Road"/>
    <tag k="SHAPE_LENG" v="0.000"/>
    <tag k="CAT2" v="50"/>
  </way>
  <node id='-89' visible='true' lat='40.0243718346915' lon='20.2637348533077' />
  <node id='-90' visible='true' lat='40.0249148844176' lon='20.2637148667306' />
  <node id='-91' visible='true' lat='40.0253370950313' lon='20.2634839955312' />
  <node id='-92' visible='true' lat='40.0255312718545' lon='20.263269717339' />
  <way id='-93' visible='true'>
    <nd ref='-89' />
    <nd ref='-90' />
    <nd ref='-91' />
    <nd ref='-92' />
    <tag k="ID" v="16974.000"/>
    <tag k="CATEGORY" v="5"/>
    <tag k="SHAPE_LE_1" v="139.459"/>
    <tag k="ET_ID" v="15729"/>
    <tag k="WAY_TYPE" v="Dwelling Area Road"/>
    <tag k="SHAPE_LENG" v="0.000"/>
    <tag k="CAT2" v="50"/>
  </way>
  <node id='-94' visible='true' lat='40.0255312718545' lon='20.263269717339' />
  <node id='-95' visible='true' lat='40.0256826313988' lon='20.2631549224697' />
  <node id='-96' visible='true' lat='40.025975476961' lon='20.2630810452532' />
  <way id='-97' visible='true'>
    <nd ref='-94' />
    <nd ref='-95' />
    <nd ref='-96' />
    <tag k="ID" v="16975.000"/>
    <tag k="CATEGORY" v="5"/>
    <tag k="SHAPE_LE_1" v="52.580"/>
    <tag k="ET_ID" v="15730"/>
    <tag k="WAY_TYPE" v="Dwelling Area Road"/>
    <tag k="SHAPE_LENG" v="0.000"/>
    <tag k="CAT2" v="50"/>
  </way>
  <node id='-98' visible='true' lat='40.025975476961' lon='20.2630810452532' />
  <node id='-99' visible='true' lat='40.0262479461341' lon='20.2632195728685' />
  <node id='-100' visible='true' lat='40.0264763344713' lon='20.263259550763' />
  <node id='-101' visible='true' lat='40.026736681619' lon='20.2632001657845' />
  <node id='-102' visible='true' lat='40.0271160650081' lon='20.2630687719024' />
  <node id='-103' visible='true' lat='40.0273003725189' lon='20.26301020393' />
  <way id='-104' visible='true'>
    <nd ref='-98' />
    <nd ref='-99' />
    <nd ref='-100' />
    <nd ref='-101' />
    <nd ref='-102' />
    <nd ref='-103' />
    <tag k="ID" v="16976.000"/>
    <tag k="CATEGORY" v="5"/>
    <tag k="SHAPE_LE_1" v="152.088"/>
    <tag k="ET_ID" v="15731"/>
    <tag k="WAY_TYPE" v="Dwelling Area Road"/>
    <tag k="SHAPE_LENG" v="0.000"/>
    <tag k="CAT2" v="50"/>
  </way>
  <node id='-105' visible='true' lat='40.0290283196768' lon='20.2637414539461' />
  <node id='-106' visible='true' lat='40.0289075654215' lon='20.2637035187525' />
  <way id='-107' visible='true'>
    <nd ref='-105' />
    <nd ref='-106' />
    <tag k="ID" v="16977.000"/>
    <tag k="CATEGORY" v="5"/>
    <tag k="SHAPE_LE_1" v="13.794"/>
    <tag k="ET_ID" v="15732"/>
    <tag k="WAY_TYPE" v="Dwelling Area Road"/>
    <tag k="SHAPE_LENG" v="0.000"/>
    <tag k="CAT2" v="50"/>
  </way>
  <node id='-108' visible='true' lat='40.0283752042063' lon='20.2635362771744' />
  <node id='-109' visible='true' lat='40.028530677911' lon='20.262360443403' />
  <node id='-110' visible='true' lat='40.0285410003755' lon='20.2622754536911' />
  <node id='-111' visible='true' lat='40.0286732446184' lon='20.2625711074183' />
  <node id='-112' visible='true' lat='40.0290283196768' lon='20.2637414539461' />
  <way id='-113' visible='true'>
    <nd ref='-108' />
    <nd ref='-109' />
    <nd ref='-110' />
    <nd ref='-111' />
    <nd ref='-112' />
    <tag k="ID" v="16978.000"/>
    <tag k="CATEGORY" v="5"/>
    <tag k="SHAPE_LE_1" v="245.796"/>
    <tag k="ET_ID" v="15733"/>
    <tag k="WAY_TYPE" v="Dwelling Area Road"/>
    <tag k="SHAPE_LENG" v="0.000"/>
    <tag k="CAT2" v="50"/>
  </way>
  <node id='-114' visible='true' lat='40.0273003725189' lon='20.26301020393' />
  <node id='-115' visible='true' lat='40.0280150284216' lon='20.2632713677243' />
  <node id='-116' visible='true' lat='40.028299074826' lon='20.2635229525351' />
  <node id='-117' visible='true' lat='40.0283752042063' lon='20.2635362771744' />
  <way id='-118' visible='true'>
    <nd ref='-114' />
    <nd ref='-115' />
    <nd ref='-116' />
    <nd ref='-117' />
    <tag k="ID" v="16979.000"/>
    <tag k="CATEGORY" v="5"/>
    <tag k="SHAPE_LE_1" v="129.118"/>
    <tag k="ET_ID" v="15734"/>
    <tag k="WAY_TYPE" v="Dwelling Area Road"/>
    <tag k="SHAPE_LENG" v="0.000"/>
    <tag k="CAT2" v="50"/>
  </way>
  <node id='-119' visible='true' lat='40.0331971178941' lon='20.2624573861942' />
  <node id='-120' visible='true' lat='40.0335578432442' lon='20.2623773194643' />
  <node id='-121' visible='true' lat='40.0339517321367' lon='20.2622511077368' />
  <way id='-122' visible='true'>
    <nd ref='-119' />
    <nd ref='-120' />
    <nd ref='-121' />
    <tag k="ID" v="16980.000"/>
    <tag k="CATEGORY" v="5"/>
    <tag k="SHAPE_LE_1" v="85.680"/>
    <tag k="ET_ID" v="15735"/>
    <tag k="WAY_TYPE" v="Dwelling Area Road"/>
    <tag k="SHAPE_LENG" v="0.000"/>
    <tag k="CAT2" v="50"/>
  </way>
  <node id='-123' visible='true' lat='40.033029762887' lon='20.2624945318295' />
  <node id='-124' visible='true' lat='40.0331971178941' lon='20.2624573861942' />
  <way id='-125' visible='true'>
    <nd ref='-123' />
    <nd ref='-124' />
    <tag k="ID" v="16981.000"/>
    <tag k="CATEGORY" v="5"/>
    <tag k="SHAPE_LE_1" v="18.852"/>
    <tag k="ET_ID" v="15736"/>
    <tag k="WAY_TYPE" v="Dwelling Area Road"/>
    <tag k="SHAPE_LENG" v="0.000"/>
    <tag k="CAT2" v="50"/>
  </way>
  <node id='-126' visible='true' lat='40.0314008359553' lon='20.263136207138' />
  <node id='-127' visible='true' lat='40.0321702935981' lon='20.2628449830442' />
  <node id='-128' visible='true' lat='40.033029762887' lon='20.2624945318295' />
  <way id='-129' visible='true'>
    <nd ref='-126' />
    <nd ref='-127' />
    <nd ref='-128' />
    <tag k="ID" v="16982.000"/>
    <tag k="CATEGORY" v="5"/>
    <tag k="SHAPE_LE_1" v="189.001"/>
    <tag k="ET_ID" v="15737"/>
    <tag k="WAY_TYPE" v="Dwelling Area Road"/>
    <tag k="SHAPE_LENG" v="0.000"/>
    <tag k="CAT2" v="50"/>
  </way>
  <node id='-130' visible='true' lat='40.0307976854336' lon='20.2635243728829' />
  <node id='-131' visible='true' lat='40.0314008359553' lon='20.263136207138' />
  <way id='-132' visible='true'>
    <nd ref='-130' />
    <nd ref='-131' />
    <tag k="ID" v="16983.000"/>
    <tag k="CATEGORY" v="5"/>
    <tag k="SHAPE_LE_1" v="74.723"/>
    <tag k="ET_ID" v="15738"/>
    <tag k="WAY_TYPE" v="Dwelling Area Road"/>
    <tag k="SHAPE_LENG" v="0.000"/>
    <tag k="CAT2" v="50"/>
  </way>
  <node id='-133' visible='true' lat='40.0290283196768' lon='20.2637414539461' />
  <node id='-134' visible='true' lat='40.0294418244559' lon='20.2638501808519' />
  <node id='-135' visible='true' lat='40.0298875534581' lon='20.2639019818588' />
  <node id='-136' visible='true' lat='40.0303323882921' lon='20.2638123131992' />
  <node id='-137' visible='true' lat='40.0307976854336' lon='20.2635243728829' />
  <way id='-138' visible='true'>
    <nd ref='-133' />
    <nd ref='-134' />
    <nd ref='-135' />
    <nd ref='-136' />
    <nd ref='-137' />
    <tag k="ID" v="16984.000"/>
    <tag k="CATEGORY" v="5"/>
    <tag k="SHAPE_LE_1" v="203.738"/>
    <tag k="ET_ID" v="15739"/>
    <tag k="WAY_TYPE" v="Dwelling Area Road"/>
    <tag k="SHAPE_LENG" v="0.000"/>
    <tag k="CAT2" v="50"/>
  </way>
  <node id='-139' visible='true' lat='40.0320746073165' lon='20.2648832209663' />
  <node id='-140' visible='true' lat='40.0319204637483' lon='20.2645594891297' />
  <node id='-141' visible='true' lat='40.0317979194285' lon='20.2640797981622' />
  <node id='-142' visible='true' lat='40.0316991660072' lon='20.2639252387401' />
  <way id='-143' visible='true'>
    <nd ref='-139' />
    <nd ref='-140' />
    <nd ref='-141' />
    <nd ref='-142' />
    <tag k="ID" v="16985.000"/>
    <tag k="CATEGORY" v="5"/>
    <tag k="SHAPE_LE_1" v="92.809"/>
    <tag k="ET_ID" v="15740"/>
    <tag k="WAY_TYPE" v="Dwelling Area Road"/>
    <tag k="SHAPE_LENG" v="0.000"/>
    <tag k="CAT2" v="50"/>
  </way>
  <node id='-144' visible='true' lat='40.0327326528535' lon='20.2641546352491' />
  <node id='-145' visible='true' lat='40.0324630639668' lon='20.2644687716365' />
  <node id='-146' visible='true' lat='40.0320746073165' lon='20.2648832209663' />
  <way id='-147' visible='true'>
    <nd ref='-144' />
    <nd ref='-145' />
    <nd ref='-146' />
    <tag k="ID" v="16986.000"/>
    <tag k="CATEGORY" v="5"/>
    <tag k="SHAPE_LE_1" v="95.976"/>
    <tag k="ET_ID" v="15741"/>
    <tag k="WAY_TYPE" v="Dwelling Area Road"/>
    <tag k="SHAPE_LENG" v="0.000"/>
    <tag k="CAT2" v="50"/>
  </way>
  <node id='-148' visible='true' lat='40.0316991660072' lon='20.2639252387401' />
  <node id='-149' visible='true' lat='40.0319713645112' lon='20.2640213454678' />
  <node id='-150' visible='true' lat='40.0327326528535' lon='20.2641546352491' />
  <way id='-151' visible='true'>
    <nd ref='-148' />
    <nd ref='-149' />
    <nd ref='-150' />
    <tag k="ID" v="16987.000"/>
    <tag k="CATEGORY" v="5"/>
    <tag k="SHAPE_LE_1" v="116.617"/>
    <tag k="ET_ID" v="15742"/>
    <tag k="WAY_TYPE" v="Dwelling Area Road"/>
    <tag k="SHAPE_LENG" v="0.000"/>
    <tag k="CAT2" v="50"/>
  </way>
  <node id='-152' visible='true' lat='40.0314008359553' lon='20.263136207138' />
  <node id='-153' visible='true' lat='40.0316991660072' lon='20.2639252387401' />
  <way id='-154' visible='true'>
    <nd ref='-152' />
    <nd ref='-153' />
    <tag k="ID" v="16988.000"/>
    <tag k="CATEGORY" v="5"/>
    <tag k="SHAPE_LE_1" v="75.058"/>
    <tag k="ET_ID" v="15743"/>
    <tag k="WAY_TYPE" v="Dwelling Area Road"/>
    <tag k="SHAPE_LENG" v="0.000"/>
    <tag k="CAT2" v="50"/>
  </way>
  <node id='-155' visible='true' lat='40.0330887226104' lon='20.2615177199276' />
  <node id='-156' visible='true' lat='40.0328166123463' lon='20.2614357710144' />
  <node id='-157' visible='true' lat='40.0325560006229' lon='20.2614527324342' />
  <node id='-158' visible='true' lat='40.0323690138176' lon='20.2616109475281' />
  <node id='-159' visible='true' lat='40.0322825817638' lon='20.2617862586968' />
  <node id='-160' visible='true' lat='40.03224240601' lon='20.2619476584435' />
  <node id='-161' visible='true' lat='40.0322273019407' lon='20.2620014767714' />
  <node id='-162' visible='true' lat='40.0320679559619' lon='20.2620501434783' />
  <node id='-163' visible='true' lat='40.031969471897' lon='20.2619506004325' />
  <node id='-164' visible='true' lat='40.0319250705906' lon='20.261448063027' />
  <node id='-165' visible='true' lat='40.0319345833046' lon='20.2613989058702' />
  <way id='-166' visible='true'>
    <nd ref='-155' />
    <nd ref='-156' />
    <nd ref='-157' />
    <nd ref='-158' />
    <nd ref='-159' />
    <nd ref='-160' />
    <nd ref='-161' />
    <nd ref='-162' />
    <nd ref='-163' />
    <nd ref='-164' />
    <nd ref='-165' />
    <tag k="ID" v="16989.000"/>
    <tag k="CATEGORY" v="5"/>
    <tag k="SHAPE_LE_1" v="201.439"/>
    <tag k="ET_ID" v="15744"/>
    <tag k="WAY_TYPE" v="Dwelling Area Road"/>
    <tag k="SHAPE_LENG" v="0.000"/>
    <tag k="CAT2" v="50"/>
  </way>
  <node id='-167' visible='true' lat='40.0319345833046' lon='20.2613989058702' />
  <node id='-168' visible='true' lat='40.0315123653846' lon='20.2613385045358' />
  <node id='-169' visible='true' lat='40.0311726352441' lon='20.2612487041177' />
  <way id='-170' visible='true'>
    <nd ref='-167' />
    <nd ref='-168' />
    <nd ref='-169' />
    <tag k="ID" v="16990.000"/>
    <tag k="CATEGORY" v="5"/>
    <tag k="SHAPE_LE_1" v="85.662"/>
    <tag k="ET_ID" v="15745"/>
    <tag k="WAY_TYPE" v="Dwelling Area Road"/>
    <tag k="SHAPE_LENG" v="0.000"/>
    <tag k="CAT2" v="50"/>
  </way>
  <node id='-171' visible='true' lat='40.0319593531648' lon='20.2614024536306' />
  <node id='-172' visible='true' lat='40.0319345833046' lon='20.2613989058702' />
  <way id='-173' visible='true'>
    <nd ref='-171' />
    <nd ref='-172' />
    <tag k="ID" v="16991.000"/>
    <tag k="CATEGORY" v="5"/>
    <tag k="SHAPE_LE_1" v="2.767"/>
    <tag k="ET_ID" v="15746"/>
    <tag k="WAY_TYPE" v="Dwelling Area Road"/>
    <tag k="SHAPE_LENG" v="0.000"/>
    <tag k="CAT2" v="50"/>
  </way>
  <node id='-174' visible='true' lat='40.0383988145193' lon='20.2697366424694' />
  <node id='-175' visible='true' lat='40.0383014388049' lon='20.2706508901149' />
  <way id='-176' visible='true'>
    <nd ref='-174' />
    <nd ref='-175' />
    <tag k="ID" v="17008.000"/>
    <tag k="CATEGORY" v="5"/>
    <tag k="SHAPE_LE_1" v="78.778"/>
    <tag k="ET_ID" v="15763"/>
    <tag k="WAY_TYPE" v="Dwelling Area Road"/>
    <tag k="SHAPE_LENG" v="0.000"/>
    <tag k="CAT2" v="50"/>
  </way>
  <node id='-177' visible='true' lat='40.036607190301' lon='20.2675213937038' />
  <node id='-178' visible='true' lat='40.0371768959393' lon='20.2679078066224' />
  <node id='-179' visible='true' lat='40.0375348650316' lon='20.2685742177072' />
  <node id='-180' visible='true' lat='40.0384857748264' lon='20.2689201301058' />
  <node id='-181' visible='true' lat='40.0383988145193' lon='20.2697366424694' />
  <way id='-182' visible='true'>
    <nd ref='-177' />
    <nd ref='-178' />
    <nd ref='-179' />
    <nd ref='-180' />
    <nd ref='-181' />
    <tag k="ID" v="17009.000"/>
    <tag k="CATEGORY" v="5"/>
    <tag k="SHAPE_LE_1" v="320.734"/>
    <tag k="ET_ID" v="15764"/>
    <tag k="WAY_TYPE" v="Dwelling Area Road"/>
    <tag k="SHAPE_LENG" v="0.000"/>
    <tag k="CAT2" v="50"/>
  </way>
  <node id='-183' visible='true' lat='40.0370927119196' lon='20.2698565801547' />
  <node id='-184' visible='true' lat='40.0379126093887' lon='20.2698268872585' />
  <node id='-185' visible='true' lat='40.0383988145193' lon='20.2697366424694' />
  <way id='-186' visible='true'>
    <nd ref='-183' />
    <nd ref='-184' />
    <nd ref='-185' />
    <tag k="ID" v="17011.000"/>
    <tag k="CATEGORY" v="5"/>
    <tag k="SHAPE_LE_1" v="145.615"/>
    <tag k="ET_ID" v="15766"/>
    <tag k="WAY_TYPE" v="Dwelling Area Road"/>
    <tag k="SHAPE_LENG" v="0.000"/>
    <tag k="CAT2" v="50"/>
  </way>
  <node id='-187' visible='true' lat='40.0339121824691' lon='20.2632270806442' />
  <node id='-188' visible='true' lat='40.0341315879343' lon='20.263139378233' />
  <node id='-189' visible='true' lat='40.0347254435729' lon='20.2629654338619' />
  <way id='-190' visible='true'>
    <nd ref='-187' />
    <nd ref='-188' />
    <nd ref='-189' />
    <tag k="ID" v="17012.000"/>
    <tag k="CATEGORY" v="5"/>
    <tag k="SHAPE_LE_1" v="93.082"/>
    <tag k="ET_ID" v="15767"/>
    <tag k="WAY_TYPE" v="Dwelling Area Road"/>
    <tag k="SHAPE_LENG" v="0.000"/>
    <tag k="CAT2" v="50"/>
  </way>
  <node id='-191' visible='true' lat='40.0327326528535' lon='20.2641546352491' />
  <node id='-192' visible='true' lat='40.0333777377147' lon='20.2634407032037' />
  <node id='-193' visible='true' lat='40.0339121824691' lon='20.2632270806442' />
  <way id='-194' visible='true'>
    <nd ref='-191' />
    <nd ref='-192' />
    <nd ref='-193' />
    <tag k="ID" v="17013.000"/>
    <tag k="CATEGORY" v="5"/>
    <tag k="SHAPE_LE_1" v="156.131"/>
    <tag k="ET_ID" v="15768"/>
    <tag k="WAY_TYPE" v="Dwelling Area Road"/>
    <tag k="SHAPE_LENG" v="0.000"/>
    <tag k="CAT2" v="50"/>
  </way>
  <node id='-195' visible='true' lat='40.0331086473929' lon='20.2669837505534' />
  <node id='-196' visible='true' lat='40.0331721115635' lon='20.2675624508502' />
  <node id='-197' visible='true' lat='40.0325578346239' lon='20.2675078621949' />
  <way id='-198' visible='true'>
    <nd ref='-195' />
    <nd ref='-196' />
    <nd ref='-197' />
    <tag k="ID" v="17722.000"/>
    <tag k="CATEGORY" v="5"/>
    <tag k="SHAPE_LE_1" v="118.267"/>
    <tag k="ET_ID" v="16509"/>
    <tag k="WAY_TYPE" v="Dwelling Area Road"/>
    <tag k="SHAPE_LENG" v="0.000"/>
    <tag k="CAT2" v="50"/>
  </way>
  <node id='-199' visible='true' lat='40.033029762887' lon='20.2624945318295' />
  <node id='-200' visible='true' lat='40.0331497005921' lon='20.262982396499' />
  <way id='-201' visible='true'>
    <nd ref='-199' />
    <nd ref='-200' />
    <tag k="ID" v="17724.000"/>
    <tag k="CATEGORY" v="5"/>
    <tag k="SHAPE_LE_1" v="43.721"/>
    <tag k="ET_ID" v="16511"/>
    <tag k="WAY_TYPE" v="Dwelling Area Road"/>
    <tag k="SHAPE_LENG" v="0.000"/>
    <tag k="CAT2" v="50"/>
  </way>
  <node id='-202' visible='true' lat='40.0339517321367' lon='20.2622511077368' />
  <node id='-203' visible='true' lat='40.033984479137' lon='20.2627639715433' />
  <node id='-204' visible='true' lat='40.0339121824691' lon='20.2632270806442' />
  <way id='-205' visible='true'>
    <nd ref='-202' />
    <nd ref='-203' />
    <nd ref='-204' />
    <tag k="ID" v="17725.000"/>
    <tag k="CATEGORY" v="5"/>
    <tag k="SHAPE_LE_1" v="84.264"/>
    <tag k="ET_ID" v="16512"/>
    <tag k="WAY_TYPE" v="Dwelling Area Road"/>
    <tag k="SHAPE_LENG" v="0.000"/>
    <tag k="CAT2" v="50"/>
  </way>
  <node id='-206' visible='true' lat='40.0347254435729' lon='20.2629654338619' />
  <node id='-207' visible='true' lat='40.0351692910008' lon='20.2644895888358' />
  <node id='-208' visible='true' lat='40.0351061728287' lon='20.2646787619977' />
  <node id='-209' visible='true' lat='40.0345120441698' lon='20.2648108073696' />
  <way id='-210' visible='true'>
    <nd ref='-206' />
    <nd ref='-207' />
    <nd ref='-208' />
    <nd ref='-209' />
    <tag k="ID" v="17726.000"/>
    <tag k="CATEGORY" v="5"/>
    <tag k="SHAPE_LE_1" v="223.650"/>
    <tag k="ET_ID" v="16513"/>
    <tag k="WAY_TYPE" v="Dwelling Area Road"/>
    <tag k="SHAPE_LENG" v="0.000"/>
    <tag k="CAT2" v="50"/>
  </way>
  <node id='-211' visible='true' lat='40.0347254435729' lon='20.2629654338619' />
  <node id='-212' visible='true' lat='40.0352561835206' lon='20.2629806674982' />
  <node id='-213' visible='true' lat='40.0355134504394' lon='20.2629778979361' />
  <way id='-214' visible='true'>
    <nd ref='-211' />
    <nd ref='-212' />
    <nd ref='-213' />
    <tag k="ID" v="17727.000"/>
    <tag k="CATEGORY" v="5"/>
    <tag k="SHAPE_LE_1" v="87.518"/>
    <tag k="ET_ID" v="16514"/>
    <tag k="WAY_TYPE" v="Dwelling Area Road"/>
    <tag k="SHAPE_LENG" v="0.000"/>
    <tag k="CAT2" v="50"/>
  </way>
  <node id='-215' visible='true' lat='40.0381780903681' lon='20.2668480652691' />
  <node id='-216' visible='true' lat='40.0383177191989' lon='20.267315835056' />
  <node id='-217' visible='true' lat='40.0384466582601' lon='20.2680588019142' />
  <way id='-218' visible='true'>
    <nd ref='-215' />
    <nd ref='-216' />
    <nd ref='-217' />
    <tag k="ID" v="17728.000"/>
    <tag k="CATEGORY" v="5"/>
    <tag k="SHAPE_LE_1" v="107.840"/>
    <tag k="ET_ID" v="16515"/>
    <tag k="WAY_TYPE" v="Dwelling Area Road"/>
    <tag k="SHAPE_LENG" v="0.000"/>
    <tag k="CAT2" v="50"/>
  </way>
  <node id='-219' visible='true' lat='40.0381602780856' lon='20.2657608830696' />
  <node id='-220' visible='true' lat='40.0383000758728' lon='20.2649844139243' />
  <node id='-221' visible='true' lat='40.0385059114836' lon='20.2644795173297' />
  <node id='-222' visible='true' lat='40.0394610450819' lon='20.2647276501507' />
  <way id='-223' visible='true'>
    <nd ref='-219' />
    <nd ref='-220' />
    <nd ref='-221' />
    <nd ref='-222' />
    <tag k="ID" v="17733.000"/>
    <tag k="CATEGORY" v="5"/>
    <tag k="SHAPE_LE_1" v="225.001"/>
    <tag k="ET_ID" v="16520"/>
    <tag k="WAY_TYPE" v="Dwelling Area Road"/>
    <tag k="SHAPE_LENG" v="0.000"/>
    <tag k="CAT2" v="50"/>
  </way>
  <node id='-224' visible='true' lat='40.0311726352441' lon='20.2612487041177' />
  <node id='-225' visible='true' lat='40.0313144580114' lon='20.2616831125043' />
  <node id='-226' visible='true' lat='40.0313880033367' lon='20.2619103511417' />
  <node id='-227' visible='true' lat='40.0313253306484' lon='20.2625817028673' />
  <node id='-228' visible='true' lat='40.0310940150916' lon='20.2626512608138' />
  <node id='-229' visible='true' lat='40.0308224036272' lon='20.262862097258' />
  <node id='-230' visible='true' lat='40.0306796212675' lon='20.2630849576147' />
  <node id='-231' visible='true' lat='40.0306709794036' lon='20.2633466100881' />
  <node id='-232' visible='true' lat='40.0307976854336' lon='20.2635243728829' />
  <way id='-233' visible='true'>
    <nd ref='-224' />
    <nd ref='-225' />
    <nd ref='-226' />
    <nd ref='-227' />
    <nd ref='-228' />
    <nd ref='-229' />
    <nd ref='-230' />
    <nd ref='-231' />
    <nd ref='-232' />
    <tag k="ID" v="17746.000"/>
    <tag k="CATEGORY" v="5"/>
    <tag k="SHAPE_LE_1" v="248.359"/>
    <tag k="ET_ID" v="16533"/>
    <tag k="WAY_TYPE" v="Dwelling Area Road"/>
    <tag k="SHAPE_LENG" v="0.000"/>
    <tag k="CAT2" v="50"/>
  </way>
  <node id='-234' visible='true' lat='40.0311726352441' lon='20.2612487041177' />
  <node id='-235' visible='true' lat='40.0311444941947' lon='20.2608734250568' />
  <node id='-236' visible='true' lat='40.0311409423003' lon='20.2603168045064' />
  <node id='-237' visible='true' lat='40.0310875141137' lon='20.2600155781731' />
  <node id='-238' visible='true' lat='40.0309892425018' lon='20.2599495735086' />
  <way id='-239' visible='true'>
    <nd ref='-234' />
    <nd ref='-235' />
    <nd ref='-236' />
    <nd ref='-237' />
    <nd ref='-238' />
    <tag k="ID" v="17747.000"/>
    <tag k="CATEGORY" v="5"/>
    <tag k="SHAPE_LE_1" v="118.371"/>
    <tag k="ET_ID" v="16534"/>
    <tag k="WAY_TYPE" v="Dwelling Area Road"/>
    <tag k="SHAPE_LENG" v="0.000"/>
    <tag k="CAT2" v="50"/>
  </way>
  <node id='-240' visible='true' lat='40.0319345833046' lon='20.2613989058702' />
  <node id='-241' visible='true' lat='40.0319549835634' lon='20.2612934866252' />
  <node id='-242' visible='true' lat='40.0321427876233' lon='20.260862222863' />
  <node id='-243' visible='true' lat='40.0324095920822' lon='20.2607050819192' />
  <node id='-244' visible='true' lat='40.0327137264208' lon='20.260748747692' />
  <node id='-245' visible='true' lat='40.0332078837399' lon='20.2607098748394' />
  <way id='-246' visible='true'>
    <nd ref='-240' />
    <nd ref='-241' />
    <nd ref='-242' />
    <nd ref='-243' />
    <nd ref='-244' />
    <nd ref='-245' />
    <tag k="ID" v="17748.000"/>
    <tag k="CATEGORY" v="5"/>
    <tag k="SHAPE_LE_1" v="173.060"/>
    <tag k="ET_ID" v="16535"/>
    <tag k="WAY_TYPE" v="Dwelling Area Road"/>
    <tag k="SHAPE_LENG" v="0.000"/>
    <tag k="CAT2" v="50"/>
  </way>
  <node id='-247' visible='true' lat='40.0320746073165' lon='20.2648832209663' />
  <node id='-248' visible='true' lat='40.0322935677986' lon='20.2651496638836' />
  <node id='-249' visible='true' lat='40.0324580344371' lon='20.2653884046768' />
  <node id='-250' visible='true' lat='40.0325144060632' lon='20.2657131894513' />
  <node id='-251' visible='true' lat='40.0324938509249' lon='20.2660357102056' />
  <way id='-252' visible='true'>
    <nd ref='-247' />
    <nd ref='-248' />
    <nd ref='-249' />
    <nd ref='-250' />
    <nd ref='-251' />
    <tag k="ID" v="17749.000"/>
    <tag k="CATEGORY" v="5"/>
    <tag k="SHAPE_LE_1" v="116.703"/>
    <tag k="ET_ID" v="16536"/>
    <tag k="WAY_TYPE" v="Dwelling Area Road"/>
    <tag k="SHAPE_LENG" v="0.000"/>
    <tag k="CAT2" v="50"/>
  </way>
  <node id='-253' visible='true' lat='40.0316991660072' lon='20.2639252387401' />
  <node id='-254' visible='true' lat='40.0313088293736' lon='20.2640426108' />
  <node id='-255' visible='true' lat='40.0310053902629' lon='20.2641590536509' />
  <way id='-256' visible='true'>
    <nd ref='-253' />
    <nd ref='-254' />
    <nd ref='-255' />
    <tag k="ID" v="17750.000"/>
    <tag k="CATEGORY" v="5"/>
    <tag k="SHAPE_LE_1" v="79.617"/>
    <tag k="ET_ID" v="16537"/>
    <tag k="WAY_TYPE" v="Dwelling Area Road"/>
    <tag k="SHAPE_LENG" v="0.000"/>
    <tag k="CAT2" v="50"/>
  </way>
  <node id='-257' visible='true' lat='40.0339517321367' lon='20.2622511077368' />
  <node id='-258' visible='true' lat='40.034197481198' lon='20.2621723620202' />
  <way id='-259' visible='true'>
    <nd ref='-257' />
    <nd ref='-258' />
    <tag k="ID" v="17751.000"/>
    <tag k="CATEGORY" v="5"/>
    <tag k="SHAPE_LE_1" v="28.104"/>
    <tag k="ET_ID" v="16538"/>
    <tag k="WAY_TYPE" v="Dwelling Area Road"/>
    <tag k="SHAPE_LENG" v="0.000"/>
    <tag k="CAT2" v="50"/>
  </way>
  <node id='-260' visible='true' lat='40.0289075654215' lon='20.2637035187525' />
  <node id='-261' visible='true' lat='40.0283752042063' lon='20.2635362771744' />
  <way id='-262' visible='true'>
    <nd ref='-260' />
    <nd ref='-261' />
    <tag k="ID" v="17752.000"/>
    <tag k="CATEGORY" v="5"/>
    <tag k="SHAPE_LE_1" v="60.814"/>
    <tag k="ET_ID" v="16539"/>
    <tag k="WAY_TYPE" v="Dwelling Area Road"/>
    <tag k="SHAPE_LENG" v="0.000"/>
    <tag k="CAT2" v="50"/>
  </way>
  <node id='-263' visible='true' lat='40.0273003725189' lon='20.26301020393' />
  <node id='-264' visible='true' lat='40.0268593790673' lon='20.2619964205124' />
  <way id='-265' visible='true'>
    <nd ref='-263' />
    <nd ref='-264' />
    <tag k="ID" v="17753.000"/>
    <tag k="CATEGORY" v="5"/>
    <tag k="SHAPE_LE_1" v="99.436"/>
    <tag k="ET_ID" v="16540"/>
    <tag k="WAY_TYPE" v="Dwelling Area Road"/>
    <tag k="SHAPE_LENG" v="0.000"/>
    <tag k="CAT2" v="50"/>
  </way>
  <node id='-266' visible='true' lat='40.025975476961' lon='20.2630810452532' />
  <node id='-267' visible='true' lat='40.0259730475285' lon='20.2626991293671' />
  <node id='-268' visible='true' lat='40.0258302109526' lon='20.2624460356313' />
  <node id='-269' visible='true' lat='40.0254121147945' lon='20.2616159346119' />
  <way id='-270' visible='true'>
    <nd ref='-266' />
    <nd ref='-267' />
    <nd ref='-268' />
    <nd ref='-269' />
    <tag k="ID" v="17754.000"/>
    <tag k="CATEGORY" v="5"/>
    <tag k="SHAPE_LE_1" v="144.124"/>
    <tag k="ET_ID" v="16541"/>
    <tag k="WAY_TYPE" v="Dwelling Area Road"/>
    <tag k="SHAPE_LENG" v="0.000"/>
    <tag k="CAT2" v="50"/>
  </way>
  <node id='-271' visible='true' lat='40.0255312718545' lon='20.263269717339' />
  <node id='-272' visible='true' lat='40.0254647459777' lon='20.2630582492001' />
  <node id='-273' visible='true' lat='40.0253220048003' lon='20.2628193043013' />
  <node id='-274' visible='true' lat='40.024610070849' lon='20.2619074937644' />
  <way id='-275' visible='true'>
    <nd ref='-271' />
    <nd ref='-272' />
    <nd ref='-273' />
    <nd ref='-274' />
    <tag k="ID" v="17755.000"/>
    <tag k="CATEGORY" v="5"/>
    <tag k="SHAPE_LE_1" v="156.283"/>
    <tag k="ET_ID" v="16542"/>
    <tag k="WAY_TYPE" v="Dwelling Area Road"/>
    <tag k="SHAPE_LENG" v="0.000"/>
    <tag k="CAT2" v="50"/>
  </way>
  <node id='-276' visible='true' lat='40.024901792045' lon='20.2673097050468' />
  <node id='-277' visible='true' lat='40.0251936089197' lon='20.2674096187685' />
  <way id='-278' visible='true'>
    <nd ref='-276' />
    <nd ref='-277' />
    <tag k="ID" v="17756.000"/>
    <tag k="CATEGORY" v="5"/>
    <tag k="SHAPE_LE_1" v="33.508"/>
    <tag k="ET_ID" v="16543"/>
    <tag k="WAY_TYPE" v="Dwelling Area Road"/>
    <tag k="SHAPE_LENG" v="0.000"/>
    <tag k="CAT2" v="50"/>
  </way>
  <node id='-279' visible='true' lat='40.0241882981093' lon='20.2681144593396' />
  <node id='-280' visible='true' lat='40.0241037302118' lon='20.2678010191102' />
  <node id='-281' visible='true' lat='40.0240934026975' lon='20.2671724357769' />
  <way id='-282' visible='true'>
    <nd ref='-279' />
    <nd ref='-280' />
    <nd ref='-281' />
    <tag k="ID" v="17757.000"/>
    <tag k="CATEGORY" v="5"/>
    <tag k="SHAPE_LE_1" v="82.032"/>
    <tag k="ET_ID" v="16544"/>
    <tag k="WAY_TYPE" v="Dwelling Area Road"/>
    <tag k="SHAPE_LENG" v="0.000"/>
    <tag k="CAT2" v="50"/>
  </way>
  <node id='-283' visible='true' lat='40.0219516664344' lon='20.265404886372' />
  <node id='-284' visible='true' lat='40.0224331213644' lon='20.2654734083957' />
  <node id='-285' visible='true' lat='40.0225468793052' lon='20.265564298583' />
  <node id='-286' visible='true' lat='40.0225776215494' lon='20.2659508160544' />
  <node id='-287' visible='true' lat='40.02269172914' lon='20.2660969708707' />
  <node id='-288' visible='true' lat='40.0225544616511' lon='20.2667616130885' />
  <node id='-289' visible='true' lat='40.0225014125457' lon='20.2669213074601' />
  <way id='-290' visible='true'>
    <nd ref='-283' />
    <nd ref='-284' />
    <nd ref='-285' />
    <nd ref='-286' />
    <nd ref='-287' />
    <nd ref='-288' />
    <nd ref='-289' />
    <tag k="ID" v="17760.000"/>
    <tag k="CATEGORY" v="5"/>
    <tag k="SHAPE_LE_1" v="193.167"/>
    <tag k="ET_ID" v="16547"/>
    <tag k="WAY_TYPE" v="Dwelling Area Road"/>
    <tag k="SHAPE_LENG" v="0.000"/>
    <tag k="CAT2" v="50"/>
  </way>
  <node id='-291' visible='true' lat='40.0230705336214' lon='20.2670405296019' />
  <node id='-292' visible='true' lat='40.0232880471111' lon='20.2668784498589' />
  <node id='-293' visible='true' lat='40.0238238736351' lon='20.2665963848778' />
  <way id='-294' visible='true'>
    <nd ref='-291' />
    <nd ref='-292' />
    <nd ref='-293' />
    <tag k="ID" v="17762.000"/>
    <tag k="CATEGORY" v="5"/>
    <tag k="SHAPE_LE_1" v="92.023"/>
    <tag k="ET_ID" v="16549"/>
    <tag k="WAY_TYPE" v="Dwelling Area Road"/>
    <tag k="SHAPE_LENG" v="0.000"/>
    <tag k="CAT2" v="50"/>
  </way>
  <node id='-295' visible='true' lat='40.0385954918162' lon='20.2636298128536' />
  <node id='-296' visible='true' lat='40.0387304035041' lon='20.2636353863688' />
  <node id='-297' visible='true' lat='40.0391403806801' lon='20.2636309761905' />
  <way id='-298' visible='true'>
    <nd ref='-295' />
    <nd ref='-296' />
    <nd ref='-297' />
    <tag k="ID" v="17764.000"/>
    <tag k="CATEGORY" v="5"/>
    <tag k="SHAPE_LE_1" v="60.515"/>
    <tag k="ET_ID" v="16551"/>
    <tag k="WAY_TYPE" v="Dwelling Area Road"/>
    <tag k="SHAPE_LENG" v="0.000"/>
    <tag k="CAT2" v="50"/>
  </way>
  <node id='-299' visible='true' lat='40.0341032439648' lon='20.267086366732' />
  <node id='-300' visible='true' lat='40.0342600250976' lon='20.2669876257036' />
  <node id='-301' visible='true' lat='40.0346069618395' lon='20.2668382894597' />
  <node id='-302' visible='true' lat='40.0351023658853' lon='20.2665902735491' />
  <way id='-303' visible='true'>
    <nd ref='-299' />
    <nd ref='-300' />
    <nd ref='-301' />
    <nd ref='-302' />
    <tag k="ID" v="17765.000"/>
    <tag k="CATEGORY" v="5"/>
    <tag k="SHAPE_LE_1" v="118.865"/>
    <tag k="ET_ID" v="16552"/>
    <tag k="WAY_TYPE" v="Dwelling Area Road"/>
    <tag k="SHAPE_LENG" v="0.000"/>
    <tag k="CAT2" v="50"/>
  </way>
  <node id='-304' visible='true' lat='40.0316669067856' lon='20.2669021081917' />
  <node id='-305' visible='true' lat='40.0302166950183' lon='20.2674605201091' />
  <way id='-306' visible='true'>
    <nd ref='-304' />
    <nd ref='-305' />
    <tag k="ID" v="17766.000"/>
    <tag k="CATEGORY" v="5"/>
    <tag k="SHAPE_LE_1" v="167.942"/>
    <tag k="ET_ID" v="16553"/>
    <tag k="WAY_TYPE" v="Dwelling Area Road"/>
    <tag k="SHAPE_LENG" v="0.000"/>
    <tag k="CAT2" v="50"/>
  </way>
  <node id='-307' visible='true' lat='40.0324938509249' lon='20.2660357102056' />
  <node id='-308' visible='true' lat='40.0321950719316' lon='20.265941829199' />
  <node id='-309' visible='true' lat='40.0320709394275' lon='20.2659593435962' />
  <node id='-310' visible='true' lat='40.0319233945162' lon='20.2662036248063' />
  <node id='-311' visible='true' lat='40.031801822588' lon='20.2666256035941' />
  <node id='-312' visible='true' lat='40.0316669067856' lon='20.2669021081917' />
  <way id='-313' visible='true'>
    <nd ref='-307' />
    <nd ref='-308' />
    <nd ref='-309' />
    <nd ref='-310' />
    <nd ref='-311' />
    <nd ref='-312' />
    <tag k="ID" v="17767.000"/>
    <tag k="CATEGORY" v="5"/>
    <tag k="SHAPE_LE_1" v="140.937"/>
    <tag k="ET_ID" v="16554"/>
    <tag k="WAY_TYPE" v="Dwelling Area Road"/>
    <tag k="SHAPE_LENG" v="0.000"/>
    <tag k="CAT2" v="50"/>
  </way>
  <node id='-314' visible='true' lat='40.0385954918162' lon='20.2636298128536' />
  <node id='-315' visible='true' lat='40.0394610450819' lon='20.2647276501507' />
  <way id='-316' visible='true'>
    <nd ref='-314' />
    <nd ref='-315' />
    <tag k="ID" v="107444.000"/>
    <tag k="CATEGORY" v="4"/>
    <tag k="SHAPE_LE_1" v="134.230"/>
    <tag k="ET_ID" v="100626"/>
    <tag k="WAY_TYPE" v="Village Road"/>
    <tag k="SHAPE_LENG" v="0.000"/>
    <tag k="CAT2" v="40"/>
  </way>
  <node id='-317' visible='true' lat='40.0274451204695' lon='20.2645689921311' />
  <node id='-318' visible='true' lat='40.0284393055852' lon='20.2650401805693' />
  <node id='-319' visible='true' lat='40.0289384176455' lon='20.2651395384659' />
  <node id='-320' visible='true' lat='40.0294202614601' lon='20.2650505976238' />
  <node id='-321' visible='true' lat='40.0297265580609' lon='20.2651729656908' />
  <node id='-322' visible='true' lat='40.0297777158072' lon='20.2656331539288' />
  <node id='-323' visible='true' lat='40.0297210925248' lon='20.2668484310641' />
  <node id='-324' visible='true' lat='40.0294731429343' lon='20.2677085559981' />
  <way id='-325' visible='true'>
    <nd ref='-317' />
    <nd ref='-318' />
    <nd ref='-319' />
    <nd ref='-320' />
    <nd ref='-321' />
    <nd ref='-322' />
    <nd ref='-323' />
    <nd ref='-324' />
    <tag k="ID" v="107458.000"/>
    <tag k="CATEGORY" v="4"/>
    <tag k="SHAPE_LE_1" v="485.221"/>
    <tag k="ET_ID" v="100640"/>
    <tag k="WAY_TYPE" v="Village Road"/>
    <tag k="SHAPE_LENG" v="0.000"/>
    <tag k="CAT2" v="40"/>
  </way>
  <node id='-326' visible='true' lat='40.0349520942451' lon='20.2604437175751' />
  <node id='-327' visible='true' lat='40.0339485881825' lon='20.2603945300704' />
  <way id='-328' visible='true'>
    <nd ref='-326' />
    <nd ref='-327' />
    <tag k="ID" v="107461.000"/>
    <tag k="CATEGORY" v="4"/>
    <tag k="SHAPE_LE_1" v="111.511"/>
    <tag k="ET_ID" v="100643"/>
    <tag k="WAY_TYPE" v="Village Road"/>
    <tag k="SHAPE_LENG" v="0.000"/>
    <tag k="CAT2" v="40"/>
  </way>
  <node id='-329' visible='true' lat='40.0376259060427' lon='20.2604148325898' />
  <node id='-330' visible='true' lat='40.0371003854295' lon='20.2604205100548' />
  <node id='-331' visible='true' lat='40.0349520942451' lon='20.2604437175751' />
  <way id='-332' visible='true'>
    <nd ref='-329' />
    <nd ref='-330' />
    <nd ref='-331' />
    <tag k="ID" v="107462.000"/>
    <tag k="CATEGORY" v="4"/>
    <tag k="SHAPE_LE_1" v="296.918"/>
    <tag k="ET_ID" v="100644"/>
    <tag k="WAY_TYPE" v="Village Road"/>
    <tag k="SHAPE_LENG" v="0.000"/>
    <tag k="CAT2" v="40"/>
  </way>
  <node id='-333' visible='true' lat='40.024901792045' lon='20.2673097050468' />
  <node id='-334' visible='true' lat='40.0254792088753' lon='20.2664538746324' />
  <node id='-335' visible='true' lat='40.0260839790337' lon='20.2654631508002' />
  <node id='-336' visible='true' lat='40.0266277431122' lon='20.2649966025627' />
  <node id='-337' visible='true' lat='40.0274451204695' lon='20.2645689921311' />
  <way id='-338' visible='true'>
    <nd ref='-333' />
    <nd ref='-334' />
    <nd ref='-335' />
    <nd ref='-336' />
    <nd ref='-337' />
    <tag k="ID" v="107484.000"/>
    <tag k="CATEGORY" v="4"/>
    <tag k="SHAPE_LE_1" v="375.362"/>
    <tag k="ET_ID" v="100666"/>
    <tag k="WAY_TYPE" v="Village Road"/>
    <tag k="SHAPE_LENG" v="0.000"/>
    <tag k="CAT2" v="40"/>
  </way>
  <node id='-339' visible='true' lat='40.0274451204695' lon='20.2645689921311' />
  <node id='-340' visible='true' lat='40.028177258872' lon='20.2642890769996' />
  <node id='-341' visible='true' lat='40.028819753079' lon='20.264177465756' />
  <node id='-342' visible='true' lat='40.0289075654215' lon='20.2637035187525' />
  <way id='-343' visible='true'>
    <nd ref='-339' />
    <nd ref='-340' />
    <nd ref='-341' />
    <nd ref='-342' />
    <tag k="ID" v="108658.000"/>
    <tag k="CATEGORY" v="4"/>
    <tag k="SHAPE_LE_1" v="198.331"/>
    <tag k="ET_ID" v="101792"/>
    <tag k="WAY_TYPE" v="Village Road"/>
    <tag k="SHAPE_LENG" v="0.000"/>
    <tag k="CAT2" v="40"/>
  </way>
  <node id='-344' visible='true' lat='40.0339485881825' lon='20.2603945300704' />
  <node id='-345' visible='true' lat='40.0332078837399' lon='20.2607098748394' />
  <way id='-346' visible='true'>
    <nd ref='-344' />
    <nd ref='-345' />
    <tag k="ID" v="108684.000"/>
    <tag k="CATEGORY" v="4"/>
    <tag k="SHAPE_LE_1" v="86.542"/>
    <tag k="ET_ID" v="101818"/>
    <tag k="WAY_TYPE" v="Village Road"/>
    <tag k="SHAPE_LENG" v="0.000"/>
    <tag k="CAT2" v="40"/>
  </way>
  <node id='-347' visible='true' lat='40.0361387619455' lon='20.2694434662002' />
  <node id='-348' visible='true' lat='40.0362970478565' lon='20.2689002169074' />
  <node id='-349' visible='true' lat='40.0362020540139' lon='20.267686248424' />
  <way id='-350' visible='true'>
    <nd ref='-347' />
    <nd ref='-348' />
    <nd ref='-349' />
    <tag k="ID" v="108685.000"/>
    <tag k="CATEGORY" v="4"/>
    <tag k="SHAPE_LE_1" v="153.741"/>
    <tag k="ET_ID" v="101819"/>
    <tag k="WAY_TYPE" v="Village Road"/>
    <tag k="SHAPE_LENG" v="0.000"/>
    <tag k="CAT2" v="40"/>
  </way>
  <node id='-351' visible='true' lat='40.0223928241122' lon='20.2618036881926' />
  <node id='-352' visible='true' lat='40.0228356217527' lon='20.2622058981937' />
  <node id='-353' visible='true' lat='40.0235560437946' lon='20.2628924584582' />
  <node id='-354' visible='true' lat='40.0241698211668' lon='20.263580191739' />
  <node id='-355' visible='true' lat='40.0243718346915' lon='20.2637348533077' />
  <way id='-356' visible='true'>
    <nd ref='-351' />
    <nd ref='-352' />
    <nd ref='-353' />
    <nd ref='-354' />
    <nd ref='-355' />
    <tag k="ID" v="108704.000"/>
    <tag k="CATEGORY" v="4"/>
    <tag k="SHAPE_LE_1" v="275.130"/>
    <tag k="ET_ID" v="101838"/>
    <tag k="WAY_TYPE" v="Village Road"/>
    <tag k="SHAPE_LENG" v="0.000"/>
    <tag k="CAT2" v="40"/>
  </way>
  <node id='-357' visible='true' lat='40.0302166950183' lon='20.2674605201091' />
  <node id='-358' visible='true' lat='40.0294731429343' lon='20.2677085559981' />
  <way id='-359' visible='true'>
    <nd ref='-357' />
    <nd ref='-358' />
    <tag k="ID" v="195291.000"/>
    <tag k="CATEGORY" v="1"/>
    <tag k="SHAPE_LE_1" v="85.237"/>
    <tag k="ET_ID" v="186110"/>
    <tag k="WAY_TYPE" v="National Asphalted Road"/>
    <tag k="SHAPE_LENG" v="0.000"/>
    <tag k="CAT2" v="11"/>
  </way>
  <node id='-360' visible='true' lat='40.0339485881825' lon='20.2603945300704' />
  <node id='-361' visible='true' lat='40.0337774075753' lon='20.2606969829045' />
  <node id='-362' visible='true' lat='40.0338116709249' lon='20.2612918340319' />
  <node id='-363' visible='true' lat='40.0338145791368' lon='20.2617481460617' />
  <node id='-364' visible='true' lat='40.0336185584588' lon='20.2620677124564' />
  <node id='-365' visible='true' lat='40.0331971178941' lon='20.2624573861942' />
  <way id='-366' visible='true'>
    <nd ref='-360' />
    <nd ref='-361' />
    <nd ref='-362' />
    <nd ref='-363' />
    <nd ref='-364' />
    <nd ref='-365' />
    <tag k="ID" v="195293.000"/>
    <tag k="CATEGORY" v="1"/>
    <tag k="SHAPE_LE_1" v="214.239"/>
    <tag k="ET_ID" v="186112"/>
    <tag k="WAY_TYPE" v="National Asphalted Road"/>
    <tag k="SHAPE_LENG" v="0.000"/>
    <tag k="CAT2" v="11"/>
  </way>
  <node id='-367' visible='true' lat='40.0331971178941' lon='20.2624573861942' />
  <node id='-368' visible='true' lat='40.0331508009163' lon='20.2625002102736' />
  <way id='-369' visible='true'>
    <nd ref='-367' />
    <nd ref='-368' />
    <tag k="ID" v="195720.000"/>
    <tag k="CATEGORY" v="1"/>
    <tag k="SHAPE_LE_1" v="6.310"/>
    <tag k="ET_ID" v="186470"/>
    <tag k="WAY_TYPE" v="National Asphalted Road"/>
    <tag k="SHAPE_LENG" v="0.000"/>
    <tag k="CAT2" v="11"/>
  </way>
</osm>
