<?xml version='1.0'?>
<osm version='0.5' generator='shp2osm.pl'>
  <node id='-1' visible='true' lat='40.633138' lon='20.7655603' />
  <node id='-2' visible='true' lat='40.6325332' lon='20.7656166' />
  <node id='-3' visible='true' lat='40.6244' lon='20.7727332' />
  <node id='-4' visible='true' lat='40.6228167' lon='20.7742' />
  <node id='-5' visible='true' lat='40.6218833' lon='20.7746166' />
  <node id='-6' visible='true' lat='40.6218833' lon='20.7748999' />
  <way id='-7' visible='true'>
    <nd ref='-1' />
    <nd ref='-2' />
    <nd ref='-3' />
    <nd ref='-4' />
    <nd ref='-5' />
    <nd ref='-6' />
    <tag k="OSM_ID" v="25632135"/>
  </way>
  <node id='-8' visible='true' lat='40.6203833' lon='20.77485' />
  <node id='-9' visible='true' lat='40.6192666' lon='20.7751832' />
  <node id='-10' visible='true' lat='40.6186166' lon='20.7753332' />
  <node id='-11' visible='true' lat='40.6180833' lon='20.7754833' />
  <way id='-12' visible='true'>
    <nd ref='-8' />
    <nd ref='-9' />
    <nd ref='-10' />
    <nd ref='-11' />
    <tag k="OSM_ID" v="30459717"/>
  </way>
  <node id='-13' visible='true' lat='40.6218833' lon='20.7748999' />
  <node id='-14' visible='true' lat='40.6194332' lon='20.7770167' />
  <node id='-15' visible='true' lat='40.6189832' lon='20.7772666' />
  <way id='-16' visible='true'>
    <nd ref='-13' />
    <nd ref='-14' />
    <nd ref='-15' />
    <tag k="OSM_ID" v="30459924"/>
  </way>
  <node id='-17' visible='true' lat='40.617876' lon='20.777055' />
  <node id='-18' visible='true' lat='40.6172809' lon='20.7771679' />
  <node id='-19' visible='true' lat='40.616815' lon='20.7775469' />
  <node id='-20' visible='true' lat='40.616464' lon='20.7776279' />
  <node id='-21' visible='true' lat='40.6160289' lon='20.777373' />
  <node id='-22' visible='true' lat='40.6158119' lon='20.7772849' />
  <node id='-23' visible='true' lat='40.615892' lon='20.777145' />
  <node id='-24' visible='true' lat='40.6166759' lon='20.776094' />
  <node id='-25' visible='true' lat='40.6172979' lon='20.7756749' />
  <node id='-26' visible='true' lat='40.6180833' lon='20.7754833' />
  <node id='-27' visible='true' lat='40.6180367' lon='20.7770563' />
  <node id='-28' visible='true' lat='40.618166' lon='20.7770827' />
  <way id='-29' visible='true'>
    <nd ref='-17' />
    <nd ref='-18' />
    <nd ref='-19' />
    <nd ref='-20' />
    <nd ref='-21' />
    <nd ref='-22' />
    <nd ref='-23' />
    <nd ref='-24' />
    <nd ref='-25' />
    <nd ref='-26' />
    <nd ref='-27' />
    <nd ref='-28' />
    <tag k="OSM_ID" v="30459529"/>
  </way>
  <node id='-30' visible='true' lat='40.6158119' lon='20.7772849' />
  <node id='-31' visible='true' lat='40.6148799' lon='20.7767829' />
  <way id='-32' visible='true'>
    <nd ref='-30' />
    <nd ref='-31' />
    <tag k="OSM_ID" v="30459476"/>
  </way>
  <node id='-33' visible='true' lat='40.617876' lon='20.777055' />
  <node id='-34' visible='true' lat='40.6180367' lon='20.7770563' />
  <way id='-35' visible='true'>
    <nd ref='-33' />
    <nd ref='-34' />
    <tag k="OSM_ID" v="30459647"/>
  </way>
  <node id='-36' visible='true' lat='40.6183333' lon='20.7771167' />
  <node id='-37' visible='true' lat='40.618166' lon='20.7770827' />
  <node id='-38' visible='true' lat='40.6181709' lon='20.777159' />
  <node id='-39' visible='true' lat='40.618197' lon='20.7773369' />
  <node id='-40' visible='true' lat='40.618205' lon='20.7775649' />
  <node id='-41' visible='true' lat='40.6181109' lon='20.7778179' />
  <node id='-42' visible='true' lat='40.6189832' lon='20.7772666' />
  <node id='-43' visible='true' lat='40.6185667' lon='20.7772' />
  <node id='-44' visible='true' lat='40.6183333' lon='20.7771167' />
  <way id='-45' visible='true'>
    <nd ref='-36' />
    <nd ref='-37' />
    <nd ref='-38' />
    <nd ref='-39' />
    <nd ref='-40' />
    <nd ref='-41' />
    <nd ref='-42' />
    <nd ref='-43' />
    <nd ref='-44' />
    <tag k="OSM_ID" v="30459911"/>
  </way>
  <node id='-46' visible='true' lat='40.6189832' lon='20.7772666' />
  <node id='-47' visible='true' lat='40.619261' lon='20.7774679' />
  <node id='-48' visible='true' lat='40.620007' lon='20.777815' />
  <node id='-49' visible='true' lat='40.62069' lon='20.7781699' />
  <node id='-50' visible='true' lat='40.6213779' lon='20.7786919' />
  <node id='-51' visible='true' lat='40.622467' lon='20.779834' />
  <way id='-52' visible='true'>
    <nd ref='-46' />
    <nd ref='-47' />
    <nd ref='-48' />
    <nd ref='-49' />
    <nd ref='-50' />
    <nd ref='-51' />
    <tag k="OSM_ID" v="30506239"/>
  </way>
  <node id='-53' visible='true' lat='40.616083' lon='20.780376' />
  <node id='-54' visible='true' lat='40.6160709' lon='20.7801989' />
  <node id='-55' visible='true' lat='40.6171859' lon='20.7789709' />
  <node id='-56' visible='true' lat='40.6181109' lon='20.7778179' />
  <way id='-57' visible='true'>
    <nd ref='-53' />
    <nd ref='-54' />
    <nd ref='-55' />
    <nd ref='-56' />
    <tag k="OSM_ID" v="30460042"/>
  </way>
</osm>
