<?xml version='1.0'?>
<osm version='0.5' generator='shp2osm.pl'>
  <node id='-1' visible='true' lat='40.7966899' lon='20.2657769' />
  <node id='-2' visible='true' lat='40.7967799' lon='20.265453' />
  <node id='-3' visible='true' lat='40.7967149' lon='20.265025' />
  <node id='-4' visible='true' lat='40.7963019' lon='20.2636879' />
  <node id='-5' visible='true' lat='40.7962729' lon='20.2634399' />
  <node id='-6' visible='true' lat='40.7963829' lon='20.2631559' />
  <node id='-7' visible='true' lat='40.796526' lon='20.2630869' />
  <node id='-8' visible='true' lat='40.7967069' lon='20.26319' />
  <node id='-9' visible='true' lat='40.79681' lon='20.2634459' />
  <node id='-10' visible='true' lat='40.7969319' lon='20.264154' />
  <node id='-11' visible='true' lat='40.79704' lon='20.264382' />
  <node id='-12' visible='true' lat='40.79758' lon='20.2647429' />
  <node id='-13' visible='true' lat='40.797806' lon='20.2646909' />
  <node id='-14' visible='true' lat='40.7979839' lon='20.264016' />
  <node id='-15' visible='true' lat='40.798172' lon='20.263835' />
  <node id='-16' visible='true' lat='40.7984269' lon='20.2634199' />
  <node id='-17' visible='true' lat='40.7984849' lon='20.2630359' />
  <node id='-18' visible='true' lat='40.7985019' lon='20.2625099' />
  <node id='-19' visible='true' lat='40.7987109' lon='20.2619609' />
  <node id='-20' visible='true' lat='40.799024' lon='20.261776' />
  <node id='-21' visible='true' lat='40.799216' lon='20.2617319' />
  <node id='-22' visible='true' lat='40.799239' lon='20.261603' />
  <node id='-23' visible='true' lat='40.7990899' lon='20.2615349' />
  <node id='-24' visible='true' lat='40.7986909' lon='20.261623' />
  <node id='-25' visible='true' lat='40.798563' lon='20.2614909' />
  <node id='-26' visible='true' lat='40.798675' lon='20.2613389' />
  <node id='-27' visible='true' lat='40.79892' lon='20.261185' />
  <node id='-28' visible='true' lat='40.7992419' lon='20.261205' />
  <node id='-29' visible='true' lat='40.7995439' lon='20.2613319' />
  <node id='-30' visible='true' lat='40.79968' lon='20.2611759' />
  <node id='-31' visible='true' lat='40.7994759' lon='20.26003' />
  <node id='-32' visible='true' lat='40.7995749' lon='20.259291' />
  <node id='-33' visible='true' lat='40.799778' lon='20.258941' />
  <node id='-34' visible='true' lat='40.800212' lon='20.2585249' />
  <node id='-35' visible='true' lat='40.8005599' lon='20.2578789' />
  <node id='-36' visible='true' lat='40.8008579' lon='20.2576199' />
  <node id='-37' visible='true' lat='40.801225' lon='20.257536' />
  <node id='-38' visible='true' lat='40.8015809' lon='20.2572539' />
  <node id='-39' visible='true' lat='40.8039589' lon='20.253651' />
  <node id='-40' visible='true' lat='40.8041869' lon='20.253284' />
  <node id='-41' visible='true' lat='40.805419' lon='20.250353' />
  <node id='-42' visible='true' lat='40.8070189' lon='20.2473799' />
  <node id='-43' visible='true' lat='40.8078799' lon='20.2460489' />
  <node id='-44' visible='true' lat='40.8079329' lon='20.2457239' />
  <node id='-45' visible='true' lat='40.8078649' lon='20.245317' />
  <node id='-46' visible='true' lat='40.808101' lon='20.2443719' />
  <node id='-47' visible='true' lat='40.8074009' lon='20.243873' />
  <node id='-48' visible='true' lat='40.8070969' lon='20.2434229' />
  <node id='-49' visible='true' lat='40.8067169' lon='20.2426549' />
  <node id='-50' visible='true' lat='40.806603' lon='20.2420669' />
  <node id='-51' visible='true' lat='40.8067319' lon='20.2414559' />
  <node id='-52' visible='true' lat='40.807149' lon='20.2407889' />
  <node id='-53' visible='true' lat='40.807589' lon='20.2404559' />
  <node id='-54' visible='true' lat='40.808137' lon='20.240327' />
  <node id='-55' visible='true' lat='40.808393' lon='20.240068' />
  <node id='-56' visible='true' lat='40.8084569' lon='20.239754' />
  <node id='-57' visible='true' lat='40.808309' lon='20.2392719' />
  <node id='-58' visible='true' lat='40.808289' lon='20.2387009' />
  <node id='-59' visible='true' lat='40.8083219' lon='20.2385289' />
  <node id='-60' visible='true' lat='40.8089519' lon='20.2359009' />
  <node id='-61' visible='true' lat='40.8098099' lon='20.2329089' />
  <node id='-62' visible='true' lat='40.8099029' lon='20.2321699' />
  <node id='-63' visible='true' lat='40.810048' lon='20.231704' />
  <node id='-64' visible='true' lat='40.810254' lon='20.2316019' />
  <node id='-65' visible='true' lat='40.810442' lon='20.2317619' />
  <node id='-66' visible='true' lat='40.811182' lon='20.2332269' />
  <node id='-67' visible='true' lat='40.81154' lon='20.233556' />
  <node id='-68' visible='true' lat='40.8118649' lon='20.2341629' />
  <node id='-69' visible='true' lat='40.812077' lon='20.2347269' />
  <node id='-70' visible='true' lat='40.812344' lon='20.23496' />
  <node id='-71' visible='true' lat='40.8126219' lon='20.2349089' />
  <node id='-72' visible='true' lat='40.8127449' lon='20.2347399' />
  <node id='-73' visible='true' lat='40.8127799' lon='20.2344439' />
  <node id='-74' visible='true' lat='40.8127289' lon='20.233608' />
  <node id='-75' visible='true' lat='40.812103' lon='20.2317609' />
  <node id='-76' visible='true' lat='40.8119919' lon='20.2313119' />
  <node id='-77' visible='true' lat='40.8120449' lon='20.23057' />
  <node id='-78' visible='true' lat='40.8122469' lon='20.2302229' />
  <node id='-79' visible='true' lat='40.8125479' lon='20.229994' />
  <node id='-80' visible='true' lat='40.8133229' lon='20.2295529' />
  <node id='-81' visible='true' lat='40.814382' lon='20.2287479' />
  <node id='-82' visible='true' lat='40.8150049' lon='20.2279659' />
  <node id='-83' visible='true' lat='40.8164889' lon='20.2265419' />
  <node id='-84' visible='true' lat='40.818486' lon='20.2243759' />
  <node id='-85' visible='true' lat='40.8197309' lon='20.223189' />
  <node id='-86' visible='true' lat='40.8205299' lon='20.222263' />
  <node id='-87' visible='true' lat='40.820762' lon='20.221923' />
  <node id='-88' visible='true' lat='40.821809' lon='20.2195679' />
  <node id='-89' visible='true' lat='40.8221089' lon='20.219218' />
  <node id='-90' visible='true' lat='40.822298' lon='20.2192129' />
  <node id='-91' visible='true' lat='40.8227759' lon='20.219577' />
  <node id='-92' visible='true' lat='40.82303' lon='20.2197059' />
  <node id='-93' visible='true' lat='40.8236259' lon='20.219884' />
  <node id='-94' visible='true' lat='40.8238479' lon='20.2198999' />
  <node id='-95' visible='true' lat='40.8241319' lon='20.220085' />
  <node id='-96' visible='true' lat='40.8243969' lon='20.2208429' />
  <node id='-97' visible='true' lat='40.82459' lon='20.2216859' />
  <node id='-98' visible='true' lat='40.824725' lon='20.2220249' />
  <node id='-99' visible='true' lat='40.8249319' lon='20.2222529' />
  <node id='-100' visible='true' lat='40.824987' lon='20.222142' />
  <node id='-101' visible='true' lat='40.8248269' lon='20.2215549' />
  <node id='-102' visible='true' lat='40.8248779' lon='20.220693' />
  <node id='-103' visible='true' lat='40.8252319' lon='20.2201379' />
  <node id='-104' visible='true' lat='40.8250039' lon='20.2196619' />
  <node id='-105' visible='true' lat='40.8240589' lon='20.21893' />
  <node id='-106' visible='true' lat='40.823874' lon='20.218592' />
  <node id='-107' visible='true' lat='40.8239549' lon='20.2182589' />
  <node id='-108' visible='true' lat='40.824218' lon='20.2177399' />
  <node id='-109' visible='true' lat='40.8245089' lon='20.2174949' />
  <node id='-110' visible='true' lat='40.825242' lon='20.2172979' />
  <node id='-111' visible='true' lat='40.82549' lon='20.217113' />
  <node id='-112' visible='true' lat='40.8253789' lon='20.216664' />
  <node id='-113' visible='true' lat='40.8253279' lon='20.216149' />
  <node id='-114' visible='true' lat='40.825412' lon='20.215741' />
  <node id='-115' visible='true' lat='40.825541' lon='20.2156209' />
  <node id='-116' visible='true' lat='40.8258069' lon='20.2154309' />
  <node id='-117' visible='true' lat='40.826126' lon='20.2154029' />
  <node id='-118' visible='true' lat='40.827052' lon='20.215982' />
  <node id='-119' visible='true' lat='40.827238' lon='20.215896' />
  <node id='-120' visible='true' lat='40.8271719' lon='20.215651' />
  <node id='-121' visible='true' lat='40.8269549' lon='20.215322' />
  <node id='-122' visible='true' lat='40.8263379' lon='20.2147949' />
  <node id='-123' visible='true' lat='40.825957' lon='20.214545' />
  <node id='-124' visible='true' lat='40.825572' lon='20.214123' />
  <node id='-125' visible='true' lat='40.825414' lon='20.2136719' />
  <node id='-126' visible='true' lat='40.825307' lon='20.212523' />
  <node id='-127' visible='true' lat='40.825451' lon='20.2118879' />
  <node id='-128' visible='true' lat='40.8256009' lon='20.211666' />
  <node id='-129' visible='true' lat='40.8260689' lon='20.2111249' />
  <node id='-130' visible='true' lat='40.826354' lon='20.210909' />
  <node id='-131' visible='true' lat='40.8266059' lon='20.2105899' />
  <node id='-132' visible='true' lat='40.8273879' lon='20.2098839' />
  <node id='-133' visible='true' lat='40.827997' lon='20.208784' />
  <node id='-134' visible='true' lat='40.828713' lon='20.2071119' />
  <node id='-135' visible='true' lat='40.829003' lon='20.206759' />
  <node id='-136' visible='true' lat='40.8291759' lon='20.2066219' />
  <node id='-137' visible='true' lat='40.8293049' lon='20.206277' />
  <node id='-138' visible='true' lat='40.8292209' lon='20.206054' />
  <node id='-139' visible='true' lat='40.8287839' lon='20.205293' />
  <node id='-140' visible='true' lat='40.828121' lon='20.2043759' />
  <node id='-141' visible='true' lat='40.8280249' lon='20.2039149' />
  <node id='-142' visible='true' lat='40.828161' lon='20.203519' />
  <node id='-143' visible='true' lat='40.828617' lon='20.202736' />
  <node id='-144' visible='true' lat='40.829017' lon='20.202431' />
  <node id='-145' visible='true' lat='40.8306139' lon='20.201553' />
  <node id='-146' visible='true' lat='40.8314859' lon='20.2009189' />
  <node id='-147' visible='true' lat='40.8332699' lon='20.199912' />
  <node id='-148' visible='true' lat='40.8340609' lon='20.1993739' />
  <node id='-149' visible='true' lat='40.8345759' lon='20.198913' />
  <node id='-150' visible='true' lat='40.835574' lon='20.1976559' />
  <node id='-151' visible='true' lat='40.8357749' lon='20.19731' />
  <node id='-152' visible='true' lat='40.835883' lon='20.196881' />
  <node id='-153' visible='true' lat='40.8361379' lon='20.1964339' />
  <node id='-154' visible='true' lat='40.836958' lon='20.1964819' />
  <node id='-155' visible='true' lat='40.8375849' lon='20.196701' />
  <node id='-156' visible='true' lat='40.8377539' lon='20.196614' />
  <node id='-157' visible='true' lat='40.8376689' lon='20.196348' />
  <node id='-158' visible='true' lat='40.8371169' lon='20.1958839' />
  <node id='-159' visible='true' lat='40.8367209' lon='20.195443' />
  <node id='-160' visible='true' lat='40.8368419' lon='20.195112' />
  <node id='-161' visible='true' lat='40.8374379' lon='20.194388' />
  <node id='-162' visible='true' lat='40.837791' lon='20.19384' />
  <node id='-163' visible='true' lat='40.838141' lon='20.193688' />
  <node id='-164' visible='true' lat='40.8382819' lon='20.193916' />
  <node id='-165' visible='true' lat='40.8383269' lon='20.1941079' />
  <node id='-166' visible='true' lat='40.8384969' lon='20.19416' />
  <node id='-167' visible='true' lat='40.8387329' lon='20.1935949' />
  <node id='-168' visible='true' lat='40.8392539' lon='20.1930949' />
  <node id='-169' visible='true' lat='40.83939' lon='20.1930359' />
  <node id='-170' visible='true' lat='40.84013' lon='20.1924619' />
  <node id='-171' visible='true' lat='40.8405079' lon='20.192336' />
  <node id='-172' visible='true' lat='40.84069' lon='20.1924139' />
  <node id='-173' visible='true' lat='40.8409819' lon='20.192295' />
  <node id='-174' visible='true' lat='40.8412369' lon='20.191144' />
  <node id='-175' visible='true' lat='40.8415099' lon='20.1907199' />
  <node id='-176' visible='true' lat='40.841616' lon='20.1906509' />
  <node id='-177' visible='true' lat='40.8429829' lon='20.1901089' />
  <node id='-178' visible='true' lat='40.843428' lon='20.1900639' />
  <node id='-179' visible='true' lat='40.843676' lon='20.1901779' />
  <node id='-180' visible='true' lat='40.843865' lon='20.1899909' />
  <node id='-181' visible='true' lat='40.844123' lon='20.189443' />
  <node id='-182' visible='true' lat='40.8444829' lon='20.1890479' />
  <node id='-183' visible='true' lat='40.8455299' lon='20.1886399' />
  <node id='-184' visible='true' lat='40.846113' lon='20.188573' />
  <node id='-185' visible='true' lat='40.8463759' lon='20.1884179' />
  <node id='-186' visible='true' lat='40.846313' lon='20.188188' />
  <node id='-187' visible='true' lat='40.846007' lon='20.188095' />
  <node id='-188' visible='true' lat='40.845745' lon='20.1881219' />
  <node id='-189' visible='true' lat='40.8444239' lon='20.188572' />
  <node id='-190' visible='true' lat='40.843555' lon='20.1887229' />
  <node id='-191' visible='true' lat='40.8433849' lon='20.1885489' />
  <node id='-192' visible='true' lat='40.843538' lon='20.1884219' />
  <node id='-193' visible='true' lat='40.843842' lon='20.1883879' />
  <node id='-194' visible='true' lat='40.8445239' lon='20.188112' />
  <node id='-195' visible='true' lat='40.8453939' lon='20.1875259' />
  <node id='-196' visible='true' lat='40.8455579' lon='20.1873669' />
  <way id='-197' visible='true'>
    <nd ref='-1' />
    <nd ref='-2' />
    <nd ref='-3' />
    <nd ref='-4' />
    <nd ref='-5' />
    <nd ref='-6' />
    <nd ref='-7' />
    <nd ref='-8' />
    <nd ref='-9' />
    <nd ref='-10' />
    <nd ref='-11' />
    <nd ref='-12' />
    <nd ref='-13' />
    <nd ref='-14' />
    <nd ref='-15' />
    <nd ref='-16' />
    <nd ref='-17' />
    <nd ref='-18' />
    <nd ref='-19' />
    <nd ref='-20' />
    <nd ref='-21' />
    <nd ref='-22' />
    <nd ref='-23' />
    <nd ref='-24' />
    <nd ref='-25' />
    <nd ref='-26' />
    <nd ref='-27' />
    <nd ref='-28' />
    <nd ref='-29' />
    <nd ref='-30' />
    <nd ref='-31' />
    <nd ref='-32' />
    <nd ref='-33' />
    <nd ref='-34' />
    <nd ref='-35' />
    <nd ref='-36' />
    <nd ref='-37' />
    <nd ref='-38' />
    <nd ref='-39' />
    <nd ref='-40' />
    <nd ref='-41' />
    <nd ref='-42' />
    <nd ref='-43' />
    <nd ref='-44' />
    <nd ref='-45' />
    <nd ref='-46' />
    <nd ref='-47' />
    <nd ref='-48' />
    <nd ref='-49' />
    <nd ref='-50' />
    <nd ref='-51' />
    <nd ref='-52' />
    <nd ref='-53' />
    <nd ref='-54' />
    <nd ref='-55' />
    <nd ref='-56' />
    <nd ref='-57' />
    <nd ref='-58' />
    <nd ref='-59' />
    <nd ref='-60' />
    <nd ref='-61' />
    <nd ref='-62' />
    <nd ref='-63' />
    <nd ref='-64' />
    <nd ref='-65' />
    <nd ref='-66' />
    <nd ref='-67' />
    <nd ref='-68' />
    <nd ref='-69' />
    <nd ref='-70' />
    <nd ref='-71' />
    <nd ref='-72' />
    <nd ref='-73' />
    <nd ref='-74' />
    <nd ref='-75' />
    <nd ref='-76' />
    <nd ref='-77' />
    <nd ref='-78' />
    <nd ref='-79' />
    <nd ref='-80' />
    <nd ref='-81' />
    <nd ref='-82' />
    <nd ref='-83' />
    <nd ref='-84' />
    <nd ref='-85' />
    <nd ref='-86' />
    <nd ref='-87' />
    <nd ref='-88' />
    <nd ref='-89' />
    <nd ref='-90' />
    <nd ref='-91' />
    <nd ref='-92' />
    <nd ref='-93' />
    <nd ref='-94' />
    <nd ref='-95' />
    <nd ref='-96' />
    <nd ref='-97' />
    <nd ref='-98' />
    <nd ref='-99' />
    <nd ref='-100' />
    <nd ref='-101' />
    <nd ref='-102' />
    <nd ref='-103' />
    <nd ref='-104' />
    <nd ref='-105' />
    <nd ref='-106' />
    <nd ref='-107' />
    <nd ref='-108' />
    <nd ref='-109' />
    <nd ref='-110' />
    <nd ref='-111' />
    <nd ref='-112' />
    <nd ref='-113' />
    <nd ref='-114' />
    <nd ref='-115' />
    <nd ref='-116' />
    <nd ref='-117' />
    <nd ref='-118' />
    <nd ref='-119' />
    <nd ref='-120' />
    <nd ref='-121' />
    <nd ref='-122' />
    <nd ref='-123' />
    <nd ref='-124' />
    <nd ref='-125' />
    <nd ref='-126' />
    <nd ref='-127' />
    <nd ref='-128' />
    <nd ref='-129' />
    <nd ref='-130' />
    <nd ref='-131' />
    <nd ref='-132' />
    <nd ref='-133' />
    <nd ref='-134' />
    <nd ref='-135' />
    <nd ref='-136' />
    <nd ref='-137' />
    <nd ref='-138' />
    <nd ref='-139' />
    <nd ref='-140' />
    <nd ref='-141' />
    <nd ref='-142' />
    <nd ref='-143' />
    <nd ref='-144' />
    <nd ref='-145' />
    <nd ref='-146' />
    <nd ref='-147' />
    <nd ref='-148' />
    <nd ref='-149' />
    <nd ref='-150' />
    <nd ref='-151' />
    <nd ref='-152' />
    <nd ref='-153' />
    <nd ref='-154' />
    <nd ref='-155' />
    <nd ref='-156' />
    <nd ref='-157' />
    <nd ref='-158' />
    <nd ref='-159' />
    <nd ref='-160' />
    <nd ref='-161' />
    <nd ref='-162' />
    <nd ref='-163' />
    <nd ref='-164' />
    <nd ref='-165' />
    <nd ref='-166' />
    <nd ref='-167' />
    <nd ref='-168' />
    <nd ref='-169' />
    <nd ref='-170' />
    <nd ref='-171' />
    <nd ref='-172' />
    <nd ref='-173' />
    <nd ref='-174' />
    <nd ref='-175' />
    <nd ref='-176' />
    <nd ref='-177' />
    <nd ref='-178' />
    <nd ref='-179' />
    <nd ref='-180' />
    <nd ref='-181' />
    <nd ref='-182' />
    <nd ref='-183' />
    <nd ref='-184' />
    <nd ref='-185' />
    <nd ref='-186' />
    <nd ref='-187' />
    <nd ref='-188' />
    <nd ref='-189' />
    <nd ref='-190' />
    <nd ref='-191' />
    <nd ref='-192' />
    <nd ref='-193' />
    <nd ref='-194' />
    <nd ref='-195' />
    <nd ref='-196' />
    <tag k="OSM_ID" v="36779083"/>
  </way>
</osm>
