<?xml version='1.0'?>
<osm version='0.5' generator='shp2osm.pl'>
  <node id='-1' visible='true' lat='41.678027' lon='20.338118' />
  <node id='-2' visible='true' lat='41.6782019' lon='20.336279' />
  <node id='-3' visible='true' lat='41.678248' lon='20.336178' />
  <way id='-4' visible='true'>
    <nd ref='-1' />
    <nd ref='-2' />
    <nd ref='-3' />
    <tag k="OSM_ID" v="30439201"/>
  </way>
</osm>
