<?xml version='1.0'?>
<osm version='0.5' generator='shp2osm.pl'>
  <node id='-1' visible='true' lat='41.1987136' lon='20.0475867' />
  <node id='-2' visible='true' lat='41.1969053' lon='20.04896' />
  <node id='-3' visible='true' lat='41.1944512' lon='20.0487882' />
  <node id='-4' visible='true' lat='41.1931595' lon='20.0487882' />
  <node id='-5' visible='true' lat='41.1939344' lon='20.0465567' />
  <node id='-6' visible='true' lat='41.1956137' lon='20.0470717' />
  <node id='-7' visible='true' lat='41.196647' lon='20.04793' />
  <node id='-8' visible='true' lat='41.1994887' lon='20.0472433' />
  <way id='-9' visible='true'>
    <nd ref='-1' />
    <nd ref='-2' />
    <nd ref='-3' />
    <nd ref='-4' />
    <nd ref='-5' />
    <nd ref='-6' />
    <nd ref='-7' />
    <nd ref='-8' />
    <tag k="OSM_ID" v="45666195"/>
  </way>
</osm>
