<?xml version='1.0'?>
<osm version='0.5' generator='shp2osm.pl'>
  <node id='-1' visible='true' lat='41.1903792' lon='19.5552014' />
  <node id='-2' visible='true' lat='41.1901841' lon='19.5548056' />
  <node id='-3' visible='true' lat='41.1897402' lon='19.5534807' />
  <node id='-4' visible='true' lat='41.189724' lon='19.5534323' />
  <node id='-5' visible='true' lat='41.1890703' lon='19.5514912' />
  <way id='-6' visible='true'>
    <nd ref='-1' />
    <nd ref='-2' />
    <nd ref='-3' />
    <nd ref='-4' />
    <nd ref='-5' />
    <tag k="OSM_ID" v="33281037"/>
  </way>
  <node id='-7' visible='true' lat='41.1897402' lon='19.5534807' />
  <node id='-8' visible='true' lat='41.1882384' lon='19.5546661' />
  <node id='-9' visible='true' lat='41.1880264' lon='19.5548296' />
  <node id='-10' visible='true' lat='41.1876127' lon='19.5551491' />
  <node id='-11' visible='true' lat='41.1873906' lon='19.5553206' />
  <node id='-12' visible='true' lat='41.1871346' lon='19.5555276' />
  <node id='-13' visible='true' lat='41.1867657' lon='19.5558261' />
  <node id='-14' visible='true' lat='41.1863845' lon='19.5561346' />
  <node id='-15' visible='true' lat='41.1860633' lon='19.5563941' />
  <node id='-16' visible='true' lat='41.1853882' lon='19.5569406' />
  <node id='-17' visible='true' lat='41.1837732' lon='19.5581959' />
  <node id='-18' visible='true' lat='41.1824672' lon='19.5592609' />
  <node id='-19' visible='true' lat='41.1811812' lon='19.5603094' />
  <node id='-20' visible='true' lat='41.1793726' lon='19.5617471' />
  <way id='-21' visible='true'>
    <nd ref='-7' />
    <nd ref='-8' />
    <nd ref='-9' />
    <nd ref='-10' />
    <nd ref='-11' />
    <nd ref='-12' />
    <nd ref='-13' />
    <nd ref='-14' />
    <nd ref='-15' />
    <nd ref='-16' />
    <nd ref='-17' />
    <nd ref='-18' />
    <nd ref='-19' />
    <nd ref='-20' />
    <tag k="OSM_ID" v="33281047"/>
  </way>
  <node id='-22' visible='true' lat='41.1811409' lon='19.5563505' />
  <node id='-23' visible='true' lat='41.1817305' lon='19.5578259' />
  <node id='-24' visible='true' lat='41.1820413' lon='19.5585178' />
  <node id='-25' visible='true' lat='41.1824672' lon='19.5592609' />
  <node id='-26' visible='true' lat='41.1830951' lon='19.5602237' />
  <node id='-27' visible='true' lat='41.1836602' lon='19.5610604' />
  <node id='-28' visible='true' lat='41.184059' lon='19.5616492' />
  <way id='-29' visible='true'>
    <nd ref='-22' />
    <nd ref='-23' />
    <nd ref='-24' />
    <nd ref='-25' />
    <nd ref='-26' />
    <nd ref='-27' />
    <nd ref='-28' />
    <tag k="OSM_ID" v="33281062"/>
  </way>
</osm>
