<?xml version='1.0'?>
<osm version='0.5' generator='shp2osm.pl'>
  <node id='-1' visible='true' lat='40.9690723865421' lon='19.7895977066863' />
  <node id='-2' visible='true' lat='40.9704874221488' lon='19.7898298667341' />
  <node id='-3' visible='true' lat='40.9714673131488' lon='19.7901121871835' />
  <node id='-4' visible='true' lat='40.9720188106843' lon='19.7899585864385' />
  <node id='-5' visible='true' lat='40.9723866549368' lon='19.7898460455238' />
  <node id='-6' visible='true' lat='40.9729189160116' lon='19.7902390026154' />
  <node id='-7' visible='true' lat='40.9734802668515' lon='19.7902072019357' />
  <node id='-8' visible='true' lat='40.9738926827119' lon='19.7901869357052' />
  <node id='-9' visible='true' lat='40.9741999318218' lon='19.7903160676685' />
  <node id='-10' visible='true' lat='40.9743676685103' lon='19.7905937728657' />
  <node id='-11' visible='true' lat='40.9745004124061' lon='19.7909162188111' />
  <node id='-12' visible='true' lat='40.9744033635336' lon='19.7912938105074' />
  <node id='-13' visible='true' lat='40.974318861777' lon='19.7915957090392' />
  <node id='-14' visible='true' lat='40.9743490274945' lon='19.7918852469069' />
  <node id='-15' visible='true' lat='40.9745861036084' lon='19.7921191121658' />
  <node id='-16' visible='true' lat='40.9747179728799' lon='19.7925023821381' />
  <node id='-17' visible='true' lat='40.9746550361666' lon='19.7928960239148' />
  <node id='-18' visible='true' lat='40.9745597371076' lon='19.7931520593147' />
  <node id='-19' visible='true' lat='40.9744490361042' lon='19.7936813099907' />
  <node id='-20' visible='true' lat='40.9743863143539' lon='19.7940597503232' />
  <node id='-21' visible='true' lat='40.9744492812331' lon='19.7944565344026' />
  <node id='-22' visible='true' lat='40.9746040341882' lon='19.7948404319482' />
  <node id='-23' visible='true' lat='40.974772661182' lon='19.7950574822206' />
  <node id='-24' visible='true' lat='40.9750201045249' lon='19.7953677366173' />
  <way id='-25' visible='true'>
    <nd ref='-1' />
    <nd ref='-2' />
    <nd ref='-3' />
    <nd ref='-4' />
    <nd ref='-5' />
    <nd ref='-6' />
    <nd ref='-7' />
    <nd ref='-8' />
    <nd ref='-9' />
    <nd ref='-10' />
    <nd ref='-11' />
    <nd ref='-12' />
    <nd ref='-13' />
    <nd ref='-14' />
    <nd ref='-15' />
    <nd ref='-16' />
    <nd ref='-17' />
    <nd ref='-18' />
    <nd ref='-19' />
    <nd ref='-20' />
    <nd ref='-21' />
    <nd ref='-22' />
    <nd ref='-23' />
    <nd ref='-24' />
    <tag k="ID" v="26158.000"/>
    <tag k="CATEGORY" v="5"/>
    <tag k="SHAPE_LE_1" v="1071.990"/>
    <tag k="WAY_TYPE" v="Dwelling Area Road"/>
    <tag k="ET_ID" v="24521"/>
    <tag k="CAT2" v="50"/>
    <tag k="SHAPE_LENG" v="0.000"/>
  </way>
  <node id='-26' visible='true' lat='40.9603066723004' lon='19.7476715778029' />
  <node id='-27' visible='true' lat='40.9603069756258' lon='19.7485511012807' />
  <way id='-28' visible='true'>
    <nd ref='-26' />
    <nd ref='-27' />
    <tag k="ID" v="136906.000"/>
    <tag k="CATEGORY" v="4"/>
    <tag k="SHAPE_LE_1" v="74.055"/>
    <tag k="ET_ID" v="129566"/>
    <tag k="WAY_TYPE" v="Village Road"/>
    <tag k="SHAPE_LENG" v="0.000"/>
    <tag k="CAT2" v="40"/>
  </way>
  <node id='-29' visible='true' lat='40.9603390685944' lon='19.7463313344972' />
  <node id='-30' visible='true' lat='40.9604191834895' lon='19.7467887708165' />
  <node id='-31' visible='true' lat='40.9604032317823' lon='19.7470495552649' />
  <node id='-32' visible='true' lat='40.9603066723004' lon='19.7476715778029' />
  <way id='-33' visible='true'>
    <nd ref='-29' />
    <nd ref='-30' />
    <nd ref='-31' />
    <nd ref='-32' />
    <tag k="ID" v="136911.000"/>
    <tag k="CATEGORY" v="4"/>
    <tag k="SHAPE_LE_1" v="115.019"/>
    <tag k="ET_ID" v="129571"/>
    <tag k="WAY_TYPE" v="Village Road"/>
    <tag k="SHAPE_LENG" v="0.000"/>
    <tag k="CAT2" v="40"/>
  </way>
  <node id='-34' visible='true' lat='40.9603390685944' lon='19.7463313344972' />
  <node id='-35' visible='true' lat='40.9601464244387' lon='19.7466472820381' />
  <node id='-36' visible='true' lat='40.9598875229304' lon='19.7469035083403' />
  <node id='-37' visible='true' lat='40.9596162169014' lon='19.74711283616' />
  <node id='-38' visible='true' lat='40.9591904786414' lon='19.7473407966385' />
  <node id='-39' visible='true' lat='40.9589555342093' lon='19.7476122656373' />
  <node id='-40' visible='true' lat='40.9585326988758' lon='19.7481071845096' />
  <node id='-41' visible='true' lat='40.9582282690065' lon='19.7485511432173' />
  <way id='-42' visible='true'>
    <nd ref='-34' />
    <nd ref='-35' />
    <nd ref='-36' />
    <nd ref='-37' />
    <nd ref='-38' />
    <nd ref='-39' />
    <nd ref='-40' />
    <nd ref='-41' />
    <tag k="ID" v="136912.000"/>
    <tag k="CATEGORY" v="4"/>
    <tag k="SHAPE_LE_1" v="303.917"/>
    <tag k="ET_ID" v="129572"/>
    <tag k="WAY_TYPE" v="Village Road"/>
    <tag k="SHAPE_LENG" v="0.000"/>
    <tag k="CAT2" v="40"/>
  </way>
  <node id='-43' visible='true' lat='40.968955428443' lon='19.7936149328506' />
  <node id='-44' visible='true' lat='40.9687392707957' lon='19.79285522819' />
  <node id='-45' visible='true' lat='40.9686577230403' lon='19.7921696735121' />
  <node id='-46' visible='true' lat='40.9685231898323' lon='19.7911942399491' />
  <node id='-47' visible='true' lat='40.9685968392041' lon='19.7908467114644' />
  <way id='-48' visible='true'>
    <nd ref='-43' />
    <nd ref='-44' />
    <nd ref='-45' />
    <nd ref='-46' />
    <nd ref='-47' />
    <tag k="ID" v="137133.000"/>
    <tag k="CATEGORY" v="4"/>
    <tag k="SHAPE_LE_1" v="240.583"/>
    <tag k="ET_ID" v="129793"/>
    <tag k="WAY_TYPE" v="Village Road"/>
    <tag k="SHAPE_LENG" v="0.000"/>
    <tag k="CAT2" v="40"/>
  </way>
  <node id='-49' visible='true' lat='40.9583457121551' lon='19.7697880230465' />
  <node id='-50' visible='true' lat='40.9586057418326' lon='19.7692297440361' />
  <node id='-51' visible='true' lat='40.9588800887103' lon='19.7684018022577' />
  <node id='-52' visible='true' lat='40.9591638889805' lon='19.7677105029635' />
  <node id='-53' visible='true' lat='40.959348947098' lon='19.7667440577854' />
  <node id='-54' visible='true' lat='40.9591275608117' lon='19.7662691481593' />
  <node id='-55' visible='true' lat='40.9590303504925' lon='19.7658879533076' />
  <node id='-56' visible='true' lat='40.958893038686' lon='19.7659152927237' />
  <node id='-57' visible='true' lat='40.9585544219215' lon='19.7664537778069' />
  <node id='-58' visible='true' lat='40.9582375437186' lon='19.7670685137089' />
  <node id='-59' visible='true' lat='40.9577035698643' lon='19.767708772893' />
  <node id='-60' visible='true' lat='40.9571629223455' lon='19.7681454617977' />
  <way id='-61' visible='true'>
    <nd ref='-49' />
    <nd ref='-50' />
    <nd ref='-51' />
    <nd ref='-52' />
    <nd ref='-53' />
    <nd ref='-54' />
    <nd ref='-55' />
    <nd ref='-56' />
    <nd ref='-57' />
    <nd ref='-58' />
    <nd ref='-59' />
    <nd ref='-60' />
    <tag k="ID" v="137136.000"/>
    <tag k="CATEGORY" v="4"/>
    <tag k="SHAPE_LE_1" v="649.672"/>
    <tag k="ET_ID" v="129796"/>
    <tag k="WAY_TYPE" v="Village Road"/>
    <tag k="SHAPE_LENG" v="0.000"/>
    <tag k="CAT2" v="40"/>
  </way>
  <node id='-62' visible='true' lat='40.9638821454199' lon='19.7666761546082' />
  <node id='-63' visible='true' lat='40.963642810575' lon='19.7666405926106' />
  <node id='-64' visible='true' lat='40.9632240835203' lon='19.7663735542987' />
  <node id='-65' visible='true' lat='40.9628306144403' lon='19.765940224464' />
  <node id='-66' visible='true' lat='40.9624925153861' lon='19.7656294904615' />
  <node id='-67' visible='true' lat='40.9621656360037' lon='19.7653341925151' />
  <node id='-68' visible='true' lat='40.9619990300031' lon='19.765017950378' />
  <way id='-69' visible='true'>
    <nd ref='-62' />
    <nd ref='-63' />
    <nd ref='-64' />
    <nd ref='-65' />
    <nd ref='-66' />
    <nd ref='-67' />
    <nd ref='-68' />
    <tag k="ID" v="137137.000"/>
    <tag k="CATEGORY" v="4"/>
    <tag k="SHAPE_LE_1" v="257.534"/>
    <tag k="ET_ID" v="129797"/>
    <tag k="WAY_TYPE" v="Village Road"/>
    <tag k="SHAPE_LENG" v="0.000"/>
    <tag k="CAT2" v="40"/>
  </way>
  <node id='-70' visible='true' lat='40.9638821454199' lon='19.7666761546082' />
  <node id='-71' visible='true' lat='40.9646278419147' lon='19.7664496530507' />
  <node id='-72' visible='true' lat='40.9651417513512' lon='19.7664608520318' />
  <node id='-73' visible='true' lat='40.9653544097657' lon='19.7667689811701' />
  <node id='-74' visible='true' lat='40.9653030792401' lon='19.767162405364' />
  <node id='-75' visible='true' lat='40.9653112410087' lon='19.767390199023' />
  <node id='-76' visible='true' lat='40.9657822681685' lon='19.7676408669955' />
  <way id='-77' visible='true'>
    <nd ref='-70' />
    <nd ref='-71' />
    <nd ref='-72' />
    <nd ref='-73' />
    <nd ref='-74' />
    <nd ref='-75' />
    <nd ref='-76' />
    <tag k="ID" v="137138.000"/>
    <tag k="CATEGORY" v="4"/>
    <tag k="SHAPE_LE_1" v="286.386"/>
    <tag k="ET_ID" v="129798"/>
    <tag k="WAY_TYPE" v="Village Road"/>
    <tag k="SHAPE_LENG" v="0.000"/>
    <tag k="CAT2" v="40"/>
  </way>
  <node id='-78' visible='true' lat='40.9657400254871' lon='19.7685636650417' />
  <node id='-79' visible='true' lat='40.9663307079222' lon='19.7688088039687' />
  <node id='-80' visible='true' lat='40.966806189131' lon='19.7691228574219' />
  <node id='-81' visible='true' lat='40.9675063376998' lon='19.7697151476783' />
  <node id='-82' visible='true' lat='40.9679101121014' lon='19.7702554095249' />
  <node id='-83' visible='true' lat='40.9680616274362' lon='19.7708508300135' />
  <node id='-84' visible='true' lat='40.9680548869622' lon='19.7713212922418' />
  <node id='-85' visible='true' lat='40.9677376389315' lon='19.7719214249091' />
  <node id='-86' visible='true' lat='40.9671912124536' lon='19.772561902774' />
  <node id='-87' visible='true' lat='40.9664114492147' lon='19.7727416821911' />
  <node id='-88' visible='true' lat='40.9658890866025' lon='19.7733066729743' />
  <node id='-89' visible='true' lat='40.965913112001' lon='19.7740205846345' />
  <node id='-90' visible='true' lat='40.9658173642157' lon='19.774321974635' />
  <node id='-91' visible='true' lat='40.9651697641242' lon='19.7740644370958' />
  <node id='-92' visible='true' lat='40.9650454344071' lon='19.7739705585933' />
  <way id='-93' visible='true'>
    <nd ref='-78' />
    <nd ref='-79' />
    <nd ref='-80' />
    <nd ref='-81' />
    <nd ref='-82' />
    <nd ref='-83' />
    <nd ref='-84' />
    <nd ref='-85' />
    <nd ref='-86' />
    <nd ref='-87' />
    <nd ref='-88' />
    <nd ref='-89' />
    <nd ref='-90' />
    <nd ref='-91' />
    <nd ref='-92' />
    <tag k="ID" v="137139.000"/>
    <tag k="CATEGORY" v="4"/>
    <tag k="SHAPE_LE_1" v="861.026"/>
    <tag k="ET_ID" v="129799"/>
    <tag k="WAY_TYPE" v="Village Road"/>
    <tag k="SHAPE_LENG" v="0.000"/>
    <tag k="CAT2" v="40"/>
  </way>
  <node id='-94' visible='true' lat='40.9763022643271' lon='19.7698493644907' />
  <node id='-95' visible='true' lat='40.9747528195323' lon='19.769313671679' />
  <node id='-96' visible='true' lat='40.9742728595915' lon='19.7692574945715' />
  <node id='-97' visible='true' lat='40.9735582824294' lon='19.7696062623328' />
  <node id='-98' visible='true' lat='40.9722080164604' lon='19.7696067413545' />
  <node id='-99' visible='true' lat='40.9715049472093' lon='19.7699708453387' />
  <node id='-100' visible='true' lat='40.9710062790946' lon='19.7704457276557' />
  <node id='-101' visible='true' lat='40.970453956532' lon='19.7706764037016' />
  <node id='-102' visible='true' lat='40.9697183456814' lon='19.7709333289376' />
  <way id='-103' visible='true'>
    <nd ref='-94' />
    <nd ref='-95' />
    <nd ref='-96' />
    <nd ref='-97' />
    <nd ref='-98' />
    <nd ref='-99' />
    <nd ref='-100' />
    <nd ref='-101' />
    <nd ref='-102' />
    <tag k="ID" v="137146.000"/>
    <tag k="CATEGORY" v="4"/>
    <tag k="SHAPE_LE_1" v="767.087"/>
    <tag k="ET_ID" v="129806"/>
    <tag k="WAY_TYPE" v="Village Road"/>
    <tag k="SHAPE_LENG" v="0.000"/>
    <tag k="CAT2" v="40"/>
  </way>
  <node id='-104' visible='true' lat='40.9732936354798' lon='19.7800636810881' />
  <node id='-105' visible='true' lat='40.972534340991' lon='19.7803839053092' />
  <node id='-106' visible='true' lat='40.9706348244332' lon='19.7804001976906' />
  <node id='-107' visible='true' lat='40.9697662437704' lon='19.7803494882967' />
  <node id='-108' visible='true' lat='40.9693896122496' lon='19.7802951085682' />
  <node id='-109' visible='true' lat='40.9688657823756' lon='19.7809358356891' />
  <node id='-110' visible='true' lat='40.9686217819427' lon='19.7813986499182' />
  <way id='-111' visible='true'>
    <nd ref='-104' />
    <nd ref='-105' />
    <nd ref='-106' />
    <nd ref='-107' />
    <nd ref='-108' />
    <nd ref='-109' />
    <nd ref='-110' />
    <tag k="ID" v="137147.000"/>
    <tag k="CATEGORY" v="4"/>
    <tag k="SHAPE_LE_1" v="564.971"/>
    <tag k="ET_ID" v="129807"/>
    <tag k="WAY_TYPE" v="Village Road"/>
    <tag k="SHAPE_LENG" v="0.000"/>
    <tag k="CAT2" v="40"/>
  </way>
  <node id='-112' visible='true' lat='40.9770174233762' lon='19.803617653828' />
  <node id='-113' visible='true' lat='40.9763478256006' lon='19.8033384575572' />
  <way id='-114' visible='true'>
    <nd ref='-112' />
    <nd ref='-113' />
    <tag k="ID" v="137148.000"/>
    <tag k="CATEGORY" v="4"/>
    <tag k="SHAPE_LE_1" v="77.997"/>
    <tag k="ET_ID" v="129808"/>
    <tag k="WAY_TYPE" v="Village Road"/>
    <tag k="SHAPE_LENG" v="0.000"/>
    <tag k="CAT2" v="40"/>
  </way>
  <node id='-115' visible='true' lat='40.9792735434604' lon='19.7987650522831' />
  <node id='-116' visible='true' lat='40.9797324057769' lon='19.7991064910899' />
  <node id='-117' visible='true' lat='40.9799219428471' lon='19.7994764219719' />
  <node id='-118' visible='true' lat='40.9801095108119' lon='19.7999832411399' />
  <node id='-119' visible='true' lat='40.9804577548986' lon='19.800479006213' />
  <node id='-120' visible='true' lat='40.9808077836703' lon='19.8008531554447' />
  <node id='-121' visible='true' lat='40.9810992094467' lon='19.8013171086136' />
  <node id='-122' visible='true' lat='40.9811587567368' lon='19.8019576732029' />
  <node id='-123' visible='true' lat='40.9810232116466' lon='19.8026084047885' />
  <node id='-124' visible='true' lat='40.9807406397345' lon='19.8031183515345' />
  <node id='-125' visible='true' lat='40.9804840803137' lon='19.8034159586192' />
  <node id='-126' visible='true' lat='40.9802143181332' lon='19.804626040745' />
  <node id='-127' visible='true' lat='40.9801792743411' lon='19.8054619151233' />
  <node id='-128' visible='true' lat='40.9801938201277' lon='19.8060404515103' />
  <way id='-129' visible='true'>
    <nd ref='-115' />
    <nd ref='-116' />
    <nd ref='-117' />
    <nd ref='-118' />
    <nd ref='-119' />
    <nd ref='-120' />
    <nd ref='-121' />
    <nd ref='-122' />
    <nd ref='-123' />
    <nd ref='-124' />
    <nd ref='-125' />
    <nd ref='-126' />
    <nd ref='-127' />
    <nd ref='-128' />
    <tag k="ID" v="137149.000"/>
    <tag k="CATEGORY" v="4"/>
    <tag k="SHAPE_LE_1" v="728.825"/>
    <tag k="ET_ID" v="129809"/>
    <tag k="WAY_TYPE" v="Village Road"/>
    <tag k="SHAPE_LENG" v="0.000"/>
    <tag k="CAT2" v="40"/>
  </way>
  <node id='-130' visible='true' lat='40.9773064385262' lon='19.8042235850169' />
  <node id='-131' visible='true' lat='40.9781429749061' lon='19.8043891819396' />
  <node id='-132' visible='true' lat='40.9787634057738' lon='19.8042837485814' />
  <node id='-133' visible='true' lat='40.979199472474' lon='19.804249538331' />
  <node id='-134' visible='true' lat='40.9793616548652' lon='19.804923146334' />
  <node id='-135' visible='true' lat='40.9794795484632' lon='19.8054891285137' />
  <node id='-136' visible='true' lat='40.9795751823049' lon='19.806008910181' />
  <node id='-137' visible='true' lat='40.9794824185147' lon='19.8062663846827' />
  <way id='-138' visible='true'>
    <nd ref='-130' />
    <nd ref='-131' />
    <nd ref='-132' />
    <nd ref='-133' />
    <nd ref='-134' />
    <nd ref='-135' />
    <nd ref='-136' />
    <nd ref='-137' />
    <tag k="ID" v="137150.000"/>
    <tag k="CATEGORY" v="4"/>
    <tag k="SHAPE_LE_1" v="389.872"/>
    <tag k="ET_ID" v="129810"/>
    <tag k="WAY_TYPE" v="Village Road"/>
    <tag k="SHAPE_LENG" v="0.000"/>
    <tag k="CAT2" v="40"/>
  </way>
  <node id='-139' visible='true' lat='40.9784120297535' lon='19.7805037521874' />
  <node id='-140' visible='true' lat='40.9783574318098' lon='19.780748260602' />
  <node id='-141' visible='true' lat='40.9783388058669' lon='19.7812495089423' />
  <node id='-142' visible='true' lat='40.9784202151745' lon='19.7819659696097' />
  <node id='-143' visible='true' lat='40.9781245238272' lon='19.7826127122248' />
  <node id='-144' visible='true' lat='40.9779241637878' lon='19.7830032401889' />
  <node id='-145' visible='true' lat='40.9778531796908' lon='19.783959332059' />
  <node id='-146' visible='true' lat='40.9778807842446' lon='19.7844312823222' />
  <node id='-147' visible='true' lat='40.9778742457309' lon='19.7848872162259' />
  <node id='-148' visible='true' lat='40.9777547037001' lon='19.7852340302231' />
  <node id='-149' visible='true' lat='40.9774499679023' lon='19.7857132133114' />
  <node id='-150' visible='true' lat='40.9772258384654' lon='19.7861639054141' />
  <node id='-151' visible='true' lat='40.9770772861634' lon='19.7869356531678' />
  <node id='-152' visible='true' lat='40.9772180782798' lon='19.7875015593844' />
  <node id='-153' visible='true' lat='40.9773599637602' lon='19.787991506979' />
  <node id='-154' visible='true' lat='40.977300824857' lon='19.7889174767417' />
  <node id='-155' visible='true' lat='40.9770486038888' lon='19.7905228911043' />
  <node id='-156' visible='true' lat='40.9768707055979' lon='19.7909442149925' />
  <node id='-157' visible='true' lat='40.9759650937615' lon='19.7917884276946' />
  <node id='-158' visible='true' lat='40.9754219618463' lon='19.7921246249292' />
  <way id='-159' visible='true'>
    <nd ref='-139' />
    <nd ref='-140' />
    <nd ref='-141' />
    <nd ref='-142' />
    <nd ref='-143' />
    <nd ref='-144' />
    <nd ref='-145' />
    <nd ref='-146' />
    <nd ref='-147' />
    <nd ref='-148' />
    <nd ref='-149' />
    <nd ref='-150' />
    <nd ref='-151' />
    <nd ref='-152' />
    <nd ref='-153' />
    <nd ref='-154' />
    <nd ref='-155' />
    <nd ref='-156' />
    <nd ref='-157' />
    <nd ref='-158' />
    <tag k="ID" v="137151.000"/>
    <tag k="CATEGORY" v="4"/>
    <tag k="SHAPE_LE_1" v="1125.089"/>
    <tag k="ET_ID" v="129811"/>
    <tag k="WAY_TYPE" v="Village Road"/>
    <tag k="SHAPE_LENG" v="0.000"/>
    <tag k="CAT2" v="40"/>
  </way>
  <node id='-160' visible='true' lat='40.9732936354798' lon='19.7800636810881' />
  <node id='-161' visible='true' lat='40.9733112236172' lon='19.7804780568665' />
  <node id='-162' visible='true' lat='40.9732342913641' lon='19.7810536124646' />
  <node id='-163' visible='true' lat='40.9731364368264' lon='19.7814919250282' />
  <node id='-164' visible='true' lat='40.9729217669363' lon='19.7820946096212' />
  <node id='-165' visible='true' lat='40.9726398533621' lon='19.7833945682319' />
  <node id='-166' visible='true' lat='40.9724307271801' lon='19.7844075464911' />
  <node id='-167' visible='true' lat='40.9723971309378' lon='19.7851512271731' />
  <node id='-168' visible='true' lat='40.9723474351352' lon='19.7854235204739' />
  <node id='-169' visible='true' lat='40.9722590415201' lon='19.7859987551676' />
  <node id='-170' visible='true' lat='40.9722887652109' lon='19.786318538293' />
  <node id='-171' visible='true' lat='40.9715772923889' lon='19.7856633020228' />
  <node id='-172' visible='true' lat='40.971399751399' lon='19.785279241089' />
  <node id='-173' visible='true' lat='40.9707475683555' lon='19.7844888729621' />
  <node id='-174' visible='true' lat='40.9700391782231' lon='19.7836365511652' />
  <node id='-175' visible='true' lat='40.9698139919595' lon='19.7833881774741' />
  <node id='-176' visible='true' lat='40.9694876733055' lon='19.7830159173456' />
  <node id='-177' visible='true' lat='40.9690537794333' lon='19.7823459388572' />
  <way id='-178' visible='true'>
    <nd ref='-160' />
    <nd ref='-161' />
    <nd ref='-162' />
    <nd ref='-163' />
    <nd ref='-164' />
    <nd ref='-165' />
    <nd ref='-166' />
    <nd ref='-167' />
    <nd ref='-168' />
    <nd ref='-169' />
    <nd ref='-170' />
    <nd ref='-171' />
    <nd ref='-172' />
    <nd ref='-173' />
    <nd ref='-174' />
    <nd ref='-175' />
    <nd ref='-176' />
    <nd ref='-177' />
    <tag k="ID" v="137152.000"/>
    <tag k="CATEGORY" v="4"/>
    <tag k="SHAPE_LE_1" v="1037.478"/>
    <tag k="ET_ID" v="129812"/>
    <tag k="WAY_TYPE" v="Village Road"/>
    <tag k="SHAPE_LENG" v="0.000"/>
    <tag k="CAT2" v="40"/>
  </way>
  <node id='-179' visible='true' lat='40.9880053916507' lon='19.8141663203779' />
  <node id='-180' visible='true' lat='40.9873775472619' lon='19.814697459398' />
  <node id='-181' visible='true' lat='40.9869025173334' lon='19.8149890408817' />
  <node id='-182' visible='true' lat='40.9864162714399' lon='19.8152650554539' />
  <node id='-183' visible='true' lat='40.9860470383756' lon='19.815391967197' />
  <way id='-184' visible='true'>
    <nd ref='-179' />
    <nd ref='-180' />
    <nd ref='-181' />
    <nd ref='-182' />
    <nd ref='-183' />
    <tag k="ID" v="137157.000"/>
    <tag k="CATEGORY" v="4"/>
    <tag k="SHAPE_LE_1" v="242.191"/>
    <tag k="ET_ID" v="129817"/>
    <tag k="WAY_TYPE" v="Village Road"/>
    <tag k="SHAPE_LENG" v="0.000"/>
    <tag k="CAT2" v="40"/>
  </way>
  <node id='-185' visible='true' lat='40.9923156655359' lon='19.8132631181217' />
  <node id='-186' visible='true' lat='40.9913305016942' lon='19.8138305562286' />
  <node id='-187' visible='true' lat='40.9907344799281' lon='19.8137228815931' />
  <node id='-188' visible='true' lat='40.9901851304551' lon='19.8135707844568' />
  <node id='-189' visible='true' lat='40.9896464475122' lon='19.8134799307158' />
  <node id='-190' visible='true' lat='40.9890362877649' lon='19.8135699396931' />
  <node id='-191' visible='true' lat='40.988516065128' lon='19.8137994737067' />
  <node id='-192' visible='true' lat='40.9880744944637' lon='19.8141529810239' />
  <node id='-193' visible='true' lat='40.9879636691817' lon='19.8146678218844' />
  <node id='-194' visible='true' lat='40.9880605934995' lon='19.8151121997113' />
  <node id='-195' visible='true' lat='40.9882736572847' lon='19.8154683862619' />
  <node id='-196' visible='true' lat='40.988576145186' lon='19.8152025116109' />
  <node id='-197' visible='true' lat='40.9888658484278' lon='19.8150276630525' />
  <node id='-198' visible='true' lat='40.9891692685474' lon='19.8154930045016' />
  <node id='-199' visible='true' lat='40.9895263739622' lon='19.816218851918' />
  <node id='-200' visible='true' lat='40.9899658950006' lon='19.8168099282053' />
  <node id='-201' visible='true' lat='40.9903840285169' lon='19.817293818427' />
  <node id='-202' visible='true' lat='40.99081346742' lon='19.8177933137116' />
  <node id='-203' visible='true' lat='40.9912944179195' lon='19.8179133267568' />
  <node id='-204' visible='true' lat='40.9915511421061' lon='19.8176461510845' />
  <node id='-205' visible='true' lat='40.9918657679624' lon='19.8173500901824' />
  <node id='-206' visible='true' lat='40.9921938843064' lon='19.8169172199832' />
  <node id='-207' visible='true' lat='40.9923611460624' lon='19.8164798784541' />
  <node id='-208' visible='true' lat='40.9924837682449' lon='19.8159498577285' />
  <node id='-209' visible='true' lat='40.992876459092' lon='19.8158235017843' />
  <node id='-210' visible='true' lat='40.9931288487559' lon='19.8158609257384' />
  <node id='-211' visible='true' lat='40.993337043443' lon='19.8157752046932' />
  <node id='-212' visible='true' lat='40.9934882129396' lon='19.8156574280624' />
  <node id='-213' visible='true' lat='40.993773578248' lon='19.8158024575845' />
  <node id='-214' visible='true' lat='40.9940090164673' lon='19.8162204854181' />
  <node id='-215' visible='true' lat='40.9941801190402' lon='19.8163166584578' />
  <node id='-216' visible='true' lat='40.9944215200365' lon='19.8163233167205' />
  <node id='-217' visible='true' lat='40.9946965469208' lon='19.8163918691342' />
  <node id='-218' visible='true' lat='40.9947737211109' lon='19.816622661706' />
  <node id='-219' visible='true' lat='40.9946218444234' lon='19.8167861591431' />
  <node id='-220' visible='true' lat='40.9943667353681' lon='19.8169315500298' />
  <node id='-221' visible='true' lat='40.9942007339415' lon='19.8172775632149' />
  <node id='-222' visible='true' lat='40.9943809212588' lon='19.8175416955654' />
  <node id='-223' visible='true' lat='40.9945852049908' lon='19.8177302897612' />
  <way id='-224' visible='true'>
    <nd ref='-185' />
    <nd ref='-186' />
    <nd ref='-187' />
    <nd ref='-188' />
    <nd ref='-189' />
    <nd ref='-190' />
    <nd ref='-191' />
    <nd ref='-192' />
    <nd ref='-193' />
    <nd ref='-194' />
    <nd ref='-195' />
    <nd ref='-196' />
    <nd ref='-197' />
    <nd ref='-198' />
    <nd ref='-199' />
    <nd ref='-200' />
    <nd ref='-201' />
    <nd ref='-202' />
    <nd ref='-203' />
    <nd ref='-204' />
    <nd ref='-205' />
    <nd ref='-206' />
    <nd ref='-207' />
    <nd ref='-208' />
    <nd ref='-209' />
    <nd ref='-210' />
    <nd ref='-211' />
    <nd ref='-212' />
    <nd ref='-213' />
    <nd ref='-214' />
    <nd ref='-215' />
    <nd ref='-216' />
    <nd ref='-217' />
    <nd ref='-218' />
    <nd ref='-219' />
    <nd ref='-220' />
    <nd ref='-221' />
    <nd ref='-222' />
    <nd ref='-223' />
    <tag k="ID" v="137158.000"/>
    <tag k="CATEGORY" v="4"/>
    <tag k="SHAPE_LE_1" v="1724.894"/>
    <tag k="ET_ID" v="129818"/>
    <tag k="WAY_TYPE" v="Village Road"/>
    <tag k="SHAPE_LENG" v="0.000"/>
    <tag k="CAT2" v="40"/>
  </way>
  <node id='-225' visible='true' lat='40.9940402974719' lon='19.8133404812236' />
  <node id='-226' visible='true' lat='40.9939278722123' lon='19.8130783649651' />
  <node id='-227' visible='true' lat='40.9937206899053' lon='19.8122954363466' />
  <node id='-228' visible='true' lat='40.9936487980755' lon='19.8116991060266' />
  <way id='-229' visible='true'>
    <nd ref='-225' />
    <nd ref='-226' />
    <nd ref='-227' />
    <nd ref='-228' />
    <tag k="ID" v="137160.000"/>
    <tag k="CATEGORY" v="4"/>
    <tag k="SHAPE_LE_1" v="145.953"/>
    <tag k="ET_ID" v="129820"/>
    <tag k="WAY_TYPE" v="Village Road"/>
    <tag k="SHAPE_LENG" v="0.000"/>
    <tag k="CAT2" v="40"/>
  </way>
  <node id='-230' visible='true' lat='40.977708595' lon='19.7728125828563' />
  <node id='-231' visible='true' lat='40.977636988685' lon='19.7734353220109' />
  <node id='-232' visible='true' lat='40.9776533966874' lon='19.7738916634819' />
  <node id='-233' visible='true' lat='40.9777043687735' lon='19.7743335931897' />
  <node id='-234' visible='true' lat='40.977779980221' lon='19.7746544944285' />
  <node id='-235' visible='true' lat='40.9778571067533' lon='19.7748690477764' />
  <node id='-236' visible='true' lat='40.9780232554337' lon='19.7752680251956' />
  <node id='-237' visible='true' lat='40.9783140833639' lon='19.7757610803747' />
  <way id='-238' visible='true'>
    <nd ref='-230' />
    <nd ref='-231' />
    <nd ref='-232' />
    <nd ref='-233' />
    <nd ref='-234' />
    <nd ref='-235' />
    <nd ref='-236' />
    <nd ref='-237' />
    <tag k="ID" v="137163.000"/>
    <tag k="CATEGORY" v="4"/>
    <tag k="SHAPE_LE_1" v="268.293"/>
    <tag k="ET_ID" v="129823"/>
    <tag k="WAY_TYPE" v="Village Road"/>
    <tag k="SHAPE_LENG" v="0.000"/>
    <tag k="CAT2" v="40"/>
  </way>
  <node id='-239' visible='true' lat='40.977708595' lon='19.7728125828563' />
  <node id='-240' visible='true' lat='40.9773585181154' lon='19.7728819037261' />
  <node id='-241' visible='true' lat='40.9769314153314' lon='19.7731154452481' />
  <node id='-242' visible='true' lat='40.9763285135614' lon='19.7736337300768' />
  <node id='-243' visible='true' lat='40.9758982445188' lon='19.7740950725542' />
  <node id='-244' visible='true' lat='40.9756163690207' lon='19.7745901355857' />
  <node id='-245' visible='true' lat='40.9756673097661' lon='19.7750319737872' />
  <node id='-246' visible='true' lat='40.9757606292202' lon='19.7756798906819' />
  <way id='-247' visible='true'>
    <nd ref='-239' />
    <nd ref='-240' />
    <nd ref='-241' />
    <nd ref='-242' />
    <nd ref='-243' />
    <nd ref='-244' />
    <nd ref='-245' />
    <nd ref='-246' />
    <tag k="ID" v="137165.000"/>
    <tag k="CATEGORY" v="4"/>
    <tag k="SHAPE_LE_1" v="377.432"/>
    <tag k="ET_ID" v="129825"/>
    <tag k="WAY_TYPE" v="Village Road"/>
    <tag k="SHAPE_LENG" v="0.000"/>
    <tag k="CAT2" v="40"/>
  </way>
  <node id='-248' visible='true' lat='40.9865894523732' lon='19.7896920491546' />
  <node id='-249' visible='true' lat='40.9860117163243' lon='19.7891604563268' />
  <node id='-250' visible='true' lat='40.9852966174636' lon='19.7886103793056' />
  <node id='-251' visible='true' lat='40.9848452057304' lon='19.788082023228' />
  <node id='-252' visible='true' lat='40.9848287879591' lon='19.7876251235703' />
  <node id='-253' visible='true' lat='40.9847781813337' lon='19.7871521933029' />
  <node id='-254' visible='true' lat='40.9846057603038' lon='19.786372017181' />
  <node id='-255' visible='true' lat='40.9842223991864' lon='19.7850999546909' />
  <node id='-256' visible='true' lat='40.9837670117286' lon='19.7840545324529' />
  <node id='-257' visible='true' lat='40.9832547740148' lon='19.7829774704027' />
  <node id='-258' visible='true' lat='40.9829733583434' lon='19.7826057299864' />
  <node id='-259' visible='true' lat='40.9824155734036' lon='19.7815126120985' />
  <node id='-260' visible='true' lat='40.9821826618824' lon='19.7809595890767' />
  <node id='-261' visible='true' lat='40.9818989576536' lon='19.7799491517929' />
  <node id='-262' visible='true' lat='40.9818172689334' lon='19.7792593008156' />
  <way id='-263' visible='true'>
    <nd ref='-248' />
    <nd ref='-249' />
    <nd ref='-250' />
    <nd ref='-251' />
    <nd ref='-252' />
    <nd ref='-253' />
    <nd ref='-254' />
    <nd ref='-255' />
    <nd ref='-256' />
    <nd ref='-257' />
    <nd ref='-258' />
    <nd ref='-259' />
    <nd ref='-260' />
    <nd ref='-261' />
    <nd ref='-262' />
    <tag k="ID" v="137166.000"/>
    <tag k="CATEGORY" v="4"/>
    <tag k="SHAPE_LE_1" v="1065.892"/>
    <tag k="ET_ID" v="129826"/>
    <tag k="WAY_TYPE" v="Village Road"/>
    <tag k="SHAPE_LENG" v="0.000"/>
    <tag k="CAT2" v="40"/>
  </way>
  <node id='-264' visible='true' lat='40.9816749900036' lon='19.7747430077561' />
  <node id='-265' visible='true' lat='40.9810472954282' lon='19.7737404068943' />
  <node id='-266' visible='true' lat='40.9809026546808' lon='19.7734330462718' />
  <node id='-267' visible='true' lat='40.9807011458043' lon='19.7722881908864' />
  <node id='-268' visible='true' lat='40.980520198078' lon='19.7721168935905' />
  <node id='-269' visible='true' lat='40.9802339857309' lon='19.7720952713819' />
  <node id='-270' visible='true' lat='40.9798395053744' lon='19.7724360803654' />
  <node id='-271' visible='true' lat='40.9794562894812' lon='19.7727923164699' />
  <node id='-272' visible='true' lat='40.9791230219784' lon='19.7728608291038' />
  <node id='-273' visible='true' lat='40.978677621585' lon='19.7727595998102' />
  <node id='-274' visible='true' lat='40.9784494312034' lon='19.7726936666034' />
  <node id='-275' visible='true' lat='40.9781613922571' lon='19.7728087825553' />
  <node id='-276' visible='true' lat='40.977708595' lon='19.7728125828563' />
  <way id='-277' visible='true'>
    <nd ref='-264' />
    <nd ref='-265' />
    <nd ref='-266' />
    <nd ref='-267' />
    <nd ref='-268' />
    <nd ref='-269' />
    <nd ref='-270' />
    <nd ref='-271' />
    <nd ref='-272' />
    <nd ref='-273' />
    <nd ref='-274' />
    <nd ref='-275' />
    <nd ref='-276' />
    <tag k="ID" v="141929.000"/>
    <tag k="CATEGORY" v="4"/>
    <tag k="SHAPE_LE_1" v="597.188"/>
    <tag k="ET_ID" v="134542"/>
    <tag k="WAY_TYPE" v="Village Road"/>
    <tag k="SHAPE_LENG" v="0.000"/>
    <tag k="CAT2" v="40"/>
  </way>
  <node id='-278' visible='true' lat='40.9793967944701' lon='19.7679575398527' />
  <node id='-279' visible='true' lat='40.9790561576246' lon='19.7678888304934' />
  <node id='-280' visible='true' lat='40.9783925506766' lon='19.7678286816872' />
  <node id='-281' visible='true' lat='40.9775419451353' lon='19.768037990861' />
  <node id='-282' visible='true' lat='40.9768241136055' lon='19.7685844692478' />
  <node id='-283' visible='true' lat='40.9764016203078' lon='19.7693045339476' />
  <node id='-284' visible='true' lat='40.9763022643271' lon='19.7698493644907' />
  <way id='-285' visible='true'>
    <nd ref='-278' />
    <nd ref='-279' />
    <nd ref='-280' />
    <nd ref='-281' />
    <nd ref='-282' />
    <nd ref='-283' />
    <nd ref='-284' />
    <tag k="ID" v="141931.000"/>
    <tag k="CATEGORY" v="4"/>
    <tag k="SHAPE_LE_1" v="424.135"/>
    <tag k="ET_ID" v="134544"/>
    <tag k="WAY_TYPE" v="Village Road"/>
    <tag k="SHAPE_LENG" v="0.000"/>
    <tag k="CAT2" v="40"/>
  </way>
  <node id='-286' visible='true' lat='40.9763022643271' lon='19.7698493644907' />
  <node id='-287' visible='true' lat='40.9767660061777' lon='19.7702547394881' />
  <node id='-288' visible='true' lat='40.9771159483267' lon='19.7706120358766' />
  <node id='-289' visible='true' lat='40.9771757879894' lon='19.7708342150945' />
  <way id='-290' visible='true'>
    <nd ref='-286' />
    <nd ref='-287' />
    <nd ref='-288' />
    <nd ref='-289' />
    <tag k="ID" v="141932.000"/>
    <tag k="CATEGORY" v="4"/>
    <tag k="SHAPE_LE_1" v="130.780"/>
    <tag k="ET_ID" v="134545"/>
    <tag k="WAY_TYPE" v="Village Road"/>
    <tag k="SHAPE_LENG" v="0.000"/>
    <tag k="CAT2" v="40"/>
  </way>
  <node id='-291' visible='true' lat='40.9771757879894' lon='19.7708342150945' />
  <node id='-292' visible='true' lat='40.977708595' lon='19.7728125828563' />
  <way id='-293' visible='true'>
    <nd ref='-291' />
    <nd ref='-292' />
    <tag k="ID" v="141933.000"/>
    <tag k="CATEGORY" v="4"/>
    <tag k="SHAPE_LE_1" v="176.734"/>
    <tag k="ET_ID" v="134546"/>
    <tag k="WAY_TYPE" v="Village Road"/>
    <tag k="SHAPE_LENG" v="0.000"/>
    <tag k="CAT2" v="40"/>
  </way>
  <node id='-294' visible='true' lat='40.9771757879894' lon='19.7708342150945' />
  <node id='-295' visible='true' lat='40.977395061907' lon='19.7703143001777' />
  <node id='-296' visible='true' lat='40.9776962241563' lon='19.7700778288059' />
  <node id='-297' visible='true' lat='40.9779833589585' lon='19.7700234038458' />
  <node id='-298' visible='true' lat='40.9784038389085' lon='19.770260718978' />
  <node id='-299' visible='true' lat='40.9786776175339' lon='19.7703427934042' />
  <node id='-300' visible='true' lat='40.9789650283453' lon='19.7702731798606' />
  <node id='-301' visible='true' lat='40.9791420159529' lon='19.7699123020012' />
  <node id='-302' visible='true' lat='40.9792857183746' lon='19.7694746742114' />
  <node id='-303' visible='true' lat='40.9793788394846' lon='19.768564708359' />
  <node id='-304' visible='true' lat='40.9793967944701' lon='19.7679575398527' />
  <way id='-305' visible='true'>
    <nd ref='-294' />
    <nd ref='-295' />
    <nd ref='-296' />
    <nd ref='-297' />
    <nd ref='-298' />
    <nd ref='-299' />
    <nd ref='-300' />
    <nd ref='-301' />
    <nd ref='-302' />
    <nd ref='-303' />
    <nd ref='-304' />
    <tag k="ID" v="141934.000"/>
    <tag k="CATEGORY" v="4"/>
    <tag k="SHAPE_LE_1" v="440.430"/>
    <tag k="ET_ID" v="134547"/>
    <tag k="WAY_TYPE" v="Village Road"/>
    <tag k="SHAPE_LENG" v="0.000"/>
    <tag k="CAT2" v="40"/>
  </way>
  <node id='-306' visible='true' lat='40.9772761854905' lon='19.777850075083' />
  <node id='-307' visible='true' lat='40.9771189199888' lon='19.7776336479102' />
  <node id='-308' visible='true' lat='40.9769409325201' lon='19.7772647683681' />
  <node id='-309' visible='true' lat='40.9767996829606' lon='19.7767295595099' />
  <node id='-310' visible='true' lat='40.9766214901108' lon='19.7763759137113' />
  <node id='-311' visible='true' lat='40.9762041919235' lon='19.7759256277399' />
  <node id='-312' visible='true' lat='40.9757606292202' lon='19.7756798906819' />
  <way id='-313' visible='true'>
    <nd ref='-306' />
    <nd ref='-307' />
    <nd ref='-308' />
    <nd ref='-309' />
    <nd ref='-310' />
    <nd ref='-311' />
    <nd ref='-312' />
    <tag k="ID" v="141940.000"/>
    <tag k="CATEGORY" v="4"/>
    <tag k="SHAPE_LE_1" v="258.810"/>
    <tag k="ET_ID" v="134553"/>
    <tag k="WAY_TYPE" v="Village Road"/>
    <tag k="SHAPE_LENG" v="0.000"/>
    <tag k="CAT2" v="40"/>
  </way>
  <node id='-314' visible='true' lat='40.9757606292202' lon='19.7756798906819' />
  <node id='-315' visible='true' lat='40.9755210573382' lon='19.7756516676529' />
  <node id='-316' visible='true' lat='40.9751271250672' lon='19.7759769638598' />
  <node id='-317' visible='true' lat='40.9748111631386' lon='19.7764559638274' />
  <node id='-318' visible='true' lat='40.9745513452673' lon='19.7770122017721' />
  <node id='-319' visible='true' lat='40.9742354060166' lon='19.7774911435083' />
  <node id='-320' visible='true' lat='40.9737610271574' lon='19.7778448475775' />
  <node id='-321' visible='true' lat='40.9734803244906' lon='19.7782637622043' />
  <node id='-322' visible='true' lat='40.9734057963349' lon='19.7786722525347' />
  <node id='-323' visible='true' lat='40.973277005369' lon='19.7796720067315' />
  <node id='-324' visible='true' lat='40.9732936354798' lon='19.7800636810881' />
  <way id='-325' visible='true'>
    <nd ref='-314' />
    <nd ref='-315' />
    <nd ref='-316' />
    <nd ref='-317' />
    <nd ref='-318' />
    <nd ref='-319' />
    <nd ref='-320' />
    <nd ref='-321' />
    <nd ref='-322' />
    <nd ref='-323' />
    <nd ref='-324' />
    <tag k="ID" v="141941.000"/>
    <tag k="CATEGORY" v="4"/>
    <tag k="SHAPE_LE_1" v="501.590"/>
    <tag k="ET_ID" v="134554"/>
    <tag k="WAY_TYPE" v="Village Road"/>
    <tag k="SHAPE_LENG" v="0.000"/>
    <tag k="CAT2" v="40"/>
  </way>
  <node id='-326' visible='true' lat='40.9788881252375' lon='19.7788906949117' />
  <node id='-327' visible='true' lat='40.9789159767152' lon='19.7793474316473' />
  <node id='-328' visible='true' lat='40.9787514890159' lon='19.7796324569577' />
  <node id='-329' visible='true' lat='40.9785640962039' lon='19.7799169418228' />
  <node id='-330' visible='true' lat='40.9784553633875' lon='19.7803096735259' />
  <node id='-331' visible='true' lat='40.9784120297535' lon='19.7805037521874' />
  <way id='-332' visible='true'>
    <nd ref='-326' />
    <nd ref='-327' />
    <nd ref='-328' />
    <nd ref='-329' />
    <nd ref='-330' />
    <nd ref='-331' />
    <tag k="ID" v="141942.000"/>
    <tag k="CATEGORY" v="4"/>
    <tag k="SHAPE_LE_1" v="152.679"/>
    <tag k="ET_ID" v="134555"/>
    <tag k="WAY_TYPE" v="Village Road"/>
    <tag k="SHAPE_LENG" v="0.000"/>
    <tag k="CAT2" v="40"/>
  </way>
  <node id='-333' visible='true' lat='40.9757887534266' lon='19.7976524109592' />
  <node id='-334' visible='true' lat='40.9759197814366' lon='19.7988873014102' />
  <node id='-335' visible='true' lat='40.9759649245524' lon='19.7997247242864' />
  <node id='-336' visible='true' lat='40.9760314229253' lon='19.8006691620486' />
  <node id='-337' visible='true' lat='40.9762392937429' lon='19.8013435808623' />
  <node id='-338' visible='true' lat='40.9765361444945' lon='19.8022028377946' />
  <node id='-339' visible='true' lat='40.9767559255707' lon='19.8028472566144' />
  <node id='-340' visible='true' lat='40.9770174233762' lon='19.803617653828' />
  <way id='-341' visible='true'>
    <nd ref='-333' />
    <nd ref='-334' />
    <nd ref='-335' />
    <nd ref='-336' />
    <nd ref='-337' />
    <nd ref='-338' />
    <nd ref='-339' />
    <nd ref='-340' />
    <tag k="ID" v="141943.000"/>
    <tag k="CATEGORY" v="4"/>
    <tag k="SHAPE_LE_1" v="526.795"/>
    <tag k="ET_ID" v="134556"/>
    <tag k="WAY_TYPE" v="Village Road"/>
    <tag k="SHAPE_LENG" v="0.000"/>
    <tag k="CAT2" v="40"/>
  </way>
  <node id='-342' visible='true' lat='40.9770174233762' lon='19.803617653828' />
  <node id='-343' visible='true' lat='40.9773064385262' lon='19.8042235850169' />
  <way id='-344' visible='true'>
    <nd ref='-342' />
    <nd ref='-343' />
    <tag k="ID" v="141944.000"/>
    <tag k="CATEGORY" v="4"/>
    <tag k="SHAPE_LE_1" v="60.266"/>
    <tag k="ET_ID" v="134557"/>
    <tag k="WAY_TYPE" v="Village Road"/>
    <tag k="SHAPE_LENG" v="0.000"/>
    <tag k="CAT2" v="40"/>
  </way>
  <node id='-345' visible='true' lat='40.9772816599865' lon='19.8037278307504' />
  <node id='-346' visible='true' lat='40.9770174233762' lon='19.803617653828' />
  <way id='-347' visible='true'>
    <nd ref='-345' />
    <nd ref='-346' />
    <tag k="ID" v="141945.000"/>
    <tag k="CATEGORY" v="4"/>
    <tag k="SHAPE_LE_1" v="30.779"/>
    <tag k="ET_ID" v="134558"/>
    <tag k="WAY_TYPE" v="Village Road"/>
    <tag k="SHAPE_LENG" v="0.000"/>
    <tag k="CAT2" v="40"/>
  </way>
  <node id='-348' visible='true' lat='40.9792699483724' lon='19.7802374957789' />
  <node id='-349' visible='true' lat='40.9785668622059' lon='19.7805251172765' />
  <node id='-350' visible='true' lat='40.9784120297535' lon='19.7805037521874' />
  <way id='-351' visible='true'>
    <nd ref='-348' />
    <nd ref='-349' />
    <nd ref='-350' />
    <tag k="ID" v="141946.000"/>
    <tag k="CATEGORY" v="4"/>
    <tag k="SHAPE_LE_1" v="99.049"/>
    <tag k="ET_ID" v="134559"/>
    <tag k="WAY_TYPE" v="Village Road"/>
    <tag k="SHAPE_LENG" v="0.000"/>
    <tag k="CAT2" v="40"/>
  </way>
  <node id='-352' visible='true' lat='40.9784120297535' lon='19.7805037521874' />
  <node id='-353' visible='true' lat='40.9772405546743' lon='19.7803420660235' />
  <node id='-354' visible='true' lat='40.9761990739554' lon='19.7802873069796' />
  <node id='-355' visible='true' lat='40.9749097168572' lon='19.7799684243849' />
  <node id='-356' visible='true' lat='40.9734900462876' lon='19.7799808473821' />
  <node id='-357' visible='true' lat='40.9732936354798' lon='19.7800636810881' />
  <way id='-358' visible='true'>
    <nd ref='-352' />
    <nd ref='-353' />
    <nd ref='-354' />
    <nd ref='-355' />
    <nd ref='-356' />
    <nd ref='-357' />
    <tag k="ID" v="141947.000"/>
    <tag k="CATEGORY" v="4"/>
    <tag k="SHAPE_LE_1" v="572.885"/>
    <tag k="ET_ID" v="134560"/>
    <tag k="WAY_TYPE" v="Village Road"/>
    <tag k="SHAPE_LENG" v="0.000"/>
    <tag k="CAT2" v="40"/>
  </way>
  <node id='-359' visible='true' lat='40.964293162188' lon='19.7745426094325' />
  <node id='-360' visible='true' lat='40.9646527518792' lon='19.7742651723631' />
  <node id='-361' visible='true' lat='40.9650454344071' lon='19.7739705585933' />
  <way id='-362' visible='true'>
    <nd ref='-359' />
    <nd ref='-360' />
    <nd ref='-361' />
    <tag k="ID" v="141948.000"/>
    <tag k="CATEGORY" v="4"/>
    <tag k="SHAPE_LE_1" v="96.443"/>
    <tag k="ET_ID" v="134561"/>
    <tag k="WAY_TYPE" v="Village Road"/>
    <tag k="SHAPE_LENG" v="0.000"/>
    <tag k="CAT2" v="40"/>
  </way>
  <node id='-363' visible='true' lat='40.9650454344071' lon='19.7739705585933' />
  <node id='-364' visible='true' lat='40.9652272291989' lon='19.7732461906728' />
  <node id='-365' visible='true' lat='40.965432301057' lon='19.7724919750213' />
  <node id='-366' visible='true' lat='40.9657713010014' lon='19.7711640072802' />
  <node id='-367' visible='true' lat='40.9657285496812' lon='19.7701613869924' />
  <node id='-368' visible='true' lat='40.9657301774458' lon='19.76925083972' />
  <node id='-369' visible='true' lat='40.9657400254871' lon='19.7685636650417' />
  <way id='-370' visible='true'>
    <nd ref='-363' />
    <nd ref='-364' />
    <nd ref='-365' />
    <nd ref='-366' />
    <nd ref='-367' />
    <nd ref='-368' />
    <nd ref='-369' />
    <tag k="ID" v="141949.000"/>
    <tag k="CATEGORY" v="4"/>
    <tag k="SHAPE_LE_1" v="468.746"/>
    <tag k="ET_ID" v="134562"/>
    <tag k="WAY_TYPE" v="Village Road"/>
    <tag k="SHAPE_LENG" v="0.000"/>
    <tag k="CAT2" v="40"/>
  </way>
  <node id='-371' visible='true' lat='40.9657400254871' lon='19.7685636650417' />
  <node id='-372' visible='true' lat='40.9657822681685' lon='19.7676408669955' />
  <way id='-373' visible='true'>
    <nd ref='-371' />
    <nd ref='-372' />
    <tag k="ID" v="141950.000"/>
    <tag k="CATEGORY" v="4"/>
    <tag k="SHAPE_LE_1" v="77.833"/>
    <tag k="ET_ID" v="134563"/>
    <tag k="WAY_TYPE" v="Village Road"/>
    <tag k="SHAPE_LENG" v="0.000"/>
    <tag k="CAT2" v="40"/>
  </way>
  <node id='-374' visible='true' lat='40.9657822681685' lon='19.7676408669955' />
  <node id='-375' visible='true' lat='40.9658370829987' lon='19.7673713631659' />
  <node id='-376' visible='true' lat='40.9661444962118' lon='19.7666496410747' />
  <way id='-377' visible='true'>
    <nd ref='-374' />
    <nd ref='-375' />
    <nd ref='-376' />
    <tag k="ID" v="141951.000"/>
    <tag k="CATEGORY" v="4"/>
    <tag k="SHAPE_LE_1" v="93.191"/>
    <tag k="ET_ID" v="134564"/>
    <tag k="WAY_TYPE" v="Village Road"/>
    <tag k="SHAPE_LENG" v="0.000"/>
    <tag k="CAT2" v="40"/>
  </way>
  <node id='-378' visible='true' lat='40.9591218911344' lon='19.7711803686797' />
  <node id='-379' visible='true' lat='40.9604836196105' lon='19.771167212281' />
  <node id='-380' visible='true' lat='40.9611366823697' lon='19.7709997869733' />
  <node id='-381' visible='true' lat='40.961666683761' lon='19.7706627263776' />
  <node id='-382' visible='true' lat='40.9622544613974' lon='19.7702813957181' />
  <node id='-383' visible='true' lat='40.9627777340809' lon='19.769625498558' />
  <node id='-384' visible='true' lat='40.9630298837407' lon='19.7687663176342' />
  <node id='-385' visible='true' lat='40.9632032070432' lon='19.7678295152458' />
  <node id='-386' visible='true' lat='40.9634731857337' lon='19.7673196076524' />
  <node id='-387' visible='true' lat='40.9637405677417' lon='19.7669916815812' />
  <node id='-388' visible='true' lat='40.9638821454199' lon='19.7666761546082' />
  <way id='-389' visible='true'>
    <nd ref='-378' />
    <nd ref='-379' />
    <nd ref='-380' />
    <nd ref='-381' />
    <nd ref='-382' />
    <nd ref='-383' />
    <nd ref='-384' />
    <nd ref='-385' />
    <nd ref='-386' />
    <nd ref='-387' />
    <nd ref='-388' />
    <tag k="ID" v="141956.000"/>
    <tag k="CATEGORY" v="4"/>
    <tag k="SHAPE_LE_1" v="725.965"/>
    <tag k="ET_ID" v="134569"/>
    <tag k="WAY_TYPE" v="Village Road"/>
    <tag k="SHAPE_LENG" v="0.000"/>
    <tag k="CAT2" v="40"/>
  </way>
  <node id='-390' visible='true' lat='40.9616165758893' lon='19.767794678329' />
  <node id='-391' visible='true' lat='40.9618448376627' lon='19.7677996947266' />
  <node id='-392' visible='true' lat='40.9627412470188' lon='19.7673946050826' />
  <node id='-393' visible='true' lat='40.963190817217' lon='19.7671010292524' />
  <node id='-394' visible='true' lat='40.9638821454199' lon='19.7666761546082' />
  <way id='-395' visible='true'>
    <nd ref='-390' />
    <nd ref='-391' />
    <nd ref='-392' />
    <nd ref='-393' />
    <nd ref='-394' />
    <tag k="ID" v="141957.000"/>
    <tag k="CATEGORY" v="4"/>
    <tag k="SHAPE_LE_1" v="271.026"/>
    <tag k="ET_ID" v="134570"/>
    <tag k="WAY_TYPE" v="Village Road"/>
    <tag k="SHAPE_LENG" v="0.000"/>
    <tag k="CAT2" v="40"/>
  </way>
  <node id='-396' visible='true' lat='40.9706801029396' lon='19.7907461345315' />
  <node id='-397' visible='true' lat='40.9704894260856' lon='19.7912731621801' />
  <node id='-398' visible='true' lat='40.9700141780532' lon='19.7917019838973' />
  <node id='-399' visible='true' lat='40.9696403397243' lon='19.7922396183443' />
  <node id='-400' visible='true' lat='40.9694501254601' lon='19.7927362010695' />
  <node id='-401' visible='true' lat='40.9693782183667' lon='19.7929622724728' />
  <node id='-402' visible='true' lat='40.9692306596709' lon='19.7936725732438' />
  <node id='-403' visible='true' lat='40.968955428443' lon='19.7936149328506' />
  <way id='-404' visible='true'>
    <nd ref='-396' />
    <nd ref='-397' />
    <nd ref='-398' />
    <nd ref='-399' />
    <nd ref='-400' />
    <nd ref='-401' />
    <nd ref='-402' />
    <nd ref='-403' />
    <tag k="ID" v="141960.000"/>
    <tag k="CATEGORY" v="4"/>
    <tag k="SHAPE_LE_1" v="334.970"/>
    <tag k="ET_ID" v="134573"/>
    <tag k="WAY_TYPE" v="Village Road"/>
    <tag k="SHAPE_LENG" v="0.000"/>
    <tag k="CAT2" v="40"/>
  </way>
  <node id='-405' visible='true' lat='40.9613901355038' lon='19.7466204183102' />
  <node id='-406' visible='true' lat='40.9610449337335' lon='19.7468916676621' />
  <node id='-407' visible='true' lat='40.9608682624801' lon='19.7473446604293' />
  <node id='-408' visible='true' lat='40.9606350864855' lon='19.7476405628788' />
  <node id='-409' visible='true' lat='40.9603066723004' lon='19.7476715778029' />
  <way id='-410' visible='true'>
    <nd ref='-405' />
    <nd ref='-406' />
    <nd ref='-407' />
    <nd ref='-408' />
    <nd ref='-409' />
    <tag k="ID" v="142207.000"/>
    <tag k="CATEGORY" v="4"/>
    <tag k="SHAPE_LE_1" v="160.029"/>
    <tag k="ET_ID" v="134820"/>
    <tag k="WAY_TYPE" v="Village Road"/>
    <tag k="SHAPE_LENG" v="0.000"/>
    <tag k="CAT2" v="40"/>
  </way>
  <node id='-411' visible='true' lat='40.9659625172606' lon='19.756979795515' />
  <node id='-412' visible='true' lat='40.9660849313176' lon='19.7564057698036' />
  <node id='-413' visible='true' lat='40.9666047563967' lon='19.7560068056314' />
  <node id='-414' visible='true' lat='40.9670222477568' lon='19.7555753452504' />
  <node id='-415' visible='true' lat='40.9671782955416' lon='19.7550474591864' />
  <node id='-416' visible='true' lat='40.9673832723461' lon='19.7542929422719' />
  <node id='-417' visible='true' lat='40.9680015454727' lon='19.7550187613378' />
  <node id='-418' visible='true' lat='40.9683893996852' lon='19.7550722196425' />
  <way id='-419' visible='true'>
    <nd ref='-411' />
    <nd ref='-412' />
    <nd ref='-413' />
    <nd ref='-414' />
    <nd ref='-415' />
    <nd ref='-416' />
    <nd ref='-417' />
    <nd ref='-418' />
    <tag k="ID" v="142214.000"/>
    <tag k="CATEGORY" v="4"/>
    <tag k="SHAPE_LE_1" v="426.323"/>
    <tag k="ET_ID" v="134827"/>
    <tag k="WAY_TYPE" v="Village Road"/>
    <tag k="SHAPE_LENG" v="0.000"/>
    <tag k="CAT2" v="40"/>
  </way>
  <node id='-420' visible='true' lat='40.9622300750766' lon='19.7927917495486' />
  <node id='-421' visible='true' lat='40.9617607033872' lon='19.7925601880952' />
  <node id='-422' visible='true' lat='40.9613532753224' lon='19.7923072306187' />
  <node id='-423' visible='true' lat='40.9609662772099' lon='19.7922217426597' />
  <node id='-424' visible='true' lat='40.9606473475109' lon='19.7921682988001' />
  <node id='-425' visible='true' lat='40.9603400730708' lon='19.7920999682337' />
  <node id='-426' visible='true' lat='40.9601129283777' lon='19.7920184642338' />
  <node id='-427' visible='true' lat='40.9599757605492' lon='19.7920302335485' />
  <way id='-428' visible='true'>
    <nd ref='-420' />
    <nd ref='-421' />
    <nd ref='-422' />
    <nd ref='-423' />
    <nd ref='-424' />
    <nd ref='-425' />
    <nd ref='-426' />
    <nd ref='-427' />
    <tag k="ID" v="171746.000"/>
    <tag k="CATEGORY" v="3"/>
    <tag k="SHAPE_LE_1" v="260.986"/>
    <tag k="ET_ID" v="163555"/>
    <tag k="WAY_TYPE" v="Seasonal Road"/>
    <tag k="SHAPE_LENG" v="0.000"/>
    <tag k="CAT2" v="30"/>
  </way>
  <node id='-429' visible='true' lat='40.9619990300031' lon='19.765017950378' />
  <node id='-430' visible='true' lat='40.9615003165159' lon='19.7647585869688' />
  <node id='-431' visible='true' lat='40.9607179512544' lon='19.7643928788827' />
  <node id='-432' visible='true' lat='40.9601974566714' lon='19.7640783647832' />
  <node id='-433' visible='true' lat='40.9598343430003' lon='19.763934075827' />
  <node id='-434' visible='true' lat='40.9591499063156' lon='19.763919351994' />
  <node id='-435' visible='true' lat='40.9584646905242' lon='19.7639652614685' />
  <node id='-436' visible='true' lat='40.9581076705803' lon='19.7642001592259' />
  <node id='-437' visible='true' lat='40.9576669251528' lon='19.7647061125645' />
  <node id='-438' visible='true' lat='40.9572044990023' lon='19.7651357548016' />
  <node id='-439' visible='true' lat='40.9568021691152' lon='19.7653544221822' />
  <node id='-440' visible='true' lat='40.9559684256452' lon='19.7654424511855' />
  <node id='-441' visible='true' lat='40.9557465831347' lon='19.7654376394591' />
  <way id='-442' visible='true'>
    <nd ref='-429' />
    <nd ref='-430' />
    <nd ref='-431' />
    <nd ref='-432' />
    <nd ref='-433' />
    <nd ref='-434' />
    <nd ref='-435' />
    <nd ref='-436' />
    <nd ref='-437' />
    <nd ref='-438' />
    <nd ref='-439' />
    <nd ref='-440' />
    <nd ref='-441' />
    <tag k="ID" v="171750.000"/>
    <tag k="CATEGORY" v="3"/>
    <tag k="SHAPE_LE_1" v="747.583"/>
    <tag k="ET_ID" v="163559"/>
    <tag k="WAY_TYPE" v="Seasonal Road"/>
    <tag k="SHAPE_LENG" v="0.000"/>
    <tag k="CAT2" v="30"/>
  </way>
  <node id='-443' visible='true' lat='40.9659625172606' lon='19.756979795515' />
  <node id='-444' visible='true' lat='40.9653649859454' lon='19.7564212760532' />
  <node id='-445' visible='true' lat='40.965141771412' lon='19.7560525774076' />
  <node id='-446' visible='true' lat='40.9648132050297' lon='19.7558637804345' />
  <node id='-447' visible='true' lat='40.964455590106' lon='19.7553103389089' />
  <node id='-448' visible='true' lat='40.9640305820297' lon='19.7546797389747' />
  <node id='-449' visible='true' lat='40.963660748694' lon='19.7541868350802' />
  <node id='-450' visible='true' lat='40.9633008506552' lon='19.7538003448224' />
  <node id='-451' visible='true' lat='40.9627926008067' lon='19.75341087901' />
  <node id='-452' visible='true' lat='40.9621341052409' lon='19.7531549118125' />
  <node id='-453' visible='true' lat='40.9614563329955' lon='19.7526559756364' />
  <node id='-454' visible='true' lat='40.9607130420209' lon='19.7511551722573' />
  <node id='-455' visible='true' lat='40.9605498968434' lon='19.750590964386' />
  <node id='-456' visible='true' lat='40.9603740544108' lon='19.7501174976142' />
  <node id='-457' visible='true' lat='40.9599438198171' lon='19.7498815538434' />
  <node id='-458' visible='true' lat='40.9588833416099' lon='19.7498453428364' />
  <node id='-459' visible='true' lat='40.9584170933834' lon='19.7497451455456' />
  <node id='-460' visible='true' lat='40.9582308140972' lon='19.7495822826492' />
  <node id='-461' visible='true' lat='40.9581290730214' lon='19.7489878838476' />
  <node id='-462' visible='true' lat='40.9582282690065' lon='19.7485511432173' />
  <way id='-463' visible='true'>
    <nd ref='-443' />
    <nd ref='-444' />
    <nd ref='-445' />
    <nd ref='-446' />
    <nd ref='-447' />
    <nd ref='-448' />
    <nd ref='-449' />
    <nd ref='-450' />
    <nd ref='-451' />
    <nd ref='-452' />
    <nd ref='-453' />
    <nd ref='-454' />
    <nd ref='-455' />
    <nd ref='-456' />
    <nd ref='-457' />
    <nd ref='-458' />
    <nd ref='-459' />
    <nd ref='-460' />
    <nd ref='-461' />
    <nd ref='-462' />
    <tag k="ID" v="171751.000"/>
    <tag k="CATEGORY" v="3"/>
    <tag k="SHAPE_LE_1" v="1213.564"/>
    <tag k="ET_ID" v="163560"/>
    <tag k="WAY_TYPE" v="Seasonal Road"/>
    <tag k="SHAPE_LENG" v="0.000"/>
    <tag k="CAT2" v="30"/>
  </way>
  <node id='-464' visible='true' lat='40.9855677053177' lon='19.8017066006247' />
  <node id='-465' visible='true' lat='40.9855052223593' lon='19.8012635276989' />
  <node id='-466' visible='true' lat='40.9852697799115' lon='19.8008768954709' />
  <node id='-467' visible='true' lat='40.9845807607514' lon='19.8001133244363' />
  <node id='-468' visible='true' lat='40.9843947490385' lon='19.7994845250121' />
  <node id='-469' visible='true' lat='40.9843902874925' lon='19.798997379195' />
  <node id='-470' visible='true' lat='40.98445661923' lon='19.7983750639096' />
  <node id='-471' visible='true' lat='40.9846958711284' lon='19.7976962642816' />
  <way id='-472' visible='true'>
    <nd ref='-464' />
    <nd ref='-465' />
    <nd ref='-466' />
    <nd ref='-467' />
    <nd ref='-468' />
    <nd ref='-469' />
    <nd ref='-470' />
    <nd ref='-471' />
    <tag k="ID" v="171753.000"/>
    <tag k="CATEGORY" v="3"/>
    <tag k="SHAPE_LE_1" v="393.335"/>
    <tag k="ET_ID" v="163562"/>
    <tag k="WAY_TYPE" v="Seasonal Road"/>
    <tag k="SHAPE_LENG" v="0.000"/>
    <tag k="CAT2" v="30"/>
  </way>
  <node id='-473' visible='true' lat='40.9850451455349' lon='19.8029260639582' />
  <node id='-474' visible='true' lat='40.9854043616184' lon='19.8034834393726' />
  <node id='-475' visible='true' lat='40.9857400056682' lon='19.8040859264833' />
  <node id='-476' visible='true' lat='40.9858490363731' lon='19.8044846025744' />
  <node id='-477' visible='true' lat='40.9857407172238' lon='19.8048319206589' />
  <node id='-478' visible='true' lat='40.9855889224975' lon='19.805010624254' />
  <way id='-479' visible='true'>
    <nd ref='-473' />
    <nd ref='-474' />
    <nd ref='-475' />
    <nd ref='-476' />
    <nd ref='-477' />
    <nd ref='-478' />
    <tag k="ID" v="171754.000"/>
    <tag k="CATEGORY" v="3"/>
    <tag k="SHAPE_LE_1" v="214.399"/>
    <tag k="ET_ID" v="163563"/>
    <tag k="WAY_TYPE" v="Seasonal Road"/>
    <tag k="SHAPE_LENG" v="0.000"/>
    <tag k="CAT2" v="30"/>
  </way>
  <node id='-480' visible='true' lat='40.9818172689334' lon='19.7792593008156' />
  <node id='-481' visible='true' lat='40.981765561348' lon='19.7788510436375' />
  <node id='-482' visible='true' lat='40.9817757430151' lon='19.7781365042096' />
  <node id='-483' visible='true' lat='40.981998055967' lon='19.7778222764958' />
  <node id='-484' visible='true' lat='40.9821760445822' lon='19.7774005544608' />
  <node id='-485' visible='true' lat='40.982266660901' lon='19.7766726428698' />
  <node id='-486' visible='true' lat='40.9821332276154' lon='19.7763806307073' />
  <node id='-487' visible='true' lat='40.9819325418907' lon='19.7759806341881' />
  <node id='-488' visible='true' lat='40.9818231218566' lon='19.775613165437' />
  <node id='-489' visible='true' lat='40.9816749900036' lon='19.7747430077561' />
  <way id='-490' visible='true'>
    <nd ref='-480' />
    <nd ref='-481' />
    <nd ref='-482' />
    <nd ref='-483' />
    <nd ref='-484' />
    <nd ref='-485' />
    <nd ref='-486' />
    <nd ref='-487' />
    <nd ref='-488' />
    <nd ref='-489' />
    <tag k="ID" v="171760.000"/>
    <tag k="CATEGORY" v="3"/>
    <tag k="SHAPE_LE_1" v="411.276"/>
    <tag k="ET_ID" v="163569"/>
    <tag k="WAY_TYPE" v="Seasonal Road"/>
    <tag k="SHAPE_LENG" v="0.000"/>
    <tag k="CAT2" v="30"/>
  </way>
  <node id='-491' visible='true' lat='40.9805955732559' lon='19.7788999221043' />
  <node id='-492' visible='true' lat='40.981142579658' lon='19.7791255217017' />
  <node id='-493' visible='true' lat='40.9818172689334' lon='19.7792593008156' />
  <way id='-494' visible='true'>
    <nd ref='-491' />
    <nd ref='-492' />
    <nd ref='-493' />
    <tag k="ID" v="172941.000"/>
    <tag k="CATEGORY" v="3"/>
    <tag k="SHAPE_LE_1" v="139.433"/>
    <tag k="ET_ID" v="164704"/>
    <tag k="WAY_TYPE" v="Seasonal Road"/>
    <tag k="SHAPE_LENG" v="0.000"/>
    <tag k="CAT2" v="30"/>
  </way>
  <node id='-495' visible='true' lat='40.9923156655359' lon='19.8132631181217' />
  <node id='-496' visible='true' lat='40.9931417204738' lon='19.8133770398258' />
  <node id='-497' visible='true' lat='40.9936825464258' lon='19.8133460390981' />
  <node id='-498' visible='true' lat='40.9940402974719' lon='19.8133404812236' />
  <way id='-499' visible='true'>
    <nd ref='-495' />
    <nd ref='-496' />
    <nd ref='-497' />
    <nd ref='-498' />
    <tag k="ID" v="172950.000"/>
    <tag k="CATEGORY" v="3"/>
    <tag k="SHAPE_LE_1" v="192.113"/>
    <tag k="ET_ID" v="164713"/>
    <tag k="WAY_TYPE" v="Seasonal Road"/>
    <tag k="SHAPE_LENG" v="0.000"/>
    <tag k="CAT2" v="30"/>
  </way>
  <node id='-500' visible='true' lat='40.9683141810598' lon='19.7563454758217' />
  <node id='-501' visible='true' lat='40.9675977854417' lon='19.7560879194079' />
  <node id='-502' visible='true' lat='40.967208267224' lon='19.7561557827482' />
  <node id='-503' visible='true' lat='40.9667230811735' lon='19.7565251363226' />
  <node id='-504' visible='true' lat='40.9663407369011' lon='19.7568965744198' />
  <node id='-505' visible='true' lat='40.9659625172606' lon='19.756979795515' />
  <way id='-506' visible='true'>
    <nd ref='-500' />
    <nd ref='-501' />
    <nd ref='-502' />
    <nd ref='-503' />
    <nd ref='-504' />
    <nd ref='-505' />
    <tag k="ID" v="172953.000"/>
    <tag k="CATEGORY" v="3"/>
    <tag k="SHAPE_LE_1" v="283.657"/>
    <tag k="ET_ID" v="164716"/>
    <tag k="WAY_TYPE" v="Seasonal Road"/>
    <tag k="SHAPE_LENG" v="0.000"/>
    <tag k="CAT2" v="30"/>
  </way>
  <node id='-507' visible='true' lat='40.9661444962118' lon='19.7666496410747' />
  <node id='-508' visible='true' lat='40.9663238761692' lon='19.7660920316347' />
  <node id='-509' visible='true' lat='40.9662969821529' lon='19.7655754615605' />
  <node id='-510' visible='true' lat='40.9663239447656' lon='19.76528769788' />
  <node id='-511' visible='true' lat='40.9659957185521' lon='19.7650681433968' />
  <node id='-512' visible='true' lat='40.9656424975432' lon='19.7649998052209' />
  <node id='-513' visible='true' lat='40.9655774363296' lon='19.7647556044419' />
  <node id='-514' visible='true' lat='40.9653160456133' lon='19.7646589227613' />
  <node id='-515' visible='true' lat='40.9648673954418' lon='19.7648768366018' />
  <node id='-516' visible='true' lat='40.9644269424' lon='19.7653224945225' />
  <node id='-517' visible='true' lat='40.9641142997795' lon='19.7656191620725' />
  <node id='-518' visible='true' lat='40.9633519375844' lon='19.7654205736504' />
  <node id='-519' visible='true' lat='40.9629192178014' lon='19.7653353508944' />
  <node id='-520' visible='true' lat='40.9625550209792' lon='19.7652516130001' />
  <node id='-521' visible='true' lat='40.9619990300031' lon='19.765017950378' />
  <way id='-522' visible='true'>
    <nd ref='-507' />
    <nd ref='-508' />
    <nd ref='-509' />
    <nd ref='-510' />
    <nd ref='-511' />
    <nd ref='-512' />
    <nd ref='-513' />
    <nd ref='-514' />
    <nd ref='-515' />
    <nd ref='-516' />
    <nd ref='-517' />
    <nd ref='-518' />
    <nd ref='-519' />
    <nd ref='-520' />
    <nd ref='-521' />
    <tag k="ID" v="172954.000"/>
    <tag k="CATEGORY" v="3"/>
    <tag k="SHAPE_LE_1" v="649.782"/>
    <tag k="ET_ID" v="164717"/>
    <tag k="WAY_TYPE" v="Seasonal Road"/>
    <tag k="SHAPE_LENG" v="0.000"/>
    <tag k="CAT2" v="30"/>
  </way>
  <node id='-523' visible='true' lat='40.9601365629809' lon='19.7814527049148' />
  <node id='-524' visible='true' lat='40.9604897984113' lon='19.7818011430352' />
  <node id='-525' visible='true' lat='40.9609827136436' lon='19.782450018635' />
  <node id='-526' visible='true' lat='40.9612607992552' lon='19.7829573117232' />
  <node id='-527' visible='true' lat='40.9614813864561' lon='19.7834936221302' />
  <node id='-528' visible='true' lat='40.9615524885251' lon='19.7841022719565' />
  <node id='-529' visible='true' lat='40.9615963617099' lon='19.7850137703273' />
  <node id='-530' visible='true' lat='40.9617561418909' lon='19.7858066945531' />
  <node id='-531' visible='true' lat='40.9619369962806' lon='19.7867215690138' />
  <node id='-532' visible='true' lat='40.9621003071251' lon='19.7872718574505' />
  <node id='-533' visible='true' lat='40.9622565716727' lon='19.788307650401' />
  <node id='-534' visible='true' lat='40.9625224257651' lon='19.7888756840756' />
  <node id='-535' visible='true' lat='40.9630320554419' lon='19.7891765234361' />
  <node id='-536' visible='true' lat='40.9634481788113' lon='19.789626900151' />
  <node id='-537' visible='true' lat='40.9637611083139' lon='19.7901051489439' />
  <node id='-538' visible='true' lat='40.9641072230582' lon='19.7906601635513' />
  <node id='-539' visible='true' lat='40.9643312517233' lon='19.7909693080087' />
  <node id='-540' visible='true' lat='40.964816028572' lon='19.7914215537709' />
  <node id='-541' visible='true' lat='40.9649858362104' lon='19.7915320293947' />
  <node id='-542' visible='true' lat='40.9649897631055' lon='19.7920483381806' />
  <node id='-543' visible='true' lat='40.9649163690229' lon='19.79238054562' />
  <node id='-544' visible='true' lat='40.964785414547' lon='19.7927416748847' />
  <node id='-545' visible='true' lat='40.9643636489177' lon='19.7926704558136' />
  <node id='-546' visible='true' lat='40.9638637391163' lon='19.7924758446022' />
  <node id='-547' visible='true' lat='40.9635439585434' lon='19.7924678988173' />
  <node id='-548' visible='true' lat='40.9628447115806' lon='19.7926326769128' />
  <node id='-549' visible='true' lat='40.9622300750766' lon='19.7927917495486' />
  <way id='-550' visible='true'>
    <nd ref='-523' />
    <nd ref='-524' />
    <nd ref='-525' />
    <nd ref='-526' />
    <nd ref='-527' />
    <nd ref='-528' />
    <nd ref='-529' />
    <nd ref='-530' />
    <nd ref='-531' />
    <nd ref='-532' />
    <nd ref='-533' />
    <nd ref='-534' />
    <nd ref='-535' />
    <nd ref='-536' />
    <nd ref='-537' />
    <nd ref='-538' />
    <nd ref='-539' />
    <nd ref='-540' />
    <nd ref='-541' />
    <nd ref='-542' />
    <nd ref='-543' />
    <nd ref='-544' />
    <nd ref='-545' />
    <nd ref='-546' />
    <nd ref='-547' />
    <nd ref='-548' />
    <nd ref='-549' />
    <tag k="ID" v="172961.000"/>
    <tag k="CATEGORY" v="3"/>
    <tag k="SHAPE_LE_1" v="1456.630"/>
    <tag k="ET_ID" v="164724"/>
    <tag k="WAY_TYPE" v="Seasonal Road"/>
    <tag k="SHAPE_LENG" v="0.000"/>
    <tag k="CAT2" v="30"/>
  </way>
  <node id='-551' visible='true' lat='40.9685001112994' lon='19.7896292529826' />
  <node id='-552' visible='true' lat='40.9684941587496' lon='19.7876698663838' />
  <way id='-553' visible='true'>
    <nd ref='-551' />
    <nd ref='-552' />
    <tag k="ID" v="196290.000"/>
    <tag k="CATEGORY" v="1"/>
    <tag k="SHAPE_LE_1" v="164.957"/>
    <tag k="ET_ID" v="186985"/>
    <tag k="WAY_TYPE" v="National Asphalted Road"/>
    <tag k="SHAPE_LENG" v="0.000"/>
    <tag k="CAT2" v="11"/>
  </way>
  <node id='-554' visible='true' lat='40.9685001112994' lon='19.7896292529826' />
  <node id='-555' visible='true' lat='40.9690723865421' lon='19.7895977066863' />
  <way id='-556' visible='true'>
    <nd ref='-554' />
    <nd ref='-555' />
    <tag k="ID" v="196294.000"/>
    <tag k="CATEGORY" v="1"/>
    <tag k="SHAPE_LE_1" v="63.618"/>
    <tag k="ET_ID" v="186989"/>
    <tag k="WAY_TYPE" v="National Asphalted Road"/>
    <tag k="SHAPE_LENG" v="0.000"/>
    <tag k="CAT2" v="11"/>
  </way>
  <node id='-557' visible='true' lat='40.9690537794333' lon='19.7823459388572' />
  <node id='-558' visible='true' lat='40.9691057479425' lon='19.7825360590612' />
  <node id='-559' visible='true' lat='40.9689615615205' lon='19.7830186209911' />
  <node id='-560' visible='true' lat='40.9688068219738' lon='19.7834401747589' />
  <node id='-561' visible='true' lat='40.9687176008269' lon='19.7840758906393' />
  <node id='-562' visible='true' lat='40.9687292930664' lon='19.7848506975833' />
  <node id='-563' visible='true' lat='40.9684941587496' lon='19.7876698663838' />
  <way id='-564' visible='true'>
    <nd ref='-557' />
    <nd ref='-558' />
    <nd ref='-559' />
    <nd ref='-560' />
    <nd ref='-561' />
    <nd ref='-562' />
    <nd ref='-563' />
    <tag k="ID" v="196317.000"/>
    <tag k="CATEGORY" v="1"/>
    <tag k="SHAPE_LE_1" v="458.556"/>
    <tag k="ET_ID" v="187012"/>
    <tag k="WAY_TYPE" v="National Asphalted Road"/>
    <tag k="SHAPE_LENG" v="0.000"/>
    <tag k="CAT2" v="11"/>
  </way>
  <node id='-565' visible='true' lat='40.9684941587496' lon='19.7876698663838' />
  <node id='-566' visible='true' lat='40.967856027729' lon='19.7883073992138' />
  <node id='-567' visible='true' lat='40.9670074298228' lon='19.7876945199403' />
  <node id='-568' visible='true' lat='40.9668858969712' lon='19.7881926672244' />
  <node id='-569' visible='true' lat='40.9672430236778' lon='19.788793598795' />
  <node id='-570' visible='true' lat='40.9685001112994' lon='19.7896292529826' />
  <way id='-571' visible='true'>
    <nd ref='-565' />
    <nd ref='-566' />
    <nd ref='-567' />
    <nd ref='-568' />
    <nd ref='-569' />
    <nd ref='-570' />
    <tag k="ID" v="196318.000"/>
    <tag k="CATEGORY" v="1"/>
    <tag k="SHAPE_LE_1" v="461.050"/>
    <tag k="ET_ID" v="187013"/>
    <tag k="WAY_TYPE" v="National Asphalted Road"/>
    <tag k="SHAPE_LENG" v="0.000"/>
    <tag k="CAT2" v="11"/>
  </way>
  <node id='-572' visible='true' lat='40.9792735434604' lon='19.7987650522831' />
  <node id='-573' visible='true' lat='40.9792354838064' lon='19.798591828999' />
  <node id='-574' visible='true' lat='40.9790937802435' lon='19.7980862743301' />
  <node id='-575' visible='true' lat='40.9787866338126' lon='19.7979263569614' />
  <node id='-576' visible='true' lat='40.9783204430046' lon='19.7976711591361' />
  <node id='-577' visible='true' lat='40.9774534160559' lon='19.7974058054323' />
  <node id='-578' visible='true' lat='40.9762053376177' lon='19.7965682767593' />
  <node id='-579' visible='true' lat='40.9750201045249' lon='19.7953677366173' />
  <way id='-580' visible='true'>
    <nd ref='-572' />
    <nd ref='-573' />
    <nd ref='-574' />
    <nd ref='-575' />
    <nd ref='-576' />
    <nd ref='-577' />
    <nd ref='-578' />
    <nd ref='-579' />
    <tag k="ID" v="196319.000"/>
    <tag k="CATEGORY" v="1"/>
    <tag k="SHAPE_LE_1" v="573.624"/>
    <tag k="ET_ID" v="187014"/>
    <tag k="WAY_TYPE" v="National Asphalted Road"/>
    <tag k="SHAPE_LENG" v="0.000"/>
    <tag k="CAT2" v="11"/>
  </way>
  <node id='-581' visible='true' lat='40.9794824185147' lon='19.8062663846827' />
  <node id='-582' visible='true' lat='40.9791287204714' lon='19.8059666964535' />
  <node id='-583' visible='true' lat='40.9786483675804' lon='19.8058931698935' />
  <node id='-584' visible='true' lat='40.9782636864234' lon='19.805548373955' />
  <node id='-585' visible='true' lat='40.9776995028921' lon='19.804940320534' />
  <node id='-586' visible='true' lat='40.9773064385262' lon='19.8042235850169' />
  <way id='-587' visible='true'>
    <nd ref='-581' />
    <nd ref='-582' />
    <nd ref='-583' />
    <nd ref='-584' />
    <nd ref='-585' />
    <nd ref='-586' />
    <tag k="ID" v="197473.000"/>
    <tag k="CATEGORY" v="1"/>
    <tag k="SHAPE_LE_1" v="307.429"/>
    <tag k="ET_ID" v="188266"/>
    <tag k="WAY_TYPE" v="National Asphalted Road"/>
    <tag k="SHAPE_LENG" v="0.000"/>
    <tag k="CAT2" v="11"/>
  </way>
  <node id='-588' visible='true' lat='40.9773064385262' lon='19.8042235850169' />
  <node id='-589' visible='true' lat='40.9772816599865' lon='19.8037278307504' />
  <way id='-590' visible='true'>
    <nd ref='-588' />
    <nd ref='-589' />
    <tag k="ID" v="197474.000"/>
    <tag k="CATEGORY" v="1"/>
    <tag k="SHAPE_LE_1" v="41.821"/>
    <tag k="ET_ID" v="188267"/>
    <tag k="WAY_TYPE" v="National Asphalted Road"/>
    <tag k="SHAPE_LENG" v="0.000"/>
    <tag k="CAT2" v="11"/>
  </way>
  <node id='-591' visible='true' lat='40.9772816599865' lon='19.8037278307504' />
  <node id='-592' visible='true' lat='40.9774376237826' lon='19.8032452219155' />
  <node id='-593' visible='true' lat='40.9778883271095' lon='19.8029832019742' />
  <node id='-594' visible='true' lat='40.9782469743483' lon='19.802749183223' />
  <node id='-595' visible='true' lat='40.9788328134726' lon='19.802657943735' />
  <node id='-596' visible='true' lat='40.979271734974' lon='19.802425965514' />
  <node id='-597' visible='true' lat='40.979483274852' lon='19.8020663711' />
  <node id='-598' visible='true' lat='40.9795804491019' lon='19.8016885871401' />
  <node id='-599' visible='true' lat='40.9798373931898' lon='19.8013605662347' />
  <node id='-600' visible='true' lat='40.9800253694418' lon='19.8010459584719' />
  <node id='-601' visible='true' lat='40.9799405002167' lon='19.8005721761197' />
  <node id='-602' visible='true' lat='40.9797419241688' lon='19.8000346468734' />
  <node id='-603' visible='true' lat='40.9794867175114' lon='19.799450059553' />
  <node id='-604' visible='true' lat='40.9793430361868' lon='19.7990813128834' />
  <node id='-605' visible='true' lat='40.9792735434604' lon='19.7987650522831' />
  <way id='-606' visible='true'>
    <nd ref='-591' />
    <nd ref='-592' />
    <nd ref='-593' />
    <nd ref='-594' />
    <nd ref='-595' />
    <nd ref='-596' />
    <nd ref='-597' />
    <nd ref='-598' />
    <nd ref='-599' />
    <nd ref='-600' />
    <nd ref='-601' />
    <nd ref='-602' />
    <nd ref='-603' />
    <nd ref='-604' />
    <nd ref='-605' />
    <tag k="ID" v="197475.000"/>
    <tag k="CATEGORY" v="1"/>
    <tag k="SHAPE_LE_1" v="617.389"/>
    <tag k="ET_ID" v="188268"/>
    <tag k="WAY_TYPE" v="National Asphalted Road"/>
    <tag k="SHAPE_LENG" v="0.000"/>
    <tag k="CAT2" v="11"/>
  </way>
  <node id='-607' visible='true' lat='40.9557465831347' lon='19.7654376394591' />
  <node id='-608' visible='true' lat='40.9562545602282' lon='19.766161095499' />
  <node id='-609' visible='true' lat='40.9566974884895' lon='19.7670803035634' />
  <node id='-610' visible='true' lat='40.9571629223455' lon='19.7681454617977' />
  <way id='-611' visible='true'>
    <nd ref='-607' />
    <nd ref='-608' />
    <nd ref='-609' />
    <nd ref='-610' />
    <tag k="ID" v="197477.000"/>
    <tag k="CATEGORY" v="1"/>
    <tag k="SHAPE_LE_1" v="278.264"/>
    <tag k="ET_ID" v="188270"/>
    <tag k="WAY_TYPE" v="National Asphalted Road"/>
    <tag k="SHAPE_LENG" v="0.000"/>
    <tag k="CAT2" v="11"/>
  </way>
  <node id='-612' visible='true' lat='40.9571629223455' lon='19.7681454617977' />
  <node id='-613' visible='true' lat='40.9573931074152' lon='19.7686722616781' />
  <node id='-614' visible='true' lat='40.9578981904017' lon='19.7692444146726' />
  <node id='-615' visible='true' lat='40.9583457121551' lon='19.7697880230465' />
  <way id='-616' visible='true'>
    <nd ref='-612' />
    <nd ref='-613' />
    <nd ref='-614' />
    <nd ref='-615' />
    <tag k="ID" v="197478.000"/>
    <tag k="CATEGORY" v="1"/>
    <tag k="SHAPE_LE_1" v="192.715"/>
    <tag k="ET_ID" v="188271"/>
    <tag k="WAY_TYPE" v="National Asphalted Road"/>
    <tag k="SHAPE_LENG" v="0.000"/>
    <tag k="CAT2" v="11"/>
  </way>
  <node id='-617' visible='true' lat='40.9583457121551' lon='19.7697880230465' />
  <node id='-618' visible='true' lat='40.9585678603065' lon='19.77027520306' />
  <node id='-619' visible='true' lat='40.9589122776375' lon='19.770919784016' />
  <node id='-620' visible='true' lat='40.9591218911344' lon='19.7711803686797' />
  <way id='-621' visible='true'>
    <nd ref='-617' />
    <nd ref='-618' />
    <nd ref='-619' />
    <nd ref='-620' />
    <tag k="ID" v="197479.000"/>
    <tag k="CATEGORY" v="1"/>
    <tag k="SHAPE_LE_1" v="146.262"/>
    <tag k="ET_ID" v="188272"/>
    <tag k="WAY_TYPE" v="National Asphalted Road"/>
    <tag k="SHAPE_LENG" v="0.000"/>
    <tag k="CAT2" v="11"/>
  </way>
  <node id='-622' visible='true' lat='40.9591218911344' lon='19.7711803686797' />
  <node id='-623' visible='true' lat='40.9593718988177' lon='19.77149117419' />
  <node id='-624' visible='true' lat='40.9601032025171' lon='19.7722204105821' />
  <node id='-625' visible='true' lat='40.9614478278946' lon='19.7731759956732' />
  <node id='-626' visible='true' lat='40.9619125126351' lon='19.7734140551689' />
  <node id='-627' visible='true' lat='40.9624380281668' lon='19.7733955971576' />
  <node id='-628' visible='true' lat='40.9629653458193' lon='19.7732557928904' />
  <node id='-629' visible='true' lat='40.9635684977932' lon='19.7734059848854' />
  <node id='-630' visible='true' lat='40.9641100490464' lon='19.7738734726777' />
  <node id='-631' visible='true' lat='40.964293162188' lon='19.7745426094325' />
  <way id='-632' visible='true'>
    <nd ref='-622' />
    <nd ref='-623' />
    <nd ref='-624' />
    <nd ref='-625' />
    <nd ref='-626' />
    <nd ref='-627' />
    <nd ref='-628' />
    <nd ref='-629' />
    <nd ref='-630' />
    <nd ref='-631' />
    <tag k="ID" v="197480.000"/>
    <tag k="CATEGORY" v="1"/>
    <tag k="SHAPE_LE_1" v="683.070"/>
    <tag k="ET_ID" v="188273"/>
    <tag k="WAY_TYPE" v="National Asphalted Road"/>
    <tag k="SHAPE_LENG" v="0.000"/>
    <tag k="CAT2" v="11"/>
  </way>
  <node id='-633' visible='true' lat='40.964293162188' lon='19.7745426094325' />
  <node id='-634' visible='true' lat='40.9645469791992' lon='19.775264394936' />
  <node id='-635' visible='true' lat='40.9649278667387' lon='19.7757891007125' />
  <node id='-636' visible='true' lat='40.9653333786869' lon='19.7761930077399' />
  <node id='-637' visible='true' lat='40.9658856881265' lon='19.7767217661831' />
  <node id='-638' visible='true' lat='40.9668562989453' lon='19.7783684615485' />
  <node id='-639' visible='true' lat='40.9671848937397' lon='19.7793629232473' />
  <node id='-640' visible='true' lat='40.9678007522986' lon='19.7802579221001' />
  <node id='-641' visible='true' lat='40.9684404352363' lon='19.7810928808664' />
  <node id='-642' visible='true' lat='40.9686217819427' lon='19.7813986499182' />
  <way id='-643' visible='true'>
    <nd ref='-633' />
    <nd ref='-634' />
    <nd ref='-635' />
    <nd ref='-636' />
    <nd ref='-637' />
    <nd ref='-638' />
    <nd ref='-639' />
    <nd ref='-640' />
    <nd ref='-641' />
    <nd ref='-642' />
    <tag k="ID" v="197481.000"/>
    <tag k="CATEGORY" v="1"/>
    <tag k="SHAPE_LE_1" v="761.736"/>
    <tag k="ET_ID" v="188274"/>
    <tag k="WAY_TYPE" v="National Asphalted Road"/>
    <tag k="SHAPE_LENG" v="0.000"/>
    <tag k="CAT2" v="11"/>
  </way>
  <node id='-644' visible='true' lat='40.9686217819427' lon='19.7813986499182' />
  <node id='-645' visible='true' lat='40.968942801469' lon='19.7819399304402' />
  <node id='-646' visible='true' lat='40.9690537794333' lon='19.7823459388572' />
  <way id='-647' visible='true'>
    <nd ref='-644' />
    <nd ref='-645' />
    <nd ref='-646' />
    <tag k="ID" v="197482.000"/>
    <tag k="CATEGORY" v="1"/>
    <tag k="SHAPE_LE_1" v="94.196"/>
    <tag k="ET_ID" v="188275"/>
    <tag k="WAY_TYPE" v="National Asphalted Road"/>
    <tag k="SHAPE_LENG" v="0.000"/>
    <tag k="CAT2" v="11"/>
  </way>
</osm>
