<?xml version='1.0'?>
<osm version='0.5' generator='shp2osm.pl'>
  <node id='-1' visible='true' lat='40.5166242' lon='19.9652284' />
  <node id='-2' visible='true' lat='40.5175376' lon='19.9659151' />
  <node id='-3' visible='true' lat='40.5184512' lon='19.9662584' />
  <node id='-4' visible='true' lat='40.518973' lon='19.9676316' />
  <node id='-5' visible='true' lat='40.5197561' lon='19.9679749' />
  <node id='-6' visible='true' lat='40.5206695' lon='19.9678032' />
  <node id='-7' visible='true' lat='40.5217134' lon='19.9679749' />
  <node id='-8' visible='true' lat='40.5228879' lon='19.9681466' />
  <node id='-9' visible='true' lat='40.5236707' lon='19.9688333' />
  <node id='-10' visible='true' lat='40.5249756' lon='19.9688333' />
  <node id='-11' visible='true' lat='40.525628' lon='19.9698633' />
  <node id='-12' visible='true' lat='40.5266718' lon='19.9708931' />
  <node id='-13' visible='true' lat='40.5278461' lon='19.9710648' />
  <node id='-14' visible='true' lat='40.5290205' lon='19.9714081' />
  <node id='-15' visible='true' lat='40.5298033' lon='19.9720948' />
  <node id='-16' visible='true' lat='40.5301947' lon='19.9731248' />
  <node id='-17' visible='true' lat='40.5305862' lon='19.9741548' />
  <node id='-18' visible='true' lat='40.5316299' lon='19.9746698' />
  <node id='-19' visible='true' lat='40.5330652' lon='19.9750131' />
  <node id='-20' visible='true' lat='40.5342393' lon='19.9750131' />
  <node id='-21' visible='true' lat='40.5346308' lon='19.9744981' />
  <node id='-22' visible='true' lat='40.5346308' lon='19.9738115' />
  <node id='-23' visible='true' lat='40.5358049' lon='19.9739831' />
  <node id='-24' visible='true' lat='40.5371096' lon='19.9741548' />
  <node id='-25' visible='true' lat='40.5380228' lon='19.9748415' />
  <node id='-26' visible='true' lat='40.5390664' lon='19.9746698' />
  <node id='-27' visible='true' lat='40.5402405' lon='19.9744981' />
  <way id='-28' visible='true'>
    <nd ref='-1' />
    <nd ref='-2' />
    <nd ref='-3' />
    <nd ref='-4' />
    <nd ref='-5' />
    <nd ref='-6' />
    <nd ref='-7' />
    <nd ref='-8' />
    <nd ref='-9' />
    <nd ref='-10' />
    <nd ref='-11' />
    <nd ref='-12' />
    <nd ref='-13' />
    <nd ref='-14' />
    <nd ref='-15' />
    <nd ref='-16' />
    <nd ref='-17' />
    <nd ref='-18' />
    <nd ref='-19' />
    <nd ref='-20' />
    <nd ref='-21' />
    <nd ref='-22' />
    <nd ref='-23' />
    <nd ref='-24' />
    <nd ref='-25' />
    <nd ref='-26' />
    <nd ref='-27' />
    <tag k="NAME" v="Devoll"/>
    <tag k="OSM_ID" v="27944215"/>
  </way>
  <node id='-29' visible='true' lat='40.5686735' lon='19.9736398' />
  <node id='-30' visible='true' lat='40.5695862' lon='19.9729531' />
  <node id='-31' visible='true' lat='40.5702381' lon='19.9719231' />
  <node id='-32' visible='true' lat='40.5715422' lon='19.9707216' />
  <node id='-33' visible='true' lat='40.5723245' lon='19.9703783' />
  <node id='-34' visible='true' lat='40.5732373' lon='19.9703783' />
  <node id='-35' visible='true' lat='40.57415' lon='19.9710648' />
  <node id='-36' visible='true' lat='40.5754537' lon='19.9710648' />
  <node id='-37' visible='true' lat='40.576888' lon='19.9708931' />
  <node id='-38' visible='true' lat='40.5781919' lon='19.9707216' />
  <node id='-39' visible='true' lat='40.5793652' lon='19.9702066' />
  <node id='-40' visible='true' lat='40.5804083' lon='19.9691766' />
  <node id='-41' visible='true' lat='40.5813209' lon='19.9688333' />
  <node id='-42' visible='true' lat='40.5827549' lon='19.9686616' />
  <node id='-43' visible='true' lat='40.583798' lon='19.9684899' />
  <node id='-44' visible='true' lat='40.5848409' lon='19.9679749' />
  <node id='-45' visible='true' lat='40.5854927' lon='19.9679749' />
  <node id='-46' visible='true' lat='40.5861445' lon='19.9664301' />
  <way id='-47' visible='true'>
    <nd ref='-29' />
    <nd ref='-30' />
    <nd ref='-31' />
    <nd ref='-32' />
    <nd ref='-33' />
    <nd ref='-34' />
    <nd ref='-35' />
    <nd ref='-36' />
    <nd ref='-37' />
    <nd ref='-38' />
    <nd ref='-39' />
    <nd ref='-40' />
    <nd ref='-41' />
    <nd ref='-42' />
    <nd ref='-43' />
    <nd ref='-44' />
    <nd ref='-45' />
    <nd ref='-46' />
    <tag k="NAME" v="Devoll"/>
    <tag k="OSM_ID" v="27944213"/>
  </way>
  <node id='-48' visible='true' lat='40.5402405' lon='19.9744981' />
  <node id='-49' visible='true' lat='40.5410231' lon='19.975528' />
  <node id='-50' visible='true' lat='40.541806' lon='19.9767296' />
  <node id='-51' visible='true' lat='40.5431104' lon='19.9767296' />
  <node id='-52' visible='true' lat='40.5442845' lon='19.9763863' />
  <node id='-53' visible='true' lat='40.5451976' lon='19.9763863' />
  <node id='-54' visible='true' lat='40.5465019' lon='19.9762148' />
  <node id='-55' visible='true' lat='40.5478063' lon='19.9762148' />
  <node id='-56' visible='true' lat='40.5489803' lon='19.9763863' />
  <node id='-57' visible='true' lat='40.5501543' lon='19.976558' />
  <node id='-58' visible='true' lat='40.5513282' lon='19.9767296' />
  <node id='-59' visible='true' lat='40.5528934' lon='19.9772446' />
  <node id='-60' visible='true' lat='40.5536759' lon='19.9772446' />
  <node id='-61' visible='true' lat='40.5547194' lon='19.9769013' />
  <node id='-62' visible='true' lat='40.5557627' lon='19.9767296' />
  <node id='-63' visible='true' lat='40.5566756' lon='19.976558' />
  <node id='-64' visible='true' lat='40.5581103' lon='19.9767296' />
  <node id='-65' visible='true' lat='40.559284' lon='19.9769013' />
  <node id='-66' visible='true' lat='40.5603273' lon='19.9763863' />
  <node id='-67' visible='true' lat='40.5609795' lon='19.975528' />
  <node id='-68' visible='true' lat='40.5618923' lon='19.9751848' />
  <node id='-69' visible='true' lat='40.5628053' lon='19.9753563' />
  <node id='-70' visible='true' lat='40.5634573' lon='19.9753563' />
  <node id='-71' visible='true' lat='40.5642398' lon='19.9750131' />
  <node id='-72' visible='true' lat='40.5650222' lon='19.9741548' />
  <node id='-73' visible='true' lat='40.5656741' lon='19.9739831' />
  <node id='-74' visible='true' lat='40.5663261' lon='19.9744981' />
  <node id='-75' visible='true' lat='40.5672391' lon='19.9748415' />
  <node id='-76' visible='true' lat='40.5680215' lon='19.9746698' />
  <node id='-77' visible='true' lat='40.5686735' lon='19.9736398' />
  <way id='-78' visible='true'>
    <nd ref='-48' />
    <nd ref='-49' />
    <nd ref='-50' />
    <nd ref='-51' />
    <nd ref='-52' />
    <nd ref='-53' />
    <nd ref='-54' />
    <nd ref='-55' />
    <nd ref='-56' />
    <nd ref='-57' />
    <nd ref='-58' />
    <nd ref='-59' />
    <nd ref='-60' />
    <nd ref='-61' />
    <nd ref='-62' />
    <nd ref='-63' />
    <nd ref='-64' />
    <nd ref='-65' />
    <nd ref='-66' />
    <nd ref='-67' />
    <nd ref='-68' />
    <nd ref='-69' />
    <nd ref='-70' />
    <nd ref='-71' />
    <nd ref='-72' />
    <nd ref='-73' />
    <nd ref='-74' />
    <nd ref='-75' />
    <nd ref='-76' />
    <nd ref='-77' />
    <tag k="NAME" v="Devoll"/>
    <tag k="OSM_ID" v="27944214"/>
  </way>
  <node id='-79' visible='true' lat='40.6258539' lon='19.994814' />
  <node id='-80' visible='true' lat='40.625582' lon='19.9950369' />
  <node id='-81' visible='true' lat='40.6257629' lon='19.9963569' />
  <node id='-82' visible='true' lat='40.6258819' lon='19.996773' />
  <node id='-83' visible='true' lat='40.625866' lon='19.99697' />
  <node id='-84' visible='true' lat='40.6255349' lon='19.9969989' />
  <node id='-85' visible='true' lat='40.625275' lon='19.9969129' />
  <node id='-86' visible='true' lat='40.624727' lon='19.9965979' />
  <node id='-87' visible='true' lat='40.6229119' lon='19.9958169' />
  <node id='-88' visible='true' lat='40.6224599' lon='19.9953849' />
  <node id='-89' visible='true' lat='40.621895' lon='19.9949869' />
  <node id='-90' visible='true' lat='40.621647' lon='19.994547' />
  <node id='-91' visible='true' lat='40.621203' lon='19.9943519' />
  <node id='-92' visible='true' lat='40.620756' lon='19.9948329' />
  <node id='-93' visible='true' lat='40.6201859' lon='19.9952299' />
  <node id='-94' visible='true' lat='40.6199259' lon='19.9955859' />
  <node id='-95' visible='true' lat='40.6192289' lon='19.9971069' />
  <node id='-96' visible='true' lat='40.618583' lon='19.998269' />
  <node id='-97' visible='true' lat='40.618574' lon='19.998975' />
  <node id='-98' visible='true' lat='40.6184319' lon='19.9995989' />
  <node id='-99' visible='true' lat='40.618205' lon='19.9996329' />
  <node id='-100' visible='true' lat='40.617738' lon='19.999558' />
  <node id='-101' visible='true' lat='40.6172169' lon='19.9999499' />
  <node id='-102' visible='true' lat='40.616995' lon='20.0002759' />
  <node id='-103' visible='true' lat='40.6165069' lon='20.0004589' />
  <node id='-104' visible='true' lat='40.6158769' lon='20.0002029' />
  <node id='-105' visible='true' lat='40.6154089' lon='20.000291' />
  <node id='-106' visible='true' lat='40.615256' lon='20.000388' />
  <node id='-107' visible='true' lat='40.6148859' lon='20.000343' />
  <node id='-108' visible='true' lat='40.614739' lon='20.000232' />
  <node id='-109' visible='true' lat='40.614147' lon='20.000301' />
  <node id='-110' visible='true' lat='40.612765' lon='20.001715' />
  <node id='-111' visible='true' lat='40.6121759' lon='20.001926' />
  <node id='-112' visible='true' lat='40.6109549' lon='20.002503' />
  <node id='-113' visible='true' lat='40.6105099' lon='20.002334' />
  <node id='-114' visible='true' lat='40.610204' lon='20.001953' />
  <node id='-115' visible='true' lat='40.6093619' lon='20.001614' />
  <node id='-116' visible='true' lat='40.607576' lon='20.001483' />
  <node id='-117' visible='true' lat='40.607191' lon='20.0012679' />
  <node id='-118' visible='true' lat='40.606799' lon='20.001128' />
  <node id='-119' visible='true' lat='40.6059359' lon='20.001186' />
  <node id='-120' visible='true' lat='40.604956' lon='20.001566' />
  <node id='-121' visible='true' lat='40.6042199' lon='20.0021549' />
  <node id='-122' visible='true' lat='40.60318' lon='20.002268' />
  <node id='-123' visible='true' lat='40.6028549' lon='20.002189' />
  <node id='-124' visible='true' lat='40.6025429' lon='20.0022149' />
  <node id='-125' visible='true' lat='40.601745' lon='20.002662' />
  <node id='-126' visible='true' lat='40.6009099' lon='20.0033759' />
  <node id='-127' visible='true' lat='40.600157' lon='20.004259' />
  <node id='-128' visible='true' lat='40.5995419' lon='20.0043679' />
  <node id='-129' visible='true' lat='40.5989009' lon='20.003848' />
  <node id='-130' visible='true' lat='40.59835' lon='20.003263' />
  <node id='-131' visible='true' lat='40.5978709' lon='20.0024779' />
  <node id='-132' visible='true' lat='40.5970879' lon='20.0020169' />
  <node id='-133' visible='true' lat='40.5969139' lon='20.00196' />
  <node id='-134' visible='true' lat='40.596262' lon='20.002167' />
  <node id='-135' visible='true' lat='40.5953239' lon='20.0021699' />
  <node id='-136' visible='true' lat='40.594864' lon='20.001742' />
  <node id='-137' visible='true' lat='40.5946169' lon='20.0013679' />
  <node id='-138' visible='true' lat='40.5937869' lon='20.0010289' />
  <node id='-139' visible='true' lat='40.593674' lon='20.000906' />
  <node id='-140' visible='true' lat='40.5932949' lon='20.000903' />
  <node id='-141' visible='true' lat='40.5920699' lon='20.001719' />
  <node id='-142' visible='true' lat='40.591548' lon='20.0019799' />
  <node id='-143' visible='true' lat='40.5905729' lon='20.0029409' />
  <node id='-144' visible='true' lat='40.5894839' lon='20.003349' />
  <node id='-145' visible='true' lat='40.5891149' lon='20.003412' />
  <node id='-146' visible='true' lat='40.5887269' lon='20.003675' />
  <node id='-147' visible='true' lat='40.588428' lon='20.004207' />
  <node id='-148' visible='true' lat='40.58798' lon='20.0047159' />
  <node id='-149' visible='true' lat='40.586978' lon='20.004923' />
  <node id='-150' visible='true' lat='40.585169' lon='20.0059889' />
  <node id='-151' visible='true' lat='40.5841149' lon='20.006989' />
  <node id='-152' visible='true' lat='40.583925' lon='20.007725' />
  <node id='-153' visible='true' lat='40.583714' lon='20.0079339' />
  <node id='-154' visible='true' lat='40.58346' lon='20.007878' />
  <node id='-155' visible='true' lat='40.5830979' lon='20.007925' />
  <node id='-156' visible='true' lat='40.580831' lon='20.009339' />
  <node id='-157' visible='true' lat='40.579286' lon='20.0101349' />
  <node id='-158' visible='true' lat='40.5786069' lon='20.010864' />
  <node id='-159' visible='true' lat='40.5777319' lon='20.0109689' />
  <node id='-160' visible='true' lat='40.577075' lon='20.0114799' />
  <node id='-161' visible='true' lat='40.576247' lon='20.0116399' />
  <node id='-162' visible='true' lat='40.575372' lon='20.011938' />
  <node id='-163' visible='true' lat='40.575096' lon='20.0122439' />
  <node id='-164' visible='true' lat='40.57491' lon='20.01263' />
  <node id='-165' visible='true' lat='40.5742029' lon='20.013006' />
  <node id='-166' visible='true' lat='40.5736709' lon='20.013472' />
  <node id='-167' visible='true' lat='40.5716079' lon='20.0149369' />
  <node id='-168' visible='true' lat='40.5709889' lon='20.0157169' />
  <node id='-169' visible='true' lat='40.5705919' lon='20.0164019' />
  <node id='-170' visible='true' lat='40.57016' lon='20.016836' />
  <node id='-171' visible='true' lat='40.5697639' lon='20.0170239' />
  <node id='-172' visible='true' lat='40.569366' lon='20.0175519' />
  <node id='-173' visible='true' lat='40.5693679' lon='20.017852' />
  <node id='-174' visible='true' lat='40.569102' lon='20.0181189' />
  <node id='-175' visible='true' lat='40.568479' lon='20.0181189' />
  <node id='-176' visible='true' lat='40.5679409' lon='20.0182129' />
  <node id='-177' visible='true' lat='40.5672119' lon='20.0180599' />
  <node id='-178' visible='true' lat='40.566915' lon='20.0181059' />
  <node id='-179' visible='true' lat='40.5666239' lon='20.018224' />
  <node id='-180' visible='true' lat='40.566231' lon='20.0185659' />
  <node id='-181' visible='true' lat='40.5656389' lon='20.0193079' />
  <node id='-182' visible='true' lat='40.565381' lon='20.0194429' />
  <node id='-183' visible='true' lat='40.565226' lon='20.0194289' />
  <node id='-184' visible='true' lat='40.56483' lon='20.019576' />
  <node id='-185' visible='true' lat='40.5640179' lon='20.020119' />
  <node id='-186' visible='true' lat='40.563096' lon='20.020565' />
  <node id='-187' visible='true' lat='40.562932' lon='20.020686' />
  <way id='-188' visible='true'>
    <nd ref='-79' />
    <nd ref='-80' />
    <nd ref='-81' />
    <nd ref='-82' />
    <nd ref='-83' />
    <nd ref='-84' />
    <nd ref='-85' />
    <nd ref='-86' />
    <nd ref='-87' />
    <nd ref='-88' />
    <nd ref='-89' />
    <nd ref='-90' />
    <nd ref='-91' />
    <nd ref='-92' />
    <nd ref='-93' />
    <nd ref='-94' />
    <nd ref='-95' />
    <nd ref='-96' />
    <nd ref='-97' />
    <nd ref='-98' />
    <nd ref='-99' />
    <nd ref='-100' />
    <nd ref='-101' />
    <nd ref='-102' />
    <nd ref='-103' />
    <nd ref='-104' />
    <nd ref='-105' />
    <nd ref='-106' />
    <nd ref='-107' />
    <nd ref='-108' />
    <nd ref='-109' />
    <nd ref='-110' />
    <nd ref='-111' />
    <nd ref='-112' />
    <nd ref='-113' />
    <nd ref='-114' />
    <nd ref='-115' />
    <nd ref='-116' />
    <nd ref='-117' />
    <nd ref='-118' />
    <nd ref='-119' />
    <nd ref='-120' />
    <nd ref='-121' />
    <nd ref='-122' />
    <nd ref='-123' />
    <nd ref='-124' />
    <nd ref='-125' />
    <nd ref='-126' />
    <nd ref='-127' />
    <nd ref='-128' />
    <nd ref='-129' />
    <nd ref='-130' />
    <nd ref='-131' />
    <nd ref='-132' />
    <nd ref='-133' />
    <nd ref='-134' />
    <nd ref='-135' />
    <nd ref='-136' />
    <nd ref='-137' />
    <nd ref='-138' />
    <nd ref='-139' />
    <nd ref='-140' />
    <nd ref='-141' />
    <nd ref='-142' />
    <nd ref='-143' />
    <nd ref='-144' />
    <nd ref='-145' />
    <nd ref='-146' />
    <nd ref='-147' />
    <nd ref='-148' />
    <nd ref='-149' />
    <nd ref='-150' />
    <nd ref='-151' />
    <nd ref='-152' />
    <nd ref='-153' />
    <nd ref='-154' />
    <nd ref='-155' />
    <nd ref='-156' />
    <nd ref='-157' />
    <nd ref='-158' />
    <nd ref='-159' />
    <nd ref='-160' />
    <nd ref='-161' />
    <nd ref='-162' />
    <nd ref='-163' />
    <nd ref='-164' />
    <nd ref='-165' />
    <nd ref='-166' />
    <nd ref='-167' />
    <nd ref='-168' />
    <nd ref='-169' />
    <nd ref='-170' />
    <nd ref='-171' />
    <nd ref='-172' />
    <nd ref='-173' />
    <nd ref='-174' />
    <nd ref='-175' />
    <nd ref='-176' />
    <nd ref='-177' />
    <nd ref='-178' />
    <nd ref='-179' />
    <nd ref='-180' />
    <nd ref='-181' />
    <nd ref='-182' />
    <nd ref='-183' />
    <nd ref='-184' />
    <nd ref='-185' />
    <nd ref='-186' />
    <nd ref='-187' />
    <tag k="OSM_ID" v="30455504"/>
  </way>
  <node id='-189' visible='true' lat='40.562932' lon='20.020686' />
  <node id='-190' visible='true' lat='40.5619609' lon='20.021739' />
  <node id='-191' visible='true' lat='40.560875' lon='20.0224' />
  <node id='-192' visible='true' lat='40.559595' lon='20.023291' />
  <node id='-193' visible='true' lat='40.5584139' lon='20.024843' />
  <node id='-194' visible='true' lat='40.5580929' lon='20.0251319' />
  <node id='-195' visible='true' lat='40.557102' lon='20.025732' />
  <node id='-196' visible='true' lat='40.5568489' lon='20.0258339' />
  <node id='-197' visible='true' lat='40.5560279' lon='20.026371' />
  <node id='-198' visible='true' lat='40.555709' lon='20.026679' />
  <node id='-199' visible='true' lat='40.5554559' lon='20.0268319' />
  <node id='-200' visible='true' lat='40.555103' lon='20.026841' />
  <node id='-201' visible='true' lat='40.5546909' lon='20.026664' />
  <node id='-202' visible='true' lat='40.554233' lon='20.0259649' />
  <node id='-203' visible='true' lat='40.5537649' lon='20.0259229' />
  <node id='-204' visible='true' lat='40.553161' lon='20.026035' />
  <node id='-205' visible='true' lat='40.5519869' lon='20.0250599' />
  <node id='-206' visible='true' lat='40.551898' lon='20.024474' />
  <node id='-207' visible='true' lat='40.552115' lon='20.024073' />
  <node id='-208' visible='true' lat='40.552103' lon='20.023603' />
  <node id='-209' visible='true' lat='40.5518039' lon='20.023447' />
  <node id='-210' visible='true' lat='40.551144' lon='20.0228' />
  <node id='-211' visible='true' lat='40.550946' lon='20.022722' />
  <node id='-212' visible='true' lat='40.5504219' lon='20.0228199' />
  <node id='-213' visible='true' lat='40.5498929' lon='20.022777' />
  <node id='-214' visible='true' lat='40.5492828' lon='20.0223176' />
  <way id='-215' visible='true'>
    <nd ref='-189' />
    <nd ref='-190' />
    <nd ref='-191' />
    <nd ref='-192' />
    <nd ref='-193' />
    <nd ref='-194' />
    <nd ref='-195' />
    <nd ref='-196' />
    <nd ref='-197' />
    <nd ref='-198' />
    <nd ref='-199' />
    <nd ref='-200' />
    <nd ref='-201' />
    <nd ref='-202' />
    <nd ref='-203' />
    <nd ref='-204' />
    <nd ref='-205' />
    <nd ref='-206' />
    <nd ref='-207' />
    <nd ref='-208' />
    <nd ref='-209' />
    <nd ref='-210' />
    <nd ref='-211' />
    <nd ref='-212' />
    <nd ref='-213' />
    <nd ref='-214' />
    <tag k="OSM_ID" v="30455509"/>
  </way>
  <node id='-216' visible='true' lat='40.5492828' lon='20.0223176' />
  <node id='-217' visible='true' lat='40.5473625' lon='20.0213302' />
  <way id='-218' visible='true'>
    <nd ref='-216' />
    <nd ref='-217' />
    <tag k="OSM_ID" v="30455514"/>
  </way>
</osm>
