<?xml version='1.0'?>
<osm version='0.5' generator='shp2osm.pl'>
  <node id='-1' visible='true' lat='40.6358413' lon='19.4613781' />
  <node id='-2' visible='true' lat='40.6338681' lon='19.4616183' />
  <way id='-3' visible='true'>
    <nd ref='-1' />
    <nd ref='-2' />
    <tag k="OSM_ID" v="27943620"/>
  </way>
</osm>
