<?xml version='1.0'?>
<osm version='0.5' generator='shp2osm.pl'>
  <node id='-1' visible='true' lat='41.3717268' lon='19.6910811' />
  <node id='-2' visible='true' lat='41.3716817' lon='19.6918363' />
  <way id='-3' visible='true'>
    <nd ref='-1' />
    <nd ref='-2' />
    <tag k="OSM_ID" v="28113155"/>
  </way>
  <node id='-4' visible='true' lat='41.3577869' lon='19.7441287' />
  <node id='-5' visible='true' lat='41.3577677' lon='19.7447839' />
  <way id='-6' visible='true'>
    <nd ref='-4' />
    <nd ref='-5' />
    <tag k="OSM_ID" v="30823834"/>
  </way>
</osm>
